{
	"root": {
		"type": "460000",
		"typeLabel": "Program",
		"pos": "295",
		"length": "752",
		"children": [
			{
				"type": "450300",
				"typeLabel": "CppTop",
				"pos": "295",
				"length": "23",
				"children": [
					{
						"type": "400200",
						"typeLabel": "Include",
						"pos": "295",
						"length": "23",
						"children": [
							{
								"type": "480000",
								"label": "<linux/init.h>",
								"typeLabel": "GenericString",
								"pos": "304",
								"length": "14",
								"children": []
							}
						]
					}
				]
			},
			{
				"type": "450300",
				"typeLabel": "CppTop",
				"pos": "319",
				"length": "24",
				"children": [
					{
						"type": "400200",
						"typeLabel": "Include",
						"pos": "319",
						"length": "24",
						"children": [
							{
								"type": "480000",
								"label": "<linux/types.h>",
								"typeLabel": "GenericString",
								"pos": "328",
								"length": "15",
								"children": []
							}
						]
					}
				]
			},
			{
				"type": "450300",
				"typeLabel": "CppTop",
				"pos": "344",
				"length": "24",
				"children": [
					{
						"type": "400200",
						"typeLabel": "Include",
						"pos": "344",
						"length": "24",
						"children": [
							{
								"type": "480000",
								"label": "<linux/errno.h>",
								"typeLabel": "GenericString",
								"pos": "353",
								"length": "15",
								"children": []
							}
						]
					}
				]
			},
			{
				"type": "450300",
				"typeLabel": "CppTop",
				"pos": "370",
				"length": "22",
				"children": [
					{
						"type": "400200",
						"typeLabel": "Include",
						"pos": "370",
						"length": "22",
						"children": [
							{
								"type": "480000",
								"label": "<asm/delay.h>",
								"typeLabel": "GenericString",
								"pos": "379",
								"length": "13",
								"children": []
							}
						]
					}
				]
			},
			{
				"type": "450300",
				"typeLabel": "CppTop",
				"pos": "394",
				"length": "39",
				"children": [
					{
						"type": "400200",
						"typeLabel": "Include",
						"pos": "394",
						"length": "39",
						"children": [
							{
								"type": "480000",
								"label": "<clocksource/arm_arch_timer.h>",
								"typeLabel": "GenericString",
								"pos": "403",
								"length": "30",
								"children": []
							}
						]
					}
				]
			},
			{
				"type": "450200",
				"typeLabel": "Definition",
				"pos": "435",
				"length": "94",
				"children": [
					{
						"type": "380000",
						"typeLabel": "Definition",
						"pos": "435",
						"length": "94",
						"children": [
							{
								"type": "340000",
								"typeLabel": "Storage",
								"pos": "435",
								"length": "6",
								"children": [
									{
										"type": "480000",
										"label": "static",
										"typeLabel": "GenericString",
										"pos": "435",
										"length": "6",
										"children": []
									}
								]
							},
							{
								"type": "200000",
								"typeLabel": "ParamList",
								"pos": "484",
								"length": "6",
								"children": [
									{
										"type": "220100",
										"typeLabel": "ParameterType",
										"pos": "485",
										"length": "4",
										"children": []
									}
								]
							},
							{
								"type": "480000",
								"label": "arch_timer_read_counter_long",
								"typeLabel": "GenericString",
								"pos": "456",
								"length": "28",
								"children": []
							},
							{
								"type": "330000",
								"typeLabel": "Compound",
								"pos": "491",
								"length": "38",
								"children": [
									{
										"type": "280200",
										"typeLabel": "ReturnExpr",
										"pos": "494",
										"length": "33",
										"children": [
											{
												"type": "240400",
												"typeLabel": "FunCall",
												"pos": "501",
												"length": "25",
												"children": [
													{
														"type": "240100",
														"typeLabel": "Ident",
														"pos": "501",
														"length": "23",
														"children": [
															{
																"type": "480000",
																"label": "arch_timer_read_counter",
																"typeLabel": "GenericString",
																"pos": "501",
																"length": "23",
																"children": []
															}
														]
													},
													{
														"type": "470000",
														"typeLabel": "GenericList",
														"pos": "524",
														"length": "2",
														"children": []
													}
												]
											}
										]
									}
								]
							}
						]
					}
				]
			},
			{
				"type": "450100",
				"typeLabel": "Declaration",
				"pos": "531",
				"length": "43",
				"children": [
					{
						"type": "350100",
						"typeLabel": "DeclList",
						"pos": "531",
						"length": "43",
						"children": [
							{
								"type": "340000",
								"typeLabel": "Storage",
								"pos": "531",
								"length": "6",
								"children": [
									{
										"type": "480000",
										"label": "static",
										"typeLabel": "GenericString",
										"pos": "531",
										"length": "6",
										"children": []
									}
								]
							},
							{
								"type": "480000",
								"label": "arch_delay_timer",
								"typeLabel": "GenericString",
								"pos": "557",
								"length": "16",
								"children": []
							}
						]
					}
				]
			},
			{
				"type": "450200",
				"typeLabel": "Definition",
				"pos": "576",
				"length": "280",
				"children": [
					{
						"type": "380000",
						"typeLabel": "Definition",
						"pos": "576",
						"length": "280",
						"children": [
							{
								"type": "340000",
								"typeLabel": "Storage",
								"pos": "576",
								"length": "6",
								"children": [
									{
										"type": "480000",
										"label": "static",
										"typeLabel": "GenericString",
										"pos": "576",
										"length": "6",
										"children": []
									}
								]
							},
							{
								"type": "200000",
								"typeLabel": "ParamList",
								"pos": "626",
								"length": "6",
								"children": [
									{
										"type": "220100",
										"typeLabel": "ParameterType",
										"pos": "627",
										"length": "4",
										"children": []
									}
								]
							},
							{
								"type": "480000",
								"label": "arch_timer_delay_timer_register",
								"typeLabel": "GenericString",
								"pos": "595",
								"length": "31",
								"children": []
							},
							{
								"type": "330000",
								"typeLabel": "Compound",
								"pos": "633",
								"length": "223",
								"children": [
									{
										"type": "260300",
										"typeLabel": "ExprStatement",
										"pos": "689",
										"length": "67",
										"children": [
											{
												"type": "290100",
												"typeLabel": "Some",
												"pos": "689",
												"length": "67",
												"children": [
													{
														"type": "240700",
														"typeLabel": "Assignment",
														"pos": "689",
														"length": "66",
														"children": [
															{
																"type": "241300",
																"typeLabel": "RecordAccess",
																"pos": "689",
																"length": "35",
																"children": [
																	{
																		"type": "240100",
																		"typeLabel": "Ident",
																		"pos": "689",
																		"length": "16",
																		"children": [
																			{
																				"type": "480000",
																				"label": "arch_delay_timer",
																				"typeLabel": "GenericString",
																				"pos": "689",
																				"length": "16",
																				"children": []
																			}
																		]
																	},
																	{
																		"type": "480000",
																		"label": "read_current_timer",
																		"typeLabel": "GenericString",
																		"pos": "706",
																		"length": "18",
																		"children": []
																	}
																]
															},
															{
																"type": "480000",
																"label": "=",
																"typeLabel": "GenericString",
																"pos": "725",
																"length": "1",
																"children": []
															},
															{
																"type": "240100",
																"typeLabel": "Ident",
																"pos": "727",
																"length": "28",
																"children": [
																	{
																		"type": "480000",
																		"label": "arch_timer_read_counter_long",
																		"typeLabel": "GenericString",
																		"pos": "727",
																		"length": "28",
																		"children": []
																	}
																]
															}
														]
													},
													{
														"type": "480000",
														"label": ";",
														"typeLabel": "GenericString",
														"pos": "755",
														"length": "1",
														"children": []
													}
												]
											}
										]
									},
									{
										"type": "260300",
										"typeLabel": "ExprStatement",
										"pos": "758",
										"length": "46",
										"children": [
											{
												"type": "290100",
												"typeLabel": "Some",
												"pos": "758",
												"length": "46",
												"children": [
													{
														"type": "240700",
														"typeLabel": "Assignment",
														"pos": "758",
														"length": "45",
														"children": [
															{
																"type": "241300",
																"typeLabel": "RecordAccess",
																"pos": "758",
																"length": "21",
																"children": [
																	{
																		"type": "240100",
																		"typeLabel": "Ident",
																		"pos": "758",
																		"length": "16",
																		"children": [
																			{
																				"type": "480000",
																				"label": "arch_delay_timer",
																				"typeLabel": "GenericString",
																				"pos": "758",
																				"length": "16",
																				"children": []
																			}
																		]
																	},
																	{
																		"type": "480000",
																		"label": "freq",
																		"typeLabel": "GenericString",
																		"pos": "775",
																		"length": "4",
																		"children": []
																	}
																]
															},
															{
																"type": "480000",
																"label": "=",
																"typeLabel": "GenericString",
																"pos": "780",
																"length": "1",
																"children": []
															},
															{
																"type": "240400",
																"typeLabel": "FunCall",
																"pos": "782",
																"length": "21",
																"children": [
																	{
																		"type": "240100",
																		"typeLabel": "Ident",
																		"pos": "782",
																		"length": "19",
																		"children": [
																			{
																				"type": "480000",
																				"label": "arch_timer_get_rate",
																				"typeLabel": "GenericString",
																				"pos": "782",
																				"length": "19",
																				"children": []
																			}
																		]
																	},
																	{
																		"type": "470000",
																		"typeLabel": "GenericList",
																		"pos": "801",
																		"length": "2",
																		"children": []
																	}
																]
															}
														]
													},
													{
														"type": "480000",
														"label": ";",
														"typeLabel": "GenericString",
														"pos": "803",
														"length": "1",
														"children": []
													}
												]
											}
										]
									},
									{
										"type": "260300",
										"typeLabel": "ExprStatement",
										"pos": "806",
										"length": "48",
										"children": [
											{
												"type": "290100",
												"typeLabel": "Some",
												"pos": "806",
												"length": "48",
												"children": [
													{
														"type": "240400",
														"typeLabel": "FunCall",
														"pos": "806",
														"length": "47",
														"children": [
															{
																"type": "240100",
																"typeLabel": "Ident",
																"pos": "806",
																"length": "28",
																"children": [
																	{
																		"type": "480000",
																		"label": "register_current_timer_delay",
																		"typeLabel": "GenericString",
																		"pos": "806",
																		"length": "28",
																		"children": []
																	}
																]
															},
															{
																"type": "470000",
																"typeLabel": "GenericList",
																"pos": "834",
																"length": "19",
																"children": [
																	{
																		"type": "20100",
																		"typeLabel": "Left",
																		"pos": "835",
																		"length": "17",
																		"children": [
																			{
																				"type": "241000",
																				"typeLabel": "Unary",
																				"pos": "835",
																				"length": "17",
																				"children": [
																					{
																						"type": "240100",
																						"typeLabel": "Ident",
																						"pos": "836",
																						"length": "16",
																						"children": [
																							{
																								"type": "480000",
																								"label": "arch_delay_timer",
																								"typeLabel": "GenericString",
																								"pos": "836",
																								"length": "16",
																								"children": []
																							}
																						]
																					},
																					{
																						"type": "480000",
																						"label": "&",
																						"typeLabel": "GenericString",
																						"pos": "835",
																						"length": "1",
																						"children": []
																					}
																				]
																			}
																		]
																	}
																]
															}
														]
													},
													{
														"type": "480000",
														"label": ";",
														"typeLabel": "GenericString",
														"pos": "853",
														"length": "1",
														"children": []
													}
												]
											}
										]
									}
								]
							}
						]
					}
				]
			},
			{
				"type": "450200",
				"typeLabel": "Definition",
				"pos": "858",
				"length": "188",
				"children": [
					{
						"type": "380000",
						"typeLabel": "Definition",
						"pos": "858",
						"length": "188",
						"children": [
							{
								"type": "200000",
								"typeLabel": "ParamList",
								"pos": "889",
								"length": "6",
								"children": [
									{
										"type": "220100",
										"typeLabel": "ParameterType",
										"pos": "890",
										"length": "4",
										"children": []
									}
								]
							},
							{
								"type": "480000",
								"label": "arch_timer_arch_init",
								"typeLabel": "GenericString",
								"pos": "869",
								"length": "20",
								"children": []
							},
							{
								"type": "330000",
								"typeLabel": "Compound",
								"pos": "896",
								"length": "150",
								"children": [
									{
										"type": "350100",
										"typeLabel": "DeclList",
										"pos": "906",
										"length": "44",
										"children": [
											{
												"type": "480000",
												"label": "arch_timer_rate",
												"typeLabel": "GenericString",
												"pos": "910",
												"length": "15",
												"children": []
											},
											{
												"type": "360100",
												"typeLabel": "InitExpr",
												"pos": "928",
												"length": "21",
												"children": [
													{
														"type": "240400",
														"typeLabel": "FunCall",
														"pos": "928",
														"length": "21",
														"children": [
															{
																"type": "240100",
																"typeLabel": "Ident",
																"pos": "928",
																"length": "19",
																"children": [
																	{
																		"type": "480000",
																		"label": "arch_timer_get_rate",
																		"typeLabel": "GenericString",
																		"pos": "928",
																		"length": "19",
																		"children": []
																	}
																]
															},
															{
																"type": "470000",
																"typeLabel": "GenericList",
																"pos": "947",
																"length": "2",
																"children": []
															}
														]
													}
												]
											}
										]
									},
									{
										"type": "300100",
										"typeLabel": "If",
										"pos": "953",
										"length": "42",
										"children": [
											{
												"type": "490100",
												"typeLabel": "IfToken",
												"pos": "953",
												"length": "2",
												"children": []
											},
											{
												"type": "241100",
												"typeLabel": "Binary",
												"pos": "957",
												"length": "20",
												"children": [
													{
														"type": "240100",
														"typeLabel": "Ident",
														"pos": "957",
														"length": "15",
														"children": [
															{
																"type": "480000",
																"label": "arch_timer_rate",
																"typeLabel": "GenericString",
																"pos": "957",
																"length": "15",
																"children": []
															}
														]
													},
													{
														"type": "480000",
														"label": "==",
														"typeLabel": "GenericString",
														"pos": "973",
														"length": "2",
														"children": []
													},
													{
														"type": "240200",
														"label": "0",
														"typeLabel": "Constant",
														"pos": "976",
														"length": "1",
														"children": []
													}
												]
											},
											{
												"type": "280200",
												"typeLabel": "ReturnExpr",
												"pos": "981",
												"length": "14",
												"children": [
													{
														"type": "241000",
														"typeLabel": "Unary",
														"pos": "988",
														"length": "6",
														"children": [
															{
																"type": "240100",
																"typeLabel": "Ident",
																"pos": "989",
																"length": "5",
																"children": [
																	{
																		"type": "480000",
																		"label": "ENXIO",
																		"typeLabel": "GenericString",
																		"pos": "989",
																		"length": "5",
																		"children": []
																	}
																]
															},
															{
																"type": "480000",
																"label": "-",
																"typeLabel": "GenericString",
																"pos": "988",
																"length": "1",
																"children": []
															}
														]
													}
												]
											}
										]
									},
									{
										"type": "260300",
										"typeLabel": "ExprStatement",
										"pos": "998",
										"length": "34",
										"children": [
											{
												"type": "290100",
												"typeLabel": "Some",
												"pos": "998",
												"length": "34",
												"children": [
													{
														"type": "240400",
														"typeLabel": "FunCall",
														"pos": "998",
														"length": "33",
														"children": [
															{
																"type": "240100",
																"typeLabel": "Ident",
																"pos": "998",
																"length": "31",
																"children": [
																	{
																		"type": "480000",
																		"label": "arch_timer_delay_timer_register",
																		"typeLabel": "GenericString",
																		"pos": "998",
																		"length": "31",
																		"children": []
																	}
																]
															},
															{
																"type": "470000",
																"typeLabel": "GenericList",
																"pos": "1029",
																"length": "2",
																"children": []
															}
														]
													},
													{
														"type": "480000",
														"label": ";",
														"typeLabel": "GenericString",
														"pos": "1031",
														"length": "1",
														"children": []
													}
												]
											}
										]
									},
									{
										"type": "280200",
										"typeLabel": "ReturnExpr",
										"pos": "1035",
										"length": "9",
										"children": [
											{
												"type": "240200",
												"label": "0",
												"typeLabel": "Constant",
												"pos": "1042",
												"length": "1",
												"children": []
											}
										]
									}
								]
							}
						]
					}
				]
			},
			{
				"type": "450800",
				"typeLabel": "FinalDef",
				"pos": "1047",
				"length": "0",
				"children": []
			}
		]
	}
}