{
	"root": {
		"type": "460000",
		"typeLabel": "Program",
		"pos": "0",
		"length": "1251",
		"children": [
			{
				"type": "450300",
				"typeLabel": "CppTop",
				"pos": "0",
				"length": "18",
				"children": [
					{
						"type": "400200",
						"typeLabel": "Include",
						"pos": "0",
						"length": "18",
						"children": [
							{
								"type": "480000",
								"label": "\"cache.h\"",
								"typeLabel": "GenericString",
								"pos": "9",
								"length": "9",
								"children": []
							}
						]
					}
				]
			},
			{
				"type": "450300",
				"typeLabel": "CppTop",
				"pos": "19",
				"length": "17",
				"children": [
					{
						"type": "400200",
						"typeLabel": "Include",
						"pos": "19",
						"length": "17",
						"children": [
							{
								"type": "480000",
								"label": "\"diff.h\"",
								"typeLabel": "GenericString",
								"pos": "28",
								"length": "8",
								"children": []
							}
						]
					}
				]
			},
			{
				"type": "450300",
				"typeLabel": "CppTop",
				"pos": "37",
				"length": "19",
				"children": [
					{
						"type": "400200",
						"typeLabel": "Include",
						"pos": "37",
						"length": "19",
						"children": [
							{
								"type": "480000",
								"label": "\"commit.h\"",
								"typeLabel": "GenericString",
								"pos": "46",
								"length": "10",
								"children": []
							}
						]
					}
				]
			},
			{
				"type": "450300",
				"typeLabel": "CppTop",
				"pos": "57",
				"length": "21",
				"children": [
					{
						"type": "400200",
						"typeLabel": "Include",
						"pos": "57",
						"length": "21",
						"children": [
							{
								"type": "480000",
								"label": "\"revision.h\"",
								"typeLabel": "GenericString",
								"pos": "66",
								"length": "12",
								"children": []
							}
						]
					}
				]
			},
			{
				"type": "450300",
				"typeLabel": "CppTop",
				"pos": "79",
				"length": "20",
				"children": [
					{
						"type": "400200",
						"typeLabel": "Include",
						"pos": "79",
						"length": "20",
						"children": [
							{
								"type": "480000",
								"label": "\"builtin.h\"",
								"typeLabel": "GenericString",
								"pos": "88",
								"length": "11",
								"children": []
							}
						]
					}
				]
			},
			{
				"type": "450300",
				"typeLabel": "CppTop",
				"pos": "100",
				"length": "22",
				"children": [
					{
						"type": "400200",
						"typeLabel": "Include",
						"pos": "100",
						"length": "22",
						"children": [
							{
								"type": "480000",
								"label": "\"submodule.h\"",
								"typeLabel": "GenericString",
								"pos": "109",
								"length": "13",
								"children": []
							}
						]
					}
				]
			},
			{
				"type": "450100",
				"typeLabel": "Declaration",
				"pos": "124",
				"length": "147",
				"children": [
					{
						"type": "350100",
						"typeLabel": "DeclList",
						"pos": "124",
						"length": "147",
						"children": [
							{
								"type": "340000",
								"typeLabel": "Storage",
								"pos": "124",
								"length": "6",
								"children": [
									{
										"type": "480000",
										"label": "static",
										"typeLabel": "GenericString",
										"pos": "124",
										"length": "6",
										"children": []
									}
								]
							},
							{
								"type": "480000",
								"label": "diff_cache_usage",
								"typeLabel": "GenericString",
								"pos": "142",
								"length": "16",
								"children": []
							},
							{
								"type": "360100",
								"typeLabel": "InitExpr",
								"pos": "163",
								"length": "107",
								"children": [
									{
										"type": "240200",
										"label": "\"git diff-index [-m] [--cached] \"\"[<common diff options>] <tree-ish> [<path>...]\"COMMON_DIFF_OPTIONS_HELP",
										"typeLabel": "Constant",
										"pos": "163",
										"length": "107",
										"children": []
									}
								]
							}
						]
					}
				]
			},
			{
				"type": "450200",
				"typeLabel": "Definition",
				"pos": "273",
				"length": "977",
				"children": [
					{
						"type": "380000",
						"typeLabel": "Definition",
						"pos": "273",
						"length": "977",
						"children": [
							{
								"type": "200000",
								"typeLabel": "ParamList",
								"pos": "291",
								"length": "49",
								"children": [
									{
										"type": "220100",
										"typeLabel": "ParameterType",
										"pos": "292",
										"length": "8",
										"children": [
											{
												"type": "480000",
												"label": "argc",
												"typeLabel": "GenericString",
												"pos": "296",
												"length": "4",
												"children": []
											}
										]
									},
									{
										"type": "220100",
										"typeLabel": "ParameterType",
										"pos": "302",
										"length": "17",
										"children": [
											{
												"type": "480000",
												"label": "argv",
												"typeLabel": "GenericString",
												"pos": "315",
												"length": "4",
												"children": []
											}
										]
									},
									{
										"type": "220100",
										"typeLabel": "ParameterType",
										"pos": "321",
										"length": "18",
										"children": [
											{
												"type": "480000",
												"label": "prefix",
												"typeLabel": "GenericString",
												"pos": "333",
												"length": "6",
												"children": []
											}
										]
									}
								]
							},
							{
								"type": "480000",
								"label": "cmd_diff_index",
								"typeLabel": "GenericString",
								"pos": "277",
								"length": "14",
								"children": []
							},
							{
								"type": "330000",
								"typeLabel": "Compound",
								"pos": "341",
								"length": "909",
								"children": [
									{
										"type": "350100",
										"typeLabel": "DeclList",
										"pos": "344",
										"length": "20",
										"children": [
											{
												"type": "480000",
												"label": "rev",
												"typeLabel": "GenericString",
												"pos": "360",
												"length": "3",
												"children": []
											}
										]
									},
									{
										"type": "350100",
										"typeLabel": "DeclList",
										"pos": "366",
										"length": "15",
										"children": [
											{
												"type": "480000",
												"label": "cached",
												"typeLabel": "GenericString",
												"pos": "370",
												"length": "6",
												"children": []
											},
											{
												"type": "360100",
												"typeLabel": "InitExpr",
												"pos": "379",
												"length": "1",
												"children": [
													{
														"type": "240200",
														"label": "0",
														"typeLabel": "Constant",
														"pos": "379",
														"length": "1",
														"children": []
													}
												]
											}
										]
									},
									{
										"type": "350100",
										"typeLabel": "DeclList",
										"pos": "383",
										"length": "6",
										"children": [
											{
												"type": "480000",
												"label": "i",
												"typeLabel": "GenericString",
												"pos": "387",
												"length": "1",
												"children": []
											}
										]
									},
									{
										"type": "350100",
										"typeLabel": "DeclList",
										"pos": "391",
										"length": "11",
										"children": [
											{
												"type": "480000",
												"label": "result",
												"typeLabel": "GenericString",
												"pos": "395",
												"length": "6",
												"children": []
											}
										]
									},
									{
										"type": "260300",
										"typeLabel": "ExprStatement",
										"pos": "405",
										"length": "29",
										"children": [
											{
												"type": "290100",
												"typeLabel": "Some",
												"pos": "405",
												"length": "29",
												"children": [
													{
														"type": "240400",
														"typeLabel": "FunCall",
														"pos": "405",
														"length": "28",
														"children": [
															{
																"type": "240100",
																"typeLabel": "Ident",
																"pos": "405",
																"length": "14",
																"children": [
																	{
																		"type": "480000",
																		"label": "init_revisions",
																		"typeLabel": "GenericString",
																		"pos": "405",
																		"length": "14",
																		"children": []
																	}
																]
															},
															{
																"type": "470000",
																"typeLabel": "GenericList",
																"pos": "419",
																"length": "14",
																"children": [
																	{
																		"type": "20100",
																		"typeLabel": "Left",
																		"pos": "420",
																		"length": "4",
																		"children": [
																			{
																				"type": "241000",
																				"typeLabel": "Unary",
																				"pos": "420",
																				"length": "4",
																				"children": [
																					{
																						"type": "240100",
																						"typeLabel": "Ident",
																						"pos": "421",
																						"length": "3",
																						"children": [
																							{
																								"type": "480000",
																								"label": "rev",
																								"typeLabel": "GenericString",
																								"pos": "421",
																								"length": "3",
																								"children": []
																							}
																						]
																					},
																					{
																						"type": "480000",
																						"label": "&",
																						"typeLabel": "GenericString",
																						"pos": "420",
																						"length": "1",
																						"children": []
																					}
																				]
																			}
																		]
																	},
																	{
																		"type": "20100",
																		"typeLabel": "Left",
																		"pos": "426",
																		"length": "6",
																		"children": [
																			{
																				"type": "240100",
																				"typeLabel": "Ident",
																				"pos": "426",
																				"length": "6",
																				"children": [
																					{
																						"type": "480000",
																						"label": "prefix",
																						"typeLabel": "GenericString",
																						"pos": "426",
																						"length": "6",
																						"children": []
																					}
																				]
																			}
																		]
																	}
																]
															}
														]
													},
													{
														"type": "480000",
														"label": ";",
														"typeLabel": "GenericString",
														"pos": "433",
														"length": "1",
														"children": []
													}
												]
											}
										]
									},
									{
										"type": "260300",
										"typeLabel": "ExprStatement",
										"pos": "436",
										"length": "20",
										"children": [
											{
												"type": "290100",
												"typeLabel": "Some",
												"pos": "436",
												"length": "20",
												"children": [
													{
														"type": "240400",
														"typeLabel": "FunCall",
														"pos": "436",
														"length": "19",
														"children": [
															{
																"type": "240100",
																"typeLabel": "Ident",
																"pos": "436",
																"length": "17",
																"children": [
																	{
																		"type": "480000",
																		"label": "gitmodules_config",
																		"typeLabel": "GenericString",
																		"pos": "436",
																		"length": "17",
																		"children": []
																	}
																]
															},
															{
																"type": "470000",
																"typeLabel": "GenericList",
																"pos": "453",
																"length": "2",
																"children": []
															}
														]
													},
													{
														"type": "480000",
														"label": ";",
														"typeLabel": "GenericString",
														"pos": "455",
														"length": "1",
														"children": []
													}
												]
											}
										]
									},
									{
										"type": "260300",
										"typeLabel": "ExprStatement",
										"pos": "458",
										"length": "40",
										"children": [
											{
												"type": "290100",
												"typeLabel": "Some",
												"pos": "458",
												"length": "40",
												"children": [
													{
														"type": "240400",
														"typeLabel": "FunCall",
														"pos": "458",
														"length": "39",
														"children": [
															{
																"type": "240100",
																"typeLabel": "Ident",
																"pos": "458",
																"length": "10",
																"children": [
																	{
																		"type": "480000",
																		"label": "git_config",
																		"typeLabel": "GenericString",
																		"pos": "458",
																		"length": "10",
																		"children": []
																	}
																]
															},
															{
																"type": "470000",
																"typeLabel": "GenericList",
																"pos": "468",
																"length": "29",
																"children": [
																	{
																		"type": "20100",
																		"typeLabel": "Left",
																		"pos": "469",
																		"length": "21",
																		"children": [
																			{
																				"type": "240100",
																				"typeLabel": "Ident",
																				"pos": "469",
																				"length": "21",
																				"children": [
																					{
																						"type": "480000",
																						"label": "git_diff_basic_config",
																						"typeLabel": "GenericString",
																						"pos": "469",
																						"length": "21",
																						"children": []
																					}
																				]
																			}
																		]
																	},
																	{
																		"type": "20100",
																		"typeLabel": "Left",
																		"pos": "492",
																		"length": "4",
																		"children": [
																			{
																				"type": "240100",
																				"typeLabel": "Ident",
																				"pos": "492",
																				"length": "4",
																				"children": [
																					{
																						"type": "480000",
																						"label": "NULL",
																						"typeLabel": "GenericString",
																						"pos": "492",
																						"length": "4",
																						"children": []
																					}
																				]
																			}
																		]
																	}
																]
															}
														]
													},
													{
														"type": "480000",
														"label": ";",
														"typeLabel": "GenericString",
														"pos": "497",
														"length": "1",
														"children": []
													}
												]
											}
										]
									},
									{
										"type": "260300",
										"typeLabel": "ExprStatement",
										"pos": "527",
										"length": "15",
										"children": [
											{
												"type": "290100",
												"typeLabel": "Some",
												"pos": "527",
												"length": "15",
												"children": [
													{
														"type": "240700",
														"typeLabel": "Assignment",
														"pos": "527",
														"length": "14",
														"children": [
															{
																"type": "241300",
																"typeLabel": "RecordAccess",
																"pos": "527",
																"length": "10",
																"children": [
																	{
																		"type": "240100",
																		"typeLabel": "Ident",
																		"pos": "527",
																		"length": "3",
																		"children": [
																			{
																				"type": "480000",
																				"label": "rev",
																				"typeLabel": "GenericString",
																				"pos": "527",
																				"length": "3",
																				"children": []
																			}
																		]
																	},
																	{
																		"type": "480000",
																		"label": "abbrev",
																		"typeLabel": "GenericString",
																		"pos": "531",
																		"length": "6",
																		"children": []
																	}
																]
															},
															{
																"type": "480000",
																"label": "=",
																"typeLabel": "GenericString",
																"pos": "538",
																"length": "1",
																"children": []
															},
															{
																"type": "240200",
																"label": "0",
																"typeLabel": "Constant",
																"pos": "540",
																"length": "1",
																"children": []
															}
														]
													},
													{
														"type": "480000",
														"label": ";",
														"typeLabel": "GenericString",
														"pos": "541",
														"length": "1",
														"children": []
													}
												]
											}
										]
									},
									{
										"type": "260300",
										"typeLabel": "ExprStatement",
										"pos": "545",
										"length": "47",
										"children": [
											{
												"type": "290100",
												"typeLabel": "Some",
												"pos": "545",
												"length": "47",
												"children": [
													{
														"type": "240700",
														"typeLabel": "Assignment",
														"pos": "545",
														"length": "46",
														"children": [
															{
																"type": "240100",
																"typeLabel": "Ident",
																"pos": "545",
																"length": "4",
																"children": [
																	{
																		"type": "480000",
																		"label": "argc",
																		"typeLabel": "GenericString",
																		"pos": "545",
																		"length": "4",
																		"children": []
																	}
																]
															},
															{
																"type": "480000",
																"label": "=",
																"typeLabel": "GenericString",
																"pos": "550",
																"length": "1",
																"children": []
															},
															{
																"type": "240400",
																"typeLabel": "FunCall",
																"pos": "552",
																"length": "39",
																"children": [
																	{
																		"type": "240100",
																		"typeLabel": "Ident",
																		"pos": "552",
																		"length": "15",
																		"children": [
																			{
																				"type": "480000",
																				"label": "setup_revisions",
																				"typeLabel": "GenericString",
																				"pos": "552",
																				"length": "15",
																				"children": []
																			}
																		]
																	},
																	{
																		"type": "470000",
																		"typeLabel": "GenericList",
																		"pos": "567",
																		"length": "24",
																		"children": [
																			{
																				"type": "20100",
																				"typeLabel": "Left",
																				"pos": "568",
																				"length": "4",
																				"children": [
																					{
																						"type": "240100",
																						"typeLabel": "Ident",
																						"pos": "568",
																						"length": "4",
																						"children": [
																							{
																								"type": "480000",
																								"label": "argc",
																								"typeLabel": "GenericString",
																								"pos": "568",
																								"length": "4",
																								"children": []
																							}
																						]
																					}
																				]
																			},
																			{
																				"type": "20100",
																				"typeLabel": "Left",
																				"pos": "574",
																				"length": "4",
																				"children": [
																					{
																						"type": "240100",
																						"typeLabel": "Ident",
																						"pos": "574",
																						"length": "4",
																						"children": [
																							{
																								"type": "480000",
																								"label": "argv",
																								"typeLabel": "GenericString",
																								"pos": "574",
																								"length": "4",
																								"children": []
																							}
																						]
																					}
																				]
																			},
																			{
																				"type": "20100",
																				"typeLabel": "Left",
																				"pos": "580",
																				"length": "4",
																				"children": [
																					{
																						"type": "241000",
																						"typeLabel": "Unary",
																						"pos": "580",
																						"length": "4",
																						"children": [
																							{
																								"type": "240100",
																								"typeLabel": "Ident",
																								"pos": "581",
																								"length": "3",
																								"children": [
																									{
																										"type": "480000",
																										"label": "rev",
																										"typeLabel": "GenericString",
																										"pos": "581",
																										"length": "3",
																										"children": []
																									}
																								]
																							},
																							{
																								"type": "480000",
																								"label": "&",
																								"typeLabel": "GenericString",
																								"pos": "580",
																								"length": "1",
																								"children": []
																							}
																						]
																					}
																				]
																			},
																			{
																				"type": "20100",
																				"typeLabel": "Left",
																				"pos": "586",
																				"length": "4",
																				"children": [
																					{
																						"type": "240100",
																						"typeLabel": "Ident",
																						"pos": "586",
																						"length": "4",
																						"children": [
																							{
																								"type": "480000",
																								"label": "NULL",
																								"typeLabel": "GenericString",
																								"pos": "586",
																								"length": "4",
																								"children": []
																							}
																						]
																					}
																				]
																			}
																		]
																	}
																]
															}
														]
													},
													{
														"type": "480000",
														"label": ";",
														"typeLabel": "GenericString",
														"pos": "591",
														"length": "1",
														"children": []
													}
												]
											}
										]
									},
									{
										"type": "310300",
										"typeLabel": "For",
										"pos": "594",
										"length": "143",
										"children": [
											{
												"type": "260300",
												"typeLabel": "ExprStatement",
												"pos": "599",
												"length": "6",
												"children": [
													{
														"type": "290100",
														"typeLabel": "Some",
														"pos": "599",
														"length": "6",
														"children": [
															{
																"type": "240700",
																"typeLabel": "Assignment",
																"pos": "599",
																"length": "5",
																"children": [
																	{
																		"type": "240100",
																		"typeLabel": "Ident",
																		"pos": "599",
																		"length": "1",
																		"children": [
																			{
																				"type": "480000",
																				"label": "i",
																				"typeLabel": "GenericString",
																				"pos": "599",
																				"length": "1",
																				"children": []
																			}
																		]
																	},
																	{
																		"type": "480000",
																		"label": "=",
																		"typeLabel": "GenericString",
																		"pos": "601",
																		"length": "1",
																		"children": []
																	},
																	{
																		"type": "240200",
																		"label": "1",
																		"typeLabel": "Constant",
																		"pos": "603",
																		"length": "1",
																		"children": []
																	}
																]
															},
															{
																"type": "480000",
																"label": ";",
																"typeLabel": "GenericString",
																"pos": "604",
																"length": "1",
																"children": []
															}
														]
													}
												]
											},
											{
												"type": "260300",
												"typeLabel": "ExprStatement",
												"pos": "606",
												"length": "9",
												"children": [
													{
														"type": "290100",
														"typeLabel": "Some",
														"pos": "606",
														"length": "9",
														"children": [
															{
																"type": "241100",
																"typeLabel": "Binary",
																"pos": "606",
																"length": "8",
																"children": [
																	{
																		"type": "240100",
																		"typeLabel": "Ident",
																		"pos": "606",
																		"length": "1",
																		"children": [
																			{
																				"type": "480000",
																				"label": "i",
																				"typeLabel": "GenericString",
																				"pos": "606",
																				"length": "1",
																				"children": []
																			}
																		]
																	},
																	{
																		"type": "480000",
																		"label": "<",
																		"typeLabel": "GenericString",
																		"pos": "608",
																		"length": "1",
																		"children": []
																	},
																	{
																		"type": "240100",
																		"typeLabel": "Ident",
																		"pos": "610",
																		"length": "4",
																		"children": [
																			{
																				"type": "480000",
																				"label": "argc",
																				"typeLabel": "GenericString",
																				"pos": "610",
																				"length": "4",
																				"children": []
																			}
																		]
																	}
																]
															},
															{
																"type": "480000",
																"label": ";",
																"typeLabel": "GenericString",
																"pos": "614",
																"length": "1",
																"children": []
															}
														]
													}
												]
											},
											{
												"type": "260300",
												"typeLabel": "ExprStatement",
												"pos": "616",
												"length": "3",
												"children": [
													{
														"type": "290100",
														"typeLabel": "Some",
														"pos": "616",
														"length": "3",
														"children": [
															{
																"type": "240800",
																"typeLabel": "Postfix",
																"pos": "616",
																"length": "3",
																"children": [
																	{
																		"type": "240100",
																		"typeLabel": "Ident",
																		"pos": "616",
																		"length": "1",
																		"children": [
																			{
																				"type": "480000",
																				"label": "i",
																				"typeLabel": "GenericString",
																				"pos": "616",
																				"length": "1",
																				"children": []
																			}
																		]
																	},
																	{
																		"type": "480000",
																		"label": "++",
																		"typeLabel": "GenericString",
																		"pos": "617",
																		"length": "2",
																		"children": []
																	}
																]
															}
														]
													}
												]
											},
											{
												"type": "330000",
												"typeLabel": "Compound",
												"pos": "621",
												"length": "116",
												"children": [
													{
														"type": "350100",
														"typeLabel": "DeclList",
														"pos": "625",
														"length": "26",
														"children": [
															{
																"type": "480000",
																"label": "arg",
																"typeLabel": "GenericString",
																"pos": "637",
																"length": "3",
																"children": []
															},
															{
																"type": "360100",
																"typeLabel": "InitExpr",
																"pos": "643",
																"length": "7",
																"children": [
																	{
																		"type": "241200",
																		"typeLabel": "ArrayAccess",
																		"pos": "643",
																		"length": "7",
																		"children": [
																			{
																				"type": "240100",
																				"typeLabel": "Ident",
																				"pos": "643",
																				"length": "4",
																				"children": [
																					{
																						"type": "480000",
																						"label": "argv",
																						"typeLabel": "GenericString",
																						"pos": "643",
																						"length": "4",
																						"children": []
																					}
																				]
																			},
																			{
																				"type": "240100",
																				"typeLabel": "Ident",
																				"pos": "648",
																				"length": "1",
																				"children": [
																					{
																						"type": "480000",
																						"label": "i",
																						"typeLabel": "GenericString",
																						"pos": "648",
																						"length": "1",
																						"children": []
																					}
																				]
																			}
																		]
																	}
																]
															}
														]
													},
													{
														"type": "300100",
														"typeLabel": "If",
														"pos": "655",
														"length": "79",
														"children": [
															{
																"type": "490100",
																"typeLabel": "IfToken",
																"pos": "655",
																"length": "2",
																"children": []
															},
															{
																"type": "241000",
																"typeLabel": "Unary",
																"pos": "659",
																"length": "24",
																"children": [
																	{
																		"type": "240400",
																		"typeLabel": "FunCall",
																		"pos": "660",
																		"length": "23",
																		"children": [
																			{
																				"type": "240100",
																				"typeLabel": "Ident",
																				"pos": "660",
																				"length": "6",
																				"children": [
																					{
																						"type": "480000",
																						"label": "strcmp",
																						"typeLabel": "GenericString",
																						"pos": "660",
																						"length": "6",
																						"children": []
																					}
																				]
																			},
																			{
																				"type": "470000",
																				"typeLabel": "GenericList",
																				"pos": "666",
																				"length": "17",
																				"children": [
																					{
																						"type": "20100",
																						"typeLabel": "Left",
																						"pos": "667",
																						"length": "3",
																						"children": [
																							{
																								"type": "240100",
																								"typeLabel": "Ident",
																								"pos": "667",
																								"length": "3",
																								"children": [
																									{
																										"type": "480000",
																										"label": "arg",
																										"typeLabel": "GenericString",
																										"pos": "667",
																										"length": "3",
																										"children": []
																									}
																								]
																							}
																						]
																					},
																					{
																						"type": "20100",
																						"typeLabel": "Left",
																						"pos": "672",
																						"length": "10",
																						"children": [
																							{
																								"type": "240200",
																								"label": "\"--cached\"",
																								"typeLabel": "Constant",
																								"pos": "672",
																								"length": "10",
																								"children": []
																							}
																						]
																					}
																				]
																			}
																		]
																	},
																	{
																		"type": "480000",
																		"label": "!",
																		"typeLabel": "GenericString",
																		"pos": "659",
																		"length": "1",
																		"children": []
																	}
																]
															},
															{
																"type": "260300",
																"typeLabel": "ExprStatement",
																"pos": "688",
																"length": "11",
																"children": [
																	{
																		"type": "290100",
																		"typeLabel": "Some",
																		"pos": "688",
																		"length": "11",
																		"children": [
																			{
																				"type": "240700",
																				"typeLabel": "Assignment",
																				"pos": "688",
																				"length": "10",
																				"children": [
																					{
																						"type": "240100",
																						"typeLabel": "Ident",
																						"pos": "688",
																						"length": "6",
																						"children": [
																							{
																								"type": "480000",
																								"label": "cached",
																								"typeLabel": "GenericString",
																								"pos": "688",
																								"length": "6",
																								"children": []
																							}
																						]
																					},
																					{
																						"type": "480000",
																						"label": "=",
																						"typeLabel": "GenericString",
																						"pos": "695",
																						"length": "1",
																						"children": []
																					},
																					{
																						"type": "240200",
																						"label": "1",
																						"typeLabel": "Constant",
																						"pos": "697",
																						"length": "1",
																						"children": []
																					}
																				]
																			},
																			{
																				"type": "480000",
																				"label": ";",
																				"typeLabel": "GenericString",
																				"pos": "698",
																				"length": "1",
																				"children": []
																			}
																		]
																	}
																]
															},
															{
																"type": "260300",
																"typeLabel": "ExprStatement",
																"pos": "710",
																"length": "24",
																"children": [
																	{
																		"type": "290100",
																		"typeLabel": "Some",
																		"pos": "710",
																		"length": "24",
																		"children": [
																			{
																				"type": "240400",
																				"typeLabel": "FunCall",
																				"pos": "710",
																				"length": "23",
																				"children": [
																					{
																						"type": "240100",
																						"typeLabel": "Ident",
																						"pos": "710",
																						"length": "5",
																						"children": [
																							{
																								"type": "480000",
																								"label": "usage",
																								"typeLabel": "GenericString",
																								"pos": "710",
																								"length": "5",
																								"children": []
																							}
																						]
																					},
																					{
																						"type": "470000",
																						"typeLabel": "GenericList",
																						"pos": "715",
																						"length": "18",
																						"children": [
																							{
																								"type": "20100",
																								"typeLabel": "Left",
																								"pos": "716",
																								"length": "16",
																								"children": [
																									{
																										"type": "240100",
																										"typeLabel": "Ident",
																										"pos": "716",
																										"length": "16",
																										"children": [
																											{
																												"type": "480000",
																												"label": "diff_cache_usage",
																												"typeLabel": "GenericString",
																												"pos": "716",
																												"length": "16",
																												"children": []
																											}
																										]
																									}
																								]
																							}
																						]
																					}
																				]
																			},
																			{
																				"type": "480000",
																				"label": ";",
																				"typeLabel": "GenericString",
																				"pos": "733",
																				"length": "1",
																				"children": []
																			}
																		]
																	}
																]
															}
														]
													}
												]
											}
										]
									},
									{
										"type": "300100",
										"typeLabel": "If",
										"pos": "739",
										"length": "78",
										"children": [
											{
												"type": "490100",
												"typeLabel": "IfToken",
												"pos": "739",
												"length": "2",
												"children": []
											},
											{
												"type": "241000",
												"typeLabel": "Unary",
												"pos": "743",
												"length": "26",
												"children": [
													{
														"type": "241300",
														"typeLabel": "RecordAccess",
														"pos": "744",
														"length": "25",
														"children": [
															{
																"type": "241300",
																"typeLabel": "RecordAccess",
																"pos": "744",
																"length": "11",
																"children": [
																	{
																		"type": "240100",
																		"typeLabel": "Ident",
																		"pos": "744",
																		"length": "3",
																		"children": [
																			{
																				"type": "480000",
																				"label": "rev",
																				"typeLabel": "GenericString",
																				"pos": "744",
																				"length": "3",
																				"children": []
																			}
																		]
																	},
																	{
																		"type": "480000",
																		"label": "diffopt",
																		"typeLabel": "GenericString",
																		"pos": "748",
																		"length": "7",
																		"children": []
																	}
																]
															},
															{
																"type": "480000",
																"label": "output_format",
																"typeLabel": "GenericString",
																"pos": "756",
																"length": "13",
																"children": []
															}
														]
													},
													{
														"type": "480000",
														"label": "!",
														"typeLabel": "GenericString",
														"pos": "743",
														"length": "1",
														"children": []
													}
												]
											},
											{
												"type": "260300",
												"typeLabel": "ExprStatement",
												"pos": "773",
												"length": "44",
												"children": [
													{
														"type": "290100",
														"typeLabel": "Some",
														"pos": "773",
														"length": "44",
														"children": [
															{
																"type": "240700",
																"typeLabel": "Assignment",
																"pos": "773",
																"length": "43",
																"children": [
																	{
																		"type": "241300",
																		"typeLabel": "RecordAccess",
																		"pos": "773",
																		"length": "25",
																		"children": [
																			{
																				"type": "241300",
																				"typeLabel": "RecordAccess",
																				"pos": "773",
																				"length": "11",
																				"children": [
																					{
																						"type": "240100",
																						"typeLabel": "Ident",
																						"pos": "773",
																						"length": "3",
																						"children": [
																							{
																								"type": "480000",
																								"label": "rev",
																								"typeLabel": "GenericString",
																								"pos": "773",
																								"length": "3",
																								"children": []
																							}
																						]
																					},
																					{
																						"type": "480000",
																						"label": "diffopt",
																						"typeLabel": "GenericString",
																						"pos": "777",
																						"length": "7",
																						"children": []
																					}
																				]
																			},
																			{
																				"type": "480000",
																				"label": "output_format",
																				"typeLabel": "GenericString",
																				"pos": "785",
																				"length": "13",
																				"children": []
																			}
																		]
																	},
																	{
																		"type": "480000",
																		"label": "=",
																		"typeLabel": "GenericString",
																		"pos": "799",
																		"length": "1",
																		"children": []
																	},
																	{
																		"type": "240100",
																		"typeLabel": "Ident",
																		"pos": "801",
																		"length": "15",
																		"children": [
																			{
																				"type": "480000",
																				"label": "DIFF_FORMAT_RAW",
																				"typeLabel": "GenericString",
																				"pos": "801",
																				"length": "15",
																				"children": []
																			}
																		]
																	}
																]
															},
															{
																"type": "480000",
																"label": ";",
																"typeLabel": "GenericString",
																"pos": "816",
																"length": "1",
																"children": []
															}
														]
													}
												]
											}
										]
									},
									{
										"type": "300100",
										"typeLabel": "If",
										"pos": "939",
										"length": "121",
										"children": [
											{
												"type": "490100",
												"typeLabel": "IfToken",
												"pos": "939",
												"length": "2",
												"children": []
											},
											{
												"type": "241100",
												"typeLabel": "Binary",
												"pos": "943",
												"length": "89",
												"children": [
													{
														"type": "241100",
														"typeLabel": "Binary",
														"pos": "943",
														"length": "68",
														"children": [
															{
																"type": "241100",
																"typeLabel": "Binary",
																"pos": "943",
																"length": "47",
																"children": [
																	{
																		"type": "241100",
																		"typeLabel": "Binary",
																		"pos": "943",
																		"length": "19",
																		"children": [
																			{
																				"type": "241300",
																				"typeLabel": "RecordAccess",
																				"pos": "943",
																				"length": "14",
																				"children": [
																					{
																						"type": "241300",
																						"typeLabel": "RecordAccess",
																						"pos": "943",
																						"length": "11",
																						"children": [
																							{
																								"type": "240100",
																								"typeLabel": "Ident",
																								"pos": "943",
																								"length": "3",
																								"children": [
																									{
																										"type": "480000",
																										"label": "rev",
																										"typeLabel": "GenericString",
																										"pos": "943",
																										"length": "3",
																										"children": []
																									}
																								]
																							},
																							{
																								"type": "480000",
																								"label": "pending",
																								"typeLabel": "GenericString",
																								"pos": "947",
																								"length": "7",
																								"children": []
																							}
																						]
																					},
																					{
																						"type": "480000",
																						"label": "nr",
																						"typeLabel": "GenericString",
																						"pos": "955",
																						"length": "2",
																						"children": []
																					}
																				]
																			},
																			{
																				"type": "480000",
																				"label": "!=",
																				"typeLabel": "GenericString",
																				"pos": "958",
																				"length": "2",
																				"children": []
																			},
																			{
																				"type": "240200",
																				"label": "1",
																				"typeLabel": "Constant",
																				"pos": "961",
																				"length": "1",
																				"children": []
																			}
																		]
																	},
																	{
																		"type": "480000",
																		"label": "||",
																		"typeLabel": "GenericString",
																		"pos": "963",
																		"length": "2",
																		"children": []
																	},
																	{
																		"type": "241100",
																		"typeLabel": "Binary",
																		"pos": "971",
																		"length": "19",
																		"children": [
																			{
																				"type": "241300",
																				"typeLabel": "RecordAccess",
																				"pos": "971",
																				"length": "13",
																				"children": [
																					{
																						"type": "240100",
																						"typeLabel": "Ident",
																						"pos": "971",
																						"length": "3",
																						"children": [
																							{
																								"type": "480000",
																								"label": "rev",
																								"typeLabel": "GenericString",
																								"pos": "971",
																								"length": "3",
																								"children": []
																							}
																						]
																					},
																					{
																						"type": "480000",
																						"label": "max_count",
																						"typeLabel": "GenericString",
																						"pos": "975",
																						"length": "9",
																						"children": []
																					}
																				]
																			},
																			{
																				"type": "480000",
																				"label": "!=",
																				"typeLabel": "GenericString",
																				"pos": "985",
																				"length": "2",
																				"children": []
																			},
																			{
																				"type": "241000",
																				"typeLabel": "Unary",
																				"pos": "988",
																				"length": "2",
																				"children": [
																					{
																						"type": "240200",
																						"label": "1",
																						"typeLabel": "Constant",
																						"pos": "989",
																						"length": "1",
																						"children": []
																					},
																					{
																						"type": "480000",
																						"label": "-",
																						"typeLabel": "GenericString",
																						"pos": "988",
																						"length": "1",
																						"children": []
																					}
																				]
																			}
																		]
																	}
																]
															},
															{
																"type": "480000",
																"label": "||",
																"typeLabel": "GenericString",
																"pos": "991",
																"length": "2",
																"children": []
															},
															{
																"type": "241100",
																"typeLabel": "Binary",
																"pos": "994",
																"length": "17",
																"children": [
																	{
																		"type": "241300",
																		"typeLabel": "RecordAccess",
																		"pos": "994",
																		"length": "11",
																		"children": [
																			{
																				"type": "240100",
																				"typeLabel": "Ident",
																				"pos": "994",
																				"length": "3",
																				"children": [
																					{
																						"type": "480000",
																						"label": "rev",
																						"typeLabel": "GenericString",
																						"pos": "994",
																						"length": "3",
																						"children": []
																					}
																				]
																			},
																			{
																				"type": "480000",
																				"label": "min_age",
																				"typeLabel": "GenericString",
																				"pos": "998",
																				"length": "7",
																				"children": []
																			}
																		]
																	},
																	{
																		"type": "480000",
																		"label": "!=",
																		"typeLabel": "GenericString",
																		"pos": "1006",
																		"length": "2",
																		"children": []
																	},
																	{
																		"type": "241000",
																		"typeLabel": "Unary",
																		"pos": "1009",
																		"length": "2",
																		"children": [
																			{
																				"type": "240200",
																				"label": "1",
																				"typeLabel": "Constant",
																				"pos": "1010",
																				"length": "1",
																				"children": []
																			},
																			{
																				"type": "480000",
																				"label": "-",
																				"typeLabel": "GenericString",
																				"pos": "1009",
																				"length": "1",
																				"children": []
																			}
																		]
																	}
																]
															}
														]
													},
													{
														"type": "480000",
														"label": "||",
														"typeLabel": "GenericString",
														"pos": "1012",
														"length": "2",
														"children": []
													},
													{
														"type": "241100",
														"typeLabel": "Binary",
														"pos": "1015",
														"length": "17",
														"children": [
															{
																"type": "241300",
																"typeLabel": "RecordAccess",
																"pos": "1015",
																"length": "11",
																"children": [
																	{
																		"type": "240100",
																		"typeLabel": "Ident",
																		"pos": "1015",
																		"length": "3",
																		"children": [
																			{
																				"type": "480000",
																				"label": "rev",
																				"typeLabel": "GenericString",
																				"pos": "1015",
																				"length": "3",
																				"children": []
																			}
																		]
																	},
																	{
																		"type": "480000",
																		"label": "max_age",
																		"typeLabel": "GenericString",
																		"pos": "1019",
																		"length": "7",
																		"children": []
																	}
																]
															},
															{
																"type": "480000",
																"label": "!=",
																"typeLabel": "GenericString",
																"pos": "1027",
																"length": "2",
																"children": []
															},
															{
																"type": "241000",
																"typeLabel": "Unary",
																"pos": "1030",
																"length": "2",
																"children": [
																	{
																		"type": "240200",
																		"label": "1",
																		"typeLabel": "Constant",
																		"pos": "1031",
																		"length": "1",
																		"children": []
																	},
																	{
																		"type": "480000",
																		"label": "-",
																		"typeLabel": "GenericString",
																		"pos": "1030",
																		"length": "1",
																		"children": []
																	}
																]
															}
														]
													}
												]
											},
											{
												"type": "260300",
												"typeLabel": "ExprStatement",
												"pos": "1036",
												"length": "24",
												"children": [
													{
														"type": "290100",
														"typeLabel": "Some",
														"pos": "1036",
														"length": "24",
														"children": [
															{
																"type": "240400",
																"typeLabel": "FunCall",
																"pos": "1036",
																"length": "23",
																"children": [
																	{
																		"type": "240100",
																		"typeLabel": "Ident",
																		"pos": "1036",
																		"length": "5",
																		"children": [
																			{
																				"type": "480000",
																				"label": "usage",
																				"typeLabel": "GenericString",
																				"pos": "1036",
																				"length": "5",
																				"children": []
																			}
																		]
																	},
																	{
																		"type": "470000",
																		"typeLabel": "GenericList",
																		"pos": "1041",
																		"length": "18",
																		"children": [
																			{
																				"type": "20100",
																				"typeLabel": "Left",
																				"pos": "1042",
																				"length": "16",
																				"children": [
																					{
																						"type": "240100",
																						"typeLabel": "Ident",
																						"pos": "1042",
																						"length": "16",
																						"children": [
																							{
																								"type": "480000",
																								"label": "diff_cache_usage",
																								"typeLabel": "GenericString",
																								"pos": "1042",
																								"length": "16",
																								"children": []
																							}
																						]
																					}
																				]
																			}
																		]
																	}
																]
															},
															{
																"type": "480000",
																"label": ";",
																"typeLabel": "GenericString",
																"pos": "1059",
																"length": "1",
																"children": []
															}
														]
													}
												]
											}
										]
									},
									{
										"type": "300100",
										"typeLabel": "If",
										"pos": "1062",
										"length": "33",
										"children": [
											{
												"type": "490100",
												"typeLabel": "IfToken",
												"pos": "1062",
												"length": "2",
												"children": []
											},
											{
												"type": "241000",
												"typeLabel": "Unary",
												"pos": "1066",
												"length": "7",
												"children": [
													{
														"type": "240100",
														"typeLabel": "Ident",
														"pos": "1067",
														"length": "6",
														"children": [
															{
																"type": "480000",
																"label": "cached",
																"typeLabel": "GenericString",
																"pos": "1067",
																"length": "6",
																"children": []
															}
														]
													},
													{
														"type": "480000",
														"label": "!",
														"typeLabel": "GenericString",
														"pos": "1066",
														"length": "1",
														"children": []
													}
												]
											},
											{
												"type": "260300",
												"typeLabel": "ExprStatement",
												"pos": "1077",
												"length": "18",
												"children": [
													{
														"type": "290100",
														"typeLabel": "Some",
														"pos": "1077",
														"length": "18",
														"children": [
															{
																"type": "240400",
																"typeLabel": "FunCall",
																"pos": "1077",
																"length": "17",
																"children": [
																	{
																		"type": "240100",
																		"typeLabel": "Ident",
																		"pos": "1077",
																		"length": "15",
																		"children": [
																			{
																				"type": "480000",
																				"label": "setup_work_tree",
																				"typeLabel": "GenericString",
																				"pos": "1077",
																				"length": "15",
																				"children": []
																			}
																		]
																	},
																	{
																		"type": "470000",
																		"typeLabel": "GenericList",
																		"pos": "1092",
																		"length": "2",
																		"children": []
																	}
																]
															},
															{
																"type": "480000",
																"label": ";",
																"typeLabel": "GenericString",
																"pos": "1094",
																"length": "1",
																"children": []
															}
														]
													}
												]
											}
										]
									},
									{
										"type": "300100",
										"typeLabel": "If",
										"pos": "1097",
										"length": "63",
										"children": [
											{
												"type": "490100",
												"typeLabel": "IfToken",
												"pos": "1097",
												"length": "2",
												"children": []
											},
											{
												"type": "241100",
												"typeLabel": "Binary",
												"pos": "1101",
												"length": "16",
												"children": [
													{
														"type": "240400",
														"typeLabel": "FunCall",
														"pos": "1101",
														"length": "12",
														"children": [
															{
																"type": "240100",
																"typeLabel": "Ident",
																"pos": "1101",
																"length": "10",
																"children": [
																	{
																		"type": "480000",
																		"label": "read_cache",
																		"typeLabel": "GenericString",
																		"pos": "1101",
																		"length": "10",
																		"children": []
																	}
																]
															},
															{
																"type": "470000",
																"typeLabel": "GenericList",
																"pos": "1111",
																"length": "2",
																"children": []
															}
														]
													},
													{
														"type": "480000",
														"label": "<",
														"typeLabel": "GenericString",
														"pos": "1114",
														"length": "1",
														"children": []
													},
													{
														"type": "240200",
														"label": "0",
														"typeLabel": "Constant",
														"pos": "1116",
														"length": "1",
														"children": []
													}
												]
											},
											{
												"type": "330000",
												"typeLabel": "Compound",
												"pos": "1119",
												"length": "41",
												"children": [
													{
														"type": "260300",
														"typeLabel": "ExprStatement",
														"pos": "1123",
														"length": "21",
														"children": [
															{
																"type": "290100",
																"typeLabel": "Some",
																"pos": "1123",
																"length": "21",
																"children": [
																	{
																		"type": "240400",
																		"typeLabel": "FunCall",
																		"pos": "1123",
																		"length": "20",
																		"children": [
																			{
																				"type": "240100",
																				"typeLabel": "Ident",
																				"pos": "1123",
																				"length": "6",
																				"children": [
																					{
																						"type": "480000",
																						"label": "perror",
																						"typeLabel": "GenericString",
																						"pos": "1123",
																						"length": "6",
																						"children": []
																					}
																				]
																			},
																			{
																				"type": "470000",
																				"typeLabel": "GenericList",
																				"pos": "1129",
																				"length": "14",
																				"children": [
																					{
																						"type": "20100",
																						"typeLabel": "Left",
																						"pos": "1130",
																						"length": "12",
																						"children": [
																							{
																								"type": "240200",
																								"label": "\"read_cache\"",
																								"typeLabel": "Constant",
																								"pos": "1130",
																								"length": "12",
																								"children": []
																							}
																						]
																					}
																				]
																			}
																		]
																	},
																	{
																		"type": "480000",
																		"label": ";",
																		"typeLabel": "GenericString",
																		"pos": "1143",
																		"length": "1",
																		"children": []
																	}
																]
															}
														]
													},
													{
														"type": "280200",
														"typeLabel": "ReturnExpr",
														"pos": "1147",
														"length": "10",
														"children": [
															{
																"type": "241000",
																"typeLabel": "Unary",
																"pos": "1154",
																"length": "2",
																"children": [
																	{
																		"type": "240200",
																		"label": "1",
																		"typeLabel": "Constant",
																		"pos": "1155",
																		"length": "1",
																		"children": []
																	},
																	{
																		"type": "480000",
																		"label": "-",
																		"typeLabel": "GenericString",
																		"pos": "1154",
																		"length": "1",
																		"children": []
																	}
																]
															}
														]
													}
												]
											}
										]
									},
									{
										"type": "260300",
										"typeLabel": "ExprStatement",
										"pos": "1162",
										"length": "38",
										"children": [
											{
												"type": "290100",
												"typeLabel": "Some",
												"pos": "1162",
												"length": "38",
												"children": [
													{
														"type": "240700",
														"typeLabel": "Assignment",
														"pos": "1162",
														"length": "37",
														"children": [
															{
																"type": "240100",
																"typeLabel": "Ident",
																"pos": "1162",
																"length": "6",
																"children": [
																	{
																		"type": "480000",
																		"label": "result",
																		"typeLabel": "GenericString",
																		"pos": "1162",
																		"length": "6",
																		"children": []
																	}
																]
															},
															{
																"type": "480000",
																"label": "=",
																"typeLabel": "GenericString",
																"pos": "1169",
																"length": "1",
																"children": []
															},
															{
																"type": "240400",
																"typeLabel": "FunCall",
																"pos": "1171",
																"length": "28",
																"children": [
																	{
																		"type": "240100",
																		"typeLabel": "Ident",
																		"pos": "1171",
																		"length": "14",
																		"children": [
																			{
																				"type": "480000",
																				"label": "run_diff_index",
																				"typeLabel": "GenericString",
																				"pos": "1171",
																				"length": "14",
																				"children": []
																			}
																		]
																	},
																	{
																		"type": "470000",
																		"typeLabel": "GenericList",
																		"pos": "1185",
																		"length": "14",
																		"children": [
																			{
																				"type": "20100",
																				"typeLabel": "Left",
																				"pos": "1186",
																				"length": "4",
																				"children": [
																					{
																						"type": "241000",
																						"typeLabel": "Unary",
																						"pos": "1186",
																						"length": "4",
																						"children": [
																							{
																								"type": "240100",
																								"typeLabel": "Ident",
																								"pos": "1187",
																								"length": "3",
																								"children": [
																									{
																										"type": "480000",
																										"label": "rev",
																										"typeLabel": "GenericString",
																										"pos": "1187",
																										"length": "3",
																										"children": []
																									}
																								]
																							},
																							{
																								"type": "480000",
																								"label": "&",
																								"typeLabel": "GenericString",
																								"pos": "1186",
																								"length": "1",
																								"children": []
																							}
																						]
																					}
																				]
																			},
																			{
																				"type": "20100",
																				"typeLabel": "Left",
																				"pos": "1192",
																				"length": "6",
																				"children": [
																					{
																						"type": "240100",
																						"typeLabel": "Ident",
																						"pos": "1192",
																						"length": "6",
																						"children": [
																							{
																								"type": "480000",
																								"label": "cached",
																								"typeLabel": "GenericString",
																								"pos": "1192",
																								"length": "6",
																								"children": []
																							}
																						]
																					}
																				]
																			}
																		]
																	}
																]
															}
														]
													},
													{
														"type": "480000",
														"label": ";",
														"typeLabel": "GenericString",
														"pos": "1199",
														"length": "1",
														"children": []
													}
												]
											}
										]
									},
									{
										"type": "280200",
										"typeLabel": "ReturnExpr",
										"pos": "1202",
										"length": "46",
										"children": [
											{
												"type": "240400",
												"typeLabel": "FunCall",
												"pos": "1209",
												"length": "38",
												"children": [
													{
														"type": "240100",
														"typeLabel": "Ident",
														"pos": "1209",
														"length": "16",
														"children": [
															{
																"type": "480000",
																"label": "diff_result_code",
																"typeLabel": "GenericString",
																"pos": "1209",
																"length": "16",
																"children": []
															}
														]
													},
													{
														"type": "470000",
														"typeLabel": "GenericList",
														"pos": "1225",
														"length": "22",
														"children": [
															{
																"type": "20100",
																"typeLabel": "Left",
																"pos": "1226",
																"length": "12",
																"children": [
																	{
																		"type": "241000",
																		"typeLabel": "Unary",
																		"pos": "1226",
																		"length": "12",
																		"children": [
																			{
																				"type": "241300",
																				"typeLabel": "RecordAccess",
																				"pos": "1227",
																				"length": "11",
																				"children": [
																					{
																						"type": "240100",
																						"typeLabel": "Ident",
																						"pos": "1227",
																						"length": "3",
																						"children": [
																							{
																								"type": "480000",
																								"label": "rev",
																								"typeLabel": "GenericString",
																								"pos": "1227",
																								"length": "3",
																								"children": []
																							}
																						]
																					},
																					{
																						"type": "480000",
																						"label": "diffopt",
																						"typeLabel": "GenericString",
																						"pos": "1231",
																						"length": "7",
																						"children": []
																					}
																				]
																			},
																			{
																				"type": "480000",
																				"label": "&",
																				"typeLabel": "GenericString",
																				"pos": "1226",
																				"length": "1",
																				"children": []
																			}
																		]
																	}
																]
															},
															{
																"type": "20100",
																"typeLabel": "Left",
																"pos": "1240",
																"length": "6",
																"children": [
																	{
																		"type": "240100",
																		"typeLabel": "Ident",
																		"pos": "1240",
																		"length": "6",
																		"children": [
																			{
																				"type": "480000",
																				"label": "result",
																				"typeLabel": "GenericString",
																				"pos": "1240",
																				"length": "6",
																				"children": []
																			}
																		]
																	}
																]
															}
														]
													}
												]
											}
										]
									}
								]
							}
						]
					}
				]
			},
			{
				"type": "450800",
				"typeLabel": "FinalDef",
				"pos": "1251",
				"length": "0",
				"children": []
			}
		]
	}
}