[
  {
    "id": "d42f6c274b1139c84a2ce83356c5c942a0706160",
    "date": 1405605807,
    "files": [
      "hydra-cli/hydra.c"
    ],
    "committer": {
      "name": "Steven Degutis",
      "email": "steven@cleancoders.com"
    },
    "message": "Fixed hydra-cli to print some return values it wasn't printing."
  }
]