{
  "matches": [
    {
      "src": 396,
      "dest": 206
    },
    {
      "src": 391,
      "dest": 201
    },
    {
      "src": 461,
      "dest": 271
    },
    {
      "src": 480,
      "dest": 290
    },
    {
      "src": 62,
      "dest": 62
    },
    {
      "src": 40,
      "dest": 40
    },
    {
      "src": 111,
      "dest": 111
    },
    {
      "src": 439,
      "dest": 249
    },
    {
      "src": 368,
      "dest": 178
    },
    {
      "src": 476,
      "dest": 286
    },
    {
      "src": 542,
      "dest": 352
    },
    {
      "src": 69,
      "dest": 69
    },
    {
      "src": 89,
      "dest": 89
    },
    {
      "src": 563,
      "dest": 373
    },
    {
      "src": 469,
      "dest": 279
    },
    {
      "src": 562,
      "dest": 372
    },
    {
      "src": 77,
      "dest": 77
    },
    {
      "src": 626,
      "dest": 436
    },
    {
      "src": 369,
      "dest": 179
    },
    {
      "src": 498,
      "dest": 308
    },
    {
      "src": 79,
      "dest": 79
    },
    {
      "src": 559,
      "dest": 369
    },
    {
      "src": 143,
      "dest": 143
    },
    {
      "src": 604,
      "dest": 414
    },
    {
      "src": 435,
      "dest": 245
    },
    {
      "src": 457,
      "dest": 267
    },
    {
      "src": 442,
      "dest": 252
    },
    {
      "src": 551,
      "dest": 361
    },
    {
      "src": 107,
      "dest": 107
    },
    {
      "src": 364,
      "dest": 174
    },
    {
      "src": 517,
      "dest": 327
    },
    {
      "src": 510,
      "dest": 320
    },
    {
      "src": 434,
      "dest": 244
    },
    {
      "src": 608,
      "dest": 418
    },
    {
      "src": 555,
      "dest": 365
    },
    {
      "src": 21,
      "dest": 21
    },
    {
      "src": 149,
      "dest": 149
    },
    {
      "src": 640,
      "dest": 450
    },
    {
      "src": 360,
      "dest": 170
    },
    {
      "src": 389,
      "dest": 199
    },
    {
      "src": 592,
      "dest": 402
    },
    {
      "src": 539,
      "dest": 349
    },
    {
      "src": 602,
      "dest": 412
    },
    {
      "src": 502,
      "dest": 312
    },
    {
      "src": 129,
      "dest": 129
    },
    {
      "src": 366,
      "dest": 176
    },
    {
      "src": 586,
      "dest": 396
    },
    {
      "src": 95,
      "dest": 95
    },
    {
      "src": 410,
      "dest": 220
    },
    {
      "src": 141,
      "dest": 141
    },
    {
      "src": 628,
      "dest": 438
    },
    {
      "src": 26,
      "dest": 26
    },
    {
      "src": 616,
      "dest": 426
    },
    {
      "src": 541,
      "dest": 351
    },
    {
      "src": 99,
      "dest": 99
    },
    {
      "src": 28,
      "dest": 28
    },
    {
      "src": 574,
      "dest": 384
    },
    {
      "src": 486,
      "dest": 296
    },
    {
      "src": 359,
      "dest": 169
    },
    {
      "src": 463,
      "dest": 273
    },
    {
      "src": 85,
      "dest": 85
    },
    {
      "src": 112,
      "dest": 112
    },
    {
      "src": 145,
      "dest": 145
    },
    {
      "src": 50,
      "dest": 50
    },
    {
      "src": 519,
      "dest": 329
    },
    {
      "src": 401,
      "dest": 211
    },
    {
      "src": 92,
      "dest": 92
    },
    {
      "src": 81,
      "dest": 81
    },
    {
      "src": 17,
      "dest": 17
    },
    {
      "src": 37,
      "dest": 37
    },
    {
      "src": 71,
      "dest": 71
    },
    {
      "src": 412,
      "dest": 222
    },
    {
      "src": 556,
      "dest": 366
    },
    {
      "src": 570,
      "dest": 380
    },
    {
      "src": 150,
      "dest": 150
    },
    {
      "src": 433,
      "dest": 243
    },
    {
      "src": 436,
      "dest": 246
    },
    {
      "src": 438,
      "dest": 248
    },
    {
      "src": 465,
      "dest": 275
    },
    {
      "src": 60,
      "dest": 60
    },
    {
      "src": 495,
      "dest": 305
    },
    {
      "src": 449,
      "dest": 259
    },
    {
      "src": 133,
      "dest": 133
    },
    {
      "src": 24,
      "dest": 24
    },
    {
      "src": 39,
      "dest": 39
    },
    {
      "src": 509,
      "dest": 319
    },
    {
      "src": 83,
      "dest": 83
    },
    {
      "src": 139,
      "dest": 139
    },
    {
      "src": 606,
      "dest": 416
    },
    {
      "src": 12,
      "dest": 12
    },
    {
      "src": 543,
      "dest": 353
    },
    {
      "src": 164,
      "dest": 164
    },
    {
      "src": 635,
      "dest": 445
    },
    {
      "src": 572,
      "dest": 382
    },
    {
      "src": 521,
      "dest": 331
    },
    {
      "src": 390,
      "dest": 200
    },
    {
      "src": 585,
      "dest": 395
    },
    {
      "src": 371,
      "dest": 181
    },
    {
      "src": 356,
      "dest": 166
    },
    {
      "src": 444,
      "dest": 254
    },
    {
      "src": 411,
      "dest": 221
    },
    {
      "src": 34,
      "dest": 34
    },
    {
      "src": 380,
      "dest": 190
    },
    {
      "src": 49,
      "dest": 49
    },
    {
      "src": 125,
      "dest": 125
    },
    {
      "src": 387,
      "dest": 197
    },
    {
      "src": 470,
      "dest": 280
    },
    {
      "src": 416,
      "dest": 226
    },
    {
      "src": 122,
      "dest": 122
    },
    {
      "src": 154,
      "dest": 154
    },
    {
      "src": 491,
      "dest": 301
    },
    {
      "src": 54,
      "dest": 54
    },
    {
      "src": 613,
      "dest": 423
    },
    {
      "src": 641,
      "dest": 451
    },
    {
      "src": 579,
      "dest": 389
    },
    {
      "src": 93,
      "dest": 93
    },
    {
      "src": 482,
      "dest": 292
    },
    {
      "src": 533,
      "dest": 343
    },
    {
      "src": 547,
      "dest": 357
    },
    {
      "src": 142,
      "dest": 142
    },
    {
      "src": 18,
      "dest": 18
    },
    {
      "src": 15,
      "dest": 15
    },
    {
      "src": 526,
      "dest": 336
    },
    {
      "src": 98,
      "dest": 98
    },
    {
      "src": 138,
      "dest": 138
    },
    {
      "src": 41,
      "dest": 41
    },
    {
      "src": 156,
      "dest": 156
    },
    {
      "src": 22,
      "dest": 22
    },
    {
      "src": 427,
      "dest": 237
    },
    {
      "src": 459,
      "dest": 269
    },
    {
      "src": 103,
      "dest": 103
    },
    {
      "src": 76,
      "dest": 76
    },
    {
      "src": 631,
      "dest": 441
    },
    {
      "src": 140,
      "dest": 140
    },
    {
      "src": 29,
      "dest": 29
    },
    {
      "src": 423,
      "dest": 233
    },
    {
      "src": 637,
      "dest": 447
    },
    {
      "src": 560,
      "dest": 370
    },
    {
      "src": 398,
      "dest": 208
    },
    {
      "src": 386,
      "dest": 196
    },
    {
      "src": 67,
      "dest": 67
    },
    {
      "src": 14,
      "dest": 14
    },
    {
      "src": 52,
      "dest": 52
    },
    {
      "src": 499,
      "dest": 309
    },
    {
      "src": 409,
      "dest": 219
    },
    {
      "src": 375,
      "dest": 185
    },
    {
      "src": 6,
      "dest": 6
    },
    {
      "src": 578,
      "dest": 388
    },
    {
      "src": 634,
      "dest": 444
    },
    {
      "src": 468,
      "dest": 278
    },
    {
      "src": 5,
      "dest": 5
    },
    {
      "src": 406,
      "dest": 216
    },
    {
      "src": 121,
      "dest": 121
    },
    {
      "src": 382,
      "dest": 192
    },
    {
      "src": 402,
      "dest": 212
    },
    {
      "src": 148,
      "dest": 148
    },
    {
      "src": 448,
      "dest": 258
    },
    {
      "src": 620,
      "dest": 430
    },
    {
      "src": 445,
      "dest": 255
    },
    {
      "src": 55,
      "dest": 55
    },
    {
      "src": 558,
      "dest": 368
    },
    {
      "src": 446,
      "dest": 256
    },
    {
      "src": 137,
      "dest": 137
    },
    {
      "src": 374,
      "dest": 184
    },
    {
      "src": 488,
      "dest": 298
    },
    {
      "src": 614,
      "dest": 424
    },
    {
      "src": 51,
      "dest": 51
    },
    {
      "src": 528,
      "dest": 338
    },
    {
      "src": 462,
      "dest": 272
    },
    {
      "src": 580,
      "dest": 390
    },
    {
      "src": 440,
      "dest": 250
    },
    {
      "src": 458,
      "dest": 268
    },
    {
      "src": 362,
      "dest": 172
    },
    {
      "src": 106,
      "dest": 106
    },
    {
      "src": 568,
      "dest": 378
    },
    {
      "src": 623,
      "dest": 433
    },
    {
      "src": 32,
      "dest": 32
    },
    {
      "src": 33,
      "dest": 33
    },
    {
      "src": 638,
      "dest": 448
    },
    {
      "src": 475,
      "dest": 285
    },
    {
      "src": 65,
      "dest": 65
    },
    {
      "src": 53,
      "dest": 53
    },
    {
      "src": 598,
      "dest": 408
    },
    {
      "src": 417,
      "dest": 227
    },
    {
      "src": 357,
      "dest": 167
    },
    {
      "src": 430,
      "dest": 240
    },
    {
      "src": 483,
      "dest": 293
    },
    {
      "src": 451,
      "dest": 261
    },
    {
      "src": 44,
      "dest": 44
    },
    {
      "src": 1,
      "dest": 1
    },
    {
      "src": 407,
      "dest": 217
    },
    {
      "src": 552,
      "dest": 362
    },
    {
      "src": 454,
      "dest": 264
    },
    {
      "src": 453,
      "dest": 263
    },
    {
      "src": 96,
      "dest": 96
    },
    {
      "src": 584,
      "dest": 394
    },
    {
      "src": 399,
      "dest": 209
    },
    {
      "src": 508,
      "dest": 318
    },
    {
      "src": 467,
      "dest": 277
    },
    {
      "src": 522,
      "dest": 332
    },
    {
      "src": 134,
      "dest": 134
    },
    {
      "src": 432,
      "dest": 242
    },
    {
      "src": 131,
      "dest": 131
    },
    {
      "src": 589,
      "dest": 399
    },
    {
      "src": 513,
      "dest": 323
    },
    {
      "src": 504,
      "dest": 314
    },
    {
      "src": 408,
      "dest": 218
    },
    {
      "src": 529,
      "dest": 339
    },
    {
      "src": 97,
      "dest": 97
    },
    {
      "src": 153,
      "dest": 153
    },
    {
      "src": 530,
      "dest": 340
    },
    {
      "src": 381,
      "dest": 191
    },
    {
      "src": 48,
      "dest": 48
    },
    {
      "src": 429,
      "dest": 239
    },
    {
      "src": 418,
      "dest": 228
    },
    {
      "src": 157,
      "dest": 157
    },
    {
      "src": 146,
      "dest": 146
    },
    {
      "src": 639,
      "dest": 449
    },
    {
      "src": 441,
      "dest": 251
    },
    {
      "src": 477,
      "dest": 287
    },
    {
      "src": 4,
      "dest": 4
    },
    {
      "src": 8,
      "dest": 8
    },
    {
      "src": 472,
      "dest": 282
    },
    {
      "src": 84,
      "dest": 84
    },
    {
      "src": 383,
      "dest": 193
    },
    {
      "src": 466,
      "dest": 276
    },
    {
      "src": 460,
      "dest": 270
    },
    {
      "src": 47,
      "dest": 47
    },
    {
      "src": 452,
      "dest": 262
    },
    {
      "src": 7,
      "dest": 7
    },
    {
      "src": 565,
      "dest": 375
    },
    {
      "src": 59,
      "dest": 59
    },
    {
      "src": 108,
      "dest": 108
    },
    {
      "src": 610,
      "dest": 420
    },
    {
      "src": 548,
      "dest": 358
    },
    {
      "src": 373,
      "dest": 183
    },
    {
      "src": 601,
      "dest": 411
    },
    {
      "src": 117,
      "dest": 117
    },
    {
      "src": 415,
      "dest": 225
    },
    {
      "src": 532,
      "dest": 342
    },
    {
      "src": 365,
      "dest": 175
    },
    {
      "src": 0,
      "dest": 0
    },
    {
      "src": 363,
      "dest": 173
    },
    {
      "src": 75,
      "dest": 75
    },
    {
      "src": 159,
      "dest": 159
    },
    {
      "src": 43,
      "dest": 43
    },
    {
      "src": 549,
      "dest": 359
    },
    {
      "src": 523,
      "dest": 333
    },
    {
      "src": 376,
      "dest": 186
    },
    {
      "src": 104,
      "dest": 104
    },
    {
      "src": 413,
      "dest": 223
    },
    {
      "src": 64,
      "dest": 64
    },
    {
      "src": 599,
      "dest": 409
    },
    {
      "src": 478,
      "dest": 288
    },
    {
      "src": 487,
      "dest": 297
    },
    {
      "src": 91,
      "dest": 91
    },
    {
      "src": 511,
      "dest": 321
    },
    {
      "src": 94,
      "dest": 94
    },
    {
      "src": 151,
      "dest": 151
    },
    {
      "src": 425,
      "dest": 235
    },
    {
      "src": 540,
      "dest": 350
    },
    {
      "src": 569,
      "dest": 379
    },
    {
      "src": 455,
      "dest": 265
    },
    {
      "src": 70,
      "dest": 70
    },
    {
      "src": 420,
      "dest": 230
    },
    {
      "src": 621,
      "dest": 431
    },
    {
      "src": 537,
      "dest": 347
    },
    {
      "src": 3,
      "dest": 3
    },
    {
      "src": 56,
      "dest": 56
    },
    {
      "src": 514,
      "dest": 324
    },
    {
      "src": 152,
      "dest": 152
    },
    {
      "src": 590,
      "dest": 400
    },
    {
      "src": 622,
      "dest": 432
    },
    {
      "src": 629,
      "dest": 439
    },
    {
      "src": 581,
      "dest": 391
    },
    {
      "src": 443,
      "dest": 253
    },
    {
      "src": 136,
      "dest": 136
    },
    {
      "src": 450,
      "dest": 260
    },
    {
      "src": 471,
      "dest": 281
    },
    {
      "src": 162,
      "dest": 162
    },
    {
      "src": 404,
      "dest": 214
    },
    {
      "src": 485,
      "dest": 295
    },
    {
      "src": 630,
      "dest": 440
    },
    {
      "src": 16,
      "dest": 16
    },
    {
      "src": 355,
      "dest": 165
    },
    {
      "src": 497,
      "dest": 307
    },
    {
      "src": 25,
      "dest": 25
    },
    {
      "src": 144,
      "dest": 144
    },
    {
      "src": 506,
      "dest": 316
    },
    {
      "src": 536,
      "dest": 346
    },
    {
      "src": 405,
      "dest": 215
    },
    {
      "src": 464,
      "dest": 274
    },
    {
      "src": 80,
      "dest": 80
    },
    {
      "src": 419,
      "dest": 229
    },
    {
      "src": 479,
      "dest": 289
    },
    {
      "src": 118,
      "dest": 118
    },
    {
      "src": 161,
      "dest": 161
    },
    {
      "src": 19,
      "dest": 19
    },
    {
      "src": 397,
      "dest": 207
    },
    {
      "src": 633,
      "dest": 443
    },
    {
      "src": 505,
      "dest": 315
    },
    {
      "src": 571,
      "dest": 381
    },
    {
      "src": 120,
      "dest": 120
    },
    {
      "src": 115,
      "dest": 115
    },
    {
      "src": 642,
      "dest": 452
    },
    {
      "src": 388,
      "dest": 198
    },
    {
      "src": 627,
      "dest": 437
    },
    {
      "src": 38,
      "dest": 38
    },
    {
      "src": 566,
      "dest": 376
    },
    {
      "src": 68,
      "dest": 68
    },
    {
      "src": 147,
      "dest": 147
    },
    {
      "src": 101,
      "dest": 101
    },
    {
      "src": 36,
      "dest": 36
    },
    {
      "src": 615,
      "dest": 425
    },
    {
      "src": 13,
      "dest": 13
    },
    {
      "src": 78,
      "dest": 78
    },
    {
      "src": 421,
      "dest": 231
    },
    {
      "src": 474,
      "dest": 284
    },
    {
      "src": 597,
      "dest": 407
    },
    {
      "src": 494,
      "dest": 304
    },
    {
      "src": 114,
      "dest": 114
    },
    {
      "src": 155,
      "dest": 155
    },
    {
      "src": 516,
      "dest": 326
    },
    {
      "src": 643,
      "dest": 453
    },
    {
      "src": 577,
      "dest": 387
    },
    {
      "src": 437,
      "dest": 247
    },
    {
      "src": 88,
      "dest": 88
    },
    {
      "src": 595,
      "dest": 405
    },
    {
      "src": 110,
      "dest": 110
    },
    {
      "src": 428,
      "dest": 238
    },
    {
      "src": 87,
      "dest": 87
    },
    {
      "src": 128,
      "dest": 128
    },
    {
      "src": 74,
      "dest": 74
    },
    {
      "src": 35,
      "dest": 35
    },
    {
      "src": 422,
      "dest": 232
    },
    {
      "src": 31,
      "dest": 31
    },
    {
      "src": 515,
      "dest": 325
    },
    {
      "src": 600,
      "dest": 410
    },
    {
      "src": 135,
      "dest": 135
    },
    {
      "src": 160,
      "dest": 160
    },
    {
      "src": 385,
      "dest": 195
    },
    {
      "src": 72,
      "dest": 72
    },
    {
      "src": 618,
      "dest": 428
    },
    {
      "src": 431,
      "dest": 241
    },
    {
      "src": 492,
      "dest": 302
    },
    {
      "src": 538,
      "dest": 348
    },
    {
      "src": 163,
      "dest": 163
    },
    {
      "src": 625,
      "dest": 435
    },
    {
      "src": 573,
      "dest": 383
    },
    {
      "src": 576,
      "dest": 386
    },
    {
      "src": 367,
      "dest": 177
    },
    {
      "src": 535,
      "dest": 345
    },
    {
      "src": 636,
      "dest": 446
    },
    {
      "src": 607,
      "dest": 417
    },
    {
      "src": 61,
      "dest": 61
    },
    {
      "src": 400,
      "dest": 210
    },
    {
      "src": 603,
      "dest": 413
    },
    {
      "src": 63,
      "dest": 63
    },
    {
      "src": 591,
      "dest": 401
    },
    {
      "src": 82,
      "dest": 82
    },
    {
      "src": 632,
      "dest": 442
    },
    {
      "src": 45,
      "dest": 45
    },
    {
      "src": 545,
      "dest": 355
    },
    {
      "src": 594,
      "dest": 404
    },
    {
      "src": 644,
      "dest": 454
    },
    {
      "src": 512,
      "dest": 322
    },
    {
      "src": 544,
      "dest": 354
    },
    {
      "src": 392,
      "dest": 202
    },
    {
      "src": 546,
      "dest": 356
    },
    {
      "src": 372,
      "dest": 182
    },
    {
      "src": 518,
      "dest": 328
    },
    {
      "src": 531,
      "dest": 341
    },
    {
      "src": 605,
      "dest": 415
    },
    {
      "src": 567,
      "dest": 377
    },
    {
      "src": 520,
      "dest": 330
    },
    {
      "src": 113,
      "dest": 113
    },
    {
      "src": 489,
      "dest": 299
    },
    {
      "src": 456,
      "dest": 266
    },
    {
      "src": 624,
      "dest": 434
    },
    {
      "src": 370,
      "dest": 180
    },
    {
      "src": 20,
      "dest": 20
    },
    {
      "src": 30,
      "dest": 30
    },
    {
      "src": 473,
      "dest": 283
    },
    {
      "src": 2,
      "dest": 2
    },
    {
      "src": 9,
      "dest": 9
    },
    {
      "src": 501,
      "dest": 311
    },
    {
      "src": 109,
      "dest": 109
    },
    {
      "src": 525,
      "dest": 335
    },
    {
      "src": 73,
      "dest": 73
    },
    {
      "src": 130,
      "dest": 130
    },
    {
      "src": 58,
      "dest": 58
    },
    {
      "src": 524,
      "dest": 334
    },
    {
      "src": 384,
      "dest": 194
    },
    {
      "src": 424,
      "dest": 234
    },
    {
      "src": 378,
      "dest": 188
    },
    {
      "src": 593,
      "dest": 403
    },
    {
      "src": 609,
      "dest": 419
    },
    {
      "src": 10,
      "dest": 10
    },
    {
      "src": 86,
      "dest": 86
    },
    {
      "src": 403,
      "dest": 213
    },
    {
      "src": 57,
      "dest": 57
    },
    {
      "src": 100,
      "dest": 100
    },
    {
      "src": 481,
      "dest": 291
    },
    {
      "src": 66,
      "dest": 66
    },
    {
      "src": 358,
      "dest": 168
    },
    {
      "src": 377,
      "dest": 187
    },
    {
      "src": 132,
      "dest": 132
    },
    {
      "src": 42,
      "dest": 42
    },
    {
      "src": 484,
      "dest": 294
    },
    {
      "src": 119,
      "dest": 119
    },
    {
      "src": 588,
      "dest": 398
    },
    {
      "src": 90,
      "dest": 90
    },
    {
      "src": 496,
      "dest": 306
    },
    {
      "src": 503,
      "dest": 313
    },
    {
      "src": 124,
      "dest": 124
    },
    {
      "src": 557,
      "dest": 367
    },
    {
      "src": 46,
      "dest": 46
    },
    {
      "src": 116,
      "dest": 116
    },
    {
      "src": 507,
      "dest": 317
    },
    {
      "src": 500,
      "dest": 310
    },
    {
      "src": 105,
      "dest": 105
    },
    {
      "src": 550,
      "dest": 360
    },
    {
      "src": 447,
      "dest": 257
    },
    {
      "src": 11,
      "dest": 11
    },
    {
      "src": 126,
      "dest": 126
    },
    {
      "src": 379,
      "dest": 189
    },
    {
      "src": 490,
      "dest": 300
    },
    {
      "src": 575,
      "dest": 385
    },
    {
      "src": 561,
      "dest": 371
    },
    {
      "src": 426,
      "dest": 236
    },
    {
      "src": 583,
      "dest": 393
    },
    {
      "src": 158,
      "dest": 158
    },
    {
      "src": 393,
      "dest": 203
    },
    {
      "src": 582,
      "dest": 392
    },
    {
      "src": 123,
      "dest": 123
    },
    {
      "src": 361,
      "dest": 171
    },
    {
      "src": 611,
      "dest": 421
    },
    {
      "src": 554,
      "dest": 364
    },
    {
      "src": 23,
      "dest": 23
    },
    {
      "src": 587,
      "dest": 397
    },
    {
      "src": 564,
      "dest": 374
    },
    {
      "src": 596,
      "dest": 406
    },
    {
      "src": 414,
      "dest": 224
    },
    {
      "src": 527,
      "dest": 337
    },
    {
      "src": 493,
      "dest": 303
    },
    {
      "src": 619,
      "dest": 429
    },
    {
      "src": 102,
      "dest": 102
    },
    {
      "src": 127,
      "dest": 127
    },
    {
      "src": 395,
      "dest": 205
    },
    {
      "src": 27,
      "dest": 27
    },
    {
      "src": 612,
      "dest": 422
    },
    {
      "src": 617,
      "dest": 427
    },
    {
      "src": 553,
      "dest": 363
    },
    {
      "src": 534,
      "dest": 344
    },
    {
      "src": 394,
      "dest": 204
    }
  ],
  "actions": [
    {
      "action": "delete",
      "tree": 165
    },
    {
      "action": "delete",
      "tree": 166
    },
    {
      "action": "delete",
      "tree": 167
    },
    {
      "action": "delete",
      "tree": 168
    },
    {
      "action": "delete",
      "tree": 169
    },
    {
      "action": "delete",
      "tree": 170
    },
    {
      "action": "delete",
      "tree": 171
    },
    {
      "action": "delete",
      "tree": 172
    },
    {
      "action": "delete",
      "tree": 173
    },
    {
      "action": "delete",
      "tree": 174
    },
    {
      "action": "delete",
      "tree": 175
    },
    {
      "action": "delete",
      "tree": 176
    },
    {
      "action": "delete",
      "tree": 177
    },
    {
      "action": "delete",
      "tree": 178
    },
    {
      "action": "delete",
      "tree": 179
    },
    {
      "action": "delete",
      "tree": 180
    },
    {
      "action": "delete",
      "tree": 181
    },
    {
      "action": "delete",
      "tree": 182
    },
    {
      "action": "delete",
      "tree": 183
    },
    {
      "action": "delete",
      "tree": 184
    },
    {
      "action": "delete",
      "tree": 185
    },
    {
      "action": "delete",
      "tree": 186
    },
    {
      "action": "delete",
      "tree": 187
    },
    {
      "action": "delete",
      "tree": 188
    },
    {
      "action": "delete",
      "tree": 189
    },
    {
      "action": "delete",
      "tree": 190
    },
    {
      "action": "delete",
      "tree": 191
    },
    {
      "action": "delete",
      "tree": 192
    },
    {
      "action": "delete",
      "tree": 193
    },
    {
      "action": "delete",
      "tree": 194
    },
    {
      "action": "delete",
      "tree": 195
    },
    {
      "action": "delete",
      "tree": 196
    },
    {
      "action": "delete",
      "tree": 197
    },
    {
      "action": "delete",
      "tree": 198
    },
    {
      "action": "delete",
      "tree": 199
    },
    {
      "action": "delete",
      "tree": 200
    },
    {
      "action": "delete",
      "tree": 201
    },
    {
      "action": "delete",
      "tree": 202
    },
    {
      "action": "delete",
      "tree": 203
    },
    {
      "action": "delete",
      "tree": 204
    },
    {
      "action": "delete",
      "tree": 205
    },
    {
      "action": "delete",
      "tree": 206
    },
    {
      "action": "delete",
      "tree": 207
    },
    {
      "action": "delete",
      "tree": 208
    },
    {
      "action": "delete",
      "tree": 209
    },
    {
      "action": "delete",
      "tree": 210
    },
    {
      "action": "delete",
      "tree": 211
    },
    {
      "action": "delete",
      "tree": 212
    },
    {
      "action": "delete",
      "tree": 213
    },
    {
      "action": "delete",
      "tree": 214
    },
    {
      "action": "delete",
      "tree": 215
    },
    {
      "action": "delete",
      "tree": 216
    },
    {
      "action": "delete",
      "tree": 217
    },
    {
      "action": "delete",
      "tree": 218
    },
    {
      "action": "delete",
      "tree": 219
    },
    {
      "action": "delete",
      "tree": 220
    },
    {
      "action": "delete",
      "tree": 221
    },
    {
      "action": "delete",
      "tree": 222
    },
    {
      "action": "delete",
      "tree": 223
    },
    {
      "action": "delete",
      "tree": 224
    },
    {
      "action": "delete",
      "tree": 225
    },
    {
      "action": "delete",
      "tree": 226
    },
    {
      "action": "delete",
      "tree": 227
    },
    {
      "action": "delete",
      "tree": 228
    },
    {
      "action": "delete",
      "tree": 229
    },
    {
      "action": "delete",
      "tree": 230
    },
    {
      "action": "delete",
      "tree": 231
    },
    {
      "action": "delete",
      "tree": 232
    },
    {
      "action": "delete",
      "tree": 233
    },
    {
      "action": "delete",
      "tree": 234
    },
    {
      "action": "delete",
      "tree": 235
    },
    {
      "action": "delete",
      "tree": 236
    },
    {
      "action": "delete",
      "tree": 237
    },
    {
      "action": "delete",
      "tree": 238
    },
    {
      "action": "delete",
      "tree": 239
    },
    {
      "action": "delete",
      "tree": 240
    },
    {
      "action": "delete",
      "tree": 241
    },
    {
      "action": "delete",
      "tree": 242
    },
    {
      "action": "delete",
      "tree": 243
    },
    {
      "action": "delete",
      "tree": 244
    },
    {
      "action": "delete",
      "tree": 245
    },
    {
      "action": "delete",
      "tree": 246
    },
    {
      "action": "delete",
      "tree": 247
    },
    {
      "action": "delete",
      "tree": 248
    },
    {
      "action": "delete",
      "tree": 249
    },
    {
      "action": "delete",
      "tree": 250
    },
    {
      "action": "delete",
      "tree": 251
    },
    {
      "action": "delete",
      "tree": 252
    },
    {
      "action": "delete",
      "tree": 253
    },
    {
      "action": "delete",
      "tree": 254
    },
    {
      "action": "delete",
      "tree": 255
    },
    {
      "action": "delete",
      "tree": 256
    },
    {
      "action": "delete",
      "tree": 257
    },
    {
      "action": "delete",
      "tree": 258
    },
    {
      "action": "delete",
      "tree": 259
    },
    {
      "action": "delete",
      "tree": 260
    },
    {
      "action": "delete",
      "tree": 261
    },
    {
      "action": "delete",
      "tree": 262
    },
    {
      "action": "delete",
      "tree": 263
    },
    {
      "action": "delete",
      "tree": 264
    },
    {
      "action": "delete",
      "tree": 265
    },
    {
      "action": "delete",
      "tree": 266
    },
    {
      "action": "delete",
      "tree": 267
    },
    {
      "action": "delete",
      "tree": 268
    },
    {
      "action": "delete",
      "tree": 269
    },
    {
      "action": "delete",
      "tree": 270
    },
    {
      "action": "delete",
      "tree": 271
    },
    {
      "action": "delete",
      "tree": 272
    },
    {
      "action": "delete",
      "tree": 273
    },
    {
      "action": "delete",
      "tree": 274
    },
    {
      "action": "delete",
      "tree": 275
    },
    {
      "action": "delete",
      "tree": 276
    },
    {
      "action": "delete",
      "tree": 277
    },
    {
      "action": "delete",
      "tree": 278
    },
    {
      "action": "delete",
      "tree": 279
    },
    {
      "action": "delete",
      "tree": 280
    },
    {
      "action": "delete",
      "tree": 281
    },
    {
      "action": "delete",
      "tree": 282
    },
    {
      "action": "delete",
      "tree": 283
    },
    {
      "action": "delete",
      "tree": 284
    },
    {
      "action": "delete",
      "tree": 285
    },
    {
      "action": "delete",
      "tree": 286
    },
    {
      "action": "delete",
      "tree": 287
    },
    {
      "action": "delete",
      "tree": 288
    },
    {
      "action": "delete",
      "tree": 289
    },
    {
      "action": "delete",
      "tree": 290
    },
    {
      "action": "delete",
      "tree": 291
    },
    {
      "action": "delete",
      "tree": 292
    },
    {
      "action": "delete",
      "tree": 293
    },
    {
      "action": "delete",
      "tree": 294
    },
    {
      "action": "delete",
      "tree": 295
    },
    {
      "action": "delete",
      "tree": 296
    },
    {
      "action": "delete",
      "tree": 297
    },
    {
      "action": "delete",
      "tree": 298
    },
    {
      "action": "delete",
      "tree": 299
    },
    {
      "action": "delete",
      "tree": 300
    },
    {
      "action": "delete",
      "tree": 301
    },
    {
      "action": "delete",
      "tree": 302
    },
    {
      "action": "delete",
      "tree": 303
    },
    {
      "action": "delete",
      "tree": 304
    },
    {
      "action": "delete",
      "tree": 305
    },
    {
      "action": "delete",
      "tree": 306
    },
    {
      "action": "delete",
      "tree": 307
    },
    {
      "action": "delete",
      "tree": 308
    },
    {
      "action": "delete",
      "tree": 309
    },
    {
      "action": "delete",
      "tree": 310
    },
    {
      "action": "delete",
      "tree": 311
    },
    {
      "action": "delete",
      "tree": 312
    },
    {
      "action": "delete",
      "tree": 313
    },
    {
      "action": "delete",
      "tree": 314
    },
    {
      "action": "delete",
      "tree": 315
    },
    {
      "action": "delete",
      "tree": 316
    },
    {
      "action": "delete",
      "tree": 317
    },
    {
      "action": "delete",
      "tree": 318
    },
    {
      "action": "delete",
      "tree": 319
    },
    {
      "action": "delete",
      "tree": 320
    },
    {
      "action": "delete",
      "tree": 321
    },
    {
      "action": "delete",
      "tree": 322
    },
    {
      "action": "delete",
      "tree": 323
    },
    {
      "action": "delete",
      "tree": 324
    },
    {
      "action": "delete",
      "tree": 325
    },
    {
      "action": "delete",
      "tree": 326
    },
    {
      "action": "delete",
      "tree": 327
    },
    {
      "action": "delete",
      "tree": 328
    },
    {
      "action": "delete",
      "tree": 329
    },
    {
      "action": "delete",
      "tree": 330
    },
    {
      "action": "delete",
      "tree": 331
    },
    {
      "action": "delete",
      "tree": 332
    },
    {
      "action": "delete",
      "tree": 333
    },
    {
      "action": "delete",
      "tree": 334
    },
    {
      "action": "delete",
      "tree": 335
    },
    {
      "action": "delete",
      "tree": 336
    },
    {
      "action": "delete",
      "tree": 337
    },
    {
      "action": "delete",
      "tree": 338
    },
    {
      "action": "delete",
      "tree": 339
    },
    {
      "action": "delete",
      "tree": 340
    },
    {
      "action": "delete",
      "tree": 341
    },
    {
      "action": "delete",
      "tree": 342
    },
    {
      "action": "delete",
      "tree": 343
    },
    {
      "action": "delete",
      "tree": 344
    },
    {
      "action": "delete",
      "tree": 345
    },
    {
      "action": "delete",
      "tree": 346
    },
    {
      "action": "delete",
      "tree": 347
    },
    {
      "action": "delete",
      "tree": 348
    },
    {
      "action": "delete",
      "tree": 349
    },
    {
      "action": "delete",
      "tree": 350
    },
    {
      "action": "delete",
      "tree": 351
    },
    {
      "action": "delete",
      "tree": 352
    },
    {
      "action": "delete",
      "tree": 353
    },
    {
      "action": "delete",
      "tree": 354
    }
  ]
}