{
  "matches": [
    {
      "src": 49,
      "dest": 146
    },
    {
      "src": 153,
      "dest": 250
    },
    {
      "src": 140,
      "dest": 237
    },
    {
      "src": 40,
      "dest": 137
    },
    {
      "src": 1,
      "dest": 1
    },
    {
      "src": 33,
      "dest": 130
    },
    {
      "src": 3,
      "dest": 3
    },
    {
      "src": 101,
      "dest": 198
    },
    {
      "src": 157,
      "dest": 254
    },
    {
      "src": 22,
      "dest": 119
    },
    {
      "src": 165,
      "dest": 262
    },
    {
      "src": 7,
      "dest": 7
    },
    {
      "src": 19,
      "dest": 116
    },
    {
      "src": 52,
      "dest": 149
    },
    {
      "src": 89,
      "dest": 186
    },
    {
      "src": 163,
      "dest": 260
    },
    {
      "src": 155,
      "dest": 252
    },
    {
      "src": 108,
      "dest": 205
    },
    {
      "src": 28,
      "dest": 125
    },
    {
      "src": 118,
      "dest": 215
    },
    {
      "src": 115,
      "dest": 212
    },
    {
      "src": 77,
      "dest": 174
    },
    {
      "src": 81,
      "dest": 178
    },
    {
      "src": 57,
      "dest": 154
    },
    {
      "src": 20,
      "dest": 117
    },
    {
      "src": 121,
      "dest": 218
    },
    {
      "src": 162,
      "dest": 259
    },
    {
      "src": 10,
      "dest": 10
    },
    {
      "src": 71,
      "dest": 168
    },
    {
      "src": 107,
      "dest": 204
    },
    {
      "src": 166,
      "dest": 263
    },
    {
      "src": 31,
      "dest": 128
    },
    {
      "src": 32,
      "dest": 129
    },
    {
      "src": 82,
      "dest": 179
    },
    {
      "src": 50,
      "dest": 147
    },
    {
      "src": 55,
      "dest": 152
    },
    {
      "src": 167,
      "dest": 264
    },
    {
      "src": 21,
      "dest": 118
    },
    {
      "src": 13,
      "dest": 13
    },
    {
      "src": 119,
      "dest": 216
    },
    {
      "src": 128,
      "dest": 225
    },
    {
      "src": 164,
      "dest": 261
    },
    {
      "src": 132,
      "dest": 229
    },
    {
      "src": 37,
      "dest": 134
    },
    {
      "src": 48,
      "dest": 145
    },
    {
      "src": 90,
      "dest": 187
    },
    {
      "src": 120,
      "dest": 217
    },
    {
      "src": 6,
      "dest": 6
    },
    {
      "src": 8,
      "dest": 8
    },
    {
      "src": 5,
      "dest": 5
    },
    {
      "src": 79,
      "dest": 176
    },
    {
      "src": 144,
      "dest": 241
    },
    {
      "src": 87,
      "dest": 184
    },
    {
      "src": 91,
      "dest": 188
    },
    {
      "src": 9,
      "dest": 9
    },
    {
      "src": 171,
      "dest": 268
    },
    {
      "src": 17,
      "dest": 114
    },
    {
      "src": 134,
      "dest": 231
    },
    {
      "src": 58,
      "dest": 155
    },
    {
      "src": 4,
      "dest": 4
    },
    {
      "src": 156,
      "dest": 253
    },
    {
      "src": 95,
      "dest": 192
    },
    {
      "src": 18,
      "dest": 115
    },
    {
      "src": 105,
      "dest": 202
    },
    {
      "src": 116,
      "dest": 213
    },
    {
      "src": 170,
      "dest": 267
    },
    {
      "src": 151,
      "dest": 248
    },
    {
      "src": 36,
      "dest": 133
    },
    {
      "src": 60,
      "dest": 157
    },
    {
      "src": 46,
      "dest": 143
    },
    {
      "src": 80,
      "dest": 177
    },
    {
      "src": 29,
      "dest": 126
    },
    {
      "src": 123,
      "dest": 220
    },
    {
      "src": 16,
      "dest": 113
    },
    {
      "src": 24,
      "dest": 121
    },
    {
      "src": 51,
      "dest": 148
    },
    {
      "src": 110,
      "dest": 207
    },
    {
      "src": 152,
      "dest": 249
    },
    {
      "src": 85,
      "dest": 182
    },
    {
      "src": 169,
      "dest": 266
    },
    {
      "src": 88,
      "dest": 185
    },
    {
      "src": 38,
      "dest": 135
    },
    {
      "src": 70,
      "dest": 167
    },
    {
      "src": 161,
      "dest": 258
    },
    {
      "src": 98,
      "dest": 195
    },
    {
      "src": 141,
      "dest": 238
    },
    {
      "src": 158,
      "dest": 255
    },
    {
      "src": 133,
      "dest": 230
    },
    {
      "src": 94,
      "dest": 191
    },
    {
      "src": 35,
      "dest": 132
    },
    {
      "src": 12,
      "dest": 12
    },
    {
      "src": 75,
      "dest": 172
    },
    {
      "src": 127,
      "dest": 224
    },
    {
      "src": 147,
      "dest": 244
    },
    {
      "src": 62,
      "dest": 159
    },
    {
      "src": 66,
      "dest": 163
    },
    {
      "src": 76,
      "dest": 173
    },
    {
      "src": 160,
      "dest": 257
    },
    {
      "src": 100,
      "dest": 197
    },
    {
      "src": 129,
      "dest": 226
    },
    {
      "src": 30,
      "dest": 127
    },
    {
      "src": 154,
      "dest": 251
    },
    {
      "src": 135,
      "dest": 232
    },
    {
      "src": 54,
      "dest": 151
    },
    {
      "src": 114,
      "dest": 211
    },
    {
      "src": 126,
      "dest": 223
    },
    {
      "src": 43,
      "dest": 140
    },
    {
      "src": 26,
      "dest": 123
    },
    {
      "src": 84,
      "dest": 181
    },
    {
      "src": 102,
      "dest": 199
    },
    {
      "src": 83,
      "dest": 180
    },
    {
      "src": 44,
      "dest": 141
    },
    {
      "src": 78,
      "dest": 175
    },
    {
      "src": 106,
      "dest": 203
    },
    {
      "src": 65,
      "dest": 162
    },
    {
      "src": 41,
      "dest": 138
    },
    {
      "src": 0,
      "dest": 0
    },
    {
      "src": 47,
      "dest": 144
    },
    {
      "src": 168,
      "dest": 265
    },
    {
      "src": 14,
      "dest": 14
    },
    {
      "src": 73,
      "dest": 170
    },
    {
      "src": 150,
      "dest": 247
    },
    {
      "src": 136,
      "dest": 233
    },
    {
      "src": 117,
      "dest": 214
    },
    {
      "src": 68,
      "dest": 165
    },
    {
      "src": 143,
      "dest": 240
    },
    {
      "src": 159,
      "dest": 256
    },
    {
      "src": 138,
      "dest": 235
    },
    {
      "src": 142,
      "dest": 239
    },
    {
      "src": 111,
      "dest": 208
    },
    {
      "src": 45,
      "dest": 142
    },
    {
      "src": 61,
      "dest": 158
    },
    {
      "src": 53,
      "dest": 150
    },
    {
      "src": 92,
      "dest": 189
    },
    {
      "src": 104,
      "dest": 201
    },
    {
      "src": 125,
      "dest": 222
    },
    {
      "src": 39,
      "dest": 136
    },
    {
      "src": 112,
      "dest": 209
    },
    {
      "src": 15,
      "dest": 112
    },
    {
      "src": 139,
      "dest": 236
    },
    {
      "src": 27,
      "dest": 124
    },
    {
      "src": 145,
      "dest": 242
    },
    {
      "src": 113,
      "dest": 210
    },
    {
      "src": 93,
      "dest": 190
    },
    {
      "src": 72,
      "dest": 169
    },
    {
      "src": 146,
      "dest": 243
    },
    {
      "src": 56,
      "dest": 153
    },
    {
      "src": 137,
      "dest": 234
    },
    {
      "src": 34,
      "dest": 131
    },
    {
      "src": 97,
      "dest": 194
    },
    {
      "src": 59,
      "dest": 156
    },
    {
      "src": 148,
      "dest": 245
    },
    {
      "src": 69,
      "dest": 166
    },
    {
      "src": 130,
      "dest": 227
    },
    {
      "src": 67,
      "dest": 164
    },
    {
      "src": 25,
      "dest": 122
    },
    {
      "src": 86,
      "dest": 183
    },
    {
      "src": 96,
      "dest": 193
    },
    {
      "src": 122,
      "dest": 219
    },
    {
      "src": 42,
      "dest": 139
    },
    {
      "src": 103,
      "dest": 200
    },
    {
      "src": 131,
      "dest": 228
    },
    {
      "src": 23,
      "dest": 120
    },
    {
      "src": 63,
      "dest": 160
    },
    {
      "src": 74,
      "dest": 171
    },
    {
      "src": 99,
      "dest": 196
    },
    {
      "src": 109,
      "dest": 206
    },
    {
      "src": 11,
      "dest": 11
    },
    {
      "src": 2,
      "dest": 2
    },
    {
      "src": 64,
      "dest": 161
    },
    {
      "src": 124,
      "dest": 221
    },
    {
      "src": 149,
      "dest": 246
    }
  ],
  "actions": [
    {
      "action": "insert",
      "tree": 111,
      "parent": 268,
      "at": 5
    },
    {
      "action": "insert",
      "tree": 110,
      "parent": 111,
      "at": 0
    },
    {
      "action": "insert",
      "tree": 16,
      "parent": 110,
      "at": 0
    },
    {
      "action": "insert",
      "tree": 19,
      "parent": 110,
      "at": 1
    },
    {
      "action": "insert",
      "tree": 20,
      "parent": 110,
      "at": 2
    },
    {
      "action": "insert",
      "tree": 109,
      "parent": 110,
      "at": 3
    },
    {
      "action": "insert",
      "tree": 15,
      "parent": 16,
      "at": 0
    },
    {
      "action": "insert",
      "tree": 18,
      "parent": 19,
      "at": 0
    },
    {
      "action": "insert",
      "tree": 22,
      "parent": 109,
      "at": 0
    },
    {
      "action": "insert",
      "tree": 32,
      "parent": 109,
      "at": 1
    },
    {
      "action": "insert",
      "tree": 103,
      "parent": 109,
      "at": 2
    },
    {
      "action": "insert",
      "tree": 108,
      "parent": 109,
      "at": 3
    },
    {
      "action": "insert",
      "tree": 17,
      "parent": 18,
      "at": 0
    },
    {
      "action": "insert",
      "tree": 21,
      "parent": 22,
      "at": 0
    },
    {
      "action": "insert",
      "tree": 23,
      "parent": 32,
      "at": 0
    },
    {
      "action": "insert",
      "tree": 29,
      "parent": 32,
      "at": 1
    },
    {
      "action": "insert",
      "tree": 31,
      "parent": 32,
      "at": 2
    },
    {
      "action": "insert",
      "tree": 40,
      "parent": 103,
      "at": 0
    },
    {
      "action": "insert",
      "tree": 51,
      "parent": 103,
      "at": 1
    },
    {
      "action": "insert",
      "tree": 57,
      "parent": 103,
      "at": 2
    },
    {
      "action": "insert",
      "tree": 102,
      "parent": 103,
      "at": 3
    },
    {
      "action": "insert",
      "tree": 107,
      "parent": 108,
      "at": 0
    },
    {
      "action": "insert",
      "tree": 25,
      "parent": 29,
      "at": 0
    },
    {
      "action": "insert",
      "tree": 26,
      "parent": 29,
      "at": 1
    },
    {
      "action": "insert",
      "tree": 28,
      "parent": 29,
      "at": 2
    },
    {
      "action": "insert",
      "tree": 30,
      "parent": 31,
      "at": 0
    },
    {
      "action": "insert",
      "tree": 39,
      "parent": 40,
      "at": 0
    },
    {
      "action": "insert",
      "tree": 50,
      "parent": 51,
      "at": 0
    },
    {
      "action": "insert",
      "tree": 56,
      "parent": 57,
      "at": 0
    },
    {
      "action": "insert",
      "tree": 101,
      "parent": 102,
      "at": 0
    },
    {
      "action": "insert",
      "tree": 105,
      "parent": 107,
      "at": 0
    },
    {
      "action": "insert",
      "tree": 106,
      "parent": 107,
      "at": 1
    },
    {
      "action": "insert",
      "tree": 24,
      "parent": 25,
      "at": 0
    },
    {
      "action": "insert",
      "tree": 27,
      "parent": 28,
      "at": 0
    },
    {
      "action": "insert",
      "tree": 37,
      "parent": 39,
      "at": 0
    },
    {
      "action": "insert",
      "tree": 38,
      "parent": 39,
      "at": 1
    },
    {
      "action": "insert",
      "tree": 48,
      "parent": 50,
      "at": 0
    },
    {
      "action": "insert",
      "tree": 49,
      "parent": 50,
      "at": 1
    },
    {
      "action": "insert",
      "tree": 55,
      "parent": 56,
      "at": 0
    },
    {
      "action": "insert",
      "tree": 58,
      "parent": 101,
      "at": 0
    },
    {
      "action": "insert",
      "tree": 78,
      "parent": 101,
      "at": 1
    },
    {
      "action": "insert",
      "tree": 100,
      "parent": 101,
      "at": 2
    },
    {
      "action": "insert",
      "tree": 104,
      "parent": 105,
      "at": 0
    },
    {
      "action": "update",
      "tree": 34,
      "label": "is_census_enabled"
    },
    {
      "action": "insert",
      "tree": 34,
      "parent": 37,
      "at": 0
    },
    {
      "action": "insert",
      "tree": 35,
      "parent": 37,
      "at": 1
    },
    {
      "action": "insert",
      "tree": 36,
      "parent": 37,
      "at": 2
    },
    {
      "action": "insert",
      "tree": 42,
      "parent": 48,
      "at": 0
    },
    {
      "action": "insert",
      "tree": 43,
      "parent": 48,
      "at": 1
    },
    {
      "action": "insert",
      "tree": 47,
      "parent": 48,
      "at": 2
    },
    {
      "action": "insert",
      "tree": 53,
      "parent": 55,
      "at": 0
    },
    {
      "action": "insert",
      "tree": 54,
      "parent": 55,
      "at": 1
    },
    {
      "action": "insert",
      "tree": 59,
      "parent": 78,
      "at": 0
    },
    {
      "action": "insert",
      "tree": 60,
      "parent": 78,
      "at": 1
    },
    {
      "action": "insert",
      "tree": 77,
      "parent": 78,
      "at": 2
    },
    {
      "action": "insert",
      "tree": 99,
      "parent": 100,
      "at": 0
    },
    {
      "action": "insert",
      "tree": 33,
      "parent": 34,
      "at": 0
    },
    {
      "action": "insert",
      "tree": 41,
      "parent": 42,
      "at": 0
    },
    {
      "action": "insert",
      "tree": 45,
      "parent": 47,
      "at": 0
    },
    {
      "action": "insert",
      "tree": 46,
      "parent": 47,
      "at": 1
    },
    {
      "action": "insert",
      "tree": 52,
      "parent": 53,
      "at": 0
    },
    {
      "action": "insert",
      "tree": 62,
      "parent": 77,
      "at": 0
    },
    {
      "action": "insert",
      "tree": 76,
      "parent": 77,
      "at": 1
    },
    {
      "action": "insert",
      "tree": 98,
      "parent": 99,
      "at": 0
    },
    {
      "action": "insert",
      "tree": 44,
      "parent": 45,
      "at": 0
    },
    {
      "action": "insert",
      "tree": 61,
      "parent": 62,
      "at": 0
    },
    {
      "action": "insert",
      "tree": 72,
      "parent": 76,
      "at": 0
    },
    {
      "action": "insert",
      "tree": 75,
      "parent": 76,
      "at": 1
    },
    {
      "action": "insert",
      "tree": 92,
      "parent": 98,
      "at": 0
    },
    {
      "action": "insert",
      "tree": 93,
      "parent": 98,
      "at": 1
    },
    {
      "action": "insert",
      "tree": 97,
      "parent": 98,
      "at": 2
    },
    {
      "action": "insert",
      "tree": 71,
      "parent": 72,
      "at": 0
    },
    {
      "action": "insert",
      "tree": 74,
      "parent": 75,
      "at": 0
    },
    {
      "action": "insert",
      "tree": 89,
      "parent": 92,
      "at": 0
    },
    {
      "action": "insert",
      "tree": 90,
      "parent": 92,
      "at": 1
    },
    {
      "action": "insert",
      "tree": 91,
      "parent": 92,
      "at": 2
    },
    {
      "action": "insert",
      "tree": 95,
      "parent": 97,
      "at": 0
    },
    {
      "action": "insert",
      "tree": 96,
      "parent": 97,
      "at": 1
    },
    {
      "action": "insert",
      "tree": 69,
      "parent": 71,
      "at": 0
    },
    {
      "action": "insert",
      "tree": 70,
      "parent": 71,
      "at": 1
    },
    {
      "action": "insert",
      "tree": 73,
      "parent": 74,
      "at": 0
    },
    {
      "action": "insert",
      "tree": 87,
      "parent": 89,
      "at": 0
    },
    {
      "action": "insert",
      "tree": 88,
      "parent": 89,
      "at": 1
    },
    {
      "action": "insert",
      "tree": 94,
      "parent": 95,
      "at": 0
    },
    {
      "action": "insert",
      "tree": 66,
      "parent": 69,
      "at": 0
    },
    {
      "action": "insert",
      "tree": 68,
      "parent": 69,
      "at": 1
    },
    {
      "action": "insert",
      "tree": 85,
      "parent": 87,
      "at": 0
    },
    {
      "action": "insert",
      "tree": 86,
      "parent": 87,
      "at": 1
    },
    {
      "action": "insert",
      "tree": 64,
      "parent": 66,
      "at": 0
    },
    {
      "action": "insert",
      "tree": 65,
      "parent": 66,
      "at": 1
    },
    {
      "action": "insert",
      "tree": 67,
      "parent": 68,
      "at": 0
    },
    {
      "action": "insert",
      "tree": 82,
      "parent": 85,
      "at": 0
    },
    {
      "action": "insert",
      "tree": 84,
      "parent": 85,
      "at": 1
    },
    {
      "action": "insert",
      "tree": 63,
      "parent": 64,
      "at": 0
    },
    {
      "action": "insert",
      "tree": 80,
      "parent": 82,
      "at": 0
    },
    {
      "action": "insert",
      "tree": 81,
      "parent": 82,
      "at": 1
    },
    {
      "action": "insert",
      "tree": 83,
      "parent": 84,
      "at": 0
    },
    {
      "action": "insert",
      "tree": 79,
      "parent": 80,
      "at": 0
    }
  ]
}