{
	"root": {
		"type": "460000",
		"typeLabel": "Program",
		"pos": "1683",
		"length": "1129",
		"children": [
			{
				"type": "450300",
				"typeLabel": "CppTop",
				"pos": "1683",
				"length": "19",
				"children": [
					{
						"type": "400200",
						"typeLabel": "Include",
						"pos": "1683",
						"length": "19",
						"children": [
							{
								"type": "480000",
								"label": "<stdlib.h>",
								"typeLabel": "GenericString",
								"pos": "1692",
								"length": "10",
								"children": []
							}
						]
					}
				]
			},
			{
				"type": "450300",
				"typeLabel": "CppTop",
				"pos": "1703",
				"length": "19",
				"children": [
					{
						"type": "400200",
						"typeLabel": "Include",
						"pos": "1703",
						"length": "19",
						"children": [
							{
								"type": "480000",
								"label": "<string.h>",
								"typeLabel": "GenericString",
								"pos": "1712",
								"length": "10",
								"children": []
							}
						]
					}
				]
			},
			{
				"type": "450100",
				"typeLabel": "Declaration",
				"pos": "1724",
				"length": "30",
				"children": [
					{
						"type": "350100",
						"typeLabel": "DeclList",
						"pos": "1724",
						"length": "30",
						"children": [
							{
								"type": "340000",
								"typeLabel": "Storage",
								"pos": "1724",
								"length": "6",
								"children": [
									{
										"type": "480000",
										"label": "static",
										"typeLabel": "GenericString",
										"pos": "1724",
										"length": "6",
										"children": []
									}
								]
							},
							{
								"type": "480000",
								"label": "used_memory",
								"typeLabel": "GenericString",
								"pos": "1738",
								"length": "11",
								"children": []
							},
							{
								"type": "360100",
								"typeLabel": "InitExpr",
								"pos": "1752",
								"length": "1",
								"children": [
									{
										"type": "240200",
										"label": "0",
										"typeLabel": "Constant",
										"pos": "1752",
										"length": "1",
										"children": []
									}
								]
							}
						]
					}
				]
			},
			{
				"type": "450200",
				"typeLabel": "Definition",
				"pos": "1756",
				"length": "209",
				"children": [
					{
						"type": "380000",
						"typeLabel": "Definition",
						"pos": "1756",
						"length": "209",
						"children": [
							{
								"type": "200000",
								"typeLabel": "ParamList",
								"pos": "1769",
								"length": "13",
								"children": [
									{
										"type": "220100",
										"typeLabel": "ParameterType",
										"pos": "1770",
										"length": "11",
										"children": [
											{
												"type": "480000",
												"label": "size",
												"typeLabel": "GenericString",
												"pos": "1777",
												"length": "4",
												"children": []
											}
										]
									}
								]
							},
							{
								"type": "480000",
								"label": "zmalloc",
								"typeLabel": "GenericString",
								"pos": "1762",
								"length": "7",
								"children": []
							},
							{
								"type": "330000",
								"typeLabel": "Compound",
								"pos": "1783",
								"length": "182",
								"children": [
									{
										"type": "350100",
										"typeLabel": "DeclList",
										"pos": "1789",
										"length": "40",
										"children": [
											{
												"type": "480000",
												"label": "ptr",
												"typeLabel": "GenericString",
												"pos": "1795",
												"length": "3",
												"children": []
											},
											{
												"type": "360100",
												"typeLabel": "InitExpr",
												"pos": "1801",
												"length": "27",
												"children": [
													{
														"type": "240400",
														"typeLabel": "FunCall",
														"pos": "1801",
														"length": "27",
														"children": [
															{
																"type": "240100",
																"typeLabel": "Ident",
																"pos": "1801",
																"length": "6",
																"children": [
																	{
																		"type": "480000",
																		"label": "malloc",
																		"typeLabel": "GenericString",
																		"pos": "1801",
																		"length": "6",
																		"children": []
																	}
																]
															},
															{
																"type": "470000",
																"typeLabel": "GenericList",
																"pos": "1807",
																"length": "21",
																"children": [
																	{
																		"type": "20100",
																		"typeLabel": "Left",
																		"pos": "1808",
																		"length": "19",
																		"children": [
																			{
																				"type": "241100",
																				"typeLabel": "Binary",
																				"pos": "1808",
																				"length": "19",
																				"children": [
																					{
																						"type": "240100",
																						"typeLabel": "Ident",
																						"pos": "1808",
																						"length": "4",
																						"children": [
																							{
																								"type": "480000",
																								"label": "size",
																								"typeLabel": "GenericString",
																								"pos": "1808",
																								"length": "4",
																								"children": []
																							}
																						]
																					},
																					{
																						"type": "480000",
																						"label": "+",
																						"typeLabel": "GenericString",
																						"pos": "1812",
																						"length": "1",
																						"children": []
																					},
																					{
																						"type": "241600",
																						"typeLabel": "SizeOfType",
																						"pos": "1813",
																						"length": "14",
																						"children": []
																					}
																				]
																			}
																		]
																	}
																]
															}
														]
													}
												]
											}
										]
									},
									{
										"type": "300100",
										"typeLabel": "If",
										"pos": "1835",
										"length": "22",
										"children": [
											{
												"type": "490100",
												"typeLabel": "IfToken",
												"pos": "1835",
												"length": "2",
												"children": []
											},
											{
												"type": "241000",
												"typeLabel": "Unary",
												"pos": "1839",
												"length": "4",
												"children": [
													{
														"type": "240100",
														"typeLabel": "Ident",
														"pos": "1840",
														"length": "3",
														"children": [
															{
																"type": "480000",
																"label": "ptr",
																"typeLabel": "GenericString",
																"pos": "1840",
																"length": "3",
																"children": []
															}
														]
													},
													{
														"type": "480000",
														"label": "!",
														"typeLabel": "GenericString",
														"pos": "1839",
														"length": "1",
														"children": []
													}
												]
											},
											{
												"type": "280200",
												"typeLabel": "ReturnExpr",
												"pos": "1845",
												"length": "12",
												"children": [
													{
														"type": "240100",
														"typeLabel": "Ident",
														"pos": "1852",
														"length": "4",
														"children": [
															{
																"type": "480000",
																"label": "NULL",
																"typeLabel": "GenericString",
																"pos": "1852",
																"length": "4",
																"children": []
															}
														]
													}
												]
											}
										]
									},
									{
										"type": "260300",
										"typeLabel": "ExprStatement",
										"pos": "1862",
										"length": "23",
										"children": [
											{
												"type": "290100",
												"typeLabel": "Some",
												"pos": "1862",
												"length": "23",
												"children": [
													{
														"type": "240700",
														"typeLabel": "Assignment",
														"pos": "1862",
														"length": "22",
														"children": [
															{
																"type": "241000",
																"typeLabel": "Unary",
																"pos": "1862",
																"length": "15",
																"children": [
																	{
																		"type": "242000",
																		"typeLabel": "ParenExpr",
																		"pos": "1863",
																		"length": "14",
																		"children": [
																			{
																				"type": "241700",
																				"typeLabel": "Cast",
																				"pos": "1864",
																				"length": "12",
																				"children": [
																					{
																						"type": "240100",
																						"typeLabel": "Ident",
																						"pos": "1873",
																						"length": "3",
																						"children": [
																							{
																								"type": "480000",
																								"label": "ptr",
																								"typeLabel": "GenericString",
																								"pos": "1873",
																								"length": "3",
																								"children": []
																							}
																						]
																					}
																				]
																			}
																		]
																	},
																	{
																		"type": "480000",
																		"label": "*",
																		"typeLabel": "GenericString",
																		"pos": "1862",
																		"length": "1",
																		"children": []
																	}
																]
															},
															{
																"type": "480000",
																"label": "=",
																"typeLabel": "GenericString",
																"pos": "1878",
																"length": "1",
																"children": []
															},
															{
																"type": "240100",
																"typeLabel": "Ident",
																"pos": "1880",
																"length": "4",
																"children": [
																	{
																		"type": "480000",
																		"label": "size",
																		"typeLabel": "GenericString",
																		"pos": "1880",
																		"length": "4",
																		"children": []
																	}
																]
															}
														]
													},
													{
														"type": "480000",
														"label": ";",
														"typeLabel": "GenericString",
														"pos": "1884",
														"length": "1",
														"children": []
													}
												]
											}
										]
									},
									{
										"type": "260300",
										"typeLabel": "ExprStatement",
										"pos": "1890",
										"length": "35",
										"children": [
											{
												"type": "290100",
												"typeLabel": "Some",
												"pos": "1890",
												"length": "35",
												"children": [
													{
														"type": "240700",
														"typeLabel": "Assignment",
														"pos": "1890",
														"length": "34",
														"children": [
															{
																"type": "240100",
																"typeLabel": "Ident",
																"pos": "1890",
																"length": "11",
																"children": [
																	{
																		"type": "480000",
																		"label": "used_memory",
																		"typeLabel": "GenericString",
																		"pos": "1890",
																		"length": "11",
																		"children": []
																	}
																]
															},
															{
																"type": "480000",
																"label": "+=",
																"typeLabel": "GenericString",
																"pos": "1902",
																"length": "2",
																"children": []
															},
															{
																"type": "241100",
																"typeLabel": "Binary",
																"pos": "1905",
																"length": "19",
																"children": [
																	{
																		"type": "240100",
																		"typeLabel": "Ident",
																		"pos": "1905",
																		"length": "4",
																		"children": [
																			{
																				"type": "480000",
																				"label": "size",
																				"typeLabel": "GenericString",
																				"pos": "1905",
																				"length": "4",
																				"children": []
																			}
																		]
																	},
																	{
																		"type": "480000",
																		"label": "+",
																		"typeLabel": "GenericString",
																		"pos": "1909",
																		"length": "1",
																		"children": []
																	},
																	{
																		"type": "241600",
																		"typeLabel": "SizeOfType",
																		"pos": "1910",
																		"length": "14",
																		"children": []
																	}
																]
															}
														]
													},
													{
														"type": "480000",
														"label": ";",
														"typeLabel": "GenericString",
														"pos": "1924",
														"length": "1",
														"children": []
													}
												]
											}
										]
									},
									{
										"type": "280200",
										"typeLabel": "ReturnExpr",
										"pos": "1930",
										"length": "33",
										"children": [
											{
												"type": "241100",
												"typeLabel": "Binary",
												"pos": "1937",
												"length": "25",
												"children": [
													{
														"type": "241700",
														"typeLabel": "Cast",
														"pos": "1937",
														"length": "10",
														"children": [
															{
																"type": "240100",
																"typeLabel": "Ident",
																"pos": "1944",
																"length": "3",
																"children": [
																	{
																		"type": "480000",
																		"label": "ptr",
																		"typeLabel": "GenericString",
																		"pos": "1944",
																		"length": "3",
																		"children": []
																	}
																]
															}
														]
													},
													{
														"type": "480000",
														"label": "+",
														"typeLabel": "GenericString",
														"pos": "1947",
														"length": "1",
														"children": []
													},
													{
														"type": "241600",
														"typeLabel": "SizeOfType",
														"pos": "1948",
														"length": "14",
														"children": []
													}
												]
											}
										]
									}
								]
							}
						]
					}
				]
			},
			{
				"type": "450200",
				"typeLabel": "Definition",
				"pos": "1967",
				"length": "426",
				"children": [
					{
						"type": "380000",
						"typeLabel": "Definition",
						"pos": "1967",
						"length": "426",
						"children": [
							{
								"type": "200000",
								"typeLabel": "ParamList",
								"pos": "1981",
								"length": "24",
								"children": [
									{
										"type": "220100",
										"typeLabel": "ParameterType",
										"pos": "1982",
										"length": "9",
										"children": [
											{
												"type": "480000",
												"label": "ptr",
												"typeLabel": "GenericString",
												"pos": "1988",
												"length": "3",
												"children": []
											}
										]
									},
									{
										"type": "220100",
										"typeLabel": "ParameterType",
										"pos": "1993",
										"length": "11",
										"children": [
											{
												"type": "480000",
												"label": "size",
												"typeLabel": "GenericString",
												"pos": "2000",
												"length": "4",
												"children": []
											}
										]
									}
								]
							},
							{
								"type": "480000",
								"label": "zrealloc",
								"typeLabel": "GenericString",
								"pos": "1973",
								"length": "8",
								"children": []
							},
							{
								"type": "330000",
								"typeLabel": "Compound",
								"pos": "2006",
								"length": "387",
								"children": [
									{
										"type": "350100",
										"typeLabel": "DeclList",
										"pos": "2012",
										"length": "14",
										"children": [
											{
												"type": "480000",
												"label": "realptr",
												"typeLabel": "GenericString",
												"pos": "2018",
												"length": "7",
												"children": []
											}
										]
									},
									{
										"type": "350100",
										"typeLabel": "DeclList",
										"pos": "2031",
										"length": "15",
										"children": [
											{
												"type": "480000",
												"label": "oldsize",
												"typeLabel": "GenericString",
												"pos": "2038",
												"length": "7",
												"children": []
											}
										]
									},
									{
										"type": "350100",
										"typeLabel": "DeclList",
										"pos": "2051",
										"length": "13",
										"children": [
											{
												"type": "480000",
												"label": "newptr",
												"typeLabel": "GenericString",
												"pos": "2057",
												"length": "6",
												"children": []
											}
										]
									},
									{
										"type": "300100",
										"typeLabel": "If",
										"pos": "2070",
										"length": "38",
										"children": [
											{
												"type": "490100",
												"typeLabel": "IfToken",
												"pos": "2070",
												"length": "2",
												"children": []
											},
											{
												"type": "241100",
												"typeLabel": "Binary",
												"pos": "2074",
												"length": "11",
												"children": [
													{
														"type": "240100",
														"typeLabel": "Ident",
														"pos": "2074",
														"length": "3",
														"children": [
															{
																"type": "480000",
																"label": "ptr",
																"typeLabel": "GenericString",
																"pos": "2074",
																"length": "3",
																"children": []
															}
														]
													},
													{
														"type": "480000",
														"label": "==",
														"typeLabel": "GenericString",
														"pos": "2078",
														"length": "2",
														"children": []
													},
													{
														"type": "240100",
														"typeLabel": "Ident",
														"pos": "2081",
														"length": "4",
														"children": [
															{
																"type": "480000",
																"label": "NULL",
																"typeLabel": "GenericString",
																"pos": "2081",
																"length": "4",
																"children": []
															}
														]
													}
												]
											},
											{
												"type": "280200",
												"typeLabel": "ReturnExpr",
												"pos": "2087",
												"length": "21",
												"children": [
													{
														"type": "240400",
														"typeLabel": "FunCall",
														"pos": "2094",
														"length": "13",
														"children": [
															{
																"type": "240100",
																"typeLabel": "Ident",
																"pos": "2094",
																"length": "7",
																"children": [
																	{
																		"type": "480000",
																		"label": "zmalloc",
																		"typeLabel": "GenericString",
																		"pos": "2094",
																		"length": "7",
																		"children": []
																	}
																]
															},
															{
																"type": "470000",
																"typeLabel": "GenericList",
																"pos": "2101",
																"length": "6",
																"children": [
																	{
																		"type": "20100",
																		"typeLabel": "Left",
																		"pos": "2102",
																		"length": "4",
																		"children": [
																			{
																				"type": "240100",
																				"typeLabel": "Ident",
																				"pos": "2102",
																				"length": "4",
																				"children": [
																					{
																						"type": "480000",
																						"label": "size",
																						"typeLabel": "GenericString",
																						"pos": "2102",
																						"length": "4",
																						"children": []
																					}
																				]
																			}
																		]
																	}
																]
															}
														]
													}
												]
											}
										]
									},
									{
										"type": "260300",
										"typeLabel": "ExprStatement",
										"pos": "2113",
										"length": "36",
										"children": [
											{
												"type": "290100",
												"typeLabel": "Some",
												"pos": "2113",
												"length": "36",
												"children": [
													{
														"type": "240700",
														"typeLabel": "Assignment",
														"pos": "2113",
														"length": "35",
														"children": [
															{
																"type": "240100",
																"typeLabel": "Ident",
																"pos": "2113",
																"length": "7",
																"children": [
																	{
																		"type": "480000",
																		"label": "realptr",
																		"typeLabel": "GenericString",
																		"pos": "2113",
																		"length": "7",
																		"children": []
																	}
																]
															},
															{
																"type": "480000",
																"label": "=",
																"typeLabel": "GenericString",
																"pos": "2121",
																"length": "1",
																"children": []
															},
															{
																"type": "241100",
																"typeLabel": "Binary",
																"pos": "2123",
																"length": "25",
																"children": [
																	{
																		"type": "241700",
																		"typeLabel": "Cast",
																		"pos": "2123",
																		"length": "10",
																		"children": [
																			{
																				"type": "240100",
																				"typeLabel": "Ident",
																				"pos": "2130",
																				"length": "3",
																				"children": [
																					{
																						"type": "480000",
																						"label": "ptr",
																						"typeLabel": "GenericString",
																						"pos": "2130",
																						"length": "3",
																						"children": []
																					}
																				]
																			}
																		]
																	},
																	{
																		"type": "480000",
																		"label": "-",
																		"typeLabel": "GenericString",
																		"pos": "2133",
																		"length": "1",
																		"children": []
																	},
																	{
																		"type": "241600",
																		"typeLabel": "SizeOfType",
																		"pos": "2134",
																		"length": "14",
																		"children": []
																	}
																]
															}
														]
													},
													{
														"type": "480000",
														"label": ";",
														"typeLabel": "GenericString",
														"pos": "2148",
														"length": "1",
														"children": []
													}
												]
											}
										]
									},
									{
										"type": "260300",
										"typeLabel": "ExprStatement",
										"pos": "2154",
										"length": "30",
										"children": [
											{
												"type": "290100",
												"typeLabel": "Some",
												"pos": "2154",
												"length": "30",
												"children": [
													{
														"type": "240700",
														"typeLabel": "Assignment",
														"pos": "2154",
														"length": "29",
														"children": [
															{
																"type": "240100",
																"typeLabel": "Ident",
																"pos": "2154",
																"length": "7",
																"children": [
																	{
																		"type": "480000",
																		"label": "oldsize",
																		"typeLabel": "GenericString",
																		"pos": "2154",
																		"length": "7",
																		"children": []
																	}
																]
															},
															{
																"type": "480000",
																"label": "=",
																"typeLabel": "GenericString",
																"pos": "2162",
																"length": "1",
																"children": []
															},
															{
																"type": "241000",
																"typeLabel": "Unary",
																"pos": "2164",
																"length": "19",
																"children": [
																	{
																		"type": "242000",
																		"typeLabel": "ParenExpr",
																		"pos": "2165",
																		"length": "18",
																		"children": [
																			{
																				"type": "241700",
																				"typeLabel": "Cast",
																				"pos": "2166",
																				"length": "16",
																				"children": [
																					{
																						"type": "240100",
																						"typeLabel": "Ident",
																						"pos": "2175",
																						"length": "7",
																						"children": [
																							{
																								"type": "480000",
																								"label": "realptr",
																								"typeLabel": "GenericString",
																								"pos": "2175",
																								"length": "7",
																								"children": []
																							}
																						]
																					}
																				]
																			}
																		]
																	},
																	{
																		"type": "480000",
																		"label": "*",
																		"typeLabel": "GenericString",
																		"pos": "2164",
																		"length": "1",
																		"children": []
																	}
																]
															}
														]
													},
													{
														"type": "480000",
														"label": ";",
														"typeLabel": "GenericString",
														"pos": "2183",
														"length": "1",
														"children": []
													}
												]
											}
										]
									},
									{
										"type": "260300",
										"typeLabel": "ExprStatement",
										"pos": "2189",
										"length": "46",
										"children": [
											{
												"type": "290100",
												"typeLabel": "Some",
												"pos": "2189",
												"length": "46",
												"children": [
													{
														"type": "240700",
														"typeLabel": "Assignment",
														"pos": "2189",
														"length": "45",
														"children": [
															{
																"type": "240100",
																"typeLabel": "Ident",
																"pos": "2189",
																"length": "6",
																"children": [
																	{
																		"type": "480000",
																		"label": "newptr",
																		"typeLabel": "GenericString",
																		"pos": "2189",
																		"length": "6",
																		"children": []
																	}
																]
															},
															{
																"type": "480000",
																"label": "=",
																"typeLabel": "GenericString",
																"pos": "2196",
																"length": "1",
																"children": []
															},
															{
																"type": "240400",
																"typeLabel": "FunCall",
																"pos": "2198",
																"length": "36",
																"children": [
																	{
																		"type": "240100",
																		"typeLabel": "Ident",
																		"pos": "2198",
																		"length": "7",
																		"children": [
																			{
																				"type": "480000",
																				"label": "realloc",
																				"typeLabel": "GenericString",
																				"pos": "2198",
																				"length": "7",
																				"children": []
																			}
																		]
																	},
																	{
																		"type": "470000",
																		"typeLabel": "GenericList",
																		"pos": "2205",
																		"length": "29",
																		"children": [
																			{
																				"type": "20100",
																				"typeLabel": "Left",
																				"pos": "2206",
																				"length": "7",
																				"children": [
																					{
																						"type": "240100",
																						"typeLabel": "Ident",
																						"pos": "2206",
																						"length": "7",
																						"children": [
																							{
																								"type": "480000",
																								"label": "realptr",
																								"typeLabel": "GenericString",
																								"pos": "2206",
																								"length": "7",
																								"children": []
																							}
																						]
																					}
																				]
																			},
																			{
																				"type": "20100",
																				"typeLabel": "Left",
																				"pos": "2214",
																				"length": "19",
																				"children": [
																					{
																						"type": "241100",
																						"typeLabel": "Binary",
																						"pos": "2214",
																						"length": "19",
																						"children": [
																							{
																								"type": "240100",
																								"typeLabel": "Ident",
																								"pos": "2214",
																								"length": "4",
																								"children": [
																									{
																										"type": "480000",
																										"label": "size",
																										"typeLabel": "GenericString",
																										"pos": "2214",
																										"length": "4",
																										"children": []
																									}
																								]
																							},
																							{
																								"type": "480000",
																								"label": "+",
																								"typeLabel": "GenericString",
																								"pos": "2218",
																								"length": "1",
																								"children": []
																							},
																							{
																								"type": "241600",
																								"typeLabel": "SizeOfType",
																								"pos": "2219",
																								"length": "14",
																								"children": []
																							}
																						]
																					}
																				]
																			}
																		]
																	}
																]
															}
														]
													},
													{
														"type": "480000",
														"label": ";",
														"typeLabel": "GenericString",
														"pos": "2234",
														"length": "1",
														"children": []
													}
												]
											}
										]
									},
									{
										"type": "300100",
										"typeLabel": "If",
										"pos": "2240",
										"length": "25",
										"children": [
											{
												"type": "490100",
												"typeLabel": "IfToken",
												"pos": "2240",
												"length": "2",
												"children": []
											},
											{
												"type": "241000",
												"typeLabel": "Unary",
												"pos": "2244",
												"length": "7",
												"children": [
													{
														"type": "240100",
														"typeLabel": "Ident",
														"pos": "2245",
														"length": "6",
														"children": [
															{
																"type": "480000",
																"label": "newptr",
																"typeLabel": "GenericString",
																"pos": "2245",
																"length": "6",
																"children": []
															}
														]
													},
													{
														"type": "480000",
														"label": "!",
														"typeLabel": "GenericString",
														"pos": "2244",
														"length": "1",
														"children": []
													}
												]
											},
											{
												"type": "280200",
												"typeLabel": "ReturnExpr",
												"pos": "2253",
												"length": "12",
												"children": [
													{
														"type": "240100",
														"typeLabel": "Ident",
														"pos": "2260",
														"length": "4",
														"children": [
															{
																"type": "480000",
																"label": "NULL",
																"typeLabel": "GenericString",
																"pos": "2260",
																"length": "4",
																"children": []
															}
														]
													}
												]
											}
										]
									},
									{
										"type": "260300",
										"typeLabel": "ExprStatement",
										"pos": "2271",
										"length": "26",
										"children": [
											{
												"type": "290100",
												"typeLabel": "Some",
												"pos": "2271",
												"length": "26",
												"children": [
													{
														"type": "240700",
														"typeLabel": "Assignment",
														"pos": "2271",
														"length": "25",
														"children": [
															{
																"type": "241000",
																"typeLabel": "Unary",
																"pos": "2271",
																"length": "18",
																"children": [
																	{
																		"type": "242000",
																		"typeLabel": "ParenExpr",
																		"pos": "2272",
																		"length": "17",
																		"children": [
																			{
																				"type": "241700",
																				"typeLabel": "Cast",
																				"pos": "2273",
																				"length": "15",
																				"children": [
																					{
																						"type": "240100",
																						"typeLabel": "Ident",
																						"pos": "2282",
																						"length": "6",
																						"children": [
																							{
																								"type": "480000",
																								"label": "newptr",
																								"typeLabel": "GenericString",
																								"pos": "2282",
																								"length": "6",
																								"children": []
																							}
																						]
																					}
																				]
																			}
																		]
																	},
																	{
																		"type": "480000",
																		"label": "*",
																		"typeLabel": "GenericString",
																		"pos": "2271",
																		"length": "1",
																		"children": []
																	}
																]
															},
															{
																"type": "480000",
																"label": "=",
																"typeLabel": "GenericString",
																"pos": "2290",
																"length": "1",
																"children": []
															},
															{
																"type": "240100",
																"typeLabel": "Ident",
																"pos": "2292",
																"length": "4",
																"children": [
																	{
																		"type": "480000",
																		"label": "size",
																		"typeLabel": "GenericString",
																		"pos": "2292",
																		"length": "4",
																		"children": []
																	}
																]
															}
														]
													},
													{
														"type": "480000",
														"label": ";",
														"typeLabel": "GenericString",
														"pos": "2296",
														"length": "1",
														"children": []
													}
												]
											}
										]
									},
									{
										"type": "260300",
										"typeLabel": "ExprStatement",
										"pos": "2302",
										"length": "23",
										"children": [
											{
												"type": "290100",
												"typeLabel": "Some",
												"pos": "2302",
												"length": "23",
												"children": [
													{
														"type": "240700",
														"typeLabel": "Assignment",
														"pos": "2302",
														"length": "22",
														"children": [
															{
																"type": "240100",
																"typeLabel": "Ident",
																"pos": "2302",
																"length": "11",
																"children": [
																	{
																		"type": "480000",
																		"label": "used_memory",
																		"typeLabel": "GenericString",
																		"pos": "2302",
																		"length": "11",
																		"children": []
																	}
																]
															},
															{
																"type": "480000",
																"label": "-=",
																"typeLabel": "GenericString",
																"pos": "2314",
																"length": "2",
																"children": []
															},
															{
																"type": "240100",
																"typeLabel": "Ident",
																"pos": "2317",
																"length": "7",
																"children": [
																	{
																		"type": "480000",
																		"label": "oldsize",
																		"typeLabel": "GenericString",
																		"pos": "2317",
																		"length": "7",
																		"children": []
																	}
																]
															}
														]
													},
													{
														"type": "480000",
														"label": ";",
														"typeLabel": "GenericString",
														"pos": "2324",
														"length": "1",
														"children": []
													}
												]
											}
										]
									},
									{
										"type": "260300",
										"typeLabel": "ExprStatement",
										"pos": "2330",
										"length": "20",
										"children": [
											{
												"type": "290100",
												"typeLabel": "Some",
												"pos": "2330",
												"length": "20",
												"children": [
													{
														"type": "240700",
														"typeLabel": "Assignment",
														"pos": "2330",
														"length": "19",
														"children": [
															{
																"type": "240100",
																"typeLabel": "Ident",
																"pos": "2330",
																"length": "11",
																"children": [
																	{
																		"type": "480000",
																		"label": "used_memory",
																		"typeLabel": "GenericString",
																		"pos": "2330",
																		"length": "11",
																		"children": []
																	}
																]
															},
															{
																"type": "480000",
																"label": "+=",
																"typeLabel": "GenericString",
																"pos": "2342",
																"length": "2",
																"children": []
															},
															{
																"type": "240100",
																"typeLabel": "Ident",
																"pos": "2345",
																"length": "4",
																"children": [
																	{
																		"type": "480000",
																		"label": "size",
																		"typeLabel": "GenericString",
																		"pos": "2345",
																		"length": "4",
																		"children": []
																	}
																]
															}
														]
													},
													{
														"type": "480000",
														"label": ";",
														"typeLabel": "GenericString",
														"pos": "2349",
														"length": "1",
														"children": []
													}
												]
											}
										]
									},
									{
										"type": "280200",
										"typeLabel": "ReturnExpr",
										"pos": "2355",
										"length": "36",
										"children": [
											{
												"type": "241100",
												"typeLabel": "Binary",
												"pos": "2362",
												"length": "28",
												"children": [
													{
														"type": "241700",
														"typeLabel": "Cast",
														"pos": "2362",
														"length": "13",
														"children": [
															{
																"type": "240100",
																"typeLabel": "Ident",
																"pos": "2369",
																"length": "6",
																"children": [
																	{
																		"type": "480000",
																		"label": "newptr",
																		"typeLabel": "GenericString",
																		"pos": "2369",
																		"length": "6",
																		"children": []
																	}
																]
															}
														]
													},
													{
														"type": "480000",
														"label": "+",
														"typeLabel": "GenericString",
														"pos": "2375",
														"length": "1",
														"children": []
													},
													{
														"type": "241600",
														"typeLabel": "SizeOfType",
														"pos": "2376",
														"length": "14",
														"children": []
													}
												]
											}
										]
									}
								]
							}
						]
					}
				]
			},
			{
				"type": "450200",
				"typeLabel": "Definition",
				"pos": "2395",
				"length": "232",
				"children": [
					{
						"type": "380000",
						"typeLabel": "Definition",
						"pos": "2395",
						"length": "232",
						"children": [
							{
								"type": "200000",
								"typeLabel": "ParamList",
								"pos": "2405",
								"length": "11",
								"children": [
									{
										"type": "220100",
										"typeLabel": "ParameterType",
										"pos": "2406",
										"length": "9",
										"children": [
											{
												"type": "480000",
												"label": "ptr",
												"typeLabel": "GenericString",
												"pos": "2412",
												"length": "3",
												"children": []
											}
										]
									}
								]
							},
							{
								"type": "480000",
								"label": "zfree",
								"typeLabel": "GenericString",
								"pos": "2400",
								"length": "5",
								"children": []
							},
							{
								"type": "330000",
								"typeLabel": "Compound",
								"pos": "2417",
								"length": "210",
								"children": [
									{
										"type": "350100",
										"typeLabel": "DeclList",
										"pos": "2423",
										"length": "14",
										"children": [
											{
												"type": "480000",
												"label": "realptr",
												"typeLabel": "GenericString",
												"pos": "2429",
												"length": "7",
												"children": []
											}
										]
									},
									{
										"type": "350100",
										"typeLabel": "DeclList",
										"pos": "2442",
										"length": "15",
										"children": [
											{
												"type": "480000",
												"label": "oldsize",
												"typeLabel": "GenericString",
												"pos": "2449",
												"length": "7",
												"children": []
											}
										]
									},
									{
										"type": "300100",
										"typeLabel": "If",
										"pos": "2463",
										"length": "24",
										"children": [
											{
												"type": "490100",
												"typeLabel": "IfToken",
												"pos": "2463",
												"length": "2",
												"children": []
											},
											{
												"type": "241100",
												"typeLabel": "Binary",
												"pos": "2467",
												"length": "11",
												"children": [
													{
														"type": "240100",
														"typeLabel": "Ident",
														"pos": "2467",
														"length": "3",
														"children": [
															{
																"type": "480000",
																"label": "ptr",
																"typeLabel": "GenericString",
																"pos": "2467",
																"length": "3",
																"children": []
															}
														]
													},
													{
														"type": "480000",
														"label": "==",
														"typeLabel": "GenericString",
														"pos": "2471",
														"length": "2",
														"children": []
													},
													{
														"type": "240100",
														"typeLabel": "Ident",
														"pos": "2474",
														"length": "4",
														"children": [
															{
																"type": "480000",
																"label": "NULL",
																"typeLabel": "GenericString",
																"pos": "2474",
																"length": "4",
																"children": []
															}
														]
													}
												]
											},
											{
												"type": "280003",
												"typeLabel": "Return",
												"pos": "2480",
												"length": "7",
												"children": []
											}
										]
									},
									{
										"type": "260300",
										"typeLabel": "ExprStatement",
										"pos": "2492",
										"length": "36",
										"children": [
											{
												"type": "290100",
												"typeLabel": "Some",
												"pos": "2492",
												"length": "36",
												"children": [
													{
														"type": "240700",
														"typeLabel": "Assignment",
														"pos": "2492",
														"length": "35",
														"children": [
															{
																"type": "240100",
																"typeLabel": "Ident",
																"pos": "2492",
																"length": "7",
																"children": [
																	{
																		"type": "480000",
																		"label": "realptr",
																		"typeLabel": "GenericString",
																		"pos": "2492",
																		"length": "7",
																		"children": []
																	}
																]
															},
															{
																"type": "480000",
																"label": "=",
																"typeLabel": "GenericString",
																"pos": "2500",
																"length": "1",
																"children": []
															},
															{
																"type": "241100",
																"typeLabel": "Binary",
																"pos": "2502",
																"length": "25",
																"children": [
																	{
																		"type": "241700",
																		"typeLabel": "Cast",
																		"pos": "2502",
																		"length": "10",
																		"children": [
																			{
																				"type": "240100",
																				"typeLabel": "Ident",
																				"pos": "2509",
																				"length": "3",
																				"children": [
																					{
																						"type": "480000",
																						"label": "ptr",
																						"typeLabel": "GenericString",
																						"pos": "2509",
																						"length": "3",
																						"children": []
																					}
																				]
																			}
																		]
																	},
																	{
																		"type": "480000",
																		"label": "-",
																		"typeLabel": "GenericString",
																		"pos": "2512",
																		"length": "1",
																		"children": []
																	},
																	{
																		"type": "241600",
																		"typeLabel": "SizeOfType",
																		"pos": "2513",
																		"length": "14",
																		"children": []
																	}
																]
															}
														]
													},
													{
														"type": "480000",
														"label": ";",
														"typeLabel": "GenericString",
														"pos": "2527",
														"length": "1",
														"children": []
													}
												]
											}
										]
									},
									{
										"type": "260300",
										"typeLabel": "ExprStatement",
										"pos": "2533",
										"length": "30",
										"children": [
											{
												"type": "290100",
												"typeLabel": "Some",
												"pos": "2533",
												"length": "30",
												"children": [
													{
														"type": "240700",
														"typeLabel": "Assignment",
														"pos": "2533",
														"length": "29",
														"children": [
															{
																"type": "240100",
																"typeLabel": "Ident",
																"pos": "2533",
																"length": "7",
																"children": [
																	{
																		"type": "480000",
																		"label": "oldsize",
																		"typeLabel": "GenericString",
																		"pos": "2533",
																		"length": "7",
																		"children": []
																	}
																]
															},
															{
																"type": "480000",
																"label": "=",
																"typeLabel": "GenericString",
																"pos": "2541",
																"length": "1",
																"children": []
															},
															{
																"type": "241000",
																"typeLabel": "Unary",
																"pos": "2543",
																"length": "19",
																"children": [
																	{
																		"type": "242000",
																		"typeLabel": "ParenExpr",
																		"pos": "2544",
																		"length": "18",
																		"children": [
																			{
																				"type": "241700",
																				"typeLabel": "Cast",
																				"pos": "2545",
																				"length": "16",
																				"children": [
																					{
																						"type": "240100",
																						"typeLabel": "Ident",
																						"pos": "2554",
																						"length": "7",
																						"children": [
																							{
																								"type": "480000",
																								"label": "realptr",
																								"typeLabel": "GenericString",
																								"pos": "2554",
																								"length": "7",
																								"children": []
																							}
																						]
																					}
																				]
																			}
																		]
																	},
																	{
																		"type": "480000",
																		"label": "*",
																		"typeLabel": "GenericString",
																		"pos": "2543",
																		"length": "1",
																		"children": []
																	}
																]
															}
														]
													},
													{
														"type": "480000",
														"label": ";",
														"typeLabel": "GenericString",
														"pos": "2562",
														"length": "1",
														"children": []
													}
												]
											}
										]
									},
									{
										"type": "260300",
										"typeLabel": "ExprStatement",
										"pos": "2568",
										"length": "38",
										"children": [
											{
												"type": "290100",
												"typeLabel": "Some",
												"pos": "2568",
												"length": "38",
												"children": [
													{
														"type": "240700",
														"typeLabel": "Assignment",
														"pos": "2568",
														"length": "37",
														"children": [
															{
																"type": "240100",
																"typeLabel": "Ident",
																"pos": "2568",
																"length": "11",
																"children": [
																	{
																		"type": "480000",
																		"label": "used_memory",
																		"typeLabel": "GenericString",
																		"pos": "2568",
																		"length": "11",
																		"children": []
																	}
																]
															},
															{
																"type": "480000",
																"label": "-=",
																"typeLabel": "GenericString",
																"pos": "2580",
																"length": "2",
																"children": []
															},
															{
																"type": "241100",
																"typeLabel": "Binary",
																"pos": "2583",
																"length": "22",
																"children": [
																	{
																		"type": "240100",
																		"typeLabel": "Ident",
																		"pos": "2583",
																		"length": "7",
																		"children": [
																			{
																				"type": "480000",
																				"label": "oldsize",
																				"typeLabel": "GenericString",
																				"pos": "2583",
																				"length": "7",
																				"children": []
																			}
																		]
																	},
																	{
																		"type": "480000",
																		"label": "+",
																		"typeLabel": "GenericString",
																		"pos": "2590",
																		"length": "1",
																		"children": []
																	},
																	{
																		"type": "241600",
																		"typeLabel": "SizeOfType",
																		"pos": "2591",
																		"length": "14",
																		"children": []
																	}
																]
															}
														]
													},
													{
														"type": "480000",
														"label": ";",
														"typeLabel": "GenericString",
														"pos": "2605",
														"length": "1",
														"children": []
													}
												]
											}
										]
									},
									{
										"type": "260300",
										"typeLabel": "ExprStatement",
										"pos": "2611",
										"length": "14",
										"children": [
											{
												"type": "290100",
												"typeLabel": "Some",
												"pos": "2611",
												"length": "14",
												"children": [
													{
														"type": "240400",
														"typeLabel": "FunCall",
														"pos": "2611",
														"length": "13",
														"children": [
															{
																"type": "240100",
																"typeLabel": "Ident",
																"pos": "2611",
																"length": "4",
																"children": [
																	{
																		"type": "480000",
																		"label": "free",
																		"typeLabel": "GenericString",
																		"pos": "2611",
																		"length": "4",
																		"children": []
																	}
																]
															},
															{
																"type": "470000",
																"typeLabel": "GenericList",
																"pos": "2615",
																"length": "9",
																"children": [
																	{
																		"type": "20100",
																		"typeLabel": "Left",
																		"pos": "2616",
																		"length": "7",
																		"children": [
																			{
																				"type": "240100",
																				"typeLabel": "Ident",
																				"pos": "2616",
																				"length": "7",
																				"children": [
																					{
																						"type": "480000",
																						"label": "realptr",
																						"typeLabel": "GenericString",
																						"pos": "2616",
																						"length": "7",
																						"children": []
																					}
																				]
																			}
																		]
																	}
																]
															}
														]
													},
													{
														"type": "480000",
														"label": ";",
														"typeLabel": "GenericString",
														"pos": "2624",
														"length": "1",
														"children": []
													}
												]
											}
										]
									}
								]
							}
						]
					}
				]
			},
			{
				"type": "450200",
				"typeLabel": "Definition",
				"pos": "2629",
				"length": "120",
				"children": [
					{
						"type": "380000",
						"typeLabel": "Definition",
						"pos": "2629",
						"length": "120",
						"children": [
							{
								"type": "200000",
								"typeLabel": "ParamList",
								"pos": "2642",
								"length": "15",
								"children": [
									{
										"type": "220100",
										"typeLabel": "ParameterType",
										"pos": "2643",
										"length": "13",
										"children": [
											{
												"type": "480000",
												"label": "s",
												"typeLabel": "GenericString",
												"pos": "2655",
												"length": "1",
												"children": []
											}
										]
									}
								]
							},
							{
								"type": "480000",
								"label": "zstrdup",
								"typeLabel": "GenericString",
								"pos": "2635",
								"length": "7",
								"children": []
							},
							{
								"type": "330000",
								"typeLabel": "Compound",
								"pos": "2658",
								"length": "91",
								"children": [
									{
										"type": "350100",
										"typeLabel": "DeclList",
										"pos": "2664",
										"length": "23",
										"children": [
											{
												"type": "480000",
												"label": "l",
												"typeLabel": "GenericString",
												"pos": "2671",
												"length": "1",
												"children": []
											},
											{
												"type": "360100",
												"typeLabel": "InitExpr",
												"pos": "2675",
												"length": "11",
												"children": [
													{
														"type": "241100",
														"typeLabel": "Binary",
														"pos": "2675",
														"length": "11",
														"children": [
															{
																"type": "240400",
																"typeLabel": "FunCall",
																"pos": "2675",
																"length": "9",
																"children": [
																	{
																		"type": "240100",
																		"typeLabel": "Ident",
																		"pos": "2675",
																		"length": "6",
																		"children": [
																			{
																				"type": "480000",
																				"label": "strlen",
																				"typeLabel": "GenericString",
																				"pos": "2675",
																				"length": "6",
																				"children": []
																			}
																		]
																	},
																	{
																		"type": "470000",
																		"typeLabel": "GenericList",
																		"pos": "2681",
																		"length": "3",
																		"children": [
																			{
																				"type": "20100",
																				"typeLabel": "Left",
																				"pos": "2682",
																				"length": "1",
																				"children": [
																					{
																						"type": "240100",
																						"typeLabel": "Ident",
																						"pos": "2682",
																						"length": "1",
																						"children": [
																							{
																								"type": "480000",
																								"label": "s",
																								"typeLabel": "GenericString",
																								"pos": "2682",
																								"length": "1",
																								"children": []
																							}
																						]
																					}
																				]
																			}
																		]
																	}
																]
															},
															{
																"type": "480000",
																"label": "+",
																"typeLabel": "GenericString",
																"pos": "2684",
																"length": "1",
																"children": []
															},
															{
																"type": "240200",
																"label": "1",
																"typeLabel": "Constant",
																"pos": "2685",
																"length": "1",
																"children": []
															}
														]
													}
												]
											}
										]
									},
									{
										"type": "350100",
										"typeLabel": "DeclList",
										"pos": "2692",
										"length": "21",
										"children": [
											{
												"type": "480000",
												"label": "p",
												"typeLabel": "GenericString",
												"pos": "2698",
												"length": "1",
												"children": []
											},
											{
												"type": "360100",
												"typeLabel": "InitExpr",
												"pos": "2702",
												"length": "10",
												"children": [
													{
														"type": "240400",
														"typeLabel": "FunCall",
														"pos": "2702",
														"length": "10",
														"children": [
															{
																"type": "240100",
																"typeLabel": "Ident",
																"pos": "2702",
																"length": "7",
																"children": [
																	{
																		"type": "480000",
																		"label": "zmalloc",
																		"typeLabel": "GenericString",
																		"pos": "2702",
																		"length": "7",
																		"children": []
																	}
																]
															},
															{
																"type": "470000",
																"typeLabel": "GenericList",
																"pos": "2709",
																"length": "3",
																"children": [
																	{
																		"type": "20100",
																		"typeLabel": "Left",
																		"pos": "2710",
																		"length": "1",
																		"children": [
																			{
																				"type": "240100",
																				"typeLabel": "Ident",
																				"pos": "2710",
																				"length": "1",
																				"children": [
																					{
																						"type": "480000",
																						"label": "l",
																						"typeLabel": "GenericString",
																						"pos": "2710",
																						"length": "1",
																						"children": []
																					}
																				]
																			}
																		]
																	}
																]
															}
														]
													}
												]
											}
										]
									},
									{
										"type": "260300",
										"typeLabel": "ExprStatement",
										"pos": "2719",
										"length": "14",
										"children": [
											{
												"type": "290100",
												"typeLabel": "Some",
												"pos": "2719",
												"length": "14",
												"children": [
													{
														"type": "240400",
														"typeLabel": "FunCall",
														"pos": "2719",
														"length": "13",
														"children": [
															{
																"type": "240100",
																"typeLabel": "Ident",
																"pos": "2719",
																"length": "6",
																"children": [
																	{
																		"type": "480000",
																		"label": "memcpy",
																		"typeLabel": "GenericString",
																		"pos": "2719",
																		"length": "6",
																		"children": []
																	}
																]
															},
															{
																"type": "470000",
																"typeLabel": "GenericList",
																"pos": "2725",
																"length": "7",
																"children": [
																	{
																		"type": "20100",
																		"typeLabel": "Left",
																		"pos": "2726",
																		"length": "1",
																		"children": [
																			{
																				"type": "240100",
																				"typeLabel": "Ident",
																				"pos": "2726",
																				"length": "1",
																				"children": [
																					{
																						"type": "480000",
																						"label": "p",
																						"typeLabel": "GenericString",
																						"pos": "2726",
																						"length": "1",
																						"children": []
																					}
																				]
																			}
																		]
																	},
																	{
																		"type": "20100",
																		"typeLabel": "Left",
																		"pos": "2728",
																		"length": "1",
																		"children": [
																			{
																				"type": "240100",
																				"typeLabel": "Ident",
																				"pos": "2728",
																				"length": "1",
																				"children": [
																					{
																						"type": "480000",
																						"label": "s",
																						"typeLabel": "GenericString",
																						"pos": "2728",
																						"length": "1",
																						"children": []
																					}
																				]
																			}
																		]
																	},
																	{
																		"type": "20100",
																		"typeLabel": "Left",
																		"pos": "2730",
																		"length": "1",
																		"children": [
																			{
																				"type": "240100",
																				"typeLabel": "Ident",
																				"pos": "2730",
																				"length": "1",
																				"children": [
																					{
																						"type": "480000",
																						"label": "l",
																						"typeLabel": "GenericString",
																						"pos": "2730",
																						"length": "1",
																						"children": []
																					}
																				]
																			}
																		]
																	}
																]
															}
														]
													},
													{
														"type": "480000",
														"label": ";",
														"typeLabel": "GenericString",
														"pos": "2732",
														"length": "1",
														"children": []
													}
												]
											}
										]
									},
									{
										"type": "280200",
										"typeLabel": "ReturnExpr",
										"pos": "2738",
										"length": "9",
										"children": [
											{
												"type": "240100",
												"typeLabel": "Ident",
												"pos": "2745",
												"length": "1",
												"children": [
													{
														"type": "480000",
														"label": "p",
														"typeLabel": "GenericString",
														"pos": "2745",
														"length": "1",
														"children": []
													}
												]
											}
										]
									}
								]
							}
						]
					}
				]
			},
			{
				"type": "450200",
				"typeLabel": "Definition",
				"pos": "2751",
				"length": "60",
				"children": [
					{
						"type": "380000",
						"typeLabel": "Definition",
						"pos": "2751",
						"length": "60",
						"children": [
							{
								"type": "200000",
								"typeLabel": "ParamList",
								"pos": "2777",
								"length": "6",
								"children": [
									{
										"type": "220100",
										"typeLabel": "ParameterType",
										"pos": "2778",
										"length": "4",
										"children": []
									}
								]
							},
							{
								"type": "480000",
								"label": "zmalloc_used_memory",
								"typeLabel": "GenericString",
								"pos": "2758",
								"length": "19",
								"children": []
							},
							{
								"type": "330000",
								"typeLabel": "Compound",
								"pos": "2784",
								"length": "27",
								"children": [
									{
										"type": "280200",
										"typeLabel": "ReturnExpr",
										"pos": "2790",
										"length": "19",
										"children": [
											{
												"type": "240100",
												"typeLabel": "Ident",
												"pos": "2797",
												"length": "11",
												"children": [
													{
														"type": "480000",
														"label": "used_memory",
														"typeLabel": "GenericString",
														"pos": "2797",
														"length": "11",
														"children": []
													}
												]
											}
										]
									}
								]
							}
						]
					}
				]
			},
			{
				"type": "450800",
				"typeLabel": "FinalDef",
				"pos": "2812",
				"length": "0",
				"children": []
			}
		]
	}
}