{
  "matches": [
    {
      "src": 324,
      "dest": 300
    },
    {
      "src": 323,
      "dest": 299
    },
    {
      "src": 341,
      "dest": 317
    },
    {
      "src": 364,
      "dest": 340
    },
    {
      "src": 297,
      "dest": 273
    },
    {
      "src": 54,
      "dest": 54
    },
    {
      "src": 71,
      "dest": 71
    },
    {
      "src": 197,
      "dest": 173
    },
    {
      "src": 237,
      "dest": 213
    },
    {
      "src": 359,
      "dest": 335
    },
    {
      "src": 419,
      "dest": 395
    },
    {
      "src": 272,
      "dest": 248
    },
    {
      "src": 289,
      "dest": 265
    },
    {
      "src": 439,
      "dest": 415
    },
    {
      "src": 342,
      "dest": 318
    },
    {
      "src": 378,
      "dest": 354
    },
    {
      "src": 279,
      "dest": 255
    },
    {
      "src": 478,
      "dest": 454
    },
    {
      "src": 231,
      "dest": 207
    },
    {
      "src": 381,
      "dest": 357
    },
    {
      "src": 283,
      "dest": 259
    },
    {
      "src": 430,
      "dest": 406
    },
    {
      "src": 82,
      "dest": 82
    },
    {
      "src": 219,
      "dest": 195
    },
    {
      "src": 195,
      "dest": 171
    },
    {
      "src": 340,
      "dest": 316
    },
    {
      "src": 190,
      "dest": 166
    },
    {
      "src": 442,
      "dest": 418
    },
    {
      "src": 68,
      "dest": 68
    },
    {
      "src": 242,
      "dest": 218
    },
    {
      "src": 406,
      "dest": 382
    },
    {
      "src": 407,
      "dest": 383
    },
    {
      "src": 191,
      "dest": 167
    },
    {
      "src": 213,
      "dest": 189
    },
    {
      "src": 436,
      "dest": 412
    },
    {
      "src": 49,
      "dest": 49
    },
    {
      "src": 120,
      "dest": 120
    },
    {
      "src": 306,
      "dest": 282
    },
    {
      "src": 489,
      "dest": 465
    },
    {
      "src": 327,
      "dest": 303
    },
    {
      "src": 211,
      "dest": 187
    },
    {
      "src": 426,
      "dest": 402
    },
    {
      "src": 220,
      "dest": 196
    },
    {
      "src": 372,
      "dest": 348
    },
    {
      "src": 110,
      "dest": 110
    },
    {
      "src": 241,
      "dest": 217
    },
    {
      "src": 302,
      "dest": 278
    },
    {
      "src": 311,
      "dest": 287
    },
    {
      "src": 32,
      "dest": 32
    },
    {
      "src": 94,
      "dest": 94
    },
    {
      "src": 470,
      "dest": 446
    },
    {
      "src": 47,
      "dest": 47
    },
    {
      "src": 477,
      "dest": 453
    },
    {
      "src": 421,
      "dest": 397
    },
    {
      "src": 320,
      "dest": 296
    },
    {
      "src": 56,
      "dest": 56
    },
    {
      "src": 129,
      "dest": 129
    },
    {
      "src": 363,
      "dest": 339
    },
    {
      "src": 487,
      "dest": 463
    },
    {
      "src": 333,
      "dest": 309
    },
    {
      "src": 275,
      "dest": 251
    },
    {
      "src": 72,
      "dest": 72
    },
    {
      "src": 101,
      "dest": 101
    },
    {
      "src": 263,
      "dest": 239
    },
    {
      "src": 400,
      "dest": 376
    },
    {
      "src": 18,
      "dest": 18
    },
    {
      "src": 281,
      "dest": 257
    },
    {
      "src": 288,
      "dest": 264
    },
    {
      "src": 33,
      "dest": 33
    },
    {
      "src": 62,
      "dest": 62
    },
    {
      "src": 13,
      "dest": 13
    },
    {
      "src": 26,
      "dest": 26
    },
    {
      "src": 437,
      "dest": 413
    },
    {
      "src": 125,
      "dest": 125
    },
    {
      "src": 108,
      "dest": 108
    },
    {
      "src": 193,
      "dest": 169
    },
    {
      "src": 194,
      "dest": 170
    },
    {
      "src": 206,
      "dest": 182
    },
    {
      "src": 343,
      "dest": 319
    },
    {
      "src": 10,
      "dest": 10
    },
    {
      "src": 200,
      "dest": 176
    },
    {
      "src": 455,
      "dest": 431
    },
    {
      "src": 92,
      "dest": 92
    },
    {
      "src": 331,
      "dest": 307
    },
    {
      "src": 46,
      "dest": 46
    },
    {
      "src": 60,
      "dest": 60
    },
    {
      "src": 388,
      "dest": 364
    },
    {
      "src": 282,
      "dest": 258
    },
    {
      "src": 80,
      "dest": 80
    },
    {
      "src": 499,
      "dest": 475
    },
    {
      "src": 118,
      "dest": 118
    },
    {
      "src": 445,
      "dest": 421
    },
    {
      "src": 300,
      "dest": 276
    },
    {
      "src": 482,
      "dest": 458
    },
    {
      "src": 139,
      "dest": 139
    },
    {
      "src": 401,
      "dest": 377
    },
    {
      "src": 322,
      "dest": 298
    },
    {
      "src": 133,
      "dest": 133
    },
    {
      "src": 230,
      "dest": 206
    },
    {
      "src": 484,
      "dest": 460
    },
    {
      "src": 198,
      "dest": 174
    },
    {
      "src": 25,
      "dest": 25
    },
    {
      "src": 50,
      "dest": 50
    },
    {
      "src": 330,
      "dest": 306
    },
    {
      "src": 249,
      "dest": 225
    },
    {
      "src": 36,
      "dest": 36
    },
    {
      "src": 79,
      "dest": 79
    },
    {
      "src": 253,
      "dest": 229
    },
    {
      "src": 356,
      "dest": 332
    },
    {
      "src": 21,
      "dest": 21
    },
    {
      "src": 70,
      "dest": 70
    },
    {
      "src": 99,
      "dest": 99
    },
    {
      "src": 357,
      "dest": 333
    },
    {
      "src": 196,
      "dest": 172
    },
    {
      "src": 458,
      "dest": 434
    },
    {
      "src": 131,
      "dest": 131
    },
    {
      "src": 136,
      "dest": 136
    },
    {
      "src": 293,
      "dest": 269
    },
    {
      "src": 391,
      "dest": 367
    },
    {
      "src": 414,
      "dest": 390
    },
    {
      "src": 420,
      "dest": 396
    },
    {
      "src": 95,
      "dest": 95
    },
    {
      "src": 41,
      "dest": 41
    },
    {
      "src": 42,
      "dest": 42
    },
    {
      "src": 397,
      "dest": 373
    },
    {
      "src": 312,
      "dest": 288
    },
    {
      "src": 105,
      "dest": 105
    },
    {
      "src": 257,
      "dest": 233
    },
    {
      "src": 111,
      "dest": 111
    },
    {
      "src": 57,
      "dest": 57
    },
    {
      "src": 183,
      "dest": 159
    },
    {
      "src": 454,
      "dest": 430
    },
    {
      "src": 319,
      "dest": 295
    },
    {
      "src": 280,
      "dest": 256
    },
    {
      "src": 493,
      "dest": 469
    },
    {
      "src": 93,
      "dest": 93
    },
    {
      "src": 48,
      "dest": 48
    },
    {
      "src": 146,
      "dest": 146
    },
    {
      "src": 481,
      "dest": 457
    },
    {
      "src": 464,
      "dest": 440
    },
    {
      "src": 444,
      "dest": 420
    },
    {
      "src": 16,
      "dest": 16
    },
    {
      "src": 246,
      "dest": 222
    },
    {
      "src": 12,
      "dest": 12
    },
    {
      "src": 329,
      "dest": 305
    },
    {
      "src": 39,
      "dest": 39
    },
    {
      "src": 382,
      "dest": 358
    },
    {
      "src": 23,
      "dest": 23
    },
    {
      "src": 235,
      "dest": 211
    },
    {
      "src": 30,
      "dest": 30
    },
    {
      "src": 147,
      "dest": 147
    },
    {
      "src": 122,
      "dest": 122
    },
    {
      "src": 480,
      "dest": 456
    },
    {
      "src": 345,
      "dest": 321
    },
    {
      "src": 226,
      "dest": 202
    },
    {
      "src": 326,
      "dest": 302
    },
    {
      "src": 83,
      "dest": 83
    },
    {
      "src": 451,
      "dest": 427
    },
    {
      "src": 240,
      "dest": 216
    },
    {
      "src": 19,
      "dest": 19
    },
    {
      "src": 104,
      "dest": 104
    },
    {
      "src": 208,
      "dest": 184
    },
    {
      "src": 469,
      "dest": 445
    },
    {
      "src": 202,
      "dest": 178
    },
    {
      "src": 321,
      "dest": 297
    },
    {
      "src": 441,
      "dest": 417
    },
    {
      "src": 205,
      "dest": 181
    },
    {
      "src": 91,
      "dest": 91
    },
    {
      "src": 236,
      "dest": 212
    },
    {
      "src": 354,
      "dest": 330
    },
    {
      "src": 463,
      "dest": 439
    },
    {
      "src": 264,
      "dest": 240
    },
    {
      "src": 403,
      "dest": 379
    },
    {
      "src": 336,
      "dest": 312
    },
    {
      "src": 137,
      "dest": 137
    },
    {
      "src": 189,
      "dest": 165
    },
    {
      "src": 346,
      "dest": 322
    },
    {
      "src": 497,
      "dest": 473
    },
    {
      "src": 67,
      "dest": 67
    },
    {
      "src": 123,
      "dest": 123
    },
    {
      "src": 473,
      "dest": 449
    },
    {
      "src": 53,
      "dest": 53
    },
    {
      "src": 52,
      "dest": 52
    },
    {
      "src": 461,
      "dest": 437
    },
    {
      "src": 355,
      "dest": 331
    },
    {
      "src": 270,
      "dest": 246
    },
    {
      "src": 29,
      "dest": 29
    },
    {
      "src": 225,
      "dest": 201
    },
    {
      "src": 20,
      "dest": 20
    },
    {
      "src": 486,
      "dest": 462
    },
    {
      "src": 187,
      "dest": 163
    },
    {
      "src": 360,
      "dest": 336
    },
    {
      "src": 209,
      "dest": 185
    },
    {
      "src": 265,
      "dest": 241
    },
    {
      "src": 438,
      "dest": 414
    },
    {
      "src": 59,
      "dest": 59
    },
    {
      "src": 433,
      "dest": 409
    },
    {
      "src": 203,
      "dest": 179
    },
    {
      "src": 204,
      "dest": 180
    },
    {
      "src": 453,
      "dest": 429
    },
    {
      "src": 316,
      "dest": 292
    },
    {
      "src": 309,
      "dest": 285
    },
    {
      "src": 151,
      "dest": 156
    },
    {
      "src": 64,
      "dest": 64
    },
    {
      "src": 428,
      "dest": 404
    },
    {
      "src": 344,
      "dest": 320
    },
    {
      "src": 402,
      "dest": 378
    },
    {
      "src": 106,
      "dest": 106
    },
    {
      "src": 185,
      "dest": 161
    },
    {
      "src": 88,
      "dest": 88
    },
    {
      "src": 301,
      "dest": 277
    },
    {
      "src": 149,
      "dest": 154
    },
    {
      "src": 409,
      "dest": 385
    },
    {
      "src": 501,
      "dest": 477
    },
    {
      "src": 390,
      "dest": 366
    },
    {
      "src": 63,
      "dest": 63
    },
    {
      "src": 404,
      "dest": 380
    },
    {
      "src": 314,
      "dest": 290
    },
    {
      "src": 119,
      "dest": 119
    },
    {
      "src": 411,
      "dest": 387
    },
    {
      "src": 252,
      "dest": 228
    },
    {
      "src": 38,
      "dest": 38
    },
    {
      "src": 186,
      "dest": 162
    },
    {
      "src": 495,
      "dest": 471
    },
    {
      "src": 97,
      "dest": 97
    },
    {
      "src": 102,
      "dest": 102
    },
    {
      "src": 303,
      "dest": 279
    },
    {
      "src": 199,
      "dest": 175
    },
    {
      "src": 353,
      "dest": 329
    },
    {
      "src": 365,
      "dest": 341
    },
    {
      "src": 269,
      "dest": 245
    },
    {
      "src": 351,
      "dest": 327
    },
    {
      "src": 278,
      "dest": 254
    },
    {
      "src": 239,
      "dest": 215
    },
    {
      "src": 347,
      "dest": 323
    },
    {
      "src": 335,
      "dest": 311
    },
    {
      "src": 260,
      "dest": 236
    },
    {
      "src": 334,
      "dest": 310
    },
    {
      "src": 27,
      "dest": 27
    },
    {
      "src": 377,
      "dest": 353
    },
    {
      "src": 0,
      "dest": 0
    },
    {
      "src": 141,
      "dest": 141
    },
    {
      "src": 460,
      "dest": 436
    },
    {
      "src": 424,
      "dest": 400
    },
    {
      "src": 227,
      "dest": 203
    },
    {
      "src": 216,
      "dest": 192
    },
    {
      "src": 84,
      "dest": 84
    },
    {
      "src": 34,
      "dest": 34
    },
    {
      "src": 413,
      "dest": 389
    },
    {
      "src": 238,
      "dest": 214
    },
    {
      "src": 443,
      "dest": 419
    },
    {
      "src": 229,
      "dest": 205
    },
    {
      "src": 1,
      "dest": 1
    },
    {
      "src": 114,
      "dest": 114
    },
    {
      "src": 261,
      "dest": 237
    },
    {
      "src": 416,
      "dest": 392
    },
    {
      "src": 398,
      "dest": 374
    },
    {
      "src": 254,
      "dest": 230
    },
    {
      "src": 318,
      "dest": 294
    },
    {
      "src": 448,
      "dest": 424
    },
    {
      "src": 31,
      "dest": 31
    },
    {
      "src": 11,
      "dest": 11
    },
    {
      "src": 308,
      "dest": 284
    },
    {
      "src": 373,
      "dest": 349
    },
    {
      "src": 361,
      "dest": 337
    },
    {
      "src": 291,
      "dest": 267
    },
    {
      "src": 408,
      "dest": 384
    },
    {
      "src": 317,
      "dest": 293
    },
    {
      "src": 112,
      "dest": 112
    },
    {
      "src": 5,
      "dest": 5
    },
    {
      "src": 427,
      "dest": 403
    },
    {
      "src": 127,
      "dest": 127
    },
    {
      "src": 337,
      "dest": 313
    },
    {
      "src": 296,
      "dest": 272
    },
    {
      "src": 28,
      "dest": 28
    },
    {
      "src": 472,
      "dest": 448
    },
    {
      "src": 418,
      "dest": 394
    },
    {
      "src": 369,
      "dest": 345
    },
    {
      "src": 14,
      "dest": 14
    },
    {
      "src": 386,
      "dest": 362
    },
    {
      "src": 117,
      "dest": 117
    },
    {
      "src": 304,
      "dest": 280
    },
    {
      "src": 467,
      "dest": 443
    },
    {
      "src": 488,
      "dest": 464
    },
    {
      "src": 134,
      "dest": 134
    },
    {
      "src": 4,
      "dest": 4
    },
    {
      "src": 85,
      "dest": 85
    },
    {
      "src": 339,
      "dest": 315
    },
    {
      "src": 350,
      "dest": 326
    },
    {
      "src": 145,
      "dest": 145
    },
    {
      "src": 143,
      "dest": 143
    },
    {
      "src": 370,
      "dest": 346
    },
    {
      "src": 491,
      "dest": 467
    },
    {
      "src": 58,
      "dest": 58
    },
    {
      "src": 483,
      "dest": 459
    },
    {
      "src": 456,
      "dest": 432
    },
    {
      "src": 40,
      "dest": 40
    },
    {
      "src": 100,
      "dest": 100
    },
    {
      "src": 383,
      "dest": 359
    },
    {
      "src": 417,
      "dest": 393
    },
    {
      "src": 144,
      "dest": 144
    },
    {
      "src": 429,
      "dest": 405
    },
    {
      "src": 287,
      "dest": 263
    },
    {
      "src": 492,
      "dest": 468
    },
    {
      "src": 374,
      "dest": 350
    },
    {
      "src": 74,
      "dest": 74
    },
    {
      "src": 116,
      "dest": 116
    },
    {
      "src": 37,
      "dest": 37
    },
    {
      "src": 325,
      "dest": 301
    },
    {
      "src": 468,
      "dest": 444
    },
    {
      "src": 380,
      "dest": 356
    },
    {
      "src": 148,
      "dest": 148
    },
    {
      "src": 126,
      "dest": 126
    },
    {
      "src": 75,
      "dest": 75
    },
    {
      "src": 73,
      "dest": 73
    },
    {
      "src": 251,
      "dest": 227
    },
    {
      "src": 65,
      "dest": 65
    },
    {
      "src": 475,
      "dest": 451
    },
    {
      "src": 268,
      "dest": 244
    },
    {
      "src": 368,
      "dest": 344
    },
    {
      "src": 9,
      "dest": 9
    },
    {
      "src": 103,
      "dest": 103
    },
    {
      "src": 313,
      "dest": 289
    },
    {
      "src": 332,
      "dest": 308
    },
    {
      "src": 61,
      "dest": 61
    },
    {
      "src": 466,
      "dest": 442
    },
    {
      "src": 113,
      "dest": 113
    },
    {
      "src": 277,
      "dest": 253
    },
    {
      "src": 24,
      "dest": 24
    },
    {
      "src": 348,
      "dest": 324
    },
    {
      "src": 214,
      "dest": 190
    },
    {
      "src": 201,
      "dest": 177
    },
    {
      "src": 87,
      "dest": 87
    },
    {
      "src": 96,
      "dest": 96
    },
    {
      "src": 387,
      "dest": 363
    },
    {
      "src": 138,
      "dest": 138
    },
    {
      "src": 188,
      "dest": 164
    },
    {
      "src": 276,
      "dest": 252
    },
    {
      "src": 215,
      "dest": 191
    },
    {
      "src": 502,
      "dest": 478
    },
    {
      "src": 69,
      "dest": 69
    },
    {
      "src": 184,
      "dest": 160
    },
    {
      "src": 285,
      "dest": 261
    },
    {
      "src": 109,
      "dest": 109
    },
    {
      "src": 274,
      "dest": 250
    },
    {
      "src": 55,
      "dest": 55
    },
    {
      "src": 490,
      "dest": 466
    },
    {
      "src": 51,
      "dest": 51
    },
    {
      "src": 385,
      "dest": 361
    },
    {
      "src": 221,
      "dest": 197
    },
    {
      "src": 107,
      "dest": 107
    },
    {
      "src": 115,
      "dest": 115
    },
    {
      "src": 245,
      "dest": 221
    },
    {
      "src": 295,
      "dest": 271
    },
    {
      "src": 465,
      "dest": 441
    },
    {
      "src": 447,
      "dest": 423
    },
    {
      "src": 192,
      "dest": 168
    },
    {
      "src": 150,
      "dest": 155
    },
    {
      "src": 358,
      "dest": 334
    },
    {
      "src": 405,
      "dest": 381
    },
    {
      "src": 210,
      "dest": 186
    },
    {
      "src": 494,
      "dest": 470
    },
    {
      "src": 153,
      "dest": 158
    },
    {
      "src": 128,
      "dest": 128
    },
    {
      "src": 124,
      "dest": 124
    },
    {
      "src": 234,
      "dest": 210
    },
    {
      "src": 410,
      "dest": 386
    },
    {
      "src": 498,
      "dest": 474
    },
    {
      "src": 218,
      "dest": 194
    },
    {
      "src": 8,
      "dest": 8
    },
    {
      "src": 17,
      "dest": 17
    },
    {
      "src": 449,
      "dest": 425
    },
    {
      "src": 224,
      "dest": 200
    },
    {
      "src": 299,
      "dest": 275
    },
    {
      "src": 305,
      "dest": 281
    },
    {
      "src": 284,
      "dest": 260
    },
    {
      "src": 471,
      "dest": 447
    },
    {
      "src": 266,
      "dest": 242
    },
    {
      "src": 422,
      "dest": 398
    },
    {
      "src": 222,
      "dest": 198
    },
    {
      "src": 392,
      "dest": 368
    },
    {
      "src": 425,
      "dest": 401
    },
    {
      "src": 328,
      "dest": 304
    },
    {
      "src": 423,
      "dest": 399
    },
    {
      "src": 228,
      "dest": 204
    },
    {
      "src": 393,
      "dest": 369
    },
    {
      "src": 415,
      "dest": 391
    },
    {
      "src": 217,
      "dest": 193
    },
    {
      "src": 500,
      "dest": 476
    },
    {
      "src": 395,
      "dest": 371
    },
    {
      "src": 86,
      "dest": 86
    },
    {
      "src": 349,
      "dest": 325
    },
    {
      "src": 338,
      "dest": 314
    },
    {
      "src": 474,
      "dest": 450
    },
    {
      "src": 232,
      "dest": 208
    },
    {
      "src": 35,
      "dest": 35
    },
    {
      "src": 43,
      "dest": 43
    },
    {
      "src": 352,
      "dest": 328
    },
    {
      "src": 256,
      "dest": 232
    },
    {
      "src": 267,
      "dest": 243
    },
    {
      "src": 379,
      "dest": 355
    },
    {
      "src": 294,
      "dest": 270
    },
    {
      "src": 396,
      "dest": 372
    },
    {
      "src": 273,
      "dest": 249
    },
    {
      "src": 90,
      "dest": 90
    },
    {
      "src": 2,
      "dest": 2
    },
    {
      "src": 399,
      "dest": 375
    },
    {
      "src": 233,
      "dest": 209
    },
    {
      "src": 142,
      "dest": 142
    },
    {
      "src": 243,
      "dest": 219
    },
    {
      "src": 212,
      "dest": 188
    },
    {
      "src": 459,
      "dest": 435
    },
    {
      "src": 262,
      "dest": 238
    },
    {
      "src": 286,
      "dest": 262
    },
    {
      "src": 15,
      "dest": 15
    },
    {
      "src": 7,
      "dest": 7
    },
    {
      "src": 315,
      "dest": 291
    },
    {
      "src": 371,
      "dest": 347
    },
    {
      "src": 271,
      "dest": 247
    },
    {
      "src": 485,
      "dest": 461
    },
    {
      "src": 255,
      "dest": 231
    },
    {
      "src": 89,
      "dest": 89
    },
    {
      "src": 258,
      "dest": 234
    },
    {
      "src": 367,
      "dest": 343
    },
    {
      "src": 140,
      "dest": 140
    },
    {
      "src": 121,
      "dest": 121
    },
    {
      "src": 290,
      "dest": 266
    },
    {
      "src": 6,
      "dest": 6
    },
    {
      "src": 375,
      "dest": 351
    },
    {
      "src": 78,
      "dest": 78
    },
    {
      "src": 432,
      "dest": 408
    },
    {
      "src": 259,
      "dest": 235
    },
    {
      "src": 76,
      "dest": 76
    },
    {
      "src": 384,
      "dest": 360
    },
    {
      "src": 376,
      "dest": 352
    },
    {
      "src": 292,
      "dest": 268
    },
    {
      "src": 431,
      "dest": 407
    },
    {
      "src": 207,
      "dest": 183
    },
    {
      "src": 310,
      "dest": 286
    },
    {
      "src": 66,
      "dest": 66
    },
    {
      "src": 244,
      "dest": 220
    },
    {
      "src": 366,
      "dest": 342
    },
    {
      "src": 130,
      "dest": 130
    },
    {
      "src": 389,
      "dest": 365
    },
    {
      "src": 3,
      "dest": 3
    },
    {
      "src": 132,
      "dest": 132
    },
    {
      "src": 98,
      "dest": 98
    },
    {
      "src": 250,
      "dest": 226
    },
    {
      "src": 135,
      "dest": 135
    },
    {
      "src": 77,
      "dest": 77
    },
    {
      "src": 496,
      "dest": 472
    },
    {
      "src": 462,
      "dest": 438
    },
    {
      "src": 435,
      "dest": 411
    },
    {
      "src": 44,
      "dest": 44
    },
    {
      "src": 307,
      "dest": 283
    },
    {
      "src": 440,
      "dest": 416
    },
    {
      "src": 452,
      "dest": 428
    },
    {
      "src": 223,
      "dest": 199
    },
    {
      "src": 446,
      "dest": 422
    },
    {
      "src": 22,
      "dest": 22
    },
    {
      "src": 394,
      "dest": 370
    },
    {
      "src": 362,
      "dest": 338
    },
    {
      "src": 479,
      "dest": 455
    },
    {
      "src": 298,
      "dest": 274
    },
    {
      "src": 81,
      "dest": 81
    },
    {
      "src": 152,
      "dest": 157
    },
    {
      "src": 450,
      "dest": 426
    },
    {
      "src": 248,
      "dest": 224
    },
    {
      "src": 45,
      "dest": 45
    },
    {
      "src": 457,
      "dest": 433
    },
    {
      "src": 476,
      "dest": 452
    },
    {
      "src": 434,
      "dest": 410
    },
    {
      "src": 412,
      "dest": 388
    },
    {
      "src": 247,
      "dest": 223
    }
  ],
  "actions": [
    {
      "action": "insert",
      "tree": 153,
      "parent": 154,
      "at": 1
    },
    {
      "action": "insert",
      "tree": 152,
      "parent": 153,
      "at": 0
    },
    {
      "action": "insert",
      "tree": 150,
      "parent": 152,
      "at": 0
    },
    {
      "action": "insert",
      "tree": 151,
      "parent": 152,
      "at": 1
    },
    {
      "action": "insert",
      "tree": 149,
      "parent": 150,
      "at": 0
    },
    {
      "action": "delete",
      "tree": 154
    },
    {
      "action": "delete",
      "tree": 155
    },
    {
      "action": "delete",
      "tree": 156
    },
    {
      "action": "delete",
      "tree": 157
    },
    {
      "action": "delete",
      "tree": 158
    },
    {
      "action": "delete",
      "tree": 159
    },
    {
      "action": "delete",
      "tree": 160
    },
    {
      "action": "delete",
      "tree": 161
    },
    {
      "action": "delete",
      "tree": 162
    },
    {
      "action": "delete",
      "tree": 163
    },
    {
      "action": "delete",
      "tree": 164
    },
    {
      "action": "delete",
      "tree": 165
    },
    {
      "action": "delete",
      "tree": 166
    },
    {
      "action": "delete",
      "tree": 167
    },
    {
      "action": "delete",
      "tree": 168
    },
    {
      "action": "delete",
      "tree": 169
    },
    {
      "action": "delete",
      "tree": 170
    },
    {
      "action": "delete",
      "tree": 171
    },
    {
      "action": "delete",
      "tree": 172
    },
    {
      "action": "delete",
      "tree": 173
    },
    {
      "action": "delete",
      "tree": 174
    },
    {
      "action": "delete",
      "tree": 175
    },
    {
      "action": "delete",
      "tree": 176
    },
    {
      "action": "delete",
      "tree": 177
    },
    {
      "action": "delete",
      "tree": 178
    },
    {
      "action": "delete",
      "tree": 179
    },
    {
      "action": "delete",
      "tree": 180
    },
    {
      "action": "delete",
      "tree": 181
    },
    {
      "action": "delete",
      "tree": 182
    }
  ]
}