{
	"root": {
		"type": "460000",
		"typeLabel": "Program",
		"pos": "1570",
		"length": "1511",
		"children": [
			{
				"type": "450300",
				"typeLabel": "CppTop",
				"pos": "1570",
				"length": "22",
				"children": [
					{
						"type": "400200",
						"typeLabel": "Include",
						"pos": "1570",
						"length": "22",
						"children": [
							{
								"type": "480000",
								"label": "<grpc/grpc.h>",
								"typeLabel": "GenericString",
								"pos": "1579",
								"length": "13",
								"children": []
							}
						]
					}
				]
			},
			{
				"type": "450300",
				"typeLabel": "CppTop",
				"pos": "1593",
				"length": "43",
				"children": [
					{
						"type": "400200",
						"typeLabel": "Include",
						"pos": "1593",
						"length": "43",
						"children": [
							{
								"type": "480000",
								"label": "\"src/core/channel/channel_stack.h\"",
								"typeLabel": "GenericString",
								"pos": "1602",
								"length": "34",
								"children": []
							}
						]
					}
				]
			},
			{
				"type": "450300",
				"typeLabel": "CppTop",
				"pos": "1637",
				"length": "33",
				"children": [
					{
						"type": "400200",
						"typeLabel": "Include",
						"pos": "1637",
						"length": "33",
						"children": [
							{
								"type": "480000",
								"label": "\"src/core/debug/trace.h\"",
								"typeLabel": "GenericString",
								"pos": "1646",
								"length": "24",
								"children": []
							}
						]
					}
				]
			},
			{
				"type": "450300",
				"typeLabel": "CppTop",
				"pos": "1671",
				"length": "33",
				"children": [
					{
						"type": "400200",
						"typeLabel": "Include",
						"pos": "1671",
						"length": "33",
						"children": [
							{
								"type": "480000",
								"label": "\"src/core/iomgr/iomgr.h\"",
								"typeLabel": "GenericString",
								"pos": "1680",
								"length": "24",
								"children": []
							}
						]
					}
				]
			},
			{
				"type": "450300",
				"typeLabel": "CppTop",
				"pos": "1705",
				"length": "49",
				"children": [
					{
						"type": "400200",
						"typeLabel": "Include",
						"pos": "1705",
						"length": "49",
						"children": [
							{
								"type": "480000",
								"label": "\"src/core/statistics/census_interface.h\"",
								"typeLabel": "GenericString",
								"pos": "1714",
								"length": "40",
								"children": []
							}
						]
					}
				]
			},
			{
				"type": "450300",
				"typeLabel": "CppTop",
				"pos": "1755",
				"length": "38",
				"children": [
					{
						"type": "400200",
						"typeLabel": "Include",
						"pos": "1755",
						"length": "38",
						"children": [
							{
								"type": "480000",
								"label": "\"src/core/profiling/timers.h\"",
								"typeLabel": "GenericString",
								"pos": "1764",
								"length": "29",
								"children": []
							}
						]
					}
				]
			},
			{
				"type": "450300",
				"typeLabel": "CppTop",
				"pos": "1794",
				"length": "34",
				"children": [
					{
						"type": "400200",
						"typeLabel": "Include",
						"pos": "1794",
						"length": "34",
						"children": [
							{
								"type": "480000",
								"label": "\"src/core/surface/call.h\"",
								"typeLabel": "GenericString",
								"pos": "1803",
								"length": "25",
								"children": []
							}
						]
					}
				]
			},
			{
				"type": "450300",
				"typeLabel": "CppTop",
				"pos": "1829",
				"length": "34",
				"children": [
					{
						"type": "400200",
						"typeLabel": "Include",
						"pos": "1829",
						"length": "34",
						"children": [
							{
								"type": "480000",
								"label": "\"src/core/surface/init.h\"",
								"typeLabel": "GenericString",
								"pos": "1838",
								"length": "25",
								"children": []
							}
						]
					}
				]
			},
			{
				"type": "450300",
				"typeLabel": "CppTop",
				"pos": "1864",
				"length": "43",
				"children": [
					{
						"type": "400200",
						"typeLabel": "Include",
						"pos": "1864",
						"length": "43",
						"children": [
							{
								"type": "480000",
								"label": "\"src/core/surface/surface_trace.h\"",
								"typeLabel": "GenericString",
								"pos": "1873",
								"length": "34",
								"children": []
							}
						]
					}
				]
			},
			{
				"type": "450300",
				"typeLabel": "CppTop",
				"pos": "1908",
				"length": "48",
				"children": [
					{
						"type": "400200",
						"typeLabel": "Include",
						"pos": "1908",
						"length": "48",
						"children": [
							{
								"type": "480000",
								"label": "\"src/core/transport/chttp2_transport.h\"",
								"typeLabel": "GenericString",
								"pos": "1917",
								"length": "39",
								"children": []
							}
						]
					}
				]
			},
			{
				"type": "450100",
				"typeLabel": "Declaration",
				"pos": "1958",
				"length": "45",
				"children": [
					{
						"type": "350100",
						"typeLabel": "DeclList",
						"pos": "1958",
						"length": "45",
						"children": [
							{
								"type": "340000",
								"typeLabel": "Storage",
								"pos": "1958",
								"length": "6",
								"children": [
									{
										"type": "480000",
										"label": "static",
										"typeLabel": "GenericString",
										"pos": "1958",
										"length": "6",
										"children": []
									}
								]
							},
							{
								"type": "480000",
								"label": "g_basic_init",
								"typeLabel": "GenericString",
								"pos": "1974",
								"length": "12",
								"children": []
							},
							{
								"type": "360100",
								"typeLabel": "InitExpr",
								"pos": "1989",
								"length": "13",
								"children": [
									{
										"type": "240100",
										"typeLabel": "Ident",
										"pos": "1989",
										"length": "13",
										"children": [
											{
												"type": "480000",
												"label": "GPR_ONCE_INIT",
												"typeLabel": "GenericString",
												"pos": "1989",
												"length": "13",
												"children": []
											}
										]
									}
								]
							}
						]
					}
				]
			},
			{
				"type": "450100",
				"typeLabel": "Declaration",
				"pos": "2004",
				"length": "24",
				"children": [
					{
						"type": "350100",
						"typeLabel": "DeclList",
						"pos": "2004",
						"length": "24",
						"children": [
							{
								"type": "340000",
								"typeLabel": "Storage",
								"pos": "2004",
								"length": "6",
								"children": [
									{
										"type": "480000",
										"label": "static",
										"typeLabel": "GenericString",
										"pos": "2004",
										"length": "6",
										"children": []
									}
								]
							},
							{
								"type": "480000",
								"label": "g_init_mu",
								"typeLabel": "GenericString",
								"pos": "2018",
								"length": "9",
								"children": []
							}
						]
					}
				]
			},
			{
				"type": "450100",
				"typeLabel": "Declaration",
				"pos": "2029",
				"length": "29",
				"children": [
					{
						"type": "350100",
						"typeLabel": "DeclList",
						"pos": "2029",
						"length": "29",
						"children": [
							{
								"type": "340000",
								"typeLabel": "Storage",
								"pos": "2029",
								"length": "6",
								"children": [
									{
										"type": "480000",
										"label": "static",
										"typeLabel": "GenericString",
										"pos": "2029",
										"length": "6",
										"children": []
									}
								]
							},
							{
								"type": "480000",
								"label": "g_initializations",
								"typeLabel": "GenericString",
								"pos": "2040",
								"length": "17",
								"children": []
							}
						]
					}
				]
			},
			{
				"type": "450200",
				"typeLabel": "Definition",
				"pos": "2060",
				"length": "87",
				"children": [
					{
						"type": "380000",
						"typeLabel": "Definition",
						"pos": "2060",
						"length": "87",
						"children": [
							{
								"type": "340000",
								"typeLabel": "Storage",
								"pos": "2060",
								"length": "6",
								"children": [
									{
										"type": "480000",
										"label": "static",
										"typeLabel": "GenericString",
										"pos": "2060",
										"length": "6",
										"children": []
									}
								]
							},
							{
								"type": "200000",
								"typeLabel": "ParamList",
								"pos": "2085",
								"length": "6",
								"children": [
									{
										"type": "220100",
										"typeLabel": "ParameterType",
										"pos": "2086",
										"length": "4",
										"children": []
									}
								]
							},
							{
								"type": "480000",
								"label": "do_basic_init",
								"typeLabel": "GenericString",
								"pos": "2072",
								"length": "13",
								"children": []
							},
							{
								"type": "330000",
								"typeLabel": "Compound",
								"pos": "2092",
								"length": "55",
								"children": [
									{
										"type": "260300",
										"typeLabel": "ExprStatement",
										"pos": "2096",
										"length": "24",
										"children": [
											{
												"type": "290100",
												"typeLabel": "Some",
												"pos": "2096",
												"length": "24",
												"children": [
													{
														"type": "240400",
														"typeLabel": "FunCall",
														"pos": "2096",
														"length": "23",
														"children": [
															{
																"type": "240100",
																"typeLabel": "Ident",
																"pos": "2096",
																"length": "11",
																"children": [
																	{
																		"type": "480000",
																		"label": "gpr_mu_init",
																		"typeLabel": "GenericString",
																		"pos": "2096",
																		"length": "11",
																		"children": []
																	}
																]
															},
															{
																"type": "470000",
																"typeLabel": "GenericList",
																"pos": "2107",
																"length": "12",
																"children": [
																	{
																		"type": "20100",
																		"typeLabel": "Left",
																		"pos": "2108",
																		"length": "10",
																		"children": [
																			{
																				"type": "241000",
																				"typeLabel": "Unary",
																				"pos": "2108",
																				"length": "10",
																				"children": [
																					{
																						"type": "240100",
																						"typeLabel": "Ident",
																						"pos": "2109",
																						"length": "9",
																						"children": [
																							{
																								"type": "480000",
																								"label": "g_init_mu",
																								"typeLabel": "GenericString",
																								"pos": "2109",
																								"length": "9",
																								"children": []
																							}
																						]
																					},
																					{
																						"type": "480000",
																						"label": "&",
																						"typeLabel": "GenericString",
																						"pos": "2108",
																						"length": "1",
																						"children": []
																					}
																				]
																			}
																		]
																	}
																]
															}
														]
													},
													{
														"type": "480000",
														"label": ";",
														"typeLabel": "GenericString",
														"pos": "2119",
														"length": "1",
														"children": []
													}
												]
											}
										]
									},
									{
										"type": "260300",
										"typeLabel": "ExprStatement",
										"pos": "2123",
										"length": "22",
										"children": [
											{
												"type": "290100",
												"typeLabel": "Some",
												"pos": "2123",
												"length": "22",
												"children": [
													{
														"type": "240700",
														"typeLabel": "Assignment",
														"pos": "2123",
														"length": "21",
														"children": [
															{
																"type": "240100",
																"typeLabel": "Ident",
																"pos": "2123",
																"length": "17",
																"children": [
																	{
																		"type": "480000",
																		"label": "g_initializations",
																		"typeLabel": "GenericString",
																		"pos": "2123",
																		"length": "17",
																		"children": []
																	}
																]
															},
															{
																"type": "480000",
																"label": "=",
																"typeLabel": "GenericString",
																"pos": "2141",
																"length": "1",
																"children": []
															},
															{
																"type": "240200",
																"label": "0",
																"typeLabel": "Constant",
																"pos": "2143",
																"length": "1",
																"children": []
															}
														]
													},
													{
														"type": "480000",
														"label": ";",
														"typeLabel": "GenericString",
														"pos": "2144",
														"length": "1",
														"children": []
													}
												]
											}
										]
									}
								]
							}
						]
					}
				]
			},
			{
				"type": "450200",
				"typeLabel": "Definition",
				"pos": "2149",
				"length": "531",
				"children": [
					{
						"type": "380000",
						"typeLabel": "Definition",
						"pos": "2149",
						"length": "531",
						"children": [
							{
								"type": "200000",
								"typeLabel": "ParamList",
								"pos": "2163",
								"length": "6",
								"children": [
									{
										"type": "220100",
										"typeLabel": "ParameterType",
										"pos": "2164",
										"length": "4",
										"children": []
									}
								]
							},
							{
								"type": "480000",
								"label": "grpc_init",
								"typeLabel": "GenericString",
								"pos": "2154",
								"length": "9",
								"children": []
							},
							{
								"type": "330000",
								"typeLabel": "Compound",
								"pos": "2170",
								"length": "510",
								"children": [
									{
										"type": "260300",
										"typeLabel": "ExprStatement",
										"pos": "2174",
										"length": "44",
										"children": [
											{
												"type": "290100",
												"typeLabel": "Some",
												"pos": "2174",
												"length": "44",
												"children": [
													{
														"type": "240400",
														"typeLabel": "FunCall",
														"pos": "2174",
														"length": "43",
														"children": [
															{
																"type": "240100",
																"typeLabel": "Ident",
																"pos": "2174",
																"length": "13",
																"children": [
																	{
																		"type": "480000",
																		"label": "gpr_once_init",
																		"typeLabel": "GenericString",
																		"pos": "2174",
																		"length": "13",
																		"children": []
																	}
																]
															},
															{
																"type": "470000",
																"typeLabel": "GenericList",
																"pos": "2187",
																"length": "30",
																"children": [
																	{
																		"type": "20100",
																		"typeLabel": "Left",
																		"pos": "2188",
																		"length": "13",
																		"children": [
																			{
																				"type": "241000",
																				"typeLabel": "Unary",
																				"pos": "2188",
																				"length": "13",
																				"children": [
																					{
																						"type": "240100",
																						"typeLabel": "Ident",
																						"pos": "2189",
																						"length": "12",
																						"children": [
																							{
																								"type": "480000",
																								"label": "g_basic_init",
																								"typeLabel": "GenericString",
																								"pos": "2189",
																								"length": "12",
																								"children": []
																							}
																						]
																					},
																					{
																						"type": "480000",
																						"label": "&",
																						"typeLabel": "GenericString",
																						"pos": "2188",
																						"length": "1",
																						"children": []
																					}
																				]
																			}
																		]
																	},
																	{
																		"type": "20100",
																		"typeLabel": "Left",
																		"pos": "2203",
																		"length": "13",
																		"children": [
																			{
																				"type": "240100",
																				"typeLabel": "Ident",
																				"pos": "2203",
																				"length": "13",
																				"children": [
																					{
																						"type": "480000",
																						"label": "do_basic_init",
																						"typeLabel": "GenericString",
																						"pos": "2203",
																						"length": "13",
																						"children": []
																					}
																				]
																			}
																		]
																	}
																]
															}
														]
													},
													{
														"type": "480000",
														"label": ";",
														"typeLabel": "GenericString",
														"pos": "2217",
														"length": "1",
														"children": []
													}
												]
											}
										]
									},
									{
										"type": "260300",
										"typeLabel": "ExprStatement",
										"pos": "2222",
										"length": "24",
										"children": [
											{
												"type": "290100",
												"typeLabel": "Some",
												"pos": "2222",
												"length": "24",
												"children": [
													{
														"type": "240400",
														"typeLabel": "FunCall",
														"pos": "2222",
														"length": "23",
														"children": [
															{
																"type": "240100",
																"typeLabel": "Ident",
																"pos": "2222",
																"length": "11",
																"children": [
																	{
																		"type": "480000",
																		"label": "gpr_mu_lock",
																		"typeLabel": "GenericString",
																		"pos": "2222",
																		"length": "11",
																		"children": []
																	}
																]
															},
															{
																"type": "470000",
																"typeLabel": "GenericList",
																"pos": "2233",
																"length": "12",
																"children": [
																	{
																		"type": "20100",
																		"typeLabel": "Left",
																		"pos": "2234",
																		"length": "10",
																		"children": [
																			{
																				"type": "241000",
																				"typeLabel": "Unary",
																				"pos": "2234",
																				"length": "10",
																				"children": [
																					{
																						"type": "240100",
																						"typeLabel": "Ident",
																						"pos": "2235",
																						"length": "9",
																						"children": [
																							{
																								"type": "480000",
																								"label": "g_init_mu",
																								"typeLabel": "GenericString",
																								"pos": "2235",
																								"length": "9",
																								"children": []
																							}
																						]
																					},
																					{
																						"type": "480000",
																						"label": "&",
																						"typeLabel": "GenericString",
																						"pos": "2234",
																						"length": "1",
																						"children": []
																					}
																				]
																			}
																		]
																	}
																]
															}
														]
													},
													{
														"type": "480000",
														"label": ";",
														"typeLabel": "GenericString",
														"pos": "2245",
														"length": "1",
														"children": []
													}
												]
											}
										]
									},
									{
										"type": "300100",
										"typeLabel": "If",
										"pos": "2249",
										"length": "400",
										"children": [
											{
												"type": "490100",
												"typeLabel": "IfToken",
												"pos": "2249",
												"length": "2",
												"children": []
											},
											{
												"type": "241100",
												"typeLabel": "Binary",
												"pos": "2253",
												"length": "24",
												"children": [
													{
														"type": "240900",
														"typeLabel": "Infix",
														"pos": "2253",
														"length": "19",
														"children": [
															{
																"type": "240100",
																"typeLabel": "Ident",
																"pos": "2255",
																"length": "17",
																"children": [
																	{
																		"type": "480000",
																		"label": "g_initializations",
																		"typeLabel": "GenericString",
																		"pos": "2255",
																		"length": "17",
																		"children": []
																	}
																]
															},
															{
																"type": "480000",
																"label": "++",
																"typeLabel": "GenericString",
																"pos": "2253",
																"length": "2",
																"children": []
															}
														]
													},
													{
														"type": "480000",
														"label": "==",
														"typeLabel": "GenericString",
														"pos": "2273",
														"length": "2",
														"children": []
													},
													{
														"type": "240200",
														"label": "1",
														"typeLabel": "Constant",
														"pos": "2276",
														"length": "1",
														"children": []
													}
												]
											},
											{
												"type": "330000",
												"typeLabel": "Compound",
												"pos": "2279",
												"length": "370",
												"children": [
													{
														"type": "260300",
														"typeLabel": "ExprStatement",
														"pos": "2285",
														"length": "53",
														"children": [
															{
																"type": "290100",
																"typeLabel": "Some",
																"pos": "2285",
																"length": "53",
																"children": [
																	{
																		"type": "240400",
																		"typeLabel": "FunCall",
																		"pos": "2285",
																		"length": "52",
																		"children": [
																			{
																				"type": "240100",
																				"typeLabel": "Ident",
																				"pos": "2285",
																				"length": "20",
																				"children": [
																					{
																						"type": "480000",
																						"label": "grpc_register_tracer",
																						"typeLabel": "GenericString",
																						"pos": "2285",
																						"length": "20",
																						"children": []
																					}
																				]
																			},
																			{
																				"type": "470000",
																				"typeLabel": "GenericList",
																				"pos": "2305",
																				"length": "32",
																				"children": [
																					{
																						"type": "20100",
																						"typeLabel": "Left",
																						"pos": "2306",
																						"length": "9",
																						"children": [
																							{
																								"type": "240200",
																								"label": "\"channel\"",
																								"typeLabel": "Constant",
																								"pos": "2306",
																								"length": "9",
																								"children": []
																							}
																						]
																					},
																					{
																						"type": "20100",
																						"typeLabel": "Left",
																						"pos": "2317",
																						"length": "19",
																						"children": [
																							{
																								"type": "241000",
																								"typeLabel": "Unary",
																								"pos": "2317",
																								"length": "19",
																								"children": [
																									{
																										"type": "240100",
																										"typeLabel": "Ident",
																										"pos": "2318",
																										"length": "18",
																										"children": [
																											{
																												"type": "480000",
																												"label": "grpc_trace_channel",
																												"typeLabel": "GenericString",
																												"pos": "2318",
																												"length": "18",
																												"children": []
																											}
																										]
																									},
																									{
																										"type": "480000",
																										"label": "&",
																										"typeLabel": "GenericString",
																										"pos": "2317",
																										"length": "1",
																										"children": []
																									}
																								]
																							}
																						]
																					}
																				]
																			}
																		]
																	},
																	{
																		"type": "480000",
																		"label": ";",
																		"typeLabel": "GenericString",
																		"pos": "2337",
																		"length": "1",
																		"children": []
																	}
																]
															}
														]
													},
													{
														"type": "260300",
														"typeLabel": "ExprStatement",
														"pos": "2343",
														"length": "53",
														"children": [
															{
																"type": "290100",
																"typeLabel": "Some",
																"pos": "2343",
																"length": "53",
																"children": [
																	{
																		"type": "240400",
																		"typeLabel": "FunCall",
																		"pos": "2343",
																		"length": "52",
																		"children": [
																			{
																				"type": "240100",
																				"typeLabel": "Ident",
																				"pos": "2343",
																				"length": "20",
																				"children": [
																					{
																						"type": "480000",
																						"label": "grpc_register_tracer",
																						"typeLabel": "GenericString",
																						"pos": "2343",
																						"length": "20",
																						"children": []
																					}
																				]
																			},
																			{
																				"type": "470000",
																				"typeLabel": "GenericList",
																				"pos": "2363",
																				"length": "32",
																				"children": [
																					{
																						"type": "20100",
																						"typeLabel": "Left",
																						"pos": "2364",
																						"length": "9",
																						"children": [
																							{
																								"type": "240200",
																								"label": "\"surface\"",
																								"typeLabel": "Constant",
																								"pos": "2364",
																								"length": "9",
																								"children": []
																							}
																						]
																					},
																					{
																						"type": "20100",
																						"typeLabel": "Left",
																						"pos": "2375",
																						"length": "19",
																						"children": [
																							{
																								"type": "241000",
																								"typeLabel": "Unary",
																								"pos": "2375",
																								"length": "19",
																								"children": [
																									{
																										"type": "240100",
																										"typeLabel": "Ident",
																										"pos": "2376",
																										"length": "18",
																										"children": [
																											{
																												"type": "480000",
																												"label": "grpc_surface_trace",
																												"typeLabel": "GenericString",
																												"pos": "2376",
																												"length": "18",
																												"children": []
																											}
																										]
																									},
																									{
																										"type": "480000",
																										"label": "&",
																										"typeLabel": "GenericString",
																										"pos": "2375",
																										"length": "1",
																										"children": []
																									}
																								]
																							}
																						]
																					}
																				]
																			}
																		]
																	},
																	{
																		"type": "480000",
																		"label": ";",
																		"typeLabel": "GenericString",
																		"pos": "2395",
																		"length": "1",
																		"children": []
																	}
																]
															}
														]
													},
													{
														"type": "260300",
														"typeLabel": "ExprStatement",
														"pos": "2401",
														"length": "47",
														"children": [
															{
																"type": "290100",
																"typeLabel": "Some",
																"pos": "2401",
																"length": "47",
																"children": [
																	{
																		"type": "240400",
																		"typeLabel": "FunCall",
																		"pos": "2401",
																		"length": "46",
																		"children": [
																			{
																				"type": "240100",
																				"typeLabel": "Ident",
																				"pos": "2401",
																				"length": "20",
																				"children": [
																					{
																						"type": "480000",
																						"label": "grpc_register_tracer",
																						"typeLabel": "GenericString",
																						"pos": "2401",
																						"length": "20",
																						"children": []
																					}
																				]
																			},
																			{
																				"type": "470000",
																				"typeLabel": "GenericList",
																				"pos": "2421",
																				"length": "26",
																				"children": [
																					{
																						"type": "20100",
																						"typeLabel": "Left",
																						"pos": "2422",
																						"length": "6",
																						"children": [
																							{
																								"type": "240200",
																								"label": "\"http\"",
																								"typeLabel": "Constant",
																								"pos": "2422",
																								"length": "6",
																								"children": []
																							}
																						]
																					},
																					{
																						"type": "20100",
																						"typeLabel": "Left",
																						"pos": "2430",
																						"length": "16",
																						"children": [
																							{
																								"type": "241000",
																								"typeLabel": "Unary",
																								"pos": "2430",
																								"length": "16",
																								"children": [
																									{
																										"type": "240100",
																										"typeLabel": "Ident",
																										"pos": "2431",
																										"length": "15",
																										"children": [
																											{
																												"type": "480000",
																												"label": "grpc_http_trace",
																												"typeLabel": "GenericString",
																												"pos": "2431",
																												"length": "15",
																												"children": []
																											}
																										]
																									},
																									{
																										"type": "480000",
																										"label": "&",
																										"typeLabel": "GenericString",
																										"pos": "2430",
																										"length": "1",
																										"children": []
																									}
																								]
																							}
																						]
																					}
																				]
																			}
																		]
																	},
																	{
																		"type": "480000",
																		"label": ";",
																		"typeLabel": "GenericString",
																		"pos": "2447",
																		"length": "1",
																		"children": []
																	}
																]
															}
														]
													},
													{
														"type": "260300",
														"typeLabel": "ExprStatement",
														"pos": "2453",
														"length": "49",
														"children": [
															{
																"type": "290100",
																"typeLabel": "Some",
																"pos": "2453",
																"length": "49",
																"children": [
																	{
																		"type": "240400",
																		"typeLabel": "FunCall",
																		"pos": "2453",
																		"length": "48",
																		"children": [
																			{
																				"type": "240100",
																				"typeLabel": "Ident",
																				"pos": "2453",
																				"length": "20",
																				"children": [
																					{
																						"type": "480000",
																						"label": "grpc_register_tracer",
																						"typeLabel": "GenericString",
																						"pos": "2453",
																						"length": "20",
																						"children": []
																					}
																				]
																			},
																			{
																				"type": "470000",
																				"typeLabel": "GenericList",
																				"pos": "2473",
																				"length": "28",
																				"children": [
																					{
																						"type": "20100",
																						"typeLabel": "Left",
																						"pos": "2474",
																						"length": "7",
																						"children": [
																							{
																								"type": "240200",
																								"label": "\"batch\"",
																								"typeLabel": "Constant",
																								"pos": "2474",
																								"length": "7",
																								"children": []
																							}
																						]
																					},
																					{
																						"type": "20100",
																						"typeLabel": "Left",
																						"pos": "2483",
																						"length": "17",
																						"children": [
																							{
																								"type": "241000",
																								"typeLabel": "Unary",
																								"pos": "2483",
																								"length": "17",
																								"children": [
																									{
																										"type": "240100",
																										"typeLabel": "Ident",
																										"pos": "2484",
																										"length": "16",
																										"children": [
																											{
																												"type": "480000",
																												"label": "grpc_trace_batch",
																												"typeLabel": "GenericString",
																												"pos": "2484",
																												"length": "16",
																												"children": []
																											}
																										]
																									},
																									{
																										"type": "480000",
																										"label": "&",
																										"typeLabel": "GenericString",
																										"pos": "2483",
																										"length": "1",
																										"children": []
																									}
																								]
																							}
																						]
																					}
																				]
																			}
																		]
																	},
																	{
																		"type": "480000",
																		"label": ";",
																		"typeLabel": "GenericString",
																		"pos": "2501",
																		"length": "1",
																		"children": []
																	}
																]
															}
														]
													},
													{
														"type": "260300",
														"typeLabel": "ExprStatement",
														"pos": "2507",
														"length": "25",
														"children": [
															{
																"type": "290100",
																"typeLabel": "Some",
																"pos": "2507",
																"length": "25",
																"children": [
																	{
																		"type": "240400",
																		"typeLabel": "FunCall",
																		"pos": "2507",
																		"length": "24",
																		"children": [
																			{
																				"type": "240100",
																				"typeLabel": "Ident",
																				"pos": "2507",
																				"length": "22",
																				"children": [
																					{
																						"type": "480000",
																						"label": "grpc_security_pre_init",
																						"typeLabel": "GenericString",
																						"pos": "2507",
																						"length": "22",
																						"children": []
																					}
																				]
																			},
																			{
																				"type": "470000",
																				"typeLabel": "GenericList",
																				"pos": "2529",
																				"length": "2",
																				"children": []
																			}
																		]
																	},
																	{
																		"type": "480000",
																		"label": ";",
																		"typeLabel": "GenericString",
																		"pos": "2531",
																		"length": "1",
																		"children": []
																	}
																]
															}
														]
													},
													{
														"type": "260300",
														"typeLabel": "ExprStatement",
														"pos": "2537",
														"length": "18",
														"children": [
															{
																"type": "290100",
																"typeLabel": "Some",
																"pos": "2537",
																"length": "18",
																"children": [
																	{
																		"type": "240400",
																		"typeLabel": "FunCall",
																		"pos": "2537",
																		"length": "17",
																		"children": [
																			{
																				"type": "240100",
																				"typeLabel": "Ident",
																				"pos": "2537",
																				"length": "15",
																				"children": [
																					{
																						"type": "480000",
																						"label": "grpc_iomgr_init",
																						"typeLabel": "GenericString",
																						"pos": "2537",
																						"length": "15",
																						"children": []
																					}
																				]
																			},
																			{
																				"type": "470000",
																				"typeLabel": "GenericList",
																				"pos": "2552",
																				"length": "2",
																				"children": []
																			}
																		]
																	},
																	{
																		"type": "480000",
																		"label": ";",
																		"typeLabel": "GenericString",
																		"pos": "2554",
																		"length": "1",
																		"children": []
																	}
																]
															}
														]
													},
													{
														"type": "260300",
														"typeLabel": "ExprStatement",
														"pos": "2560",
														"length": "31",
														"children": [
															{
																"type": "290100",
																"typeLabel": "Some",
																"pos": "2560",
																"length": "31",
																"children": [
																	{
																		"type": "240400",
																		"typeLabel": "FunCall",
																		"pos": "2560",
																		"length": "30",
																		"children": [
																			{
																				"type": "240100",
																				"typeLabel": "Ident",
																				"pos": "2560",
																				"length": "16",
																				"children": [
																					{
																						"type": "480000",
																						"label": "grpc_tracer_init",
																						"typeLabel": "GenericString",
																						"pos": "2560",
																						"length": "16",
																						"children": []
																					}
																				]
																			},
																			{
																				"type": "470000",
																				"typeLabel": "GenericList",
																				"pos": "2576",
																				"length": "14",
																				"children": [
																					{
																						"type": "20100",
																						"typeLabel": "Left",
																						"pos": "2577",
																						"length": "12",
																						"children": [
																							{
																								"type": "240200",
																								"label": "\"GRPC_TRACE\"",
																								"typeLabel": "Constant",
																								"pos": "2577",
																								"length": "12",
																								"children": []
																							}
																						]
																					}
																				]
																			}
																		]
																	},
																	{
																		"type": "480000",
																		"label": ";",
																		"typeLabel": "GenericString",
																		"pos": "2590",
																		"length": "1",
																		"children": []
																	}
																]
															}
														]
													},
													{
														"type": "260300",
														"typeLabel": "ExprStatement",
														"pos": "2596",
														"length": "14",
														"children": [
															{
																"type": "290100",
																"typeLabel": "Some",
																"pos": "2596",
																"length": "14",
																"children": [
																	{
																		"type": "240400",
																		"typeLabel": "FunCall",
																		"pos": "2596",
																		"length": "13",
																		"children": [
																			{
																				"type": "240100",
																				"typeLabel": "Ident",
																				"pos": "2596",
																				"length": "11",
																				"children": [
																					{
																						"type": "480000",
																						"label": "census_init",
																						"typeLabel": "GenericString",
																						"pos": "2596",
																						"length": "11",
																						"children": []
																					}
																				]
																			},
																			{
																				"type": "470000",
																				"typeLabel": "GenericList",
																				"pos": "2607",
																				"length": "2",
																				"children": []
																			}
																		]
																	},
																	{
																		"type": "480000",
																		"label": ";",
																		"typeLabel": "GenericString",
																		"pos": "2609",
																		"length": "1",
																		"children": []
																	}
																]
															}
														]
													},
													{
														"type": "260300",
														"typeLabel": "ExprStatement",
														"pos": "2615",
														"length": "30",
														"children": [
															{
																"type": "290100",
																"typeLabel": "Some",
																"pos": "2615",
																"length": "30",
																"children": [
																	{
																		"type": "240400",
																		"typeLabel": "FunCall",
																		"pos": "2615",
																		"length": "29",
																		"children": [
																			{
																				"type": "240100",
																				"typeLabel": "Ident",
																				"pos": "2615",
																				"length": "27",
																				"children": [
																					{
																						"type": "480000",
																						"label": "grpc_timers_log_global_init",
																						"typeLabel": "GenericString",
																						"pos": "2615",
																						"length": "27",
																						"children": []
																					}
																				]
																			},
																			{
																				"type": "470000",
																				"typeLabel": "GenericList",
																				"pos": "2642",
																				"length": "2",
																				"children": []
																			}
																		]
																	},
																	{
																		"type": "480000",
																		"label": ";",
																		"typeLabel": "GenericString",
																		"pos": "2644",
																		"length": "1",
																		"children": []
																	}
																]
															}
														]
													}
												]
											}
										]
									},
									{
										"type": "260300",
										"typeLabel": "ExprStatement",
										"pos": "2652",
										"length": "26",
										"children": [
											{
												"type": "290100",
												"typeLabel": "Some",
												"pos": "2652",
												"length": "26",
												"children": [
													{
														"type": "240400",
														"typeLabel": "FunCall",
														"pos": "2652",
														"length": "25",
														"children": [
															{
																"type": "240100",
																"typeLabel": "Ident",
																"pos": "2652",
																"length": "13",
																"children": [
																	{
																		"type": "480000",
																		"label": "gpr_mu_unlock",
																		"typeLabel": "GenericString",
																		"pos": "2652",
																		"length": "13",
																		"children": []
																	}
																]
															},
															{
																"type": "470000",
																"typeLabel": "GenericList",
																"pos": "2665",
																"length": "12",
																"children": [
																	{
																		"type": "20100",
																		"typeLabel": "Left",
																		"pos": "2666",
																		"length": "10",
																		"children": [
																			{
																				"type": "241000",
																				"typeLabel": "Unary",
																				"pos": "2666",
																				"length": "10",
																				"children": [
																					{
																						"type": "240100",
																						"typeLabel": "Ident",
																						"pos": "2667",
																						"length": "9",
																						"children": [
																							{
																								"type": "480000",
																								"label": "g_init_mu",
																								"typeLabel": "GenericString",
																								"pos": "2667",
																								"length": "9",
																								"children": []
																							}
																						]
																					},
																					{
																						"type": "480000",
																						"label": "&",
																						"typeLabel": "GenericString",
																						"pos": "2666",
																						"length": "1",
																						"children": []
																					}
																				]
																			}
																		]
																	}
																]
															}
														]
													},
													{
														"type": "480000",
														"label": ";",
														"typeLabel": "GenericString",
														"pos": "2677",
														"length": "1",
														"children": []
													}
												]
											}
										]
									}
								]
							}
						]
					}
				]
			},
			{
				"type": "450200",
				"typeLabel": "Definition",
				"pos": "2682",
				"length": "210",
				"children": [
					{
						"type": "380000",
						"typeLabel": "Definition",
						"pos": "2682",
						"length": "210",
						"children": [
							{
								"type": "200000",
								"typeLabel": "ParamList",
								"pos": "2700",
								"length": "6",
								"children": [
									{
										"type": "220100",
										"typeLabel": "ParameterType",
										"pos": "2701",
										"length": "4",
										"children": []
									}
								]
							},
							{
								"type": "480000",
								"label": "grpc_shutdown",
								"typeLabel": "GenericString",
								"pos": "2687",
								"length": "13",
								"children": []
							},
							{
								"type": "330000",
								"typeLabel": "Compound",
								"pos": "2707",
								"length": "185",
								"children": [
									{
										"type": "260300",
										"typeLabel": "ExprStatement",
										"pos": "2711",
										"length": "24",
										"children": [
											{
												"type": "290100",
												"typeLabel": "Some",
												"pos": "2711",
												"length": "24",
												"children": [
													{
														"type": "240400",
														"typeLabel": "FunCall",
														"pos": "2711",
														"length": "23",
														"children": [
															{
																"type": "240100",
																"typeLabel": "Ident",
																"pos": "2711",
																"length": "11",
																"children": [
																	{
																		"type": "480000",
																		"label": "gpr_mu_lock",
																		"typeLabel": "GenericString",
																		"pos": "2711",
																		"length": "11",
																		"children": []
																	}
																]
															},
															{
																"type": "470000",
																"typeLabel": "GenericList",
																"pos": "2722",
																"length": "12",
																"children": [
																	{
																		"type": "20100",
																		"typeLabel": "Left",
																		"pos": "2723",
																		"length": "10",
																		"children": [
																			{
																				"type": "241000",
																				"typeLabel": "Unary",
																				"pos": "2723",
																				"length": "10",
																				"children": [
																					{
																						"type": "240100",
																						"typeLabel": "Ident",
																						"pos": "2724",
																						"length": "9",
																						"children": [
																							{
																								"type": "480000",
																								"label": "g_init_mu",
																								"typeLabel": "GenericString",
																								"pos": "2724",
																								"length": "9",
																								"children": []
																							}
																						]
																					},
																					{
																						"type": "480000",
																						"label": "&",
																						"typeLabel": "GenericString",
																						"pos": "2723",
																						"length": "1",
																						"children": []
																					}
																				]
																			}
																		]
																	}
																]
															}
														]
													},
													{
														"type": "480000",
														"label": ";",
														"typeLabel": "GenericString",
														"pos": "2734",
														"length": "1",
														"children": []
													}
												]
											}
										]
									},
									{
										"type": "300100",
										"typeLabel": "If",
										"pos": "2738",
										"length": "123",
										"children": [
											{
												"type": "490100",
												"typeLabel": "IfToken",
												"pos": "2738",
												"length": "2",
												"children": []
											},
											{
												"type": "241100",
												"typeLabel": "Binary",
												"pos": "2742",
												"length": "24",
												"children": [
													{
														"type": "240900",
														"typeLabel": "Infix",
														"pos": "2742",
														"length": "19",
														"children": [
															{
																"type": "240100",
																"typeLabel": "Ident",
																"pos": "2744",
																"length": "17",
																"children": [
																	{
																		"type": "480000",
																		"label": "g_initializations",
																		"typeLabel": "GenericString",
																		"pos": "2744",
																		"length": "17",
																		"children": []
																	}
																]
															},
															{
																"type": "480000",
																"label": "--",
																"typeLabel": "GenericString",
																"pos": "2742",
																"length": "2",
																"children": []
															}
														]
													},
													{
														"type": "480000",
														"label": "==",
														"typeLabel": "GenericString",
														"pos": "2762",
														"length": "2",
														"children": []
													},
													{
														"type": "240200",
														"label": "0",
														"typeLabel": "Constant",
														"pos": "2765",
														"length": "1",
														"children": []
													}
												]
											},
											{
												"type": "330000",
												"typeLabel": "Compound",
												"pos": "2768",
												"length": "93",
												"children": [
													{
														"type": "260300",
														"typeLabel": "ExprStatement",
														"pos": "2774",
														"length": "22",
														"children": [
															{
																"type": "290100",
																"typeLabel": "Some",
																"pos": "2774",
																"length": "22",
																"children": [
																	{
																		"type": "240400",
																		"typeLabel": "FunCall",
																		"pos": "2774",
																		"length": "21",
																		"children": [
																			{
																				"type": "240100",
																				"typeLabel": "Ident",
																				"pos": "2774",
																				"length": "19",
																				"children": [
																					{
																						"type": "480000",
																						"label": "grpc_iomgr_shutdown",
																						"typeLabel": "GenericString",
																						"pos": "2774",
																						"length": "19",
																						"children": []
																					}
																				]
																			},
																			{
																				"type": "470000",
																				"typeLabel": "GenericList",
																				"pos": "2793",
																				"length": "2",
																				"children": []
																			}
																		]
																	},
																	{
																		"type": "480000",
																		"label": ";",
																		"typeLabel": "GenericString",
																		"pos": "2795",
																		"length": "1",
																		"children": []
																	}
																]
															}
														]
													},
													{
														"type": "260300",
														"typeLabel": "ExprStatement",
														"pos": "2801",
														"length": "18",
														"children": [
															{
																"type": "290100",
																"typeLabel": "Some",
																"pos": "2801",
																"length": "18",
																"children": [
																	{
																		"type": "240400",
																		"typeLabel": "FunCall",
																		"pos": "2801",
																		"length": "17",
																		"children": [
																			{
																				"type": "240100",
																				"typeLabel": "Ident",
																				"pos": "2801",
																				"length": "15",
																				"children": [
																					{
																						"type": "480000",
																						"label": "census_shutdown",
																						"typeLabel": "GenericString",
																						"pos": "2801",
																						"length": "15",
																						"children": []
																					}
																				]
																			},
																			{
																				"type": "470000",
																				"typeLabel": "GenericList",
																				"pos": "2816",
																				"length": "2",
																				"children": []
																			}
																		]
																	},
																	{
																		"type": "480000",
																		"label": ";",
																		"typeLabel": "GenericString",
																		"pos": "2818",
																		"length": "1",
																		"children": []
																	}
																]
															}
														]
													},
													{
														"type": "260300",
														"typeLabel": "ExprStatement",
														"pos": "2824",
														"length": "33",
														"children": [
															{
																"type": "290100",
																"typeLabel": "Some",
																"pos": "2824",
																"length": "33",
																"children": [
																	{
																		"type": "240400",
																		"typeLabel": "FunCall",
																		"pos": "2824",
																		"length": "32",
																		"children": [
																			{
																				"type": "240100",
																				"typeLabel": "Ident",
																				"pos": "2824",
																				"length": "30",
																				"children": [
																					{
																						"type": "480000",
																						"label": "grpc_timers_log_global_destroy",
																						"typeLabel": "GenericString",
																						"pos": "2824",
																						"length": "30",
																						"children": []
																					}
																				]
																			},
																			{
																				"type": "470000",
																				"typeLabel": "GenericList",
																				"pos": "2854",
																				"length": "2",
																				"children": []
																			}
																		]
																	},
																	{
																		"type": "480000",
																		"label": ";",
																		"typeLabel": "GenericString",
																		"pos": "2856",
																		"length": "1",
																		"children": []
																	}
																]
															}
														]
													}
												]
											}
										]
									},
									{
										"type": "260300",
										"typeLabel": "ExprStatement",
										"pos": "2864",
										"length": "26",
										"children": [
											{
												"type": "290100",
												"typeLabel": "Some",
												"pos": "2864",
												"length": "26",
												"children": [
													{
														"type": "240400",
														"typeLabel": "FunCall",
														"pos": "2864",
														"length": "25",
														"children": [
															{
																"type": "240100",
																"typeLabel": "Ident",
																"pos": "2864",
																"length": "13",
																"children": [
																	{
																		"type": "480000",
																		"label": "gpr_mu_unlock",
																		"typeLabel": "GenericString",
																		"pos": "2864",
																		"length": "13",
																		"children": []
																	}
																]
															},
															{
																"type": "470000",
																"typeLabel": "GenericList",
																"pos": "2877",
																"length": "12",
																"children": [
																	{
																		"type": "20100",
																		"typeLabel": "Left",
																		"pos": "2878",
																		"length": "10",
																		"children": [
																			{
																				"type": "241000",
																				"typeLabel": "Unary",
																				"pos": "2878",
																				"length": "10",
																				"children": [
																					{
																						"type": "240100",
																						"typeLabel": "Ident",
																						"pos": "2879",
																						"length": "9",
																						"children": [
																							{
																								"type": "480000",
																								"label": "g_init_mu",
																								"typeLabel": "GenericString",
																								"pos": "2879",
																								"length": "9",
																								"children": []
																							}
																						]
																					},
																					{
																						"type": "480000",
																						"label": "&",
																						"typeLabel": "GenericString",
																						"pos": "2878",
																						"length": "1",
																						"children": []
																					}
																				]
																			}
																		]
																	}
																]
															}
														]
													},
													{
														"type": "480000",
														"label": ";",
														"typeLabel": "GenericString",
														"pos": "2889",
														"length": "1",
														"children": []
													}
												]
											}
										]
									}
								]
							}
						]
					}
				]
			},
			{
				"type": "450200",
				"typeLabel": "Definition",
				"pos": "2894",
				"length": "186",
				"children": [
					{
						"type": "380000",
						"typeLabel": "Definition",
						"pos": "2894",
						"length": "186",
						"children": [
							{
								"type": "200000",
								"typeLabel": "ParamList",
								"pos": "2917",
								"length": "6",
								"children": [
									{
										"type": "220100",
										"typeLabel": "ParameterType",
										"pos": "2918",
										"length": "4",
										"children": []
									}
								]
							},
							{
								"type": "480000",
								"label": "grpc_is_initialized",
								"typeLabel": "GenericString",
								"pos": "2898",
								"length": "19",
								"children": []
							},
							{
								"type": "330000",
								"typeLabel": "Compound",
								"pos": "2924",
								"length": "156",
								"children": [
									{
										"type": "350100",
										"typeLabel": "DeclList",
										"pos": "2928",
										"length": "6",
										"children": [
											{
												"type": "480000",
												"label": "r",
												"typeLabel": "GenericString",
												"pos": "2932",
												"length": "1",
												"children": []
											}
										]
									},
									{
										"type": "260300",
										"typeLabel": "ExprStatement",
										"pos": "2937",
										"length": "44",
										"children": [
											{
												"type": "290100",
												"typeLabel": "Some",
												"pos": "2937",
												"length": "44",
												"children": [
													{
														"type": "240400",
														"typeLabel": "FunCall",
														"pos": "2937",
														"length": "43",
														"children": [
															{
																"type": "240100",
																"typeLabel": "Ident",
																"pos": "2937",
																"length": "13",
																"children": [
																	{
																		"type": "480000",
																		"label": "gpr_once_init",
																		"typeLabel": "GenericString",
																		"pos": "2937",
																		"length": "13",
																		"children": []
																	}
																]
															},
															{
																"type": "470000",
																"typeLabel": "GenericList",
																"pos": "2950",
																"length": "30",
																"children": [
																	{
																		"type": "20100",
																		"typeLabel": "Left",
																		"pos": "2951",
																		"length": "13",
																		"children": [
																			{
																				"type": "241000",
																				"typeLabel": "Unary",
																				"pos": "2951",
																				"length": "13",
																				"children": [
																					{
																						"type": "240100",
																						"typeLabel": "Ident",
																						"pos": "2952",
																						"length": "12",
																						"children": [
																							{
																								"type": "480000",
																								"label": "g_basic_init",
																								"typeLabel": "GenericString",
																								"pos": "2952",
																								"length": "12",
																								"children": []
																							}
																						]
																					},
																					{
																						"type": "480000",
																						"label": "&",
																						"typeLabel": "GenericString",
																						"pos": "2951",
																						"length": "1",
																						"children": []
																					}
																				]
																			}
																		]
																	},
																	{
																		"type": "20100",
																		"typeLabel": "Left",
																		"pos": "2966",
																		"length": "13",
																		"children": [
																			{
																				"type": "240100",
																				"typeLabel": "Ident",
																				"pos": "2966",
																				"length": "13",
																				"children": [
																					{
																						"type": "480000",
																						"label": "do_basic_init",
																						"typeLabel": "GenericString",
																						"pos": "2966",
																						"length": "13",
																						"children": []
																					}
																				]
																			}
																		]
																	}
																]
															}
														]
													},
													{
														"type": "480000",
														"label": ";",
														"typeLabel": "GenericString",
														"pos": "2980",
														"length": "1",
														"children": []
													}
												]
											}
										]
									},
									{
										"type": "260300",
										"typeLabel": "ExprStatement",
										"pos": "2984",
										"length": "24",
										"children": [
											{
												"type": "290100",
												"typeLabel": "Some",
												"pos": "2984",
												"length": "24",
												"children": [
													{
														"type": "240400",
														"typeLabel": "FunCall",
														"pos": "2984",
														"length": "23",
														"children": [
															{
																"type": "240100",
																"typeLabel": "Ident",
																"pos": "2984",
																"length": "11",
																"children": [
																	{
																		"type": "480000",
																		"label": "gpr_mu_lock",
																		"typeLabel": "GenericString",
																		"pos": "2984",
																		"length": "11",
																		"children": []
																	}
																]
															},
															{
																"type": "470000",
																"typeLabel": "GenericList",
																"pos": "2995",
																"length": "12",
																"children": [
																	{
																		"type": "20100",
																		"typeLabel": "Left",
																		"pos": "2996",
																		"length": "10",
																		"children": [
																			{
																				"type": "241000",
																				"typeLabel": "Unary",
																				"pos": "2996",
																				"length": "10",
																				"children": [
																					{
																						"type": "240100",
																						"typeLabel": "Ident",
																						"pos": "2997",
																						"length": "9",
																						"children": [
																							{
																								"type": "480000",
																								"label": "g_init_mu",
																								"typeLabel": "GenericString",
																								"pos": "2997",
																								"length": "9",
																								"children": []
																							}
																						]
																					},
																					{
																						"type": "480000",
																						"label": "&",
																						"typeLabel": "GenericString",
																						"pos": "2996",
																						"length": "1",
																						"children": []
																					}
																				]
																			}
																		]
																	}
																]
															}
														]
													},
													{
														"type": "480000",
														"label": ";",
														"typeLabel": "GenericString",
														"pos": "3007",
														"length": "1",
														"children": []
													}
												]
											}
										]
									},
									{
										"type": "260300",
										"typeLabel": "ExprStatement",
										"pos": "3011",
										"length": "26",
										"children": [
											{
												"type": "290100",
												"typeLabel": "Some",
												"pos": "3011",
												"length": "26",
												"children": [
													{
														"type": "240700",
														"typeLabel": "Assignment",
														"pos": "3011",
														"length": "25",
														"children": [
															{
																"type": "240100",
																"typeLabel": "Ident",
																"pos": "3011",
																"length": "1",
																"children": [
																	{
																		"type": "480000",
																		"label": "r",
																		"typeLabel": "GenericString",
																		"pos": "3011",
																		"length": "1",
																		"children": []
																	}
																]
															},
															{
																"type": "480000",
																"label": "=",
																"typeLabel": "GenericString",
																"pos": "3013",
																"length": "1",
																"children": []
															},
															{
																"type": "241100",
																"typeLabel": "Binary",
																"pos": "3015",
																"length": "21",
																"children": [
																	{
																		"type": "240100",
																		"typeLabel": "Ident",
																		"pos": "3015",
																		"length": "17",
																		"children": [
																			{
																				"type": "480000",
																				"label": "g_initializations",
																				"typeLabel": "GenericString",
																				"pos": "3015",
																				"length": "17",
																				"children": []
																			}
																		]
																	},
																	{
																		"type": "480000",
																		"label": ">",
																		"typeLabel": "GenericString",
																		"pos": "3033",
																		"length": "1",
																		"children": []
																	},
																	{
																		"type": "240200",
																		"label": "0",
																		"typeLabel": "Constant",
																		"pos": "3035",
																		"length": "1",
																		"children": []
																	}
																]
															}
														]
													},
													{
														"type": "480000",
														"label": ";",
														"typeLabel": "GenericString",
														"pos": "3036",
														"length": "1",
														"children": []
													}
												]
											}
										]
									},
									{
										"type": "260300",
										"typeLabel": "ExprStatement",
										"pos": "3040",
										"length": "26",
										"children": [
											{
												"type": "290100",
												"typeLabel": "Some",
												"pos": "3040",
												"length": "26",
												"children": [
													{
														"type": "240400",
														"typeLabel": "FunCall",
														"pos": "3040",
														"length": "25",
														"children": [
															{
																"type": "240100",
																"typeLabel": "Ident",
																"pos": "3040",
																"length": "13",
																"children": [
																	{
																		"type": "480000",
																		"label": "gpr_mu_unlock",
																		"typeLabel": "GenericString",
																		"pos": "3040",
																		"length": "13",
																		"children": []
																	}
																]
															},
															{
																"type": "470000",
																"typeLabel": "GenericList",
																"pos": "3053",
																"length": "12",
																"children": [
																	{
																		"type": "20100",
																		"typeLabel": "Left",
																		"pos": "3054",
																		"length": "10",
																		"children": [
																			{
																				"type": "241000",
																				"typeLabel": "Unary",
																				"pos": "3054",
																				"length": "10",
																				"children": [
																					{
																						"type": "240100",
																						"typeLabel": "Ident",
																						"pos": "3055",
																						"length": "9",
																						"children": [
																							{
																								"type": "480000",
																								"label": "g_init_mu",
																								"typeLabel": "GenericString",
																								"pos": "3055",
																								"length": "9",
																								"children": []
																							}
																						]
																					},
																					{
																						"type": "480000",
																						"label": "&",
																						"typeLabel": "GenericString",
																						"pos": "3054",
																						"length": "1",
																						"children": []
																					}
																				]
																			}
																		]
																	}
																]
															}
														]
													},
													{
														"type": "480000",
														"label": ";",
														"typeLabel": "GenericString",
														"pos": "3065",
														"length": "1",
														"children": []
													}
												]
											}
										]
									},
									{
										"type": "280200",
										"typeLabel": "ReturnExpr",
										"pos": "3069",
										"length": "9",
										"children": [
											{
												"type": "240100",
												"typeLabel": "Ident",
												"pos": "3076",
												"length": "1",
												"children": [
													{
														"type": "480000",
														"label": "r",
														"typeLabel": "GenericString",
														"pos": "3076",
														"length": "1",
														"children": []
													}
												]
											}
										]
									}
								]
							}
						]
					}
				]
			},
			{
				"type": "450800",
				"typeLabel": "FinalDef",
				"pos": "3081",
				"length": "0",
				"children": []
			}
		]
	}
}