{
	"root": {
		"type": "460000",
		"typeLabel": "Program",
		"pos": "0",
		"length": "1115",
		"children": [
			{
				"type": "450300",
				"typeLabel": "CppTop",
				"pos": "0",
				"length": "18",
				"children": [
					{
						"type": "400200",
						"typeLabel": "Include",
						"pos": "0",
						"length": "18",
						"children": [
							{
								"type": "480000",
								"label": "\"cache.h\"",
								"typeLabel": "GenericString",
								"pos": "9",
								"length": "9",
								"children": []
							}
						]
					}
				]
			},
			{
				"type": "450300",
				"typeLabel": "CppTop",
				"pos": "19",
				"length": "21",
				"children": [
					{
						"type": "400200",
						"typeLabel": "Include",
						"pos": "19",
						"length": "21",
						"children": [
							{
								"type": "480000",
								"label": "\"exec_cmd.h\"",
								"typeLabel": "GenericString",
								"pos": "28",
								"length": "12",
								"children": []
							}
						]
					}
				]
			},
			{
				"type": "450200",
				"typeLabel": "Definition",
				"pos": "524",
				"length": "193",
				"children": [
					{
						"type": "380000",
						"typeLabel": "Definition",
						"pos": "524",
						"length": "193",
						"children": [
							{
								"type": "340000",
								"typeLabel": "Storage",
								"pos": "524",
								"length": "6",
								"children": [
									{
										"type": "480000",
										"label": "static",
										"typeLabel": "GenericString",
										"pos": "524",
										"length": "6",
										"children": []
									}
								]
							},
							{
								"type": "200000",
								"typeLabel": "ParamList",
								"pos": "562",
								"length": "6",
								"children": [
									{
										"type": "220100",
										"typeLabel": "ParameterType",
										"pos": "563",
										"length": "4",
										"children": []
									}
								]
							},
							{
								"type": "480000",
								"label": "restore_sigpipe_to_default",
								"typeLabel": "GenericString",
								"pos": "536",
								"length": "26",
								"children": []
							},
							{
								"type": "330000",
								"typeLabel": "Compound",
								"pos": "569",
								"length": "148",
								"children": [
									{
										"type": "350100",
										"typeLabel": "DeclList",
										"pos": "572",
										"length": "17",
										"children": [
											{
												"type": "480000",
												"label": "unblock",
												"typeLabel": "GenericString",
												"pos": "581",
												"length": "7",
												"children": []
											}
										]
									},
									{
										"type": "260300",
										"typeLabel": "ExprStatement",
										"pos": "592",
										"length": "22",
										"children": [
											{
												"type": "290100",
												"typeLabel": "Some",
												"pos": "592",
												"length": "22",
												"children": [
													{
														"type": "240400",
														"typeLabel": "FunCall",
														"pos": "592",
														"length": "21",
														"children": [
															{
																"type": "240100",
																"typeLabel": "Ident",
																"pos": "592",
																"length": "11",
																"children": [
																	{
																		"type": "480000",
																		"label": "sigemptyset",
																		"typeLabel": "GenericString",
																		"pos": "592",
																		"length": "11",
																		"children": []
																	}
																]
															},
															{
																"type": "470000",
																"typeLabel": "GenericList",
																"pos": "603",
																"length": "10",
																"children": [
																	{
																		"type": "20100",
																		"typeLabel": "Left",
																		"pos": "604",
																		"length": "8",
																		"children": [
																			{
																				"type": "241000",
																				"typeLabel": "Unary",
																				"pos": "604",
																				"length": "8",
																				"children": [
																					{
																						"type": "240100",
																						"typeLabel": "Ident",
																						"pos": "605",
																						"length": "7",
																						"children": [
																							{
																								"type": "480000",
																								"label": "unblock",
																								"typeLabel": "GenericString",
																								"pos": "605",
																								"length": "7",
																								"children": []
																							}
																						]
																					},
																					{
																						"type": "480000",
																						"label": "&",
																						"typeLabel": "GenericString",
																						"pos": "604",
																						"length": "1",
																						"children": []
																					}
																				]
																			}
																		]
																	}
																]
															}
														]
													},
													{
														"type": "480000",
														"label": ";",
														"typeLabel": "GenericString",
														"pos": "613",
														"length": "1",
														"children": []
													}
												]
											}
										]
									},
									{
										"type": "260300",
										"typeLabel": "ExprStatement",
										"pos": "616",
										"length": "29",
										"children": [
											{
												"type": "290100",
												"typeLabel": "Some",
												"pos": "616",
												"length": "29",
												"children": [
													{
														"type": "240400",
														"typeLabel": "FunCall",
														"pos": "616",
														"length": "28",
														"children": [
															{
																"type": "240100",
																"typeLabel": "Ident",
																"pos": "616",
																"length": "9",
																"children": [
																	{
																		"type": "480000",
																		"label": "sigaddset",
																		"typeLabel": "GenericString",
																		"pos": "616",
																		"length": "9",
																		"children": []
																	}
																]
															},
															{
																"type": "470000",
																"typeLabel": "GenericList",
																"pos": "625",
																"length": "19",
																"children": [
																	{
																		"type": "20100",
																		"typeLabel": "Left",
																		"pos": "626",
																		"length": "8",
																		"children": [
																			{
																				"type": "241000",
																				"typeLabel": "Unary",
																				"pos": "626",
																				"length": "8",
																				"children": [
																					{
																						"type": "240100",
																						"typeLabel": "Ident",
																						"pos": "627",
																						"length": "7",
																						"children": [
																							{
																								"type": "480000",
																								"label": "unblock",
																								"typeLabel": "GenericString",
																								"pos": "627",
																								"length": "7",
																								"children": []
																							}
																						]
																					},
																					{
																						"type": "480000",
																						"label": "&",
																						"typeLabel": "GenericString",
																						"pos": "626",
																						"length": "1",
																						"children": []
																					}
																				]
																			}
																		]
																	},
																	{
																		"type": "20100",
																		"typeLabel": "Left",
																		"pos": "636",
																		"length": "7",
																		"children": [
																			{
																				"type": "240100",
																				"typeLabel": "Ident",
																				"pos": "636",
																				"length": "7",
																				"children": [
																					{
																						"type": "480000",
																						"label": "SIGPIPE",
																						"typeLabel": "GenericString",
																						"pos": "636",
																						"length": "7",
																						"children": []
																					}
																				]
																			}
																		]
																	}
																]
															}
														]
													},
													{
														"type": "480000",
														"label": ";",
														"typeLabel": "GenericString",
														"pos": "644",
														"length": "1",
														"children": []
													}
												]
											}
										]
									},
									{
										"type": "260300",
										"typeLabel": "ExprStatement",
										"pos": "647",
										"length": "41",
										"children": [
											{
												"type": "290100",
												"typeLabel": "Some",
												"pos": "647",
												"length": "41",
												"children": [
													{
														"type": "240400",
														"typeLabel": "FunCall",
														"pos": "647",
														"length": "40",
														"children": [
															{
																"type": "240100",
																"typeLabel": "Ident",
																"pos": "647",
																"length": "11",
																"children": [
																	{
																		"type": "480000",
																		"label": "sigprocmask",
																		"typeLabel": "GenericString",
																		"pos": "647",
																		"length": "11",
																		"children": []
																	}
																]
															},
															{
																"type": "470000",
																"typeLabel": "GenericList",
																"pos": "658",
																"length": "29",
																"children": [
																	{
																		"type": "20100",
																		"typeLabel": "Left",
																		"pos": "659",
																		"length": "11",
																		"children": [
																			{
																				"type": "240100",
																				"typeLabel": "Ident",
																				"pos": "659",
																				"length": "11",
																				"children": [
																					{
																						"type": "480000",
																						"label": "SIG_UNBLOCK",
																						"typeLabel": "GenericString",
																						"pos": "659",
																						"length": "11",
																						"children": []
																					}
																				]
																			}
																		]
																	},
																	{
																		"type": "20100",
																		"typeLabel": "Left",
																		"pos": "672",
																		"length": "8",
																		"children": [
																			{
																				"type": "241000",
																				"typeLabel": "Unary",
																				"pos": "672",
																				"length": "8",
																				"children": [
																					{
																						"type": "240100",
																						"typeLabel": "Ident",
																						"pos": "673",
																						"length": "7",
																						"children": [
																							{
																								"type": "480000",
																								"label": "unblock",
																								"typeLabel": "GenericString",
																								"pos": "673",
																								"length": "7",
																								"children": []
																							}
																						]
																					},
																					{
																						"type": "480000",
																						"label": "&",
																						"typeLabel": "GenericString",
																						"pos": "672",
																						"length": "1",
																						"children": []
																					}
																				]
																			}
																		]
																	},
																	{
																		"type": "20100",
																		"typeLabel": "Left",
																		"pos": "682",
																		"length": "4",
																		"children": [
																			{
																				"type": "240100",
																				"typeLabel": "Ident",
																				"pos": "682",
																				"length": "4",
																				"children": [
																					{
																						"type": "480000",
																						"label": "NULL",
																						"typeLabel": "GenericString",
																						"pos": "682",
																						"length": "4",
																						"children": []
																					}
																				]
																			}
																		]
																	}
																]
															}
														]
													},
													{
														"type": "480000",
														"label": ";",
														"typeLabel": "GenericString",
														"pos": "687",
														"length": "1",
														"children": []
													}
												]
											}
										]
									},
									{
										"type": "260300",
										"typeLabel": "ExprStatement",
										"pos": "690",
										"length": "25",
										"children": [
											{
												"type": "290100",
												"typeLabel": "Some",
												"pos": "690",
												"length": "25",
												"children": [
													{
														"type": "240400",
														"typeLabel": "FunCall",
														"pos": "690",
														"length": "24",
														"children": [
															{
																"type": "240100",
																"typeLabel": "Ident",
																"pos": "690",
																"length": "6",
																"children": [
																	{
																		"type": "480000",
																		"label": "signal",
																		"typeLabel": "GenericString",
																		"pos": "690",
																		"length": "6",
																		"children": []
																	}
																]
															},
															{
																"type": "470000",
																"typeLabel": "GenericList",
																"pos": "696",
																"length": "18",
																"children": [
																	{
																		"type": "20100",
																		"typeLabel": "Left",
																		"pos": "697",
																		"length": "7",
																		"children": [
																			{
																				"type": "240100",
																				"typeLabel": "Ident",
																				"pos": "697",
																				"length": "7",
																				"children": [
																					{
																						"type": "480000",
																						"label": "SIGPIPE",
																						"typeLabel": "GenericString",
																						"pos": "697",
																						"length": "7",
																						"children": []
																					}
																				]
																			}
																		]
																	},
																	{
																		"type": "20100",
																		"typeLabel": "Left",
																		"pos": "706",
																		"length": "7",
																		"children": [
																			{
																				"type": "240100",
																				"typeLabel": "Ident",
																				"pos": "706",
																				"length": "7",
																				"children": [
																					{
																						"type": "480000",
																						"label": "SIG_DFL",
																						"typeLabel": "GenericString",
																						"pos": "706",
																						"length": "7",
																						"children": []
																					}
																				]
																			}
																		]
																	}
																]
															}
														]
													},
													{
														"type": "480000",
														"label": ";",
														"typeLabel": "GenericString",
														"pos": "714",
														"length": "1",
														"children": []
													}
												]
											}
										]
									}
								]
							}
						]
					}
				]
			},
			{
				"type": "450200",
				"typeLabel": "Definition",
				"pos": "719",
				"length": "395",
				"children": [
					{
						"type": "380000",
						"typeLabel": "Definition",
						"pos": "719",
						"length": "395",
						"children": [
							{
								"type": "200000",
								"typeLabel": "ParamList",
								"pos": "727",
								"length": "29",
								"children": [
									{
										"type": "220100",
										"typeLabel": "ParameterType",
										"pos": "728",
										"length": "8",
										"children": [
											{
												"type": "480000",
												"label": "argc",
												"typeLabel": "GenericString",
												"pos": "732",
												"length": "4",
												"children": []
											}
										]
									},
									{
										"type": "220100",
										"typeLabel": "ParameterType",
										"pos": "738",
										"length": "17",
										"children": [
											{
												"type": "480000",
												"label": "argv",
												"typeLabel": "GenericString",
												"pos": "751",
												"length": "4",
												"children": []
											}
										]
									}
								]
							},
							{
								"type": "480000",
								"label": "main",
								"typeLabel": "GenericString",
								"pos": "723",
								"length": "4",
								"children": []
							},
							{
								"type": "330000",
								"typeLabel": "Compound",
								"pos": "757",
								"length": "357",
								"children": [
									{
										"type": "260300",
										"typeLabel": "ExprStatement",
										"pos": "963",
										"length": "18",
										"children": [
											{
												"type": "290100",
												"typeLabel": "Some",
												"pos": "963",
												"length": "18",
												"children": [
													{
														"type": "240400",
														"typeLabel": "FunCall",
														"pos": "963",
														"length": "17",
														"children": [
															{
																"type": "240100",
																"typeLabel": "Ident",
																"pos": "963",
																"length": "15",
																"children": [
																	{
																		"type": "480000",
																		"label": "sanitize_stdfds",
																		"typeLabel": "GenericString",
																		"pos": "963",
																		"length": "15",
																		"children": []
																	}
																]
															},
															{
																"type": "470000",
																"typeLabel": "GenericList",
																"pos": "978",
																"length": "2",
																"children": []
															}
														]
													},
													{
														"type": "480000",
														"label": ";",
														"typeLabel": "GenericString",
														"pos": "980",
														"length": "1",
														"children": []
													}
												]
											}
										]
									},
									{
										"type": "260300",
										"typeLabel": "ExprStatement",
										"pos": "984",
										"length": "20",
										"children": [
											{
												"type": "290100",
												"typeLabel": "Some",
												"pos": "984",
												"length": "20",
												"children": [
													{
														"type": "240400",
														"typeLabel": "FunCall",
														"pos": "984",
														"length": "19",
														"children": [
															{
																"type": "240100",
																"typeLabel": "Ident",
																"pos": "984",
																"length": "17",
																"children": [
																	{
																		"type": "480000",
																		"label": "git_setup_gettext",
																		"typeLabel": "GenericString",
																		"pos": "984",
																		"length": "17",
																		"children": []
																	}
																]
															},
															{
																"type": "470000",
																"typeLabel": "GenericList",
																"pos": "1001",
																"length": "2",
																"children": []
															}
														]
													},
													{
														"type": "480000",
														"label": ";",
														"typeLabel": "GenericString",
														"pos": "1003",
														"length": "1",
														"children": []
													}
												]
											}
										]
									},
									{
										"type": "260300",
										"typeLabel": "ExprStatement",
										"pos": "1007",
										"length": "42",
										"children": [
											{
												"type": "290100",
												"typeLabel": "Some",
												"pos": "1007",
												"length": "42",
												"children": [
													{
														"type": "240700",
														"typeLabel": "Assignment",
														"pos": "1007",
														"length": "41",
														"children": [
															{
																"type": "241200",
																"typeLabel": "ArrayAccess",
																"pos": "1007",
																"length": "7",
																"children": [
																	{
																		"type": "240100",
																		"typeLabel": "Ident",
																		"pos": "1007",
																		"length": "4",
																		"children": [
																			{
																				"type": "480000",
																				"label": "argv",
																				"typeLabel": "GenericString",
																				"pos": "1007",
																				"length": "4",
																				"children": []
																			}
																		]
																	},
																	{
																		"type": "240200",
																		"label": "0",
																		"typeLabel": "Constant",
																		"pos": "1012",
																		"length": "1",
																		"children": []
																	}
																]
															},
															{
																"type": "480000",
																"label": "=",
																"typeLabel": "GenericString",
																"pos": "1015",
																"length": "1",
																"children": []
															},
															{
																"type": "240400",
																"typeLabel": "FunCall",
																"pos": "1017",
																"length": "31",
																"children": [
																	{
																		"type": "240100",
																		"typeLabel": "Ident",
																		"pos": "1017",
																		"length": "22",
																		"children": [
																			{
																				"type": "480000",
																				"label": "git_extract_argv0_path",
																				"typeLabel": "GenericString",
																				"pos": "1017",
																				"length": "22",
																				"children": []
																			}
																		]
																	},
																	{
																		"type": "470000",
																		"typeLabel": "GenericList",
																		"pos": "1039",
																		"length": "9",
																		"children": [
																			{
																				"type": "20100",
																				"typeLabel": "Left",
																				"pos": "1040",
																				"length": "7",
																				"children": [
																					{
																						"type": "241200",
																						"typeLabel": "ArrayAccess",
																						"pos": "1040",
																						"length": "7",
																						"children": [
																							{
																								"type": "240100",
																								"typeLabel": "Ident",
																								"pos": "1040",
																								"length": "4",
																								"children": [
																									{
																										"type": "480000",
																										"label": "argv",
																										"typeLabel": "GenericString",
																										"pos": "1040",
																										"length": "4",
																										"children": []
																									}
																								]
																							},
																							{
																								"type": "240200",
																								"label": "0",
																								"typeLabel": "Constant",
																								"pos": "1045",
																								"length": "1",
																								"children": []
																							}
																						]
																					}
																				]
																			}
																		]
																	}
																]
															}
														]
													},
													{
														"type": "480000",
														"label": ";",
														"typeLabel": "GenericString",
														"pos": "1048",
														"length": "1",
														"children": []
													}
												]
											}
										]
									},
									{
										"type": "260300",
										"typeLabel": "ExprStatement",
										"pos": "1052",
										"length": "29",
										"children": [
											{
												"type": "290100",
												"typeLabel": "Some",
												"pos": "1052",
												"length": "29",
												"children": [
													{
														"type": "240400",
														"typeLabel": "FunCall",
														"pos": "1052",
														"length": "28",
														"children": [
															{
																"type": "240100",
																"typeLabel": "Ident",
																"pos": "1052",
																"length": "26",
																"children": [
																	{
																		"type": "480000",
																		"label": "restore_sigpipe_to_default",
																		"typeLabel": "GenericString",
																		"pos": "1052",
																		"length": "26",
																		"children": []
																	}
																]
															},
															{
																"type": "470000",
																"typeLabel": "GenericList",
																"pos": "1078",
																"length": "2",
																"children": []
															}
														]
													},
													{
														"type": "480000",
														"label": ";",
														"typeLabel": "GenericString",
														"pos": "1080",
														"length": "1",
														"children": []
													}
												]
											}
										]
									},
									{
										"type": "280200",
										"typeLabel": "ReturnExpr",
										"pos": "1084",
										"length": "28",
										"children": [
											{
												"type": "240400",
												"typeLabel": "FunCall",
												"pos": "1091",
												"length": "20",
												"children": [
													{
														"type": "240100",
														"typeLabel": "Ident",
														"pos": "1091",
														"length": "8",
														"children": [
															{
																"type": "480000",
																"label": "cmd_main",
																"typeLabel": "GenericString",
																"pos": "1091",
																"length": "8",
																"children": []
															}
														]
													},
													{
														"type": "470000",
														"typeLabel": "GenericList",
														"pos": "1099",
														"length": "12",
														"children": [
															{
																"type": "20100",
																"typeLabel": "Left",
																"pos": "1100",
																"length": "4",
																"children": [
																	{
																		"type": "240100",
																		"typeLabel": "Ident",
																		"pos": "1100",
																		"length": "4",
																		"children": [
																			{
																				"type": "480000",
																				"label": "argc",
																				"typeLabel": "GenericString",
																				"pos": "1100",
																				"length": "4",
																				"children": []
																			}
																		]
																	}
																]
															},
															{
																"type": "20100",
																"typeLabel": "Left",
																"pos": "1106",
																"length": "4",
																"children": [
																	{
																		"type": "240100",
																		"typeLabel": "Ident",
																		"pos": "1106",
																		"length": "4",
																		"children": [
																			{
																				"type": "480000",
																				"label": "argv",
																				"typeLabel": "GenericString",
																				"pos": "1106",
																				"length": "4",
																				"children": []
																			}
																		]
																	}
																]
															}
														]
													}
												]
											}
										]
									}
								]
							}
						]
					}
				]
			},
			{
				"type": "450800",
				"typeLabel": "FinalDef",
				"pos": "1115",
				"length": "0",
				"children": []
			}
		]
	}
}