[
  {
    "id": "749ecc954aaa6020501ba1ddbed9f3813137cb7a",
    "date": 1481087994,
    "files": [
      "src/parser.c"
    ],
    "committer": {
      "name": "Gerardo Orellana",
      "email": "goaccess@prosoftcorp.com"
    },
    "message": "Fixed typo on parser function comment."
  },
  {
    "id": "8953b1332299630adae55365e79af5e96a4f9b8a",
    "date": 1479966820,
    "files": [
      "src/gwsocket.c"
    ],
    "committer": {
      "name": "Gerardo Orellana",
      "email": "goaccess@prosoftcorp.com"
    },
    "message": "Fixed issue where specifying fifo in/out wouldn't allow real-time output."
  },
  {
    "id": "5c319e314273da3d4df5c433971912525569a48b",
    "date": 1478358580,
    "files": [
      "src/websocket.c"
    ],
    "committer": {
      "name": "Gerardo Orellana",
      "email": "goaccess@prosoftcorp.com"
    },
    "message": "Fixed (warning) logical disjunction evaluates to true: !EXPR || EXPR."
  },
  {
    "id": "bbd651b94fc418a86f515859cb28a1b985878df0",
    "date": 1478314817,
    "files": [
      "src/parser.c",
      "src/util.h",
      "src/util.c"
    ],
    "committer": {
      "name": "Gerardo Orellana",
      "email": "goaccess@prosoftcorp.com"
    },
    "message": "Fixed integer to string key conversion for unique visitors.\n\nThis fixes the issue where resulting keys would collide with existing\nkeys and thus not keeping the right visitors count on certain panels.\nSee issue #562."
  },
  {
    "id": "137935d5179d2cb1dc63bf2e339be2740c9cdddb",
    "date": 1477953682,
    "files": [
      "src/goaccess.c"
    ],
    "committer": {
      "name": "Gerardo Orellana",
      "email": "goaccess@prosoftcorp.com"
    },
    "message": "Fixed possible race condition when pushing data to a client."
  },
  {
    "id": "f5c35b04c8a95fbe655f83546c4f5def9c616c3f",
    "date": 1477697927,
    "files": [
      "src/goaccess.c"
    ],
    "committer": {
      "name": "Gerardo Orellana",
      "email": "goaccess@prosoftcorp.com"
    },
    "message": "Fixed formatting on goaccess.c"
  },
  {
    "id": "b8cebbc9d677b438a4db6c14d5dc4b56699d3c3a",
    "date": 1477627598,
    "files": [
      "src/goaccess.c"
    ],
    "committer": {
      "name": "Gerardo Orellana",
      "email": "goaccess@prosoftcorp.com"
    },
    "message": "Fixed cppcheck (error) uninitialized variable: w/rfds under goaccess.c."
  },
  {
    "id": "0ecc9b4b89d1062355a0d09bedf640d5ac6b612c",
    "date": 1477540486,
    "files": [
      "src/csv.c"
    ],
    "committer": {
      "name": "Gerardo Orellana",
      "email": "goaccess@prosoftcorp.com"
    },
    "message": "Fixed (warning) in format string for 'unsigned int' under csv.c."
  },
  {
    "id": "b6b47d3bc7d0cf38745d32a3ad262bab87dbb7fe",
    "date": 1477452425,
    "files": [
      "src/bin2c.c"
    ],
    "committer": {
      "name": "Gerardo Orellana",
      "email": "goaccess@prosoftcorp.com"
    },
    "message": "Fixed (warning) in format string for 'unsigned int' under bin2c.c."
  },
  {
    "id": "e3309f4682b81bea21fe16317c00d4dfc7842b04",
    "date": 1476971830,
    "files": [
      "src/json.c"
    ],
    "committer": {
      "name": "Gerardo Orellana",
      "email": "goaccess@prosoftcorp.com"
    },
    "message": "Fixed escape issue generating invalid JSON."
  },
  {
    "id": "626da9313627068fb2e9406ea526482685462d87",
    "date": 1476935385,
    "files": [
      "src/bin2c.c",
      "src/commons.h"
    ],
    "committer": {
      "name": "Gerardo Orellana",
      "email": "goaccess@prosoftcorp.com"
    },
    "message": "Fixed warning: unused variable \u2018status\u2019 under bin2c.c"
  },
  {
    "id": "b55f1aca50a4d6f9ee33dbadd061ecb836de1436",
    "date": 1475196305,
    "files": [
      "src/parser.c"
    ],
    "committer": {
      "name": "Gerardo Orellana",
      "email": "goaccess@prosoftcorp.com"
    },
    "message": "Fixed memory leak when unable to URL decode %q specifier."
  },
  {
    "id": "deeef2f8047f16a590afaf8161a9f8023b9840a9",
    "date": 1475109612,
    "files": [
      "src/parser.c"
    ],
    "committer": {
      "name": "Gerardo Orellana",
      "email": "goaccess@prosoftcorp.com"
    },
    "message": "Fixed memory leak when unable to URL decode %U specifier."
  },
  {
    "id": "5810b3590b7ec95c834deffb5403519987a27fbe",
    "date": 1474933082,
    "files": [
      "src/gwsocket.h",
      "src/goaccess.c",
      "src/gwsocket.c",
      "src/goaccess.h"
    ],
    "committer": {
      "name": "Gerardo Orellana",
      "email": "goaccess@prosoftcorp.com"
    },
    "message": "Fixed a race condition on WebSocket named piped reader & writer."
  },
  {
    "id": "d03316c9e53e05247c489b4c80e13d548b87a63d",
    "date": 1474748966,
    "files": [
      "src/gwsocket.c"
    ],
    "committer": {
      "name": "Gerardo Orellana",
      "email": "goaccess@prosoftcorp.com"
    },
    "message": "Fixed type on function comment."
  },
  {
    "id": "7cd7c8855b144156e5d60085a7bf32e6e6299b8c",
    "date": 1473729848,
    "files": [
      "src/commons.c"
    ],
    "committer": {
      "name": "Gerardo Orellana",
      "email": "goaccess@prosoftcorp.com"
    },
    "message": "Fixed percent calculation due to integer division rounding to zero."
  },
  {
    "id": "c4c0623038f609e277d9538791c6af63e90d2baf",
    "date": 1473545731,
    "files": [
      "src/json.c"
    ],
    "committer": {
      "name": "Gerardo Orellana",
      "email": "goaccess@prosoftcorp.com"
    },
    "message": "Fixed function comment typo."
  },
  {
    "id": "cfac82341dd6e06b9e0cb9f76dc225edb1ac5fbf",
    "date": 1473475762,
    "files": [
      "src/json.c",
      "resources/tpls.html"
    ],
    "committer": {
      "name": "Gerardo Orellana",
      "email": "goaccess@prosoftcorp.com"
    },
    "message": "Fixed possible code injection when outputting an HTML report.\n\nSince JSON data is bootstrapped into the HTML document of a report,\nthen we perform entity translations in case weird stuff is put into\nthe document (issue #487).\n\nNote: The following scenario assumes that the user manually makes\nthe HTML report a PHP file (GoAccess doesn't allow the creation of a\nPHP file):\n\n/index.html<?php eval(base_decode('iZWNobyAiPGgxPkhFTExPPC9oMT4iOw=='));?>"
  },
  {
    "id": "aad9ce076ad9afd440ddcf7fca347d09449e33b0",
    "date": 1470009761,
    "files": [
      "src/options.c"
    ],
    "committer": {
      "name": "Gerardo Orellana",
      "email": "goaccess@prosoftcorp.com"
    },
    "message": "Fixed segfault when using options -H or -M without an argument."
  },
  {
    "id": "0ab6387d9da46a74fe92988b6b0b0ed8e00395bb",
    "date": 1468028292,
    "files": [
      "src/commons.c"
    ],
    "committer": {
      "name": "Gerardo Orellana",
      "email": "goaccess@prosoftcorp.com"
    },
    "message": "Fixed percentage integer overflow with large numbers on 32bits platforms."
  },
  {
    "id": "8c458ce99b43462b2c5d818566432feb4307a507",
    "date": 1465782803,
    "files": [
      "src/websocket.c"
    ],
    "committer": {
      "name": "Gerardo Orellana",
      "email": "goaccess@prosoftcorp.com"
    },
    "message": "Fixed memory leak on queue buffer for dangling clients."
  },
  {
    "id": "a8512b573f54a505ffd4861618a449b3a09e447c",
    "date": 1465656367,
    "files": [
      "src/goaccess.c"
    ],
    "committer": {
      "name": "Gerardo Orellana",
      "email": "goaccess@prosoftcorp.com"
    },
    "message": "Fixed memory leak when using getline and follow mode enabled."
  },
  {
    "id": "b3426164d583bdce1e6ec9b78be5b13b178acc9d",
    "date": 1464646592,
    "files": [
      "src/settings.h",
      "src/parser.c",
      "src/ui.c",
      "src/goaccess.c",
      "src/parser.h",
      "src/settings.c"
    ],
    "committer": {
      "name": "Gerardo Orellana",
      "email": "goaccess@prosoftcorp.com"
    },
    "message": "Fixed some still reachable mem leaks on log/date formats.\n\nIn addition, refactored the way the log/date/time formats are set and\nverified."
  },
  {
    "id": "cf82c38930344b9b332b3b4cc9f1bd3cdadfad98",
    "date": 1463399682,
    "files": [
      "src/gkhash.c"
    ],
    "committer": {
      "name": "Gerardo Orellana",
      "email": "goaccess@prosoftcorp.com"
    },
    "message": "Fixed a still reachable memory leak on gkh_storage."
  },
  {
    "id": "7a3b958616673e563363a28921dc1841b62a5ecb",
    "date": 1463199040,
    "files": [
      "src/goaccess.c"
    ],
    "committer": {
      "name": "Gerardo Orellana",
      "email": "goaccess@prosoftcorp.com"
    },
    "message": "Fixed still reachable memory leak on GeoIP cleanup.\n\nNote: GeoIP_cleanup() was introduced on geoip legacy 1.4.7."
  },
  {
    "id": "7a1016052229caa056208672868cd2f1b21d5c49",
    "date": 1463195589,
    "files": [
      "src/ui.c"
    ],
    "committer": {
      "name": "Gerardo Orellana",
      "email": "goaccess@prosoftcorp.com"
    },
    "message": "Fixed a still reachable memory leak on parsing spinner."
  },
  {
    "id": "999320a56610d2dc985dab89a39c28937a12b47a",
    "date": 1461153038,
    "files": [
      "src/commons.c"
    ],
    "committer": {
      "name": "Gerardo Orellana",
      "email": "goaccess@prosoftcorp.com"
    },
    "message": "Fixed singly link list node removal."
  },
  {
    "id": "8dce8e11d694aef66eaa0c12892aec4915b2be4e",
    "date": 1460919871,
    "files": [
      "src/commons.c"
    ],
    "committer": {
      "name": "Gerardo Orellana",
      "email": "goaccess@prosoftcorp.com"
    },
    "message": "Fixed comment typo under commons.c."
  },
  {
    "id": "132c898c37699fdbb780f888c2a8571b7a73cd4c",
    "date": 1460919810,
    "files": [
      "src/commons.c"
    ],
    "committer": {
      "name": "Gerardo Orellana",
      "email": "goaccess@prosoftcorp.com"
    },
    "message": "Fixed comment typo under commons.c."
  },
  {
    "id": "0ad786b2ebfa550fed38271cefaf00ff2118691f",
    "date": 1460833357,
    "files": [
      "src/color.c"
    ],
    "committer": {
      "name": "Gerardo Orellana",
      "email": "goaccess@prosoftcorp.com"
    },
    "message": "Fixed comment typo under colors.c."
  },
  {
    "id": "e0b1694587b19e236bda82fc8f8502a344cf11ec",
    "date": 1457825823,
    "files": [
      "src/json.c",
      "src/output.h",
      "src/output.c",
      "src/json.h"
    ],
    "committer": {
      "name": "Gerardo Orellana",
      "email": "goaccess@prosoftcorp.com"
    },
    "message": "Fixed JSON prettify."
  },
  {
    "id": "b676a06ac5098db4b810076fb9a69a2188dc444b",
    "date": 1456705062,
    "files": [
      "src/gdashboard.c"
    ],
    "committer": {
      "name": "Gerardo Orellana",
      "email": "goaccess@prosoftcorp.com"
    },
    "message": "Fixed module setting issue when searching the term dashboard."
  },
  {
    "id": "6d716ac64c0f14489db244ab3351fcb9b3ad5e42",
    "date": 1456113090,
    "files": [
      "src/gstorage.c"
    ],
    "committer": {
      "name": "Gerardo Orellana",
      "email": "goaccess@prosoftcorp.com"
    },
    "message": "Fixed append protocol conditional statement."
  },
  {
    "id": "58fe3d221e9b01ad3d7cb11590e9b4c51df73319",
    "date": 1455064082,
    "files": [
      "src/tcbtdb.c"
    ],
    "committer": {
      "name": "Yuriy M. Kaminskiy",
      "email": "yumkam@gmail.com"
    },
    "message": "Fixed improper handling of snprintf return value\n\n... and fix improper snprintf buffer size broken by\n703d69b6478fe2fad2c1c78e746cc766bc13673c"
  },
  {
    "id": "8dbffe65d7d0246980c8f8cb35c9d2753164c645",
    "date": 1453203702,
    "files": [
      "src/output.c"
    ],
    "committer": {
      "name": "Gerardo Orellana",
      "email": "goaccess@prosoftcorp.com"
    },
    "message": "Fixed broken HTML layout when html-method/protocol is missing in config file."
  },
  {
    "id": "d3e7d519d32854e7bc2925be7176993286d51738",
    "date": 1453170023,
    "files": [
      "src/parser.c"
    ],
    "committer": {
      "name": "Gerardo Orellana",
      "email": "goaccess@prosoftcorp.com"
    },
    "message": "Fixed bandwidth overflow issue (numbers > 2GB on non-x86_64 arch)."
  },
  {
    "id": "9921fd8a4f37df7c36a382f26b37787b9a3b4abe",
    "date": 1449548841,
    "files": [
      "src/goaccess.c"
    ],
    "committer": {
      "name": "Gerardo Orellana",
      "email": "goaccess@prosoftcorp.com"
    },
    "message": "Fixed build - dot typo."
  },
  {
    "id": "b29d93e056c9d13e0d519e4391d8a8e6cc0cccd9",
    "date": 1449203627,
    "files": [
      "src/tcabdb.h",
      "src/goaccess.c",
      "src/tcabdb.c"
    ],
    "committer": {
      "name": "Gerardo Orellana",
      "email": "goaccess@prosoftcorp.com"
    },
    "message": "Fixed int overflow when getting total bandwidth using the on-disk storage."
  },
  {
    "id": "7e1931c6c0ea1930ed0872e09a17a3dbbcf62a84",
    "date": 1449200057,
    "files": [
      "src/gdashboard.c",
      "src/commons.c",
      "src/parser.c",
      "src/gholder.c",
      "src/util.c",
      "src/util.h",
      "src/commons.h"
    ],
    "committer": {
      "name": "Gerardo Orellana",
      "email": "goaccess@prosoftcorp.com"
    },
    "message": "Fixed issue where a timestamp was stored as date under the visitors panel."
  },
  {
    "id": "0b28cbe243d9abb0a64d7c7ebb396a3fde841621",
    "date": 1445897647,
    "files": [
      "src/parser.c"
    ],
    "committer": {
      "name": "Gerardo Orellana",
      "email": "goaccess@prosoftcorp.com"
    },
    "message": "Fixed segfault when appending data to a log (follow) without virtualhosts."
  },
  {
    "id": "6c56ac030e6436842869bf6f9c407031ed7d0db7",
    "date": 1445620594,
    "files": [
      "src/options.c",
      "src/util.h",
      "src/util.c"
    ],
    "committer": {
      "name": "Gerardo Orellana",
      "email": "goaccess@prosoftcorp.com"
    },
    "message": "Fixed segfault when ignoring multiple times the same panel."
  },
  {
    "id": "8991cd36579e307bba8aa3b70b93fd2177b0aed3",
    "date": 1445482318,
    "files": [
      "src/output.c"
    ],
    "committer": {
      "name": "Gerardo Orellana",
      "email": "goaccess@prosoftcorp.com"
    },
    "message": "Fixed segfault when loading data from disk and no proto/method was originally parsed."
  },
  {
    "id": "d0898d17cf70cf1b58d40f773d538b1c4b11180f",
    "date": 1445210004,
    "files": [
      "src/goaccess.c",
      "src/tcabdb.c",
      "src/parser.c"
    ],
    "committer": {
      "name": "Gerardo Orellana",
      "email": "goaccess@prosoftcorp.com"
    },
    "message": "Fixed issue where it did not allow only to load data from disk."
  },
  {
    "id": "603b1b4e2af8f110d0bc18a9bb145d02b5ad5028",
    "date": 1445178056,
    "files": [
      "src/gkhash.c"
    ],
    "committer": {
      "name": "Gerardo Orellana",
      "email": "goaccess@prosoftcorp.com"
    },
    "message": "Fixed issue initializing anonymous union on gcc < 4.6."
  },
  {
    "id": "a3dce438430663c5a4fc35e1e98ed6caf291c9a4",
    "date": 1444090160,
    "files": [
      "src/glibht.c"
    ],
    "committer": {
      "name": "Gerardo Orellana",
      "email": "goaccess@prosoftcorp.com"
    },
    "message": "Fixed warning: implicit declaration of function dbg_fprintf."
  },
  {
    "id": "73b6ec74d11fdcbe5f762c00cd583720cc15c320",
    "date": 1442457418,
    "files": [
      "src/tcabdb.c"
    ],
    "committer": {
      "name": "Gerardo Orellana",
      "email": "goaccess@prosoftcorp.com"
    },
    "message": "Log tcadbput() if it fails to store a record."
  },
  {
    "id": "aa060a8981f861a05ccc0db4852bd07cc6dd253e",
    "date": 1442367431,
    "files": [
      "src/goaccess.c",
      "src/parser.c"
    ],
    "committer": {
      "name": "Gerardo Orellana",
      "email": "goaccess@prosoftcorp.com"
    },
    "message": "Fixed issue where T.S. metrics were not shown when loading persisted data."
  },
  {
    "id": "9ef552731ce9f4bdfc67178087b4d8ce8cffb10d",
    "date": 1441857127,
    "files": [
      "src/parser.c"
    ],
    "committer": {
      "name": "Gerardo Orellana",
      "email": "goaccess@prosoftcorp.com"
    },
    "message": "Fixed 'Possible null pointer dereference' warning."
  },
  {
    "id": "c3276a2b81e3e9a740c93301960f69de5d67c0ca",
    "date": 1441515680,
    "files": [
      "src/parser.c"
    ],
    "committer": {
      "name": "Gerardo Orellana",
      "email": "goaccess@prosoftcorp.com"
    },
    "message": "Fixed comments indentation under pre_process_log()."
  },
  {
    "id": "466ffd8a367163dafba103c3a3bb998bc3b7ba6a",
    "date": 1440716254,
    "files": [
      "src/color.h",
      "src/color.c"
    ],
    "committer": {
      "name": "Gerardo Orellana",
      "email": "goaccess@prosoftcorp.com"
    },
    "message": "Fixed inability to parse color without POSIX extension.\n\nThis ensures sscanf can extract the color pair in a portable way."
  },
  {
    "id": "2fb86eea4a6cf39a8d97442ed3e0f6904659b636",
    "date": 1439955194,
    "files": [
      "src/goaccess.c"
    ],
    "committer": {
      "name": "Gerardo O",
      "email": "goaccess@prosoftcorp.com"
    },
    "message": "Fixed warning 'variable is reassigned a value before the old one has been used'."
  },
  {
    "id": "a4a49d67a67fd1eae10582f2576efe364fcb7ecd",
    "date": 1439867311,
    "files": [
      "src/json.c"
    ],
    "committer": {
      "name": "Gerardo O",
      "email": "goaccess@prosoftcorp.com"
    },
    "message": "Fixed warning 'format requires long long but argument type is unsigned long long'."
  },
  {
    "id": "23976387d64c30ff6c49d669e2e95feb7c6d6f07",
    "date": 1439737939,
    "files": [
      "src/json.c"
    ],
    "committer": {
      "name": "Gerardo Orellana",
      "email": "goaccess@prosoftcorp.com"
    },
    "message": "Fixed warning 'format requires unsigned long long but arg type is long long."
  },
  {
    "id": "c65b69a02efd91592edc5f38150da0f2404c87d5",
    "date": 1439698246,
    "files": [
      "src/output.c"
    ],
    "committer": {
      "name": "Gerardo Orellana",
      "email": "goaccess@prosoftcorp.com"
    },
    "message": "Fixed warning 'format requires unsigned long long but arg type is long long."
  },
  {
    "id": "bfe649d8ffe5c1ddc0d02d6616ae85505e27af35",
    "date": 1439596532,
    "files": [
      "src/error.c"
    ],
    "committer": {
      "name": "Gerardo Orellana",
      "email": "goaccess@prosoftcorp.com"
    },
    "message": "Fixed warning 'format string requires int but arg type is unsigned int."
  },
  {
    "id": "686c1045c5128b0b6d9901c466ece4a52c9f0067",
    "date": 1439596069,
    "files": [
      "src/error.c"
    ],
    "committer": {
      "name": "Gerardo Orellana",
      "email": "goaccess@prosoftcorp.com"
    },
    "message": "Fixed warning 'format string requires long long but arg type is unsigned long long."
  },
  {
    "id": "c3d8b4a8090a4a8b2f9887ce905d513b521aebb1",
    "date": 1439512085,
    "files": [
      "src/error.c"
    ],
    "committer": {
      "name": "Gerardo O",
      "email": "goaccess@prosoftcorp.com"
    },
    "message": "Fixed warning 'format string requires int but the argument type is unsigned int'."
  },
  {
    "id": "41acc2d0d93e16f193e922a867b8d86fccc61a26",
    "date": 1439511891,
    "files": [
      "src/error.c"
    ],
    "committer": {
      "name": "Gerardo O",
      "email": "goaccess@prosoftcorp.com"
    },
    "message": "Fixed warning 'format string requires int but the argument type is unsigned int'."
  },
  {
    "id": "867be50cb362dedce6e1960cdc6e87eb56122a35",
    "date": 1439438977,
    "files": [
      "src/gdashboard.c"
    ],
    "committer": {
      "name": "Gerardo Orellana",
      "email": "goaccess@prosoftcorp.com"
    },
    "message": "Fixed uninitialized variable: item/next."
  },
  {
    "id": "1218d1b8aa70fdd65ca42e449f6a15fbe4a2e28e",
    "date": 1438043154,
    "files": [
      "src/sort.c",
      "src/sort.h"
    ],
    "committer": {
      "name": "Gerardo Orellana",
      "email": "goaccess@prosoftcorp.com"
    },
    "message": "Fixed issue where the '--sort-panel' option wouldn't sort certain panels."
  },
  {
    "id": "ac3958d4cfde894277554cd054c92cbd68b4e494",
    "date": 1437450033,
    "files": [
      "src/gdashboard.c"
    ],
    "committer": {
      "name": "Gerardo Orellana",
      "email": "goaccess@prosoftcorp.com"
    },
    "message": "Fixed hits metric print alignment (selected)."
  },
  {
    "id": "fa804828745bac7643c955a6e2fae7d4acbc298e",
    "date": 1435942698,
    "files": [
      "src/ui.c"
    ],
    "committer": {
      "name": "Gerardo Orellana",
      "email": "goaccess@prosoftcorp.com"
    },
    "message": "Fixed issue where the date value was set as time value  in the config dialog."
  },
  {
    "id": "1f51d302ca144107766b8b10e15f2fd037f2943a",
    "date": 1435431682,
    "files": [
      "src/glibht.c"
    ],
    "committer": {
      "name": "Gerardo Orellana",
      "email": "goaccess@prosoftcorp.com"
    },
    "message": "Fixed 'missing function prototype' warning message."
  },
  {
    "id": "07b54ffe3fc406ad52d7baa4960d3b6f564ceb13",
    "date": 1435418736,
    "files": [
      "src/glibht.c"
    ],
    "committer": {
      "name": "Gerardo Orellana",
      "email": "goaccess@prosoftcorp.com"
    },
    "message": "Fixed memory leak in the hits metrics when using the in-memory storage (GLib)."
  },
  {
    "id": "e16400d5d247b21d74a82687c029e91c2642ecfe",
    "date": 1435114418,
    "files": [
      "src/tcabdb.c"
    ],
    "committer": {
      "name": "Gerardo Orellana",
      "email": "goaccess@prosoftcorp.com"
    },
    "message": "Fixed implicit declaration of function xstrncpy & alloc_string."
  },
  {
    "id": "af70945a99a577b9bad7f78bc2807b9ee6175c8f",
    "date": 1434897671,
    "files": [
      "src/commons.c"
    ],
    "committer": {
      "name": "Gerardo Orellana",
      "email": "goaccess@prosoftcorp.com"
    },
    "message": "Fixed implicit declaration of function in commons.c."
  },
  {
    "id": "baf0ffd3023c6f80c932a0efe8cdb6871e3e3647",
    "date": 1432518602,
    "files": [
      "src/tcabinet.c",
      "src/goaccess.c",
      "src/tcabinet.h",
      "src/ui.c"
    ],
    "committer": {
      "name": "Gerardo Orellana",
      "email": "goaccess@prosoftcorp.com"
    },
    "message": "Fixed segfault when using on-disk storage and loading persisted data with -a."
  },
  {
    "id": "1b0ca9461d895e4182ae0cbcc9e3e0c97c8eb134",
    "date": 1428969398,
    "files": [
      "src/util.c"
    ],
    "committer": {
      "name": "Gerardo Orellana",
      "email": "goaccess@prosoftcorp.com"
    },
    "message": "Fixed memory leak when excluding an IP range."
  },
  {
    "id": "fbb9ecd92c896f3514561d5f5b755d8287fa10be",
    "date": 1428806356,
    "files": [
      "src/util.c"
    ],
    "committer": {
      "name": "Gerardo Orellana",
      "email": "goaccess@prosoftcorp.com"
    },
    "message": "Fixed issue where a single IP did not get exclud after an IP range."
  },
  {
    "id": "d1c172443c47783cdba8d579321753079cbdeb46",
    "date": 1428464640,
    "files": [
      "src/parser.c"
    ],
    "committer": {
      "name": "Gerardo Orellana",
      "email": "goaccess@prosoftcorp.com"
    },
    "message": "Fixed issue where some browsers were not recognized or marked as 'unknown'."
  },
  {
    "id": "9e6c205cd3fc89f07c369cbe95022c9f1873f6fa",
    "date": 1428373236,
    "files": [
      "src/sort.c"
    ],
    "committer": {
      "name": "Gerardo Orellana",
      "email": "goaccess@prosoftcorp.com"
    },
    "message": "Fixed overflows on sort comparison functions."
  },
  {
    "id": "d18ab7d1fe04377556b24bbb8339b7a99e372511",
    "date": 1428293154,
    "files": [
      "src/parser.c",
      "src/util.h"
    ],
    "committer": {
      "name": "Gerardo Orellana",
      "email": "goaccess@prosoftcorp.com"
    },
    "message": "Fixed issue where requests show up in the wrong view even when --no-query-string is used."
  },
  {
    "id": "41b774e405fcb3703081ba91a32fcf89ec1b4f55",
    "date": 1426728293,
    "files": [
      "src/output.c"
    ],
    "committer": {
      "name": "Gerardo Orellana",
      "email": "goaccess@prosoftcorp.com"
    },
    "message": "Fixed some gcc (4.4.3) warnings (shadow declaration)."
  },
  {
    "id": "03363b91ad467ac79c163ce6a9ce36bf4f042cb7",
    "date": 1426727909,
    "files": [
      "src/csv.c",
      "src/json.c"
    ],
    "committer": {
      "name": "Gerardo Orellana",
      "email": "goaccess@prosoftcorp.com"
    },
    "message": "Fixed some gcc (4.4.3) warnings."
  },
  {
    "id": "98408ffefb3c478bcaf555e5603b687997150815",
    "date": 1426641851,
    "files": [
      "src/parser.c"
    ],
    "committer": {
      "name": "Gerardo Orellana",
      "email": "goaccess@prosoftcorp.com"
    },
    "message": "Fixed uninitialised value created by a stack allocation."
  },
  {
    "id": "5ee0a2b9cd83a207c5ecfa10ff52fd73b86fdd9b",
    "date": 1425389553,
    "files": [
      "src/util.c"
    ],
    "committer": {
      "name": "Gerardo Orellana",
      "email": "goaccess@prosoftcorp.com"
    },
    "message": "Fixed file size 'snprintf' spacing issue."
  },
  {
    "id": "80c3b3c8582237d406b7140cc658125e80b43617",
    "date": 1425357119,
    "files": [
      "src/gdashboard.c",
      "src/goaccess.c",
      "src/commons.h"
    ],
    "committer": {
      "name": "Gerardo Orellana",
      "email": "goaccess@prosoftcorp.com"
    },
    "message": "Fixed display total count and simplified dashboard allocation."
  },
  {
    "id": "5af07c4935d29cf405454ecd205d23715a3780be",
    "date": 1425150984,
    "files": [
      "src/tcabinet.c"
    ],
    "committer": {
      "name": "Gerardo Orellana",
      "email": "goaccess@prosoftcorp.com"
    },
    "message": "Fixed memory leak from dbname mem allocation."
  },
  {
    "id": "b3e985122fa64cbf33757f73b6d55f80fdaf33b7",
    "date": 1424957870,
    "files": [
      "src/gdashboard.c"
    ],
    "committer": {
      "name": "Gerardo Orellana",
      "email": "goaccess@prosoftcorp.com"
    },
    "message": "Fixed metric alignment display issue on term dashboard."
  },
  {
    "id": "bbfda9780f05cbbca12477d3b84bcb18396a25ab",
    "date": 1424572915,
    "files": [
      "src/tcabinet.c",
      "src/goaccess.c"
    ],
    "committer": {
      "name": "Gerardo Orellana",
      "email": "goaccess@prosoftcorp.com"
    },
    "message": "Fixed memory leak when inserting key into uniqmap (Tokyo Cabinet)."
  },
  {
    "id": "92a6f1539950c723cb2d945a0b3fdbdf50c80e05",
    "date": 1424570657,
    "files": [
      "src/goaccess.c"
    ],
    "committer": {
      "name": "Gerardo Orellana",
      "email": "goaccess@prosoftcorp.com"
    },
    "message": "Fixed ISO C90: forbids mixed declarations and code."
  },
  {
    "id": "9f5d3ae1054f7d2850597c9507cbaa0a69a00f94",
    "date": 1422419447,
    "files": [
      "src/options.c"
    ],
    "committer": {
      "name": "Gerardo Orellana",
      "email": "goaccess@prosoftcorp.com"
    },
    "message": "Fixed array overflows when exceeding MAX_* limits on command line\noptions."
  },
  {
    "id": "e1cf90502f6d8f098d6f0d8589e9543f09f1072f",
    "date": 1420677229,
    "files": [
      "src/goaccess.c"
    ],
    "committer": {
      "name": "Gerardo Orellana",
      "email": "goaccess@prosoftcorp.com"
    },
    "message": "Fixed issue where a 'Nothing valid to process' error was triggered\nwhen the number of invalid hits was equal to the number of valid hits."
  },
  {
    "id": "d55d2d4f736e928f6ae9bf7d5bdc6289b49ec311",
    "date": 1420677061,
    "files": [
      "src/goaccess.c"
    ],
    "committer": {
      "name": "Gerardo Orellana",
      "email": "goaccess@prosoftcorp.com"
    },
    "message": "Fixed issue where a 'Nothing valid to process' error was triggered\nwhen the number of invalid hits was equal to the number of valid hits."
  },
  {
    "id": "08e33b3aea2fb25dbeeb9af99929f36ef9cb8981",
    "date": 1416878784,
    "files": [
      "sort.c",
      "sort.h"
    ],
    "committer": {
      "name": "Gerardo Orellana",
      "email": "goaccess@prosoftcorp.com"
    },
    "message": "Fixed static declaration of function follows non-static declaration."
  },
  {
    "id": "713b05f178403aea9c166284d211ef782d28b281",
    "date": 1416278775,
    "files": [
      "geolocation.c"
    ],
    "committer": {
      "name": "Gerardo Orellana",
      "email": "goaccess@prosoftcorp.com"
    },
    "message": "Fixed character encoding on geolocation output (ISO-8859 to UTF8)."
  },
  {
    "id": "42bab77b4718d2b82b75ebc041e2f5dba808e739",
    "date": 1415417562,
    "files": [
      "options.c"
    ],
    "committer": {
      "name": "Gerardo Orellana",
      "email": "goaccess@prosoftcorp.com"
    },
    "message": "Fixed issue where outputting to a file left a zero-byte file in pwd."
  },
  {
    "id": "55faa5e03180cb73c33f6a6d46a2f550b14fbb0f",
    "date": 1413652337,
    "files": [
      "parser.c"
    ],
    "committer": {
      "name": "Gerardo Orellana",
      "email": "goaccess@prosoftcorp.com"
    },
    "message": "Fixed issue where sscanf could not handle special chars within the referer."
  },
  {
    "id": "f0a2fb4dc1c2578f1685d61abdcaf064ffed9198",
    "date": 1412377330,
    "files": [
      "util.c"
    ],
    "committer": {
      "name": "Gerardo Orellana",
      "email": "goaccess@prosoftcorp.com"
    },
    "message": "Fixed issue on wild cards containing '?' at the end of the string."
  },
  {
    "id": "96f3ea72789019424b4f94b758a3120bcddddb4b",
    "date": 1410361093,
    "files": [
      "parser.c"
    ],
    "committer": {
      "name": "Gerardo Orellana",
      "email": "goaccess@prosoftcorp.com"
    },
    "message": "Fixed warning on \u2018sizeof\u2019 in \u2018memset\u2019 call."
  },
  {
    "id": "dd662bc00dd308ad46c865fc93c8726cf9c5e6bc",
    "date": 1410308400,
    "files": [
      "parser.c"
    ],
    "committer": {
      "name": "Gerardo Orellana",
      "email": "goaccess@prosoftcorp.com"
    },
    "message": "Fixed SEGFAULT when parsing a malformed request that doesn't have HTTP status."
  },
  {
    "id": "6934e89e44cc59492827f8ead86f3a98b2a553ca",
    "date": 1408591830,
    "files": [
      "csv.c",
      "json.c"
    ],
    "committer": {
      "name": "Gerardo Orellana",
      "email": "goaccess@prosoftcorp.com"
    },
    "message": "Fixed uninitialized struct warning on json/csv.c"
  },
  {
    "id": "d13d379255545d8efa2564344406c55f65d53864",
    "date": 1408502595,
    "files": [
      "opesys.c"
    ],
    "committer": {
      "name": "Gerardo Orellana",
      "email": "goaccess@prosoftcorp.com"
    },
    "message": "Fixed expected \u2018}\u2019 before \u2018{\u2019 token syntax error."
  },
  {
    "id": "1e314fdbcd513ade868c6a41f1376fb5146d114f",
    "date": 1406773150,
    "files": [
      "util.c"
    ],
    "committer": {
      "name": "Gerardo Orellana",
      "email": "goaccess@prosoftcorp.com"
    },
    "message": "Fixed issue when excluding IPv4/v6 ranges."
  },
  {
    "id": "3bf6d57babe57d0039346228d989b605253bed36",
    "date": 1405988375,
    "files": [
      "browsers.c"
    ],
    "committer": {
      "name": "Gerardo Orellana",
      "email": "goaccess@prosoftcorp.com"
    },
    "message": "Fixed SEGFAULT when parsing a CLF log format and using --ignore-crawlers."
  },
  {
    "id": "f50cc68aab9312cb4241b491674654a072deaade",
    "date": 1405286235,
    "files": [
      "parser.c"
    ],
    "committer": {
      "name": "Gerardo Orellana",
      "email": "goaccess@prosoftcorp.com"
    },
    "message": "Fixed memory leaking when excluding one or multiple IPs."
  },
  {
    "id": "922e0da0ae5795e6392cf49aa475c66094452af5",
    "date": 1404178776,
    "files": [
      "parser.c"
    ],
    "committer": {
      "name": "Gerardo Orellana",
      "email": "goaccess@prosoftcorp.com"
    },
    "message": "Added the PATCH method according to RFC 5789."
  },
  {
    "id": "87f5df65d9a5e03fed61038c01a946fe80399510",
    "date": 1404100931,
    "files": [
      "csv.c",
      "output.c",
      "json.c"
    ],
    "committer": {
      "name": "Gerardo Orellana",
      "email": "goaccess@prosoftcorp.com"
    },
    "message": "Fixed GeoLocation percent issue for the JSON, CSV and HTML outputs."
  },
  {
    "id": "7df11175513fd81b807202cfa1b18dd8f5d04f08",
    "date": 1402891465,
    "files": [
      "glibht.h",
      "error.c",
      "tcabinet.c",
      "glibht.c",
      "tcabinet.h"
    ],
    "committer": {
      "name": "Gerardo Orellana",
      "email": "goaccess@prosoftcorp.com"
    },
    "message": "Fixed a couple of variable name conflicts."
  },
  {
    "id": "e027d31dace95ac5d8e8d69a326b1c428a4309e2",
    "date": 1401767659,
    "files": [
      "gdashboard.c",
      "parser.c",
      "util.h"
    ],
    "committer": {
      "name": "Gerardo Orellana",
      "email": "goaccess@prosoftcorp.com"
    },
    "message": "Fixed encoding issue when extracting keyphrases for some HTTP referers."
  },
  {
    "id": "89e1f339dd1a53553a21a61adda46942b75f902a",
    "date": 1401551329,
    "files": [
      "parser.c",
      "util.c"
    ],
    "committer": {
      "name": "Gerardo Orellana",
      "email": "goaccess@prosoftcorp.com"
    },
    "message": "Fixed issue with URIs containing \"\\r?\\n\" thus breaking the corresponding output."
  },
  {
    "id": "c6deef11e064998e387d05e42393dea9fcc7e7f1",
    "date": 1401242145,
    "files": [
      "goaccess.c",
      "error.c"
    ],
    "committer": {
      "name": "Gerardo O",
      "email": "goaccess@prosoftcorp.com"
    },
    "message": "Fixed implicit declaration of function due to missing header."
  },
  {
    "id": "e7ef66120ae52e8508c027bda647024853a575a8",
    "date": 1401241606,
    "files": [
      "goaccess.c",
      "error.c",
      "Makefile.am",
      "error.h"
    ],
    "committer": {
      "name": "Gerardo O",
      "email": "goaccess@prosoftcorp.com"
    },
    "message": "Added ability to print backtrace on segmentation fault.\n\nThis will help substantially to track and fix bugs in the future."
  },
  {
    "id": "029b4722a95679996b8eadbdea478264525ec6fd",
    "date": 1400964177,
    "files": [
      "goaccess.c",
      "ui.c"
    ],
    "committer": {
      "name": "Gerardo O",
      "email": "goaccess@prosoftcorp.com"
    },
    "message": "Fixed issue where HTML bar graphs were not shown due to LC_NUMERIC."
  },
  {
    "id": "989e0ff18f191caa4540135e3a77cf9598b27b47",
    "date": 1399179690,
    "files": [
      "options.c"
    ],
    "committer": {
      "name": "Gerardo O",
      "email": "goaccess@prosoftcorp.com"
    },
    "message": "Fixed potential memory leak on --log-file realpath()."
  },
  {
    "id": "7953083e040ee2d40f2557dc56f2cdfae1c18af2",
    "date": 1397703077,
    "files": [
      "glibht.h",
      "glibht.c"
    ],
    "committer": {
      "name": "Gerardo Orellana",
      "email": "goaccess@prosoftcorp.com"
    },
    "message": "Fixed process_geolocation() missing argument on GLib implementation."
  },
  {
    "id": "901b0342d0f2f47420601a2c07480fe6dc76f024",
    "date": 1397445612,
    "files": [
      "parser.c",
      "ui.c"
    ],
    "committer": {
      "name": "Gerardo Orellana",
      "email": "goaccess@prosoftcorp.com"
    },
    "message": "Fixed thread locking issue after UI spinner has been completed."
  },
  {
    "id": "a509d697ac08939a8e76f00475ffde8e3339876c",
    "date": 1397178748,
    "files": [
      "gdashboard.c"
    ],
    "committer": {
      "name": "Gerardo Orellana",
      "email": "goaccess@prosoftcorp.com"
    },
    "message": "Fixed invalid xstrdup to NULL pointer."
  },
  {
    "id": "dba6379360f4bb9d1c8b118230b16e67efebbdbb",
    "date": 1397174838,
    "files": [
      "output.c",
      "json.c",
      "Makefile.am",
      "util.h"
    ],
    "committer": {
      "name": "Gerardo Orellana",
      "email": "goaccess@prosoftcorp.com"
    },
    "message": "Fixed redundant declarations & added -Wcast-align and -Wredundant-decls."
  },
  {
    "id": "ec3076b9c4fe26e836cb66684fa4d633744896ae",
    "date": 1397131420,
    "files": [
      "glibht.c"
    ],
    "committer": {
      "name": "Gerardo Orellana",
      "email": "goaccess@prosoftcorp.com"
    },
    "message": "Fixed implicit declaration warning due to missing header."
  },
  {
    "id": "ce89c52daa83e5bc67d10fa4f7e74ab5e8b9fcd7",
    "date": 1397130706,
    "files": [
      "glibht.c"
    ],
    "committer": {
      "name": "Gerardo Orellana",
      "email": "goaccess@prosoftcorp.com"
    },
    "message": "Fixed implicit declaration warning due to missing header."
  },
  {
    "id": "2add50fc5d8bbd08522e32b4fbfcc9a41a5d4866",
    "date": 1397097678,
    "files": [
      "csv.c",
      "glibht.h",
      "json.c",
      "parser.c",
      "goaccess.c",
      "gdns.c",
      "gdashboard.h",
      "gdashboard.c",
      "output.c",
      "configure.ac",
      "ui.c"
    ],
    "committer": {
      "name": "Gerardo Orellana",
      "email": "goaccess@prosoftcorp.com"
    },
    "message": "Fixed configure.ac so it does not require either glib2 or pkg-config.\n\nThis assumes an alternative key-value database is provided\n(HAVE_LIBTOKYOCABINET)."
  },
  {
    "id": "4af77aab0a411d9ee162c4b8e56bbb44ed2c1f12",
    "date": 1396983701,
    "files": [
      "tcabinet.c"
    ],
    "committer": {
      "name": "Gerardo Orellana",
      "email": "goaccess@prosoftcorp.com"
    },
    "message": "Fixed implicit declaration warning due to missing header."
  },
  {
    "id": "d061afa08477539ba8360f83afa9b35cc8437f18",
    "date": 1392527214,
    "files": [
      "goaccess.c"
    ],
    "committer": {
      "name": "Gerardo Orellana",
      "email": "goaccess@prosoftcorp.com"
    },
    "message": "Fixed issue when isatty() could not find a valid file descriptor."
  },
  {
    "id": "7398b1fa336de852486132025a0fc1de425217aa",
    "date": 1391620256,
    "files": [
      "parser.c",
      "error.c",
      "gmenu.h",
      "commons.c",
      "ui.h"
    ],
    "committer": {
      "name": "Daniel (dmilith) Dettlaff",
      "email": "dmilith@me.com"
    },
    "message": "Fixed \"FreeBSD style\" ncursesw built into system."
  },
  {
    "id": "c3a512ae6e040f39771aebd1b3942c696d8ded1b",
    "date": 1391134311,
    "files": [
      "parser.c"
    ],
    "committer": {
      "name": "Gerardo Orellana",
      "email": "goaccess@prosoftcorp.com"
    },
    "message": "Fixed minor comment description in parser.c."
  },
  {
    "id": "767412857c368aa65edadc84a4d080ce712ab4e7",
    "date": 1390700222,
    "files": [
      "settings.c",
      "parser.c",
      "util.h",
      "util.c"
    ],
    "committer": {
      "name": "Gerardo Orellana",
      "email": "goaccess@prosoftcorp.com"
    },
    "message": "Fixed Amazon CloudFront tab-separated log format."
  },
  {
    "id": "e0b0656544d1631b0a2baace1a3a4761b4ea462f",
    "date": 1390255833,
    "files": [
      "output.c"
    ],
    "committer": {
      "name": "Gerardo Orellana",
      "email": "goaccess@prosoftcorp.com"
    },
    "message": "Fixed HTML report issue where data cell would not wrap."
  },
  {
    "id": "493f3be04777ef1dbcd2e8ff1258e9b30b366b45",
    "date": 1390243622,
    "files": [
      "util.c"
    ],
    "committer": {
      "name": "Gerardo Orellana",
      "email": "goaccess@prosoftcorp.com"
    },
    "message": "Fixed SymbianOS user-agent and retrieve its version."
  },
  {
    "id": "ef13b6f0107ae8c1b796623586d232187998bb7f",
    "date": 1390012173,
    "files": [
      "gdashboard.c"
    ],
    "committer": {
      "name": "Gerardo Orellana",
      "email": "goaccess@prosoftcorp.com"
    },
    "message": "Fixed minor comment typo in gdashboard."
  },
  {
    "id": "16609d3c755b20d601679cb4aa97116f472e6578",
    "date": 1389758228,
    "files": [
      "parser.c"
    ],
    "committer": {
      "name": "Gerardo Orellana",
      "email": "goaccess@prosoftcorp.com"
    },
    "message": "Fixed minor comment typo in process_geolocation()."
  },
  {
    "id": "3023fe71df1a71cf159de08860d8ac90d51437da",
    "date": 1389465964,
    "files": [
      "goaccess.c"
    ],
    "committer": {
      "name": "Gerardo Orellana",
      "email": "goaccess@prosoftcorp.com"
    },
    "message": "Use return EXIT_FAILURE instead of abort()."
  },
  {
    "id": "647b72ce087b89b8cce91ffc830388e3697dd5c1",
    "date": 1385856680,
    "files": [
      "output.c"
    ],
    "committer": {
      "name": "Gerardo Orellana",
      "email": "goaccess@prosoftcorp.com"
    },
    "message": "Fixed SIGABRT issue on output char."
  },
  {
    "id": "0dfab9be66ef2d090b041c8afb3acff1bbedc6eb",
    "date": 1385571543,
    "files": [
      "json.c"
    ],
    "committer": {
      "name": "Gerardo Orellana",
      "email": "goaccess@prosoftcorp.com"
    },
    "message": "Fixed JSON percent issue on BROWSERS and OS modules."
  },
  {
    "id": "e6914e9d642a60c82d90fc91a9b97a7e4127acfc",
    "date": 1385174621,
    "files": [
      "parser.c"
    ],
    "committer": {
      "name": "Gerardo Orellana",
      "email": "goaccess@prosoftcorp.com"
    },
    "message": "Fixed pointer offset on static request extension."
  },
  {
    "id": "7cf3d9572a21b8b12bed8c86fdae973cec5720e3",
    "date": 1384227863,
    "files": [
      "output.c"
    ],
    "committer": {
      "name": "Gerardo Orellana",
      "email": "goaccess@prosoftcorp.com"
    },
    "message": "Fixed print format for long long int."
  },
  {
    "id": "bdbbe2f91748b186ff339c1a0df39d0021c4f0b1",
    "date": 1384145294,
    "files": [
      "gdashboard.c"
    ],
    "committer": {
      "name": "Gerardo Orellana",
      "email": "goaccess@prosoftcorp.com"
    },
    "message": "Fixed comment description."
  },
  {
    "id": "7a3e338d2f8a18d869d3dc0e950cf8aacb0ee673",
    "date": 1383622495,
    "files": [
      "output.c"
    ],
    "committer": {
      "name": "Gerardo Orellana",
      "email": "goaccess@prosoftcorp.com"
    },
    "message": "Added missing header for fixed size integer types."
  },
  {
    "id": "c48a2c1d88a3dc59ba78beb835c246f7c789b500",
    "date": 1383620080,
    "files": [
      "goaccess.c"
    ],
    "committer": {
      "name": "Gerardo Orellana",
      "email": "goaccess@prosoftcorp.com"
    },
    "message": "Fixed \u2018variable may be used uninitialized` warning."
  },
  {
    "id": "88b84c9d462317fcff03acd2fdd220571d874ccc",
    "date": 1383360460,
    "files": [
      "output.c"
    ],
    "committer": {
      "name": "Gerardo Orellana",
      "email": "goaccess@prosoftcorp.com"
    },
    "message": "Fixed some html5 validation errors on generated report."
  },
  {
    "id": "ea8660f2d5b684f8621ef29c46fc39983f43b913",
    "date": 1377908632,
    "files": [
      "gdashboard.h",
      "ui.c",
      "parser.c",
      "goaccess.c"
    ],
    "committer": {
      "name": "Gerardo Orellana",
      "email": "goaccess@prosoftcorp.com"
    },
    "message": "fixed issue where %T was not processing floating-point numbers"
  },
  {
    "id": "1eda277ac426c93f4c11593d37961643ef675fa1",
    "date": 1375932231,
    "files": [
      "gdashboard.c"
    ],
    "committer": {
      "name": "Gerardo Orellana",
      "email": "goaccess@prosoftcorp.com"
    },
    "message": "Fixed segfault when reading from stdin to stdout"
  },
  {
    "id": "04448b586e2e78f3f7aa090c2da3fb9eb71b41a8",
    "date": 1375156116,
    "files": [
      "gdashboard.c"
    ],
    "committer": {
      "name": "Gerardo Orellana",
      "email": "goaccess@prosoftcorp.com"
    },
    "message": "Fixed percentage issue for browsers and os modules"
  },
  {
    "id": "b5e7eac5bf817dd4a8c52f8e5d1a7f8191b8c496",
    "date": 1373778806,
    "files": [
      "output.c",
      "ChangeLog",
      "output.h",
      "parser.c",
      "error.h",
      "xmalloc.c",
      "AUTHORS",
      "ui.h",
      "TODO",
      "Makefile.am",
      "NEWS",
      "goaccess.1",
      "util.h",
      "gdashboard.c",
      "gmenu.c",
      "goaccess.h",
      "gdns.h",
      "commons.h",
      "alloc.h",
      "settings.h",
      "util.c",
      "ui.c",
      "xmalloc.h",
      "gmenu.h",
      "commons.c",
      "parser.h",
      "gdashboard.h",
      "gdns.c",
      "goaccess.c",
      "settings.c",
      "error.c",
      "configure.ac",
      "README"
    ],
    "committer": {
      "name": "Gerardo Orellana",
      "email": "goaccess@prosoftcorp.com"
    },
    "message": "* Moved away from the original pop-up UI to a new expandable\n  dashboard allowing data to be processed in real-time.\n* Added the ability to search across the whole dashboard with the\n  option to use regular expressions.\n* Added the ability to independently sort each module.\n* Implemented the ability to parse the time taken to serve the\n  request, in microseconds and seconds.\n* Added a predefined log format/date for the Amazon CloudFront\n  (Download Distribution).\n* Config window now accepts [ENTER] to continue or F10.\n* Added parsing/processing indicators.\n* Updated the hosts module so it shows the reverse DNS as a\n  sub node.\n* Fixed issue where Opera +15 was identified as Chrome.\n* Fixed a bunch of minor fixes and changes.\n* Added and updated list of browsers and operating systems.\n* Improved memory usage and better performance in general."
  },
  {
    "id": "26a4287aada7c77eb0f8e7578f7f5f44931ffefb",
    "date": 1352949677,
    "files": [
      "parser.c"
    ],
    "committer": {
      "name": "Gerardo Orellana",
      "email": "goaccess@prosoftcorp.com"
    },
    "message": "fixed variable name: status_desc -> static_desc"
  },
  {
    "id": "ed8d35e98c327b0d5cc6f1dcf44fbd9cae51b0e4",
    "date": 1339043848,
    "files": [
      "commons.h",
      "output.c",
      "configure.ac"
    ],
    "committer": {
      "name": "Gerardo Orellana",
      "email": "goaccess@prosoftcorp.com"
    },
    "message": "fixed some styling issues on HTML reports\nfixed some javascript issues on HTML reports\nupdated version to 0.5.1"
  },
  {
    "id": "96eb7ca7271e270d350e78566cea9f2c97dd3910",
    "date": 1339033467,
    "files": [
      "output.c"
    ],
    "committer": {
      "name": "Gerardo Orellana",
      "email": "goaccess@prosoftcorp.com"
    },
    "message": "fixed percentage in request reports."
  },
  {
    "id": "b3606440e8978e1a6f58b6d6ac43a2facf63e035",
    "date": 1338753389,
    "files": [
      "parser.c",
      "goaccess.c",
      "commons.c",
      "util.c"
    ],
    "committer": {
      "name": "Gerardo Orellana",
      "email": "goaccess@prosoftcorp.com"
    },
    "message": "fixed issue on Opera agents where version was not recognized correctly."
  },
  {
    "id": "2a23bcff2afa8a8d68cc9da7583cfa07e1b8f6b2",
    "date": 1320639030,
    "files": [
      "settings.h",
      "goaccess.h",
      "parser.c",
      "error.h",
      "util.c",
      "alloc.h",
      "ui.h",
      "ui.c",
      "commons.c",
      "util.h",
      "parser.h",
      "goaccess.c",
      "commons.h",
      "settings.c",
      "error.c"
    ],
    "committer": {
      "name": "Gerardo Orellana",
      "email": "goaccess@prosoftcorp.com"
    },
    "message": "fixed what I think is a typo"
  },
  {
    "id": "c7e3b8ec7ce27f11682afcbd3e42ed64ccc28ab1",
    "date": 1320638650,
    "files": [
      "settings.h",
      "goaccess.h",
      "parser.c",
      "error.h",
      "util.c",
      "alloc.h",
      "ui.h",
      "ui.c",
      "commons.c",
      "util.h",
      "parser.h",
      "goaccess.c",
      "commons.h",
      "settings.c",
      "error.c"
    ],
    "committer": {
      "name": "Gerardo Orellana",
      "email": "goaccess@prosoftcorp.com"
    },
    "message": "fixed what I think is a typo"
  },
  {
    "id": "8c277e8685cba1f76260239218e68e45676e7166",
    "date": 1320111124,
    "files": [
      "parser.c"
    ],
    "committer": {
      "name": "Gerardo Orellana",
      "email": "goaccess@prosoftcorp.com"
    },
    "message": "fixed empty query strings"
  },
  {
    "id": "40366b0023279e04f5cdfaa3a44cb784f792a4f4",
    "date": 1315679326,
    "files": [
      "parser.c"
    ],
    "committer": {
      "name": "Gerardo Orellana",
      "email": "goaccess@prosoftcorp.com"
    },
    "message": "fixed google cache key-phrases"
  },
  {
    "id": "af7ae8431e167b6b192f13a7a1a027ec0155dd60",
    "date": 1294020377,
    "files": [
      "ChangeLog",
      "NEWS",
      "ui.c"
    ],
    "committer": {
      "name": "Gerardo Orellana",
      "email": "goaccess@prosoftcorp.com"
    },
    "message": "Fixed adding monthly totals on visitors subwin."
  },
  {
    "id": "0c1e274993c35fd5d50a5c6229fba4a119d57a70",
    "date": 1285565985,
    "files": [
      "error.c"
    ],
    "committer": {
      "name": "Gerardo Orellana",
      "email": "goaccess@prosoftcorp.com"
    },
    "message": "Change to EXIT_FAILURE - slightly more portable"
  },
  {
    "id": "cae0f7d2197b7b3ea206f6943a6fabcffbce4509",
    "date": 1285565506,
    "files": [
      "goaccess.c"
    ],
    "committer": {
      "name": "Gerardo Orellana",
      "email": "goaccess@prosoftcorp.com"
    },
    "message": "Fixed a segfault when goaccess was executed without any options but with an additional unknown argument"
  },
  {
    "id": "39bbf3235e121e7e61bc3d79963749ef83406322",
    "date": 1278950448,
    "files": [
      "parser.c"
    ],
    "committer": {
      "name": "Gerardo Orellana",
      "email": "goaccess@prosoftcorp.com"
    },
    "message": "Fixed a segmentation fault when parsing unusual requests."
  },
  {
    "id": "f8890805751d8e85e12e71b09677e515fce1bb2d",
    "date": 1278746831,
    "files": [
      "parser.c"
    ],
    "committer": {
      "name": "Florian Forster",
      "email": "ff@octo.it"
    },
    "message": "parser.c: Abort if strptime(3) fails."
  }
]