[
  {
    "date": 1480749107,
    "committer": {
      "name": "Stef Walter",
      "email": "stefw@redhat.com"
    },
    "id": "a9487b6fc69690799b5d836197e50ea48add075a",
    "message": "common: Unset LANGUAGE before running locale tests\n\nLANGUAGE takes precedence over LANG on debian and\ncauses the tests to fail.\n\nCloses #5536\nReviewed-by: Stef Walter <stefw@redhat.com>",
    "files": [
      "src/common/test-locale.c"
    ]
  },
  {
    "date": 1480429727,
    "committer": {
      "name": "petervo",
      "email": "petervo@redhat.com"
    },
    "id": "c5dc8db540c04c9889e6cf169b7451b99eda519b",
    "message": "common: Fix no locale change case\n\nThe no change case wasn't working properly because we were\ncomparing the calculated locale to the language value\npassed in. So en-us would not match en_US.\n\nMove the check to after to lang -> locale conversation\nand explicitly null terminate previous as suggested\nby coverity.\n\nCloses #5499\nCloses #5501\nSigned-off-by: Stef Walter <stefw@redhat.com>\n * The idea is that we compare/cache the incoming value\n   not the converted value. Fixed it to account for this.",
    "files": [
      "src/common/cockpitlocale.c"
    ]
  },
  {
    "date": 1480372616,
    "committer": {
      "name": "petervo",
      "email": "petervo@redhat.com"
    },
    "id": "c113d67ae5f3b0c9b031b8a7e7993891970c6839",
    "message": "session: Make the GSSAPI error messages a little clearer\n\nWe use the discovered mechanism type to try and get GSSAPI\nto display more relevant failure messages.\n\nCloses #5495\nReviewed-by: Peter <petervo@redhat.com>",
    "files": [
      "src/ws/session.c"
    ]
  },
  {
    "date": 1480341210,
    "committer": {
      "name": "Stef Walter",
      "email": "stefw@redhat.com"
    },
    "id": "644e09e2ef6951237125f3f9cd14e1664d5357b9",
    "message": "common: Fix hostport format\n\nThis was using the wrong format for hostport.\nFixed based on the SSH_KNOWN_HOSTS FILE FORMAT section\nof the sshd man page.\n\nReviewed-by: Stef Walter <stefw@redhat.com>",
    "files": [
      "src/common/cockpitknownhosts.c",
      "src/common/mock_known_hosts"
    ]
  },
  {
    "date": 1479933551,
    "committer": {
      "name": "petervo",
      "email": "petervo@redhat.com"
    },
    "id": "b3021d5b759d263829c4a4525a5062432d183fe8",
    "message": "bridge: Add cockpit_channel_fail() function which logs message\n\nWe want messages to be able to get to the frontend in the\nconsole.warn() area. So lets make a convenience function which\nsets the \"message\" field for \"close\" control messages.\n\nReviewed-by: Peter <petervo@redhat.com>",
    "files": [
      "src/bridge/cockpitchannel.h",
      "src/bridge/cockpitchannel.c"
    ]
  },
  {
    "date": 1479183350,
    "committer": {
      "name": "petervo",
      "email": "petervo@redhat.com"
    },
    "id": "9a8eec6c3dea5af5b5ad6b57127e925f27c3bd92",
    "message": "ws: Fix test-auth to ignore another warning in bad command test\n\nThe \"bad command\" test can produce all sorts of warnings because\nit uses multiple processes. So lets add another one we're seeing\nhere:\n\ncockpit-ws-WARNING **: bad-command: Auth pipe closed: not-found\n**\ncockpit-protocol:ERROR:src/ws/test-auth.c:533:test_bad_command: Got unexpected message: bad-command: Auth pipe closed: not-found instead of cockpit-protocol-Message: *couldn't write: Connection refused*\n./test-auth terminated with SIGABRT\nFAIL: test-auth 37 /auth/bad-command\n\nCloses #5385\nReviewed-by: Peter <petervo@redhat.com>",
    "files": [
      "src/ws/test-auth.c"
    ]
  },
  {
    "date": 1479128664,
    "committer": {
      "name": "Marius Vollmer",
      "email": "mvollmer@redhat.com"
    },
    "id": "1dbd24eaa0164bce83d0555e87eba68ca6d9f1f2",
    "message": "ws: Return 502 when external channel is disconnected\n\nThis happens if while getting ready to serve a resource\nfrom the bridge the bridge then disconnects. We already\nhandle thatcase during the serving of the resource, but\nlets handle it appropriately if it happens at the start.\n\nRelated error message:\n\n/base1/fonts/glyphicons.woff: external channel failed: disconnected\n\nCloses #5388",
    "files": [
      "src/ws/cockpitchannelresponse.c"
    ]
  },
  {
    "date": 1478757929,
    "committer": {
      "name": "Stef Walter",
      "email": "stefw@redhat.com"
    },
    "id": "4012e824d411d427ef3f49eac3a3385b99b0d6e6",
    "message": "common: Fix cookie name matching\n\nEnsure that we only match if the entire cookie name\nmatches what we've passed in\n\nSigned-off-by: Stef Walter <stefw@redhat.com>\n * Fixed indentation",
    "files": [
      "patches/0001-A-test-patch-to-the-shell.patch",
      "test/verify/OstreeCase-testPermission-FAIL.png",
      "src/common/cockpitwebserver.c",
      "src/common/test-webserver.c",
      "test/verify/OstreeRestartCase-testOstree-10.111.112.105-FAIL.log",
      "test/verify/OstreeRestartCase-testOstree-FAIL.png",
      "test/verify/OstreeCase-testPermission-10.111.121.254-FAIL.log"
    ]
  },
  {
    "date": 1478723124,
    "committer": {
      "name": "petervo",
      "email": "petervo@redhat.com"
    },
    "id": "8428f9b735868799b72fa8634d97efe890db7e16",
    "message": "ws: Ignore one more possible message during test-auth\n\nThis happens rarely but is a possible test failure, as\nseen here:\n\ncockpit-protocol-Message: bad-command: couldn't send: Connection refused\n**\ncockpit-protocol:ERROR:src/ws/test-auth.c:527:test_bad_command: Got unexpected message: bad-command: couldn't send: Connection refused instead of cockpit-protocol-Message: *couldn't write: Connection refused*\n./test-auth terminated with SIGABRT\n\nCloses #5333\nReviewed-by: Peter <petervo@redhat.com>",
    "files": [
      "src/ws/test-auth.c"
    ]
  },
  {
    "date": 1477056323,
    "committer": {
      "name": "petervo",
      "email": "petervo@redhat.com"
    },
    "id": "38376cb5f5a7098fba075d23040d66ede47e5d8d",
    "message": "ws: Don't constantly be in endless loop in cockpit-ssh\n\nWe don't need to remain in an endless loop in cockpit-ssh.\n\nThis happened because we were polling on G_IO_OUT, but then\nin turn just doing looping blocking writes when writing to\nthe output channel.\n\nIn addition this should fix a number of test failures where\nwe were seeing the cockpit/ws container timing out under\nheavy load.\n\nCloses #5207\nReviewed-by: Peter <petervo@redhat.com>",
    "files": [
      "src/ws/ssh.c"
    ]
  },
  {
    "date": 1475770076,
    "committer": {
      "name": "petervo",
      "email": "petervo@redhat.com"
    },
    "id": "c350d7d6046aba3d33e89ba4e6de05628b1ab08f",
    "message": "ws: Only set test-sshtransport timeouts for certain tests\n\nOtherwise we see things like this while running the unit tests\nunder heavy load:\n\nWARNING **: /home/runner/cockpit/cockpit-ssh: Auth pipe closed: timeout\nFAIL: test-sshtransport 1 /ssh-transport/echo-message\n\nCloses #5123",
    "files": [
      "src/ws/test-sshtransport.c"
    ]
  },
  {
    "date": 1473328802,
    "committer": {
      "name": "Lars Karlitski",
      "email": "lars@karlitski.net"
    },
    "id": "16b13a4d6a7542c905e8e773f814aee6939a3e69",
    "message": "bridge: Fix failure messages about files in package directories\n\nFixes messages like this:\n\nREADME.md: couldn't read manifest.json: Failed to open file '/home/admin/.local/share/cockpit/README.md/manifest.json': open() failed: Not a directory\n\nCloses #4976\nReviewed-by: Lars Karlitski <lars@karlitski.net>",
    "files": [
      "src/bridge/cockpitpackages.c"
    ]
  },
  {
    "date": 1473228487,
    "committer": {
      "name": "Stef Walter",
      "email": "stefw@redhat.com"
    },
    "id": "a9e7a49c4929bba98052c4795ba237880a618084",
    "message": "common: Use XDG base directory spec for locating config file\n\nThis respects the standard XDG_CONFIG_DIRS environment variable,\nand then falls back to /etc/cockpit when its not present.\n\nIn addition we support loading from multiple directories and\noverriding settings from one in the other.\n\nCloses #4950\nSigned-off-by: Peter Volpe <pvolpe@redhat.com>\n * Fixed memory leak",
    "files": [
      "src/common/cockpitconf.h",
      "src/remotectl/certificate.c",
      "src/ws/test-auth.c",
      "test/verify/check-connection",
      "src/ws/main.c",
      "doc/man/cockpit-ws.xml",
      "src/ws/test-handlers.c",
      "src/ws/Makefile-ws.am",
      "src/ws/test-webservice.c",
      "src/ws/test-server.c",
      "src/ws/mock-config/cockpit/cockpit.conf",
      "src/common/cockpittest.c",
      "src/common/test-config.c",
      "src/common/cockpitconf.c",
      "src/ws/mock-config.conf",
      "src/common/cockpitcertificate.c"
    ]
  },
  {
    "date": 1473170855,
    "committer": {
      "name": "petervo",
      "email": "petervo@redhat.com"
    },
    "id": "a2e41a52395aa60f48a16a600d7a9b02cadd25e5",
    "message": "ws: Pass through the permission denied message when failing\n\nIf cockpit-session tells us that login failed due to permission\ndenied, and a message was passed along, use it as the HTTP\nfailure reason.\n\nCloses #4946\nReviewed-by: Peter <petervo@redhat.com>",
    "files": [
      "src/ws/cockpitauth.c"
    ]
  },
  {
    "date": 1473170823,
    "committer": {
      "name": "petervo",
      "email": "petervo@redhat.com"
    },
    "id": "8064435ddaa2d7788fcbce9f6b4efad580dfa130",
    "message": "ws: Return last PAM conversion error as failure message\n\nIf we do have an error displayed during the PAM conversation,\nthen return it as the authentication \"message\" field.\n\nReviewed-by: Peter <petervo@redhat.com>",
    "files": [
      "src/ws/session.c"
    ]
  },
  {
    "date": 1472566821,
    "committer": {
      "name": "Lars Karlitski",
      "email": "lars@uebernic.de"
    },
    "id": "16a4fe7c727c0e31523e841dbaeca9a13ca1dccd",
    "message": "ws: Allow for write failures in bad-command test\n\nCloses #4931\nReviewed-by: Lars Karlitski <lars@uebernic.de>",
    "files": [
      "src/ws/test-auth.c"
    ]
  },
  {
    "date": 1470923610,
    "committer": {
      "name": "petervo",
      "email": "petervo@redhat.com"
    },
    "id": "22e7e88d6224a0b97f014f1925d2ea8f59806255",
    "message": "bridge: Translate cockpit.Setup DBus failures on frontend\n\nThe frontend has the javascript installed so translate it there.\n\nReviewed-by: Peter <petervo@redhat.com>",
    "files": [
      "src/bridge/cockpitdbussetup.c",
      "pkg/shell/machine-dialogs.js"
    ]
  },
  {
    "date": 1466411096,
    "committer": {
      "name": "Dominik Perpeet",
      "email": "dperpeet@redhat.com"
    },
    "id": "33e9d62b863a4f16aea79b197741f05623d8a911",
    "message": "bridge: Fix race in test-setup /commit/passwd1... tests\n\nThese tests would only succeed when run in the right order after\nother tests in the same binary. I've now fixed them so they run\non their own.\n\nCloses #4599\nReviewed-by: Dominik Perpeet <dperpeet@redhat.com>",
    "files": [
      "src/bridge/test-setup.c"
    ]
  },
  {
    "date": 1462173842,
    "committer": {
      "name": "Stef Walter",
      "email": "stefw@redhat.com"
    },
    "id": "5903c9628e61ea49a3533ab744533458ad681a0b",
    "message": "ws: Timeouts for authentication processes\n\nKill spawned authentication processes that don't\nwrite a response within a specified time limit.\n\nClosed #4339\nSigned-off-by: Stef Walter <stefw@redhat.com>\n * Fixed indentation",
    "files": [
      "src/ws/mock-config.conf",
      "src/ws/test-auth.c",
      "src/ws/mock-auth-command",
      "src/ws/cockpitws.h",
      "src/ws/cockpitauth.c",
      "doc/authentication.md"
    ]
  },
  {
    "date": 1459867463,
    "committer": {
      "name": "Stef Walter",
      "email": "stefw@redhat.com"
    },
    "id": "9bdf87b0ce0b4cabd6a69afdd1890c6c3eee0435",
    "message": "bridge: Return PEM data when TLS validation fails\n\nReturn the PEM data of the certificate that failed\nvalidation as part of the close message for\nhttp-stream and websocket-stream channels.\n\nCloses #4139\nReviewed-by: Stef Walter <stefw@redhat.com>",
    "files": [
      "src/common/cockpitstream.c",
      "src/bridge/test-httpstream.c",
      "src/bridge/cockpitwebsocketstream.c",
      "src/bridge/cockpithttpstream.c",
      "src/websocket/websocketconnection.c",
      "src/bridge/test-websocketstream.c"
    ]
  },
  {
    "date": 1458593045,
    "committer": {
      "name": "Dominik Perpeet",
      "email": "dperpeet@redhat.com"
    },
    "id": "b2767b546401b9cf57e6d6dfbc6d99619e1d4482",
    "message": "common: Close the stderr source properly in CockpitPipe\n\nThis should happen during close_immediately() and not wait\nfor the stderr to close itself.\n\nIndicated by failures in the tests about read() being used\nwith a Bad file descriptor.\n\nCloses #4058\nReviewed-by: Dominik Perpeet <dperpeet@redhat.com>",
    "files": [
      "src/common/cockpitpipe.c"
    ]
  },
  {
    "date": 1458074873,
    "committer": {
      "name": "Dominik Perpeet",
      "email": "dperpeet@redhat.com"
    },
    "id": "e9f79491b8040aa5a9880504e37534e446b32e17",
    "message": "bridge: Fix package with \"name\" in two directories\n\nCurrently a package with a \"name\" causes the package loading\nlogic from from various package dirs to fail. Instead of the\nfirst one (ie: ~/.local/share/cockpit) being used, the\nlast instance of a package will be used (ie: /usr/share/cockpit)\n\nCloses #4011\nReviewed-by: Dominik Perpeet <dperpeet@redhat.com>",
    "files": [
      "src/bridge/cockpitpackages.c"
    ]
  },
  {
    "date": 1457623402,
    "committer": {
      "name": "Dominik Perpeet",
      "email": "dperpeet@redhat.com"
    },
    "id": "1caed703209b2067c638b7a7528eeaf6ce104b21",
    "message": "bridge: No test failures when cockpit-polkit is exiting\n\nIf cockpit-bridge cockpit-polkit is exiting at the right time\nthen the pid lookup will fail. This isn't a programming or system\nissue, so change g_warning() to g_message().\n\nCloses #3969\nReviewed-by: Dominik Perpeet <dperpeet@redhat.com>",
    "files": [
      "src/bridge/cockpitpolkitagent.c"
    ]
  },
  {
    "date": 1456955218,
    "committer": {
      "name": "petervo",
      "email": "petervo@redhat.com"
    },
    "id": "2e7ad7c3bf39219eefbc63dccdd41e10b3224fbd",
    "message": "ws: Don't fail test-webservice if mock-sshd fails\n\nWe're not testing mock-sshd. If the functionality in\ntest-webservice works, then that's good. mock-sshd can\nexit and fail in different ways depending on timing.\n\nCloses #3891\nReviewed-by: Peter <petervo@redhat.com>",
    "files": [
      "src/ws/test-webservice.c"
    ]
  },
  {
    "date": 1456892968,
    "committer": {
      "name": "petervo",
      "email": "petervo@redhat.com"
    },
    "id": "c0c68e412625a0aa268a73aa31666a9d6e1ab0b4",
    "message": "ws: Fix race with cockpit-bridge exiting before service startup\n\nWhen cockpit-session works, but then cockpit-bridge fails to\nstart, we get into a situation where CockpitPipeTransport and\nCockpitWebService session think they're talking to a cockpit-bridge\nprocess but haven't had the chance to receive the closed signal\ncorrectly.\n\nWait on creating the CockpitPipe for the cockpit-bridge process\nuntil after the authentication completes.\n\nThat should fix this issue:\n\n(test-kerberos:9335): cockpit-protocol-CRITICAL **: assertion self->priv->closed check failed at cockpit_pipe_transport_send 296\n\nCloses #3866\nReviewed-by: Peter <petervo@redhat.com>",
    "files": [
      "src/ws/cockpitauth.c"
    ]
  },
  {
    "date": 1456505334,
    "committer": {
      "name": "petervo",
      "email": "petervo@redhat.com"
    },
    "id": "b86f43be85a14bea8a2f89843b1b351923c55961",
    "message": "ws: Don't free creds in test-kerberos unless they were set\n\nThis otherwise results in a free() call with uninitialized\nmemory when krb5_get_init_creds_password() fails.\n\nReviewed-by: Peter <petervo@redhat.com>",
    "files": [
      "src/ws/test-kerberos.c"
    ]
  },
  {
    "date": 1456234394,
    "committer": {
      "name": "Marius Vollmer",
      "email": "mvollmer@redhat.com"
    },
    "id": "a8df3cb04bdc7f31fd24d551c12efda52150790a",
    "message": "common: Fix issue where stream is closed before it connects\n\nWithout this an assertion happens in cockpit_stream_finalize()\n\ncockpit_stream_finalize: assertion failed: (!self->priv->in_source)\n\nCloses #3808\nReviewed-by: Marius Vollmer <marius.vollmer@redhat.com>",
    "files": [
      "src/common/cockpitstream.c",
      "src/common/test-stream.c",
      "src/common/cockpitconnect.c"
    ]
  },
  {
    "date": 1455626815,
    "committer": {
      "name": "Marius Vollmer",
      "email": "mvollmer@redhat.com"
    },
    "id": "938cc38072e92d1a58a59fca45f81f6dc09d7286",
    "message": "bridge: Only clear DBus connection in CockpitDBusCache finalize\n\nHopefully this helps with G_IS_DBUS_CONNECTION (connection)\nfailures during shutdown.\n\nReviewed-by: Dominik Perpeet <dperpeet@redhat.com>",
    "files": [
      "src/bridge/cockpitdbuscache.c"
    ]
  },
  {
    "date": 1451924849,
    "committer": {
      "name": "petervo",
      "email": "petervo@redhat.com"
    },
    "id": "23725b3d772e9687fa72671a28b7a839f3f7a8fa",
    "message": "bridge: Include content-src for WebSocket in Content-Security-Policy\n\nNote that browsers need to be explicitly told they can connect\nto a WebSocket. This is non-obvious, but it stems from the fact\nthat some browsers treat 'https' and 'wss' as different protocols.\n\nSince each component could establish a WebSocket connection back to\ncockpit-ws, we need to insert that into the policy.\n\nReviewed-by: Peter <petervo@redhat.com>\n * Fixed doc typo",
    "files": [
      "src/bridge/cockpitpackages.c",
      "src/ws/test-channelresponse.c",
      "doc/guide/packages.xml"
    ]
  },
  {
    "date": 1450735207,
    "committer": {
      "name": "Dominik Perpeet",
      "email": "dperpeet@redhat.com"
    },
    "id": "ee81a7a49b90ef599975b2a68f06b8a265dcb177",
    "message": "ws: Catch mock ssh disconnect properly\n\nAccount for this error:\n\nCRITICAL **: key exchange failed: Received SSH_MSG_DISCONNECT: 11:Bye Bye\n\nCloses #3388\n\nReviewed-by: Dominik Perpeet <dperpeet@redhat.com>",
    "files": [
      "src/ws/mock-sshd.c"
    ]
  },
  {
    "date": 1449486880,
    "committer": {
      "name": "Marius Vollmer",
      "email": "mvollmer@redhat.com"
    },
    "id": "4ea234518920a2fdc8a85c7d301d050d7df0ffa8",
    "message": "common: Handle test runners without IPv6 loopback\n\nSome runners of the unit tests don't have an IPv6 loopback.\nTravis seems to have recently become one of these. So skip\nthe relevant test if so.\n\nSymptom:\n\n../src/common/test-stream.c:621:setup_connect: assertion failed (error == NULL): Error binding to address: Cannot assign requested address (g-io-error-quark, 0)\n\nCloses #3287\nReviewed-by: Marius Vollmer <marius.vollmer@redhat.com>",
    "files": [
      "src/common/test-stream.c"
    ]
  },
  {
    "date": 1448545115,
    "committer": {
      "name": "Marius Vollmer",
      "email": "mvollmer@redhat.com"
    },
    "id": "6c0b166eba27f756838f2451853f6492138cf88e",
    "message": "ws: Drain errbuf correctly when no lines are found\n\nThis is a regression introduced in 8beee96e9576c398c331843961d861f2abc69ce8\nFails on certain architectures with a precondition fail in\ng_string_erase()\n\nCloses #3243\nReviewed-by: Marius Vollmer <marius.vollmer@redhat.com>",
    "files": [
      "src/ws/cockpitsshtransport.c"
    ]
  },
  {
    "date": 1448526453,
    "committer": {
      "name": "Marius Vollmer",
      "email": "mvollmer@redhat.com"
    },
    "id": "31eb9cd769be249a484bdaa61f47e3109d89e9a9",
    "message": "remotectl: Don't fail if chcon fails to reset SELinux file type\n\nWhen setting up the certificate SELinux file type, we call chcon.\nBut that can fail for all sorts of unpredictable reasons, so just\nfall through. The resulting warning will be informative in the\nlogs anyway.\n\nCloses #3238\nReviewed-by: Marius Vollmer <marius.vollmer@redhat.com>",
    "files": [
      "src/remotectl/certificate.c"
    ]
  },
  {
    "date": 1448282581,
    "committer": {
      "name": "Dominik Perpeet",
      "email": "dperpeet@redhat.com"
    },
    "id": "abdbaeb7945f9f9bf9a7f02a9685f5e0c1b64232",
    "message": "common: Fix message when forkpty() fails\n\nThis was producing strange errors as seen in #3207\n\nCloses #3212\n\nReviewed-by: Dominik Perpeet <dperpeet@redhat.com>",
    "files": [
      "src/common/cockpitpipe.c"
    ]
  },
  {
    "date": 1447849818,
    "committer": {
      "name": "Marius Vollmer",
      "email": "mvollmer@redhat.com"
    },
    "id": "03f31d3ef17b39d23294a413b8c792bbdc4f2629",
    "message": "remotectl: Set the SELinux context correctly for certificates\n\nThe SELinux policy doesn't do this for us, and since the user will\nbe creating files in this directory, help them by setting the SELinux\ncontext correctly, similar to how we set the unix user and group.\n\nSee also: https://bugzilla.redhat.com/show_bug.cgi?id=1282709\n\nCloses #3173\nReviewed-by: Marius Vollmer <marius.vollmer@redhat.com>",
    "files": [
      "src/remotectl/certificate.c",
      "configure.ac",
      "Makefile.am",
      "test/check-connection",
      "tools/cockpit.spec",
      "src/ws/cockpit.service.in"
    ]
  },
  {
    "date": 1446208451,
    "committer": {
      "name": "Marius Vollmer",
      "email": "mvollmer@redhat.com"
    },
    "id": "b47bc4f8fd9923b032e4eb94848eba89b8abe0eb",
    "message": "bridge: Better handling of portal failure and fallback\n\nFix some of the corner cases where a message that should not\nhave fallback did get sent to the local bridge, when a portal\nfailed.\n\nFixes #3101\nCloses #3105\nReviewed-by: Marius Vollmer <marius.vollmer@redhat.com>",
    "files": [
      "src/bridge/cockpitportal.c"
    ]
  },
  {
    "date": 1446029496,
    "committer": {
      "name": "Marius Vollmer",
      "email": "mvollmer@redhat.com"
    },
    "id": "cb0f8b09116bf31daf6b1755ffe45a02d613999f",
    "message": "common: Backport PEM certificate chain loading from GLib 2.44\n\nThis functionality is not available in GLib 2.42 and earlier, but\nTLS servers need to be able to serve intermediate certificates\nfrom the .cert file.\n\nUpstream bug: https://bugzilla.gnome.org/show_bug.cgi?id=729739\n\nFixes #2980\nReviewed-by: Marius Vollmer <marius.vollmer@redhat.com>",
    "files": [
      "po/POTFILES.in",
      "src/common/cockpitcertificate.c"
    ]
  },
  {
    "date": 1445456445,
    "committer": {
      "name": "Stef Walter",
      "email": "stefw@redhat.com"
    },
    "id": "da8d1fdb214e7b3eaee549d49a15baa7067ff245",
    "message": "bridge: Don't complain when getting invalid D-Bus property fails\n\nReviewed-by: Stef Walter <stefw@redhat.com>",
    "files": [
      "src/bridge/cockpitdbuscache.c"
    ]
  },
  {
    "date": 1445456327,
    "committer": {
      "name": "Stef Walter",
      "email": "stefw@redhat.com"
    },
    "id": "0b23d56e92fb4e6d85c23e95741053ccfaeded08",
    "message": "bridge: Log actual error when failing to get a invalidated property\n\nReviewed-by: Stef Walter <stefw@redhat.com>",
    "files": [
      "src/bridge/cockpitdbuscache.c"
    ]
  },
  {
    "date": 1445336599,
    "committer": {
      "name": "Marius Vollmer",
      "email": "mvollmer@redhat.com"
    },
    "id": "9f3460407a2b68bd98d20520ca38c63fe6f4163f",
    "message": "common: Print backtrace for self->priv->closed issue\n\nPrint a full backtrace for the self->priv->closed issue when\nthe failure happens.\n\nCloses #2985\nReviewed-by: Marius Vollmer <marius.vollmer@redhat.com>",
    "files": [
      "src/common/cockpitpipe.c"
    ]
  },
  {
    "date": 1444376897,
    "committer": {
      "name": "Marius Vollmer",
      "email": "mvollmer@redhat.com"
    },
    "id": "cb1340296377eac35cb72f980c738c45eb137d58",
    "message": "common: Log web IO failures as g_message() instead of g_warning()\n\nCloses #2917\nReviewed-by: Marius Vollmer <marius.vollmer@redhat.com>",
    "files": [
      "src/common/cockpitwebresponse.c",
      "src/common/cockpitwebserver.c"
    ]
  },
  {
    "date": 1443422714,
    "committer": {
      "name": "Marius Vollmer",
      "email": "mvollmer@redhat.com"
    },
    "id": "694f495886459c804dcc8aa0444adc2ed305f43f",
    "message": "common: Ignore or handle ECONNRESET failures on older GLib\n\nOlder GLib before 2.43.2 doesn't return G_IO_CONNECTION_CLOSED properly\nso to to detect it and handle it.\n\nThis shuold fix a Travis failure:\n\n(test-server:16119): cockpit-protocol-WARNING **: /mock/stream: couldn't write web output: Error sending data: Connection reset by peer\n\nCloses #2845\nReviewed-by: Marius Vollmer <marius.vollmer@redhat.com>",
    "files": [
      "src/common/cockpitstream.c",
      "src/common/cockpitwebresponse.c",
      "src/common/cockpitwebserver.c",
      "src/common/cockpitwebresponse.h"
    ]
  },
  {
    "date": 1443302205,
    "committer": {
      "name": "Stef Walter",
      "email": "stefw@redhat.com"
    },
    "id": "4f162d3a805d075f80acd12335ad2de169629ca0",
    "message": "bridge: Don't introspect when canceling\n\nFixes #2835\nCloses #2837\nSigned-off-by: Stef Walter <stefw@redhat.com>\n * Fixed whitespace",
    "files": [
      "src/bridge/cockpitdbuscache.c"
    ]
  },
  {
    "date": 1443039328,
    "committer": {
      "name": "petervo",
      "email": "petervo@redhat.com"
    },
    "id": "383dd4cc0845f697f2c600f8a09fcb70ec1741fc",
    "message": "ws: Fix the hang of test-kerberos when it fails\n\nWhen test-kerberos fails, the mock-kdc script hangs. Fix it.\n\nReviewed-by: Peter <petervo@redhat.com>",
    "files": [
      "src/ws/mock-kdc",
      "src/ws/test-kerberos.c"
    ]
  },
  {
    "date": 1442614800,
    "committer": {
      "name": "petervo",
      "email": "petervo@redhat.com"
    },
    "id": "e7fc5ec20b31730e8d20eefbe5ea81d3740b4fa7",
    "message": "bridge: Avoid more writing to closed pipe\n\nShould fix: cockpit_pipe_write: assertion '!self->priv->closed' failed\n\nReviewed-by: Peter <petervo@redhat.com>",
    "files": [
      "src/bridge/cockpitpolkitagent.c"
    ]
  },
  {
    "date": 1442217986,
    "committer": {
      "name": "Marius Vollmer",
      "email": "mvollmer@redhat.com"
    },
    "id": "6dda36b6bef426fc81f863ff7f3f5d4b903b6a4d",
    "message": "common: Use local socket address when checking for localhost\n\nWhen we check for a local connection (and don't require TLS\nredirection) check that the local socket address is in the\nlocalhost netblock.\n\nPreviously we used the remote address, but machines are\ntechnically free to choose a non local address as the\nsource address.\n\nThe local networks (like 127.0.0.0/8) are explicitly\nnot routable off machine. Therefore this does not present a\nsecurity issue.\n\nThis manifested itself in a failure of the\n/web-server/no-redirect-localhost test.\n\nCloses #2752\nReviewed-by: Marius Vollmer <marius.vollmer@redhat.com>",
    "files": [
      "src/common/cockpitwebserver.c"
    ]
  },
  {
    "date": 1441701015,
    "committer": {
      "name": "Marius Vollmer",
      "email": "mvollmer@redhat.com"
    },
    "id": "018310c74b66c7a4d0c68252ff65ea9aae57cdea",
    "message": "base1: Implement spawn err: \"message\" option\n\nThis returns the error output of the process as the exception\nmessage (on failure) or an additional argument when the process\ncompletes successfully.\n\nCloses #2680\nReviewed-by: Marius Vollmer <marius.vollmer@redhat.com>",
    "files": [
      "pkg/base1/test-spawn-proc.html",
      "doc/guide/api-cockpit.xml",
      "doc/protocol.md",
      "pkg/base1/test-spawn.html",
      "pkg/base1/cockpit.js",
      "src/bridge/cockpitpipechannel.c"
    ]
  },
  {
    "date": 1441318909,
    "committer": {
      "name": "petervo",
      "email": "petervo@redhat.com"
    },
    "id": "d7cdc2bb4479f83f5f3331bf80a5e3a709422685",
    "message": "static: Implement a pretty HTTP failure page\n\nThis is used in the case of 404's and such.\n\nUses the patternfly blank-slate styling, but we make\nsure that the page doesn't pull in anything external,\nexcept for fonts.\n\nCloses #2656\nFixes #1865\nReviewed-by: Peter <petervo@redhat.com>",
    "files": [
      "src/ws/main.c",
      "src/bridge/test-packages.c",
      "src/common/Makefile-common.am",
      "Makefile.am",
      "src/ws/test-webservice.c",
      "src/common/fail.html",
      "src/common/cockpitassets.gresource.xml",
      "pkg/base1/test-http.html",
      "src/bridge/bridge.c",
      "src/common/cockpitwebresponse.h",
      "src/common/cockpitwebresponse.c",
      "src/common/test-webresponse.c"
    ]
  },
  {
    "date": 1441266715,
    "committer": {
      "name": "Stef Walter",
      "email": "stefw@redhat.com"
    },
    "id": "3a7d0cd28f682b7199496d9dd35c724a4cf70a7d",
    "message": "bridge: Link to more specific bug for GFileMonitor hack\n\nThe issue isn't really the ordering of events, but that some versions\nof GLib emit spurios extra events.\n\nReviewed-by: Stef Walter <stefw@redhat.com>",
    "files": [
      "src/bridge/test-fs.c"
    ]
  },
  {
    "date": 1440797688,
    "committer": {
      "name": "petervo",
      "email": "petervo@redhat.com"
    },
    "id": "4b619180c797b6ec5b960b9642ede13959963c25",
    "message": "common: Pass directory in $PWD to children with a TTY\n\nThe kernel only knows about the inode of the working directory\nand since our TTY spawning code is often used with shells, and home\ndirectories are often have symlinks somewhere in their path\nwe pass the path we care about in $PWD.\n\nThis fixes an terminal test failure, where we check that we\nstarted in the home directory. But on Fedora Atomic the home\ndirectory is a symlink.\n\nCloses #2634\nReviewed-by: Peter <petervo@redhat.com>",
    "files": [
      "src/common/cockpitpipe.c",
      "src/bridge/cockpitpipechannel.c"
    ]
  },
  {
    "date": 1440772999,
    "committer": {
      "name": "Marius Vollmer",
      "email": "mvollmer@redhat.com"
    },
    "id": "ae6ca405bd52ebd08b3536a2286c51ec29a00539",
    "message": "ws: CockpitSSHTransport doesn't talk to 'session program'\n\nMake it clearer what got killed or failed here.\n\nCloses #2649\nReviewed-by: Marius Vollmer <marius.vollmer@redhat.com>",
    "files": [
      "src/ws/cockpitsshtransport.c"
    ]
  },
  {
    "date": 1440756759,
    "committer": {
      "name": "Marius Vollmer",
      "email": "mvollmer@redhat.com"
    },
    "id": "b4fd332fac20ea57b55cde9e28bc0baa998a4de1",
    "message": "bridge: CockpitDBusCache batch_flush() causes use after free\n\nThis is because other callers will cause batch_unref() on already\nfreed batch memory.\n\nI believe this is the fix for the assertion failures we've been\nseeing like this: assertion failed (batch->refs > 0)\n\nFixes #2618\nCloses #2646\nReviewed-by: Marius Vollmer <marius.vollmer@redhat.com>",
    "files": [
      "src/bridge/cockpitdbuscache.c"
    ]
  },
  {
    "date": 1440448935,
    "committer": {
      "name": "Stef Walter",
      "email": "stefw@redhat.com"
    },
    "id": "9edc68797f48efb4f67c763a1e344729eaadab75",
    "message": "travis: Write build output carefully to stdout.\n\nStdout/stderr are connected to something that fails big/fast writes\nwith EAGAIN sometimes.  To defend against this, we pass our output\nthrough careful-cat, which handles EAGAIN.\n\nCloses #2611\nReviewed-by: Stef Walter <stefw@redhat.com>",
    "files": [
      "tools/careful-cat.c",
      ".travis.yml"
    ]
  },
  {
    "date": 1439394399,
    "committer": {
      "name": "Dominik Perpeet",
      "email": "dperpeet@redhat.com"
    },
    "id": "890dd92bbd7f02b6427e53b29e84f681905db8e1",
    "message": "bridge: Add a timeout to the fs tests\n\nSome of these hang in certain situations such as while waiting\nfor watches. We want them to fail eventually instead of hang\nforever.\n\nReviewed-by: Dominik Perpeet <dperpeet@redhat.com>",
    "files": [
      "src/bridge/test-fs.c"
    ]
  },
  {
    "date": 1439192958,
    "committer": {
      "name": "Marius Vollmer",
      "email": "mvollmer@redhat.com"
    },
    "id": "4670950251e1320adf7111aa2986bd01f175dc67",
    "message": "ws: Fail tests when g_critical()\n\nWe force an abort() to happen in these cases.\n\nWould also like to do g_warning() but has too many false positives\nat this point.\n\nCloses #2472\nReviewed-by: Marius Vollmer <marius.vollmer@redhat.com>",
    "files": [
      "src/ws/cockpit-testing.service.in",
      "src/bridge/bridge.c"
    ]
  },
  {
    "date": 1438784819,
    "committer": {
      "name": "Marius Vollmer",
      "email": "mvollmer@redhat.com"
    },
    "id": "27f217294b7bec38c4b28c0f6c34f50f970d121d",
    "message": "bridge: Don't race with removing from hash table\n\nIn the case where spawning usermod closes immediately, we need\nto remove the entry from the hashtable before hand, or we see\na critical like this:\n\nassertion 'ri->version == ri->hash_table->version' failed\n\nReviewed-by: Marius Vollmer <marius.vollmer@redhat.com>",
    "files": [
      "src/bridge/cockpitdbussetup.c"
    ]
  },
  {
    "date": 1438784549,
    "committer": {
      "name": "Marius Vollmer",
      "email": "mvollmer@redhat.com"
    },
    "id": "1c8afa77e5f9cc656f0ead1ea2f41bc4b59831a2",
    "message": "bridge: Prevent portal code from send/emit messages on closed transport\n\nTrack the state of the transport better. A symptom of this was\nfailures that looked like:\n\ncockpit-bridge[20572]: cockpit_pipe_write: assertion '!self->priv->closed' failed\n\nReviewed-by: Marius Vollmer <marius.vollmer@redhat.com>",
    "files": [
      "src/bridge/cockpitportal.c"
    ]
  },
  {
    "date": 1436960355,
    "committer": {
      "name": "Marius Vollmer",
      "email": "mvollmer@redhat.com"
    },
    "id": "ea67fab1cfaf935b4450b3ab3c150a40357437a6",
    "message": "common: Fix logging to journal of anything written to stderr\n\nThis was meant to be fixed earlier, but due to the arguments in\nthe wrong order it didn't actually take.\n\nReviewed-by: Marius Vollmer <marius.vollmer@redhat.com>",
    "files": [
      "src/common/cockpitlog.c"
    ]
  },
  {
    "date": 1432316087,
    "committer": {
      "name": "petervo",
      "email": "petervo@redhat.com"
    },
    "id": "20a8e5d49e712b47f5749665b6d010882dcf904a",
    "message": "bridge: Detect sudo failures properly\n\nUnfortunately sudo just exits with 1 when it fails. But we have\na pretty good idea if it's sudo or the bridge who is failing\ndepending on whether we started talking to the bridge with an \"init\"\nmessage or not.\n\nReviewed-by: Peter <petervo@redhat.com>",
    "files": [
      "src/bridge/cockpitportal.c"
    ]
  },
  {
    "date": 1432316029,
    "committer": {
      "name": "petervo",
      "email": "petervo@redhat.com"
    },
    "id": "ef9dfb83ccf9a065877d1034a1e2b08bc7c0dc30",
    "message": "bridge: Implement optional super user channels and fallbacks\n\nThe portal code has been extended to support two things\n\n * Fallback to standard bridge channels if portal not possible\n * Failover to a second command if first portal isn't found\n\nThe above is used to implement optional superuser channels,\nand also superuser channels that use sudo.\n\nFixes #1596\nFixes #1595\n\nReviewed-by: Peter <petervo@redhat.com>",
    "files": [
      "src/bridge/mock-bridge.c",
      "doc/guide/api-cockpit.xml",
      "src/bridge/cockpitportal.c",
      "src/bridge/Makefile.am",
      "src/bridge/cockpitportal.h",
      "configure.ac",
      "src/bridge/test-portal.c",
      "doc/protocol.md"
    ]
  },
  {
    "date": 1432143851,
    "committer": {
      "name": "petervo",
      "email": "petervo@redhat.com"
    },
    "id": "f7f5e8ee17af9888ca189e914b2f8a40b42c6987",
    "message": "common: Report disconnected errors for various TLS conditions\n\nWhen we have received data, but then get G_TLS_ERROR_MISC, or\nwhen we get G_TLS_ERROR_EOF, report a 'disconnected' problem.\n\nThis allows the caller in javascript to determine what action\nto take. In some cases, like a long-poll HTTP request, the\ncaller can just ignore the failure.\n\nPreviously we would report 'internal-error' here.\n\nReviewed-by: Peter <petervo@redhat.com>",
    "files": [
      "src/common/cockpitstream.c",
      "pkg/kubernetes/client.js"
    ]
  },
  {
    "date": 1431683020,
    "committer": {
      "name": "Marius Vollmer",
      "email": "mvollmer@redhat.com"
    },
    "id": "e955bb8cfaab01fa2588c01ffb7e2764ff559c49",
    "message": "common: Fix two test races that are failing in Travis\n\nWell, at least try to fix them, that's how these things go.\n\nIn one case writev is failing with -1. I'm guessing that this\nis EAGAIN or EINTR and we are now handling those.\n\nThe other case is where the close of file descriptores raced\nwith the closing of the stream. Put these in the right order.\n\nFingers crossed.\n\nCloses #2280\nReviewed-by: Marius Vollmer <marius.vollmer@redhat.com>",
    "files": [
      "src/common/test-stream.c"
    ]
  },
  {
    "date": 1431088336,
    "committer": {
      "name": "Marius Vollmer",
      "email": "mvollmer@redhat.com"
    },
    "id": "6a311340759c00049bedd5e8bbc18a5832a115fd",
    "message": "common: Use different stream names to find test failure\n\nThis helps diagnosing Travis CI failures.\n\nReviewed-by: Marius Vollmer <marius.vollmer@redhat.com>",
    "files": [
      "src/common/test-stream.c"
    ]
  },
  {
    "date": 1429872351,
    "committer": {
      "name": "Stef Walter",
      "email": "stefw@redhat.com"
    },
    "id": "f5d7586a12f5313d6301ba96aadaa06d84f2fc21",
    "message": "bridge: Fix bug with streaming chunked data\n\nFixes #2170\nCloses #2204\nSigned-off-by: Stef Walter <stefw@redhat.com>\n * Tweak the comments a bit, change order of checks",
    "files": [
      "src/bridge/mock-transport.c",
      "src/bridge/mock-transport.h",
      "src/bridge/test-packages.c",
      "src/bridge/test-httpstream.c",
      "src/bridge/cockpithttpstream.c"
    ]
  },
  {
    "date": 1429173849,
    "committer": {
      "name": "Marius Vollmer",
      "email": "mvollmer@redhat.com"
    },
    "id": "13bf9ba4161f1493cba0090d434f1c3ab92d7919",
    "message": "lvm: Don't crash cockpit-lvm-helper if lvm_init() fails\n\nReviewed-by: Marius Vollmer <marius.vollmer@redhat.com>",
    "files": [
      "src/legacy/lvm/helper.c"
    ]
  },
  {
    "date": 1427899791,
    "committer": {
      "name": "petervo",
      "email": "petervo@redhat.com"
    },
    "id": "9e310d38453b7fd684130941b2b5264f30395b2f",
    "message": "shell: Show a storage page failure if UDisks is not installed\n\nIn addition disable the LVM related buttons if storaged (0.x)\nis not installed.\n\nReviewed-by: Peter <petervo@redhat.com>",
    "files": [
      "pkg/shell/shell.html",
      "src/legacy/com.redhat.Cockpit.xml",
      "pkg/shell/cockpit-storage.js",
      "src/legacy/storagemanager.c"
    ]
  },
  {
    "date": 1427890487,
    "committer": {
      "name": "Stef Walter",
      "email": "stefw@redhat.com"
    },
    "id": "9491e8c087688cc4bd03ab34fcc2d096a52d74f3",
    "message": "ws: Add tests for allowed origins\n\nCloses #1608\nSigned-off-by: Stef Walter <stefw@redhat.com>\n * Fixed mock file name to match Makefile.am\n * Removed old config file from Makefile.am",
    "files": [
      "src/ws/mock-config.conf",
      "src/ws/mock_config.conf",
      "src/ws/Makefile-ws.am",
      "src/common/test-config.c",
      "src/ws/cockpitwebservice.c",
      "src/ws/test-webservice.c"
    ]
  },
  {
    "date": 1427472499,
    "committer": {
      "name": "Marius Vollmer",
      "email": "mvollmer@redhat.com"
    },
    "id": "6e80c8cec9ffa12edf8ae82721721f5efcc62135",
    "message": "ws: Hold a reference during cockpit_ssh_source_dispatch()\n\nWe destroy the source during the callback, so make sure we still\nhave a reference on the CockpitSshTransport through all of this\n\nReviewed-by: Marius Vollmer <marius.vollmer@redhat.com>",
    "files": [
      "src/ws/cockpitsshtransport.c"
    ]
  },
  {
    "date": 1427472482,
    "committer": {
      "name": "Marius Vollmer",
      "email": "mvollmer@redhat.com"
    },
    "id": "3eed691e5b36a76dcf68c9c6603fc09528ceef17",
    "message": "bridge: Add \"capabilities\" field to \"open\" messages\n\nThese are ways to request that the bridge has certain capabilities\nbefore the channel can continue. Capabilities will be a global list\nof strings. Things that the bridge knows about. These are the same\ncapabilities advertised in the \"init\" message.\n\nIf the bridge doesn't support certain capabilities requested in an\n\"open\" message then it fails the channel with \"not-supported\".\n\nCurrently there are no bridge capabilities defined.\n\nReviewed-by: Marius Vollmer <marius.vollmer@redhat.com>",
    "files": [
      "src/bridge/bridge.c",
      "doc/protocol.md"
    ]
  },
  {
    "date": 1427204712,
    "committer": {
      "name": "Marius Vollmer",
      "email": "mvollmer@redhat.com"
    },
    "id": "efc58dfc30c537b0f6f66cd30cebf2aac5e673e8",
    "message": "bridge: Change the stream 'error' field to 'err'\n\nThis changes where stderr goes. Having it be called 'error' was\nconfusing because it made you think of the failed process.\n\nReviewed-by: Marius Vollmer <marius.vollmer@redhat.com>",
    "files": [
      "examples/package-no-jquery/test.html",
      "pkg/base1/test-spawn-proc.html",
      "doc/guide/api-cockpit.xml",
      "src/bridge/cockpitstream.c",
      "doc/protocol.md",
      "pkg/subscriptions/subscriptions.js",
      "examples/package-simple/test.html",
      "pkg/shell/cockpit-accounts.js"
    ]
  },
  {
    "date": 1427110838,
    "committer": {
      "name": "Marius Vollmer",
      "email": "mvollmer@redhat.com"
    },
    "id": "573719b16722f947514d108dceebb7c089889d36",
    "message": "common: Workaround broken Firefox certificate validator\n\nhttps://bugzilla.redhat.com/show_bug.cgi?id=1204670\n\nCloses #1984\nReviewed-by: Marius Vollmer <marius.vollmer@redhat.com>",
    "files": [
      "src/common/cockpitcertificate.c"
    ]
  },
  {
    "date": 1426882632,
    "committer": {
      "name": "petervo",
      "email": "petervo@redhat.com"
    },
    "id": "c2b01eac2db3655b8eedb846352614d4ff5a0e85",
    "message": "Split \"not-authorized\" into \"access-denied\" and \"authentication-failed\"\n\nThese are really two different error codes, and conflating them\nonly led to confusion.\n\nFixes #1330\nCloses #1975\n\nReviewed-by: Peter <petervo@redhat.com>",
    "files": [
      "src/bridge/test-stream.c",
      "src/ws/test-webservice.c",
      "pkg/shell/cockpit-server.js",
      "src/ws/cockpitsshtransport.c",
      "pkg/shell/cockpit-setup.js",
      "src/bridge/cockpitfslist.c",
      "src/bridge/cockpitfsread.c",
      "src/bridge/test-fs.c",
      "src/common/cockpitpipe.c",
      "doc/guide/api-cockpit.xml",
      "src/common/test-webserver.c",
      "src/ws/cockpitauth.c",
      "src/bridge/cockpitfsreplace.c",
      "src/ws/test-sshtransport.c",
      "src/common/cockpitpipetransport.c",
      "src/bridge/cockpitportal.c",
      "pkg/base/cockpit.js",
      "doc/protocol.md",
      "pkg/subscriptions/subscriptions.js",
      "pkg/shell/cockpit-docker.js",
      "pkg/playground/test.html",
      "test/check-reauthorize",
      "src/common/test-pipe.c"
    ]
  },
  {
    "date": 1426682615,
    "committer": {
      "name": "Marius Vollmer",
      "email": "mvollmer@redhat.com"
    },
    "id": "728873c11e43ec0e8f0e513cfe3acc3430aa510c",
    "message": "common: Work around misconfigured systemd not passing a socket\n\nPreviously this would just kill the process. We should instead\nproduce an intelligible message, and not necessarily dump core.\n\nhttps://bugzilla.gnome.org/show_bug.cgi?id=746339\n\nFixes #1931\nReviewed-by: Marius Vollmer <marius.vollmer@redhat.com>",
    "files": [
      "src/common/cockpitwebserver.c"
    ]
  },
  {
    "date": 1424173921,
    "committer": {
      "name": "Marius Vollmer",
      "email": "mvollmer@redhat.com"
    },
    "id": "4e111ba974aeb0ecbe26045915b40e12a08ae076",
    "message": "shell: Read DMI info directly from Javascript\n\nWe don't need to load this information in cockpitd.\n\nIn addition we fix a bug where privileged (but non-root) users\ncouldn't read the serial number information.\n\nCloses #1821\nReviewed-by: Marius Vollmer <marius.vollmer@redhat.com>",
    "files": [
      "configure.ac",
      "src/daemon/manager.c",
      "src/daemon/com.redhat.Cockpit.xml",
      "tools/cockpit.spec",
      ".travis.yml",
      "pkg/shell/cockpit-server.js"
    ]
  },
  {
    "date": 1423758199,
    "committer": {
      "name": "Stef Walter",
      "email": "stefw@redhat.com"
    },
    "id": "ba69cb3d1a4780ed543d8b428c5ea4e35c383730",
    "message": "session: No tty for pam, but session class.\n\nSystemd-logind expects a real tty and we should set the session class\nexplicitly.\n\nhttps://bugs.freedesktop.org/show_bug.cgi?id=89024#c1\n\nCloses #1808\nReviewed-by: Stef Walter <stefw@redhat.com>",
    "files": [
      "src/ws/session.c"
    ]
  },
  {
    "date": 1421929147,
    "committer": {
      "name": "Stef Walter",
      "email": "stefw@redhat.com"
    },
    "id": "d465d16494692377f14ba08204fd768d3b596b80",
    "message": "docker: Pass exposed ports to docker api\n\nremoved mock html, amended test case\n\nCloses #1701\nFixes #1587\nSigned-off-by: Stef Walter <stefw@redhat.com>\n * Fixed whitespace changes",
    "files": [
      "pkg/shell/shell.html",
      "pkg/shell/cockpit-docker.js",
      "pkg/shell/shell.css",
      "test/check-docker",
      "test/container-probe.c"
    ]
  },
  {
    "date": 1421129852,
    "committer": {
      "name": "Stef Walter",
      "email": "stefw@redhat.com"
    },
    "id": "87338658acf6e310087a5a8c8b7ec1cf43949b49",
    "message": "ws: Handle SSH_AUTH_AGAIN libssh error code\n\nTreats SSH_AUTH_AGAIN as an authentication failure\ninstead of an internal error.\n\nFixes #1460\nCloses #1633\nReviewed-by: Stef Walter <stefw@redhat.com>",
    "files": [
      "src/ws/cockpitsshtransport.c"
    ]
  },
  {
    "date": 1421063098,
    "committer": {
      "name": "Marius Vollmer",
      "email": "mvollmer@redhat.com"
    },
    "id": "61986896c780d93918dda5696c379d8cd9d46e2d",
    "message": "websocket: Fix warnings on ARM about gsize being 32-bits\n\nThis is a theoretical error. If gsize is 32-bits then the code\nfor length longer than 32-bits will not be reached. Nevertheless\nfor code hygiene and completeness, use the correct 64-bit type\nwhen building length of the packet.\n\nFixes these warnings:\n\nsrc/websocket/websocketconnection.c: In function 'send_prefixed_message_rfc6455':\nsrc/websocket/websocketconnection.c:433:7: warning: right shift count >= width of type\n       outer[2] = (len >> 56) & 0xFF;\n       ^\nsrc/websocket/websocketconnection.c:434:7: warning: right shift count >= width of type\n       outer[3] = (len >> 48) & 0xFF;\n       ^\n...\n\nReviewed-by: Marius Vollmer <marius.vollmer@redhat.com>",
    "files": [
      "src/websocket/websocketconnection.c"
    ]
  },
  {
    "date": 1417679074,
    "committer": {
      "name": "Marius Vollmer",
      "email": "mvollmer@redhat.com"
    },
    "id": "f62bc3a35aed3965aa3699b0690497b8cd90d85b",
    "message": "websocket: Fix a return value for parse failures\n\nFix return value for web_socket_util_parse_req_line() so that\nit can return negative values on parse failures.\n\nCloses #1547\nReviewed-by: Marius Vollmer <marius.vollmer@redhat.com>",
    "files": [
      "src/websocket/websocket.c",
      "src/websocket/websocket.h"
    ]
  },
  {
    "date": 1417174953,
    "committer": {
      "name": "Marius Vollmer",
      "email": "mvollmer@redhat.com"
    },
    "id": "970f106e103a3830e13ccad09ab432c28261f517",
    "message": "base: Implement base64 encoding of binary data\n\nThis is a surprising omission from the ArrayBuffer and typed array\nwork. Very odd.\n\nImplementation is a polyfill from MDN, and fixed up.\n\nhttps://developer.mozilla.org/en-US/docs/Web/API/WindowBase64/Base64_encoding_and_decoding\n\nOur implementation works with binary data in Array, Uint8Array or\nStrings.\n\nReviewed-by: Marius Vollmer <marius.vollmer@redhat.com>",
    "files": [
      "doc/guide/api-cockpit.xml",
      "pkg/base/test-echo.html",
      "pkg/base/cockpit.js",
      "pkg/base/test-base64.html",
      "doc/protocol.md",
      "pkg/base/test-framed.html",
      "pkg/base/Makefile.am",
      "src/ws/cockpitwebservice.c"
    ]
  },
  {
    "date": 1417166502,
    "committer": {
      "name": "Marius Vollmer",
      "email": "mvollmer@redhat.com"
    },
    "id": "6a5cff4e30aecaa5b72cb93274f1dd800eea7590",
    "message": "bridge: Better diagnostics for file read/write failures\n\nIn the file read/replace channels, put some context in the messages\nso we can have a clue as to what's causing it. Previously we had:\n\ncockpit-bridge-Message: /tmp/.V3DRPX/foo: Bad file descriptor\n\nCloses #1518\nReviewed-by: Marius Vollmer <marius.vollmer@redhat.com>",
    "files": [
      "src/bridge/cockpitfsread.c",
      "src/bridge/cockpitfswrite.c"
    ]
  },
  {
    "date": 1417166493,
    "committer": {
      "name": "Marius Vollmer",
      "email": "mvollmer@redhat.com"
    },
    "id": "b94ba7ab900bf3a3f3ea505f105830e58ac9ef07",
    "message": "bridge: More robust parsing of channel options\n\nThe parsing of channel options was quite haphazard, and didn't\ndetect bad types for values, etc. This is more verbose, but it's more\nfailure proof and produces better diagnostic messages.\n\nReviewed-by: Marius Vollmer <marius.vollmer@redhat.com>",
    "files": [
      "src/bridge/cockpitfswrite.c",
      "src/bridge/cockpitchannel.h",
      "src/bridge/cockpitstream.c",
      "src/bridge/deprecated/cockpitdbusjson1.c",
      "src/bridge/cockpitchannel.c",
      "src/bridge/test-channel.c",
      "src/bridge/cockpitfswatch.c",
      "src/bridge/bridge.c",
      "src/bridge/cockpitdbusjson.c",
      "src/bridge/deprecated/cockpitdbusjson2.c",
      "src/bridge/cockpitfsread.c",
      "src/bridge/test-resource.c",
      "src/bridge/cockpitfsdir.c",
      "src/bridge/cockpitrestjson.c",
      "src/bridge/cockpitresource.c"
    ]
  },
  {
    "date": 1415355457,
    "committer": {
      "name": "Marius Vollmer",
      "email": "mvollmer@redhat.com"
    },
    "id": "e82e7a896ea8a3d25e382e8ba0ef20481c2c95a1",
    "message": "ws: Add a \"result\" signal to CockpitSshTransport\n\nThis signal is emitted when the connection finishes, whether success\nor failure. In the success case it means that cockpit protocol messages\nwill start being relayed to the other end. In the failure case it\nmeans that the transport will close shortly.\n\nBut this is meant to have a bound over the connection aspect of an\nSSH transport, that can be relied on to emit when done.\n\nReviewed-by: Marius Vollmer <marius.vollmer@redhat.com>",
    "files": [
      "src/ws/cockpitsshtransport.c",
      "src/ws/test-sshtransport.c"
    ]
  },
  {
    "date": 1414138965,
    "committer": {
      "name": "Marius Vollmer",
      "email": "mvollmer@redhat.com"
    },
    "id": "f3ac5f9e2d5dcc49b51f17c3ff1a974c1cec545a",
    "message": "ws: Don't complain if resource web response is already closed\n\nSometimes a web response closes for a failure such as a send.\n\nCloses #1390\nReviewed-by: Marius Vollmer <marius.vollmer@redhat.com>",
    "files": [
      "src/ws/cockpitwebservice.c"
    ]
  },
  {
    "date": 1413474046,
    "committer": {
      "name": "Marius Vollmer",
      "email": "mvollmer@redhat.com"
    },
    "id": "6d2391900fd888158908e5a5b1755b24f93aa399",
    "message": "bridge: Fix checksum issues with packages\n\n * Make order of finalizing the checksums irrelevant\n * If a dependent package isn't cacheable or doesn't exist\n   then don't allow a checksum\n\nCloses #1350\nReviewed-by: Marius Vollmer <marius.vollmer@redhat.com>\nSigned-off-by: Marius Vollmer <mvollmer@redhat.com>\n - Fixed memory leaks",
    "files": [
      "src/bridge/cockpitpackage.c",
      "src/bridge/bridge.c"
    ]
  },
  {
    "date": 1413199300,
    "committer": {
      "name": "Marius Vollmer",
      "email": "mvollmer@redhat.com"
    },
    "id": "63bc61bb45f97a00b70748c73dd8b8ff7563275f",
    "message": "agent: Prefix checksums with the '$' character\n\nThis allows us to treat them just like package names, but\ndifferentiate them exactly where necessary.\n\nThe '$' character is also a valid javascript identifier character\nwhich allows us to use these as module names for AMD loaders and\nsuch.\n\nReviewed-by: Marius Vollmer <marius.vollmer@redhat.com>\n * Fixed docs to also mention '$' instead of old '!'.",
    "files": [
      "src/ws/test-webservice.c",
      "src/agent/cockpitpackage.c",
      "doc/urls.md",
      "src/agent/test-package.c",
      "src/agent/test-resource.c"
    ]
  },
  {
    "date": 1413199300,
    "committer": {
      "name": "Marius Vollmer",
      "email": "mvollmer@redhat.com"
    },
    "id": "e76aa7dd4b6923fd65246eec5de3c9a8ed40fa84",
    "message": "agent: Don't list packages that fail to load/checksum\n\nBe strict about this stuff now. We can't become stricter later\nonce this becomes API.\n\nReviewed-by: Marius Vollmer <marius.vollmer@redhat.com>",
    "files": [
      "src/agent/cockpitresource.c"
    ]
  },
  {
    "date": 1412778390,
    "committer": {
      "name": "Marius Vollmer",
      "email": "mvollmer@redhat.com"
    },
    "id": "a816ac2fcbb768e5a569ad2cc309375be0a9486e",
    "message": "ws: Return a 'no-forwarding' protocol close reason if no forwardable creds\n\nWhen trying to connect out to another host, and we don't have the\nnecessary creds to do it return 'no-forwarding' as the failure. The\nuser interface now shows something sensible in this case.\n\nReviewed-by: Marius Vollmer <marius.vollmer@redhat.com>",
    "files": [
      "src/ws/cockpitsshtransport.c",
      "modules/shell/cockpit-util.js",
      "doc/protocol.md"
    ]
  },
  {
    "date": 1412660013,
    "committer": {
      "name": "Stef Walter",
      "email": "stefw@redhat.com"
    },
    "id": "761f5a2f9f79372d9480252b76fd1a39bce82ff5",
    "message": "ws, static: Report \"Permission denied\" when pam_acct_mgmt fails.\n\nFixes #915\nCloses #1256\nReviewed-by: Stef Walter <stefw@redhat.com>",
    "files": [
      "src/ws/session.c",
      "src/common/cockpiterror.c",
      "src/static/index.html",
      "src/ws/cockpitwebresponse.c",
      "src/ws/cockpitauth.c",
      "src/common/cockpitenums.h",
      "test/check-login"
    ]
  },
  {
    "date": 1411400819,
    "committer": {
      "name": "Marius Vollmer",
      "email": "mvollmer@redhat.com"
    },
    "id": "c50ad8ffb4441c33f1936aaee6680cc16f3d9574",
    "message": "ws: Send WWW-Authenticate: Negotiate header for any auth failure\n\nReviewed-by: Marius Vollmer <marius.vollmer@redhat.com>",
    "files": [
      "src/ws/cockpitauth.c"
    ]
  },
  {
    "date": 1410767987,
    "committer": {
      "name": "Marius Vollmer",
      "email": "mvollmer@redhat.com"
    },
    "id": "a02978e81ec6a2e7accaae14f55b6a0f8ee9e860",
    "message": "daemon: Quiet down cockpitd startup and shutdown\n\nIt's really just a tool, and doesn't need to be noisy unless\nit fails.\n\nCloses #1166\nReviewed-by: Marius Vollmer <marius.vollmer@redhat.com>",
    "files": [
      "src/daemon/main.c"
    ]
  },
  {
    "date": 1410767976,
    "committer": {
      "name": "Marius Vollmer",
      "email": "mvollmer@redhat.com"
    },
    "id": "34608507824e7053d3ba7af66b7274dc18c2843d",
    "message": "agent: Don't complain about files in /usr/share/cockpit\n\nThe code tries to treat everything  in /usr/share/cockpit\nas a directory. If there's a file there, ignore it.\n\nFixes this log message:\n\ncockpit-agent[802]: sshd-reauthorize.pam: Failed to open file\n   '/usr/share/cockpit/sshd-reauthorize.pam/manifest.json': Not a directory\n\nReviewed-by: Marius Vollmer <marius.vollmer@redhat.com>",
    "files": [
      "src/agent/cockpitresource.c"
    ]
  },
  {
    "date": 1407759200,
    "committer": {
      "name": "Marius Vollmer",
      "email": "mvollmer@redhat.com"
    },
    "id": "26c4f1c09cf48bce333e66dde12a39166e66f1b6",
    "message": "ws: Ignore SIGPIPE in mock-sshd tests\n\nTrying to solve Travis failures here, and this may be the cause\nof the /web-service/fail-spawn/rfc6455 and similar tests failing.\n\nReviewed-by: Marius Vollmer <marius.vollmer@redhat.com>",
    "files": [
      "src/ws/mock-sshd.c"
    ]
  },
  {
    "date": 1407759200,
    "committer": {
      "name": "Marius Vollmer",
      "email": "mvollmer@redhat.com"
    },
    "id": "6f1efbeae61075c4713849ef261b6c92363abb3a",
    "message": "ws: Check on exit result of mock-sshd and report failures\n\nThis helps us find out when mock-sshd is crashing and causing\nseemingly unrelated problems in tests.\n\nReviewed-by: Marius Vollmer <marius.vollmer@redhat.com>",
    "files": [
      "src/ws/test-webservice.c"
    ]
  },
  {
    "date": 1406905791,
    "committer": {
      "name": "Stef Walter",
      "email": "stefw@redhat.com"
    },
    "id": "3fd6344d84fcf93b9c6dc275b5f77fb4dfb91187",
    "message": "shell: Fix bad response when login with empty user name\n\nFix backend to return authentication failed if user is NULL.\nFix frontend to avoid empty user name.\nSome refactoring.\n\nFixes #940",
    "files": [
      "src/ws/cockpitauth.c",
      "src/static/index.html"
    ]
  },
  {
    "date": 1404198746,
    "committer": {
      "name": "Stef Walter",
      "email": "stefw@redhat.com"
    },
    "id": "5540028b4faccd419a4ddb5f2b279ef745281eba",
    "message": "ws: Add support for Chunked Transfer Encoding\n\nSupported for chunked transfer encoding and added/updated\nrelated test cases. Fixed some typos and a potential bug.\nFormat adjustments.\n\nFixes #649\nCloses #824\nReviewed-by: Stef Walter <stefw@redhat.com>",
    "files": [
      "src/ws/cockpitwebresponse.c",
      "src/ws/test-webservice.c",
      "src/ws/test-webresponse.c"
    ]
  },
  {
    "date": 1403246867,
    "committer": {
      "name": "Stef Walter",
      "email": "stefw@redhat.com"
    },
    "id": "b702947631fba0d5c5327a2fbe8bad72453d8d1c",
    "message": "ws: Added the validation of HTTP Host header\n\nAdded the check for presence of mandatory 'Host' header as expected by HTTP 1.1.\nTogether with a test case \"test_webserver_host_header\" in test-webserver.c\n\nFixes #663\nSigned-off-by: Stef Walter <stefw@redhat.com>\n * Fixed trailing whitespace\n * Put cocpit_assert_expected() at top of teardown()",
    "files": [
      "src/ws/cockpitwebserver.c",
      "src/ws/test-webserver.c"
    ]
  },
  {
    "date": 1403034528,
    "committer": {
      "name": "Marius Vollmer",
      "email": "mvollmer@redhat.com"
    },
    "id": "34e35b2294619711e54f3ff93454a43066a6409c",
    "message": "common: If 'internal-error' try to get better error from exit status\n\nIf our CockpitPipe fails with 'internal-error' and it's a process,\ntry to get a better error by looking at the exit status of the process.\nHopefully that will be more descriptive.\n\nReviewed-by: Marius Vollmer <marius.vollmer@redhat.com>",
    "files": [
      "src/cockpit/cockpitpipetransport.c"
    ]
  },
  {
    "date": 1403034517,
    "committer": {
      "name": "Marius Vollmer",
      "email": "mvollmer@redhat.com"
    },
    "id": "e62eb51177ca7f6622da199c126cac27868b5e52",
    "message": "common: Broken Pipe is not a critical error for CockpitPipe\n\nThis can happen for a number of reasons, such as an agent being\nterminated. We want to handle the real problem and not freak out\nabout the failed write() in this case.\n\nReviewed-by: Marius Vollmer <marius.vollmer@redhat.com>",
    "files": [
      "src/cockpit/cockpitpipe.c"
    ]
  },
  {
    "date": 1403008013,
    "committer": {
      "name": "Stef Walter",
      "email": "stefw@redhat.com"
    },
    "id": "44c81b08441a73efebcdc5d44353ff5f223da4a3",
    "message": "daemon: Fixed formatting string\n\nLimit the length of the sscanf field to prevent being attacked.\n\n\".*\" conversion rule is not available in scanf/sscanf/fscanf series functions,\nthe only way to do this is using explicit number to limit the length of the field.\n\nFixes #665\nCloses #706\nReviewed-by: Stef Walter <stefw@redhat.com>",
    "files": [
      "src/daemon/diskiomonitor.c"
    ]
  },
  {
    "date": 1402640597,
    "committer": {
      "name": "Stef Walter",
      "email": "stefw@redhat.com"
    },
    "id": "92efe9f0727f9c9ca6b3523748011d62a40ddc77",
    "message": "ws: Freed memory leak of cockpit_getpwnam_a()\n\nFixed #668\nCloses #692\n\nReviewed-by: Stef Walter <stefw@redhat.com>",
    "files": [
      "src/ws/cockpithandlers.c"
    ]
  },
  {
    "date": 1402399915,
    "committer": {
      "name": "Marius Vollmer",
      "email": "mvollmer@redhat.com"
    },
    "id": "0211d6028c2947ca0cc02fe3fc2bc0f74927988f",
    "message": "ws: Fix race condition during ssh transport shutdown\n\nWithout this change on certain machines, in certain environments\nwe would see messages like the following:\n\ncockpit-protocol-Message: 127.0.0.1: failed to process channel: Socket error: Success\n\nCloses #657\nReviewed-by: Marius Vollmer <marius.vollmer@redhat.com>",
    "files": [
      "src/ws/cockpitsshtransport.c"
    ]
  },
  {
    "date": 1401216759,
    "committer": {
      "name": "Patrick Uiterwijk",
      "email": "puiterwijk@redhat.com"
    },
    "id": "3ad3eb95a770f246c192f2a0cb0a33ee441c5a7c",
    "message": "agent: Work around json-glib bogosity re empty strings in arrays\n\nhttps://bugzilla.gnome.org/show_bug.cgi?id=730803\n\nReviewed-by: Patrick Uiterwijk <puiterwijk@redhat.com>\nCloses #614",
    "files": [
      "src/agent/cockpitdbusjson.c"
    ]
  },
  {
    "date": 1400228602,
    "committer": {
      "name": "Marius Vollmer",
      "email": "mvollmer@redhat.com"
    },
    "id": "a8de5d2c02b52db2b4e0db3edd8245dc252a44d1",
    "message": "common: Ignore zero byte data blocks in cockpit_pipe_write()\n\nIt doesn't make sense to write zero bytes to a stream, and\nthe logic in dispatch_output() isn't ready for it.\n\nReviewed-by: Marius Vollmer <marius.vollmer@redhat.com>",
    "files": [
      "src/cockpit/cockpitpipe.c",
      "src/cockpit/test-pipe.c"
    ]
  },
  {
    "date": 1399971057,
    "committer": {
      "name": "Marius Vollmer",
      "email": "mvollmer@redhat.com"
    },
    "id": "974eb954095d50259e91621ad25c0fd1da8a4d73",
    "message": "Use strings as channel identifiers instead of numbers\n\nThis is done for three reasons:\n\n * Much much more flexible going forward, since this is an integral\n   part of our protocol, it can never be changed.\n * We can allow routing multiple WebSockets to one agent, without\n   trying to coordinate the channel number space of those WebSockets.\n   This is not implemented in this patch.\n * We can implement internal channels that don't get routed to a\n   WebSocket (necessary for implementing resource loading).\n\nThis is an alternative to the signed channel number patch that was\nfloating around.\n\nCloses #546\nReviewed-by: Marius Vollmer <marius.vollmer@redhat.com>\nSigned-off-by: Marius Vollmer <marius.vollmer@redhat.com>\n* Cosmetic fixes to protocol.md",
    "files": [
      "src/agent/cockpitrestjson.c",
      "src/ws/cockpitwebservice.c",
      "src/agent/test-channel.c",
      "src/cockpit/cockpittransport.c",
      "src/agent/cockpitchannel.c",
      "src/agent/agent.c",
      "src/ws/test-webservice.c",
      "src/agent/test-textstream.c",
      "src/agent/test-dbusjson.c",
      "src/agent/test-restjson.c",
      "src/ws/test-sshtransport.c",
      "src/web/test-chan.html",
      "src/agent/cockpitchannel.h",
      "src/agent/cockpitdbusjson.h",
      "src/ws/cockpitsshtransport.c",
      "src/agent/cockpitrestjson.h",
      "src/cockpit/test-transport.c",
      "src/cockpit/cockpitpipetransport.c",
      "src/web/channel.js",
      "src/agent/cockpittextstream.c",
      "doc/protocol.md",
      "src/cockpit/cockpittransport.h",
      "src/agent/cockpittextstream.h",
      "src/agent/cockpitdbusjson.c"
    ]
  },
  {
    "date": 1399901535,
    "committer": {
      "name": "Patrick Uiterwijk",
      "email": "puiterwijk@redhat.com"
    },
    "id": "ae841d867ff4089701973462780ec149156de7f6",
    "message": "reauthorize: Fix a number of bugs caught by Coverity\n\nCloses #555\n\nReviewed-by: Patrick Uiterwijk <puiterwijk@redhat.com>",
    "files": [
      "src/reauthorize/retest.c",
      "src/reauthorize/reauthorize.c"
    ]
  },
  {
    "date": 1399633757,
    "committer": {
      "name": "Marius Vollmer",
      "email": "mvollmer@redhat.com"
    },
    "id": "5a574b8349adad18c473336f182677adb175ce9a",
    "message": "common: Add 'problem' property to CockpitPipe\n\nThis can be used to retrieve the problem that the pipe closed\nwith, or NULL. But more importantly, it can be used to construct\na CockpitPipe for a failure.\n\nSince CockpitPipe guarantees that it won't fire it's close\nsignals until the main loop, we follow that same guarantee\nhere with the \"problem\" property on construct.\n\nReviewed-by: Marius Vollmer <marius.vollmer@redhat.com>",
    "files": [
      "src/cockpit/cockpitpipe.c",
      "src/cockpit/test-pipe.c"
    ]
  },
  {
    "date": 1399620491,
    "committer": {
      "name": "Marius Vollmer",
      "email": "mvollmer@redhat.com"
    },
    "id": "d892b4d77fce442eb9bce6e5135220e948285b1f",
    "message": "ws: Fix use of Secure https only cookies\n\nWe now have various criteria on whether HTTPS is in use, not just\njust whether a certificate is present or not. So make the 'Secure'\nflag of cookies track those criteria, and just check if the\nconnection in use is a TLS connection or not.\n\nIn addition fail safe, so and don't use G_IS_TLS_CONNECTION() but\nrather the inverse, and rename things, add tests, so if things\nchange in our TLS implementation this will be caught.\n\nCloses #533\nReviewed-by: Marius Vollmer <marius.vollmer@redhat.com>",
    "files": [
      "src/ws/cockpitauth.c",
      "src/ws/test-handlers.c",
      "src/ws/cockpithandlers.c",
      "src/ws/cockpithandlers.h",
      "src/ws/main.c"
    ]
  },
  {
    "date": 1399368692,
    "committer": {
      "name": "Marius Vollmer",
      "email": "mvollmer@redhat.com"
    },
    "id": "0d9c144562f525ad047f77526060c6e534552495",
    "message": "common: Use simpler parsing in cockpit_transport_parse_command()\n\nJust parse the command directly as an object from the payload\nbytes. Fixes a bug where we freed a JSON node we shouldn't have.\n\nCloses #521\nReviewed-by: Marius Vollmer <marius.vollmer@redhat.com>",
    "files": [
      "src/cockpit/cockpittransport.c"
    ]
  },
  {
    "date": 1399055493,
    "committer": {
      "name": "Marius Vollmer",
      "email": "mvollmer@redhat.com"
    },
    "id": "60d3424be72ecb4c8f63fdc6e15260dbf0593d55",
    "message": "Use cockpit_agent_strmatch() in tests for clarity\n\nThis helps us see what the contents of the string were when\nCI tests fail due to races or similar.\n\nCloses #487\nReviewed-by: Marius Vollmer <marius.vollmer@redhat.com>",
    "files": [
      "src/agent/test-textstream.c",
      "src/cockpit/test-pipe.c"
    ]
  },
  {
    "date": 1398685581,
    "committer": {
      "name": "Patrick Uiterwijk",
      "email": "puiterwijk@redhat.com"
    },
    "id": "f3f3953476c1a55c4bcaba2132b4c465417abb95",
    "message": "daemon: Remove workarounds for lousy JSON encoding\n\njson-glib had a generator bug, and we do our own generation now.\nSo remove the hacks necessary to work around json-glib.\n\nReviewed-by: Patrick Uiterwijk <puiterwijk@redhat.com>",
    "files": [
      "src/daemon/test-cgroupmonitor.c",
      "src/daemon/cgroupmonitor.c"
    ]
  },
  {
    "date": 1398685567,
    "committer": {
      "name": "Patrick Uiterwijk",
      "email": "puiterwijk@redhat.com"
    },
    "id": "8de980a78505874f2e47fc4a73a3ca6f35c1037c",
    "message": "cockpit: Fix problems with JSON generation and parsing\n\nFix various issues with JSON generation that are present in upstream\njson-glib:\n\nhttps://bugzilla.gnome.org/show_bug.cgi?id=727593\nhttps://bugzilla.gnome.org/show_bug.cgi?id=728951\n\nIn addition clean up our JSON parsing and generation API so we don't\nhave to constantly carry around JsonGenerator and JsonParser objects.\n\nFixes #413\n\nReviewed-by: Patrick Uiterwijk <puiterwijk@redhat.com>",
    "files": [
      "src/cockpit/cockpitjson.h",
      "src/agent/cockpitrestjson.c",
      "src/ws/cockpithandlers.c",
      "src/agent/test-channel.c",
      "src/cockpit/cockpitjson.c",
      "src/cockpit/test-transport.c",
      "src/cockpit/test-json.c",
      "src/agent/cockpitchannel.c",
      "src/agent/agent.c",
      "src/ws/test-webservice.c",
      "src/agent/test-dbusjson.c",
      "src/ws/cockpitwebsocket.c",
      "src/agent/test-textstream.c",
      "src/cockpit/cockpittransport.h",
      "src/agent/test-restjson.c",
      "src/cockpit/cockpittransport.c",
      "src/agent/cockpitchannel.h",
      "src/agent/cockpitdbusjson.c"
    ]
  },
  {
    "date": 1398343674,
    "committer": {
      "name": "Stef Walter",
      "email": "stefw@redhat.com"
    },
    "id": "4e4cd028a7ef3cc17462c8a138e6e236a8f2ae28",
    "message": "ws: Deal with \"knownhosts lines\" instead of \"type plus key\".\n\nThis makes sure that we put into known_hosts exactly what libssh would\nput there itself.  The precise key type seems to be unavailable\notherwise.\n\nWe keep calling the thing a \"host key\" anyway but make clear that it\nis a opaque token.\n\nThis includes a hack around a libssh deficiency:\n\nhttps://red.libssh.org/issues/162\n\nSigned-off-by: Stef Walter <stefw@redhat.com>\n * Fixed some leaks of memory and files\n * Other minor cleanup.",
    "files": [
      "src/daemon/test-machines.c",
      "src/daemon/machines.c",
      "src/ws/test-webservice.c",
      "src/ws/cockpitsshtransport.c",
      "src/ws/test-sshtransport.c"
    ]
  },
  {
    "date": 1398341461,
    "committer": {
      "name": "Stef Walter",
      "email": "stefw@redhat.com"
    },
    "id": "f4ecd0dc9dfe3076121bda5262dcf2ddcf5498fc",
    "message": "ws: Expose host key for CockpitSshTransport\n\nThis allows us to look at the host key that the server offered,\nregardless of whether verification succeeded or failed. Via\ncockpit_ssh_transport_get_host_key() and the 'host-key' property.\n\nIn addition we want to be able to tell CockpitSshTransport to\nexplicitly expect a certain key and ignore other host verification\nvia the known-hosts file. This happens via 'host-key' construct\nproperty.\n\nSigned-off-by: Marius Vollmer <mvollmer@redhat.com>\n * No warning when host key is empty",
    "files": [
      "src/ws/cockpitsshtransport.c",
      "src/ws/test-sshtransport.c",
      "src/ws/cockpitsshtransport.h"
    ]
  },
  {
    "date": 1398341455,
    "committer": {
      "name": "Stef Walter",
      "email": "stefw@redhat.com"
    },
    "id": "2def1759f87bbbd0dac2d1261b5b0790e35fa35e",
    "message": "ws: Use CockpitSshTransport for connecting to other hosts\n\nUses libssh instead of the openssh client for connecting to other\nhosts.\n\nWe also remove some complexity from cockpit_pipe_transport_spawn()\nwhich can no longer fail immedediately, but will close if failure.\n\nNote that although the tests pass with this commit, running actual\nwebservice requires that you put known_hosts in the standard\nformat in the following file, for any hosts that you want to connect to:\n\n  /var/lib/cockpit/known_hosts\n\nThis commit removes sshpass dependency.\n\nFixes #69\n\nReviewed-by: Marius Vollmer <mvollmer@redhat.com>",
    "files": [
      "src/ws/cockpitwebsocket.c",
      "src/ws/test-server.c",
      "src/ws/cockpitsshtransport.c",
      "test/cockpit.setup",
      "test/cockpit.spec.in",
      "src/ws/test-webservice.c",
      "src/ws/test-sshtransport.c",
      "src/ws/cockpithandlers.c",
      "src/cockpit/cockpitpipetransport.c",
      "src/ws/cockpitwebsocket.h",
      ".travis.yml",
      "src/cockpit/cockpitpipetransport.h"
    ]
  },
  {
    "date": 1398341429,
    "committer": {
      "name": "Stef Walter",
      "email": "stefw@redhat.com"
    },
    "id": "f3ba4267d83d400de64a0c57d18ba182b6a67d0c",
    "message": "ws: Don't mix stderr and stdout in mock-sshd\n\nIn fact for testing purposes, just leave it connected to our normal\nstderr so we can see failures.\n\nReviewed-by: Marius Vollmer <mvollmer@redhat.com>",
    "files": [
      "src/ws/mock-sshd.c"
    ]
  },
  {
    "date": 1398341378,
    "committer": {
      "name": "Stef Walter",
      "email": "stefw@redhat.com"
    },
    "id": "e8a309cbe817bc9e6c467687fbbaee1e93ae091b",
    "message": "ws: Add --broken-auth argument to mock-sshd\n\nThis lets us start mock-sshd in a way that ssh authentication should\nalways fail. We don't have host-based auth or public key auth, so\nuse those as our way of forcing failure.\n\nReviewed-by: Marius Vollmer <mvollmer@redhat.com>",
    "files": [
      "src/ws/mock-sshd.c"
    ]
  },
  {
    "date": 1398157097,
    "committer": {
      "name": "Marius Vollmer",
      "email": "mvollmer@redhat.com"
    },
    "id": "0053acc7509165ebf42588efcb5e47ca646656ef",
    "message": "common: Add missing dirent.h header\n\nThis caused build failures on some non-Fedora systems.\n\nCloses #481\nReviewed-by: Marius Vollmer <marius.vollmer@redhat.com>",
    "files": [
      "src/cockpit/cockpitpipe.c"
    ]
  },
  {
    "date": 1398157015,
    "committer": {
      "name": "Marius Vollmer",
      "email": "mvollmer@redhat.com"
    },
    "id": "ad68ac8561fde404d224e2966e3bc09b1c8adc4c",
    "message": "cockpit: Don't close sessions that receive for unknown channels\n\nWhen a channel closes from the session side (eg: due to an error)\nthen cockpit-web can't possibly know it shouldn't send a message\nto that channel until it receives the close message.\n\nThere's a race where a channel closes just before a message that\nwas already in transit gets delivered to it.\n\nCurrently we cause a failure in the transport due to a message\nwith an unknown channel. However this is inherently racy and breaks\nthe entire application (ie: logout).\n\nWe have to just ignore messages with bad channels in this situation.\n\nNote that we still don't allow sessions to lie about which channels\nthey're sending messages from. This would be a security risk, and\nis still handled strictly (by closing the session).\n\nCloses #477\nReviewed-by: Marius Vollmer <marius.vollmer@redhat.com>",
    "files": [
      "src/cockpit/test-transport.c",
      "src/cockpit/cockpittransport.c",
      "src/ws/cockpitwebsocket.c"
    ]
  },
  {
    "date": 1397477716,
    "committer": {
      "name": "Marius Vollmer",
      "email": "mvollmer@redhat.com"
    },
    "id": "17e6c003471bcbf749b261006d1e52a409b0b726",
    "message": "common: Close failed CockpitPipe in right thread context\n\nCockpitPipe is not thread-safe, so it's close-on-fail-during-init\nidle handler needs to be called in the thread main context for\nthe thread in which it was created.\n\nReviewed-by: Marius Vollmer <marius.vollmer@redhat.com>",
    "files": [
      "src/cockpit/cockpitpipe.c"
    ]
  },
  {
    "date": 1397465124,
    "committer": {
      "name": "Marius Vollmer",
      "email": "mvollmer@redhat.com"
    },
    "id": "5c45e80a006a0417d9024191706aefb936a20aba",
    "message": "common: Make our own g_test_expect_message() work around\n\nThe g_test_expect_message() until 2.40 was pretty broken, so\nbuild our own. This way we can start to quiet down our tests.\n\nSee: http://bugzilla.gnome.org/show_bug.cgi?id=661926\nReviewed-by: Marius Vollmer <marius.vollmer@redhat.com>",
    "files": [
      "src/agent/test-textstream.c",
      "src/cockpit/test-pipe.c",
      "src/cockpit/cockpittest.c",
      "src/cockpit/test-transport.c",
      "src/cockpit/cockpittest.h",
      "src/cockpit/Makefile-libcockpit.am",
      "src/ws/test-webservice.c"
    ]
  },
  {
    "date": 1397126726,
    "committer": {
      "name": "Marius Vollmer",
      "email": "mvollmer@redhat.com"
    },
    "id": "4791ea91348c0453e6e47edf7c2953781bbc1cfa",
    "message": "common: Bug fix for using mock service more than once in a process\n\nReviewed-by: Marius Vollmer <marius.vollmer@redhat.com>",
    "files": [
      "src/cockpit/mock-service.c"
    ]
  },
  {
    "date": 1397126720,
    "committer": {
      "name": "Marius Vollmer",
      "email": "mvollmer@redhat.com"
    },
    "id": "d93407146d6e79fd9b4873648e8e536c91e3f49c",
    "message": "common: Add a path which fails introspection to mock service\n\nWe can use this for checking our introspection logic.\n\nReviewed-by: Marius Vollmer <marius.vollmer@redhat.com>",
    "files": [
      "src/cockpit/mock-service.c"
    ]
  },
  {
    "date": 1397036068,
    "committer": {
      "name": "Marius Vollmer",
      "email": "mvollmer@redhat.com"
    },
    "id": "01f2ae5f481656ab0de589150228dc6f498e5011",
    "message": "ws: Track when we sent an EOF to each agent\n\nThis prevents races while shutting down, and is a patch\nthat was accidentally not pushed in the earlier multi-agent\nwork.\n\nCloses #443",
    "files": [
      "src/ws/cockpitwebsocket.c"
    ]
  },
  {
    "date": 1396944875,
    "committer": {
      "name": "Marius Vollmer",
      "email": "mvollmer@redhat.com"
    },
    "id": "f18417bf740ac9d94d2efc4eac02eafd8c5e8802",
    "message": "daemon: Don't enumerate cgroups that contain slashes\n\nDue to a completely broken json-glib generation of JSON. See:\n\nhttp://bugzilla.gnome.org/show_bug.cgi?id=727593\n\nReviewed-by: Marius Vollmer <marius.vollmer@redhat.com>",
    "files": [
      "src/daemon/cgroupmonitor.c"
    ]
  },
  {
    "date": 1396483702,
    "committer": {
      "name": "Patrick Uiterwijk",
      "email": "puiterwijk@redhat.com"
    },
    "id": "19e697806ead205dbc23c6bebb4955be59885706",
    "message": "daemon: Disable unreliable test of CPU usage\n\nThis is hard to predict currently, and leads to sporadic failures\nwhen building in mock or elsewhere. Needs work, but lets disable\nfor now.\n\nCloses #397\n\nReviewed-by: Patrick Uiterwijk <puiterwijk@redhat.com>\n* Added todo comment",
    "files": [
      "src/daemon/test-cgroupmonitor.c"
    ]
  },
  {
    "date": 1395937660,
    "committer": {
      "name": "Patrick Uiterwijk",
      "email": "puiterwijk@redhat.com"
    },
    "id": "dfe3f2e04ac670c8a815cf8d40e7e5076747a861",
    "message": "agent: Dig out detailed docker error messages\n\nThe HTTP status of a lot of Docker failures is just \"Internal Server\nError\". It also has a textual failure in the HTTP body. We were just\ndiscarding this as it wasn't JSON.\n\nInstead we now grab text in the body of the HTTP message when we\nget a failure with a Content-Type of text/plain (or no type).\n\nReviewed-by: Patrick Uiterwijk <puiterwijk@redhat.com>",
    "files": [
      "src/agent/test-restjson.c",
      "src/agent/cockpitrestjson.c"
    ]
  },
  {
    "date": 1395752087,
    "committer": {
      "name": "Marius Vollmer",
      "email": "mvollmer@redhat.com"
    },
    "id": "c80fa6dd835c78a31c604f850aa7cd16164370b3",
    "message": "daemon: Fix bug in cgroupsmonitor re g_build_filename.\n\nSorry for not catching this earlier.",
    "files": [
      "src/daemon/cgroupmonitor.c"
    ]
  },
  {
    "date": 1395395416,
    "committer": {
      "name": "Marius Vollmer",
      "email": "mvollmer@redhat.com"
    },
    "id": "789e55772f23084b834dbb6eb9d02bf0ee1bc758",
    "message": "cockpit: Add cockpit_json_equal() which checks for equality\n\nThis function checks for logical equality between two JSON nodes.\nIf the nodes are of different types, then the equality fails, even\nif they can be converted to the same type.\n\nPart of fix #267\n\nReviewed-by: Marius Vollmer <marius.vollmer@redhat.com>",
    "files": [
      "src/cockpit/test-json.c",
      "src/cockpit/cockpitjson.h",
      "src/cockpit/cockpitjson.c"
    ]
  },
  {
    "date": 1395044984,
    "committer": {
      "name": "Marius Vollmer",
      "email": "mvollmer@redhat.com"
    },
    "id": "f3931b759646b3a43d95eed1be589d6dfece812e",
    "message": "agent: Return problems for CockpitTextStream open failures\n\nFor the cases where the socket file is not found, return \"not-found\"\nand when permission denied, return \"not-authorized\".\n\nFixes #266\nCloses #270\nReviewed-by: Marius Vollmer <marius.vollmer@redhat.com>",
    "files": [
      "src/agent/cockpittextstream.c",
      "src/agent/test-textstream.c"
    ]
  },
  {
    "date": 1394699770,
    "committer": {
      "name": "Patrick Uiterwijk",
      "email": "puiterwijk@redhat.com"
    },
    "id": "d9fd8ca606768acb74eb13988574ff84b46a5ba1",
    "message": "Makefile.am: Put agent in its own directory and cleanup\n\nSince we're going to be putting more into the agent, move\nit to its own source directory.\n\nMoved some common code into src/cockpit to be used\nby both cockpit-agent and cockpit-ws.\n\nWhile doing this, I did a bit of housekeeping in the\nmake files. This helps with code coverage by not building\nlots of stuff multiple times.\n\nSorry that there's a bit mixed together here, but due to\ntime constraints I haven't split it all out into\nseparate patches.\n\nClosed #250\n\nReviewed-by: Patrick Uiterwijk <puiterwijk@redhat.com>",
    "files": [
      "src/daemon/Makefile-daemon.am",
      "src/ws/cockpitwebsocket.c",
      "src/agent/agent.c",
      "src/agent/Makefile-agent.am",
      "src/cockpit/cockpittransport.c",
      "src/cockpit/mock-service.h",
      "src/ws/cockpitfdtransport.c",
      "src/ws/test-webservice.c",
      "src/ws/mock-service.h",
      "src/ws/mock-service.c",
      "src/ws/agent.c",
      "src/ws/dbus-server.h",
      "src/ws/session.c",
      "src/ws/dbus-server.c",
      "src/ws/test-dbusserver.c",
      "src/cockpit/Makefile-libcockpit.am",
      "src/ws/cockpitfdtransport.h",
      "src/agent/dbus-server.c",
      "src/ws/test-server.c",
      "src/agent/dbus-server.h",
      "src/ws/cockpittransport.c",
      "src/cockpit/cockpitfdtransport.c",
      "src/ws/Makefile-ws.am",
      "src/cockpit/test-transport.c",
      "src/ws/cockpitws.h",
      "src/cockpit/mock-service.c",
      "src/cockpit/com.redhat.Cockpit.DBusTests.xml",
      "src/agent/test-dbusserver.c",
      "src/ws/cockpittransport.h",
      "Makefile.am",
      "src/agent/session.c",
      "src/ws/test-transport.c",
      "src/cockpit/cockpittransport.h",
      "src/cockpit/cockpitfdtransport.h",
      "src/ws/com.redhat.Cockpit.DBusTests.xml"
    ]
  },
  {
    "date": 1394106422,
    "committer": {
      "name": "Marius Vollmer",
      "email": "mvollmer@redhat.com"
    },
    "id": "85a36679919ff6a4f0eb9c8e2d6b710770e1c27e",
    "message": "ws: Use 401 as the 'Authentication Failed' HTTP status\n\n401 is the HTTP not-authorized status. 403 is forbidden, which is\nsomething very different, although we should handle that correctly\nat some point as well.\n\nReviewed-by: Marius Vollmer <marius.vollmer@redhat.com>",
    "files": [
      "test/testlib.py",
      "src/ws/test-handlers.c",
      "test/check-login",
      "src/ws/cockpitwebserver.c"
    ]
  },
  {
    "date": 1394105592,
    "committer": {
      "name": "Marius Vollmer",
      "email": "mvollmer@redhat.com"
    },
    "id": "fdb32a40ebf8b5b2f728be4f78588bf80dfd93e4",
    "message": "ws: Make test-server fail on warnings and criticals\n\nThe other tests all abort on warnings and criticals (except for\ncases where these are expected). Make test-server behave similarly.\n\nReviewed-by: Marius Vollmer <marius.vollmer@redhat.com>",
    "files": [
      "src/ws/test-server.c"
    ]
  },
  {
    "date": 1393941022,
    "committer": {
      "name": "Marius Vollmer",
      "email": "mvollmer@redhat.com"
    },
    "id": "8fff18fe01de7971663789c772fe27359b1993a2",
    "message": "ws: Drain the GMainContext when stopping the MockService\n\nOtherwise references are held by outstanding sounces in the\nGMainContext. If a GDBusConnection is leaked then g_test_dbus_down()\nwill hang for 30 seconds and fail waiting for it to go away.\n\nReviewed-by: Marius Vollmer <marius.vollmer@redhat.com>",
    "files": [
      "src/ws/mock-service.c"
    ]
  },
  {
    "date": 1392713069,
    "committer": {
      "name": "Stef Walter",
      "email": "stefw@redhat.com"
    },
    "id": "fde69180b7657bad255870cf9606d0d8c0d4e1e1",
    "message": "ws: Fix work around json-glib bug #724319\n\nDavid had a work around here ... rediscovered the issue,\nfiled the bug, patched json-glib, and fixed the broken workaround.\n\nNeeded to clear the error properly.\n\nFixes #202\n\neviewed-by: Patrick Uiterwijk <puiterwijk@redhat.com>",
    "files": [
      "src/ws/dbus-server.c"
    ]
  },
  {
    "date": 1391419758,
    "committer": {
      "name": "Stef Walter",
      "email": "stefw@redhat.com"
    },
    "id": "68d3c1e955c60daf52a74dc9e05dbc6de18cef8c",
    "message": "Storage: Use storaged instead of patched UDisks2.\n\nCloses: #190\n\nSigned-off-by: Stef Walter <stefw@redhat.com>",
    "files": [
      "src/daemon/Makefile-daemon.am",
      "test/cockpit.spec.in",
      "src/daemon/storagevolumegroup.c",
      "src/daemon/storageobject.h",
      "data/com.redhat.Cockpit.xml",
      "src/daemon/lvmutil.c",
      "src/daemon/lvmutil.h",
      "src/daemon/storagelogicalvolume.c",
      "src/daemon/storagemanager.h",
      "src/daemon/storageblock.c",
      "src/daemon/storagemanager.c",
      "src/daemon/types.h",
      "configure.ac",
      "Makefile.am",
      "src/web/cockpit-storage.js",
      "src/daemon/storageprovider.c",
      "src/daemon/storageobject.c",
      "src/daemon/storageprovider.h",
      ".gitignore"
    ]
  },
  {
    "date": 1386754501,
    "committer": {
      "name": "Marius Vollmer",
      "email": "mvollmer@redhat.com"
    },
    "id": "58867af431b5a9eae37e41dd19d7ee9771c6048e",
    "message": "Sessions: Work around logind bug re KillUser.\n\nSee https://bugs.freedesktop.org/show_bug.cgi?id=71092",
    "files": [
      "test/check-session",
      "test/testlib.py",
      "src/daemon/account.c",
      "test/check-multi-machine"
    ]
  },
  {
    "date": 1386667364,
    "committer": {
      "name": "Stef Walter",
      "email": "stefw@redhat.com"
    },
    "id": "1c42235ea16ae218bc8cfccb0980ff4e5ab6aa65",
    "message": "cockpitwebsocket: Refcount it\n\nPreparatory patch for doing async I/O, where outstanding operations\nwill need to hold a ref on the data.\n\nSigned-off-by: Stef Walter <stefw@redhat.com>",
    "files": [
      "src/ws/cockpitwebsocket.c"
    ]
  },
  {
    "date": 1386169505,
    "committer": {
      "name": "Stef Walter",
      "email": "stefw@redhat.com"
    },
    "id": "350528c82f32648088451c2bb9d04a5f61784acf",
    "message": "cockpithandlers: Be defensive if PrettyHostname is not set\n\nThe JS code will crash if the variables aren't defined; let's emit the\nempty string in this case.\n\nThe real bug was that I had SELinux enforcing but with no policy for\nCockpit, so cockpitd couldn't talk to systemd-hostnamed.  But let's\nstill submit this defensive patch.\n\nCloses #149\n\nSigned-off-by: Stef Walter <stefw@redhat.com>",
    "files": [
      "src/ws/cockpithandlers.c"
    ]
  },
  {
    "date": 1386163775,
    "committer": {
      "name": "Marius Vollmer",
      "email": "mvollmer@redhat.com"
    },
    "id": "c9e2268cb564ccc15dad432aee694152f591c416",
    "message": "daemon: Use stock accountsservice without patches\n\nThis is part of an effort to be buildable using standard dependencies.\nSince no git or released version of accountsservice has groups support\nat this time, don't depend on patches.\n\nReimplement the groups stuff in cockpitd.",
    "files": [
      "src/daemon/account.c",
      "configure.ac",
      "src/daemon/accounts.c"
    ]
  },
  {
    "date": 1384505082,
    "committer": {
      "name": "Stef Walter",
      "email": "stefw@redhat.com"
    },
    "id": "cb3ddc7d2eea8570f65d8c0bfabf26d7fa8105a1",
    "message": "Websocket: Only send when the socket is open.\n\nSending used to be allowed in state CLOSING, which could result in an\nassertion failure during finalize.\n\nFixes #102.\n\nSigned-off-by: Stef Walter <stefw@redhat.com>",
    "files": [
      "src/ws/cockpitwebsocket.c",
      "src/websocket/websocketconnection.c"
    ]
  },
  {
    "date": 1384460659,
    "committer": {
      "name": "Marius Vollmer",
      "email": "mvollmer@redhat.com"
    },
    "id": "27683b4c93cc276c7651e094ccb9515171ab5fdc",
    "message": "Logging: Give LOG_ERR priority to assertion failure messages.\n\nBy explicitly redirecting g_printerr to the journal.",
    "files": [
      "src/daemon/main.c",
      "src/ws/main.c",
      "src/cockpit/cockpitlog.h",
      "src/cockpit/cockpitlog.c"
    ]
  }
]