{
  "matches": [
    {
      "src": 25,
      "dest": 25
    },
    {
      "src": 0,
      "dest": 0
    },
    {
      "src": 99,
      "dest": 94
    },
    {
      "src": 62,
      "dest": 62
    },
    {
      "src": 117,
      "dest": 111
    },
    {
      "src": 115,
      "dest": 109
    },
    {
      "src": 123,
      "dest": 117
    },
    {
      "src": 22,
      "dest": 22
    },
    {
      "src": 33,
      "dest": 33
    },
    {
      "src": 114,
      "dest": 108
    },
    {
      "src": 28,
      "dest": 28
    },
    {
      "src": 64,
      "dest": 64
    },
    {
      "src": 83,
      "dest": 83
    },
    {
      "src": 91,
      "dest": 91
    },
    {
      "src": 89,
      "dest": 89
    },
    {
      "src": 137,
      "dest": 131
    },
    {
      "src": 55,
      "dest": 55
    },
    {
      "src": 51,
      "dest": 51
    },
    {
      "src": 130,
      "dest": 124
    },
    {
      "src": 106,
      "dest": 100
    },
    {
      "src": 86,
      "dest": 86
    },
    {
      "src": 122,
      "dest": 116
    },
    {
      "src": 98,
      "dest": 93
    },
    {
      "src": 41,
      "dest": 41
    },
    {
      "src": 63,
      "dest": 63
    },
    {
      "src": 110,
      "dest": 104
    },
    {
      "src": 13,
      "dest": 13
    },
    {
      "src": 42,
      "dest": 42
    },
    {
      "src": 26,
      "dest": 26
    },
    {
      "src": 6,
      "dest": 6
    },
    {
      "src": 111,
      "dest": 105
    },
    {
      "src": 135,
      "dest": 129
    },
    {
      "src": 15,
      "dest": 15
    },
    {
      "src": 80,
      "dest": 80
    },
    {
      "src": 11,
      "dest": 11
    },
    {
      "src": 121,
      "dest": 115
    },
    {
      "src": 1,
      "dest": 1
    },
    {
      "src": 127,
      "dest": 121
    },
    {
      "src": 24,
      "dest": 24
    },
    {
      "src": 49,
      "dest": 49
    },
    {
      "src": 81,
      "dest": 81
    },
    {
      "src": 5,
      "dest": 5
    },
    {
      "src": 2,
      "dest": 2
    },
    {
      "src": 40,
      "dest": 40
    },
    {
      "src": 44,
      "dest": 44
    },
    {
      "src": 71,
      "dest": 71
    },
    {
      "src": 97,
      "dest": 92
    },
    {
      "src": 107,
      "dest": 101
    },
    {
      "src": 76,
      "dest": 76
    },
    {
      "src": 118,
      "dest": 112
    },
    {
      "src": 90,
      "dest": 90
    },
    {
      "src": 59,
      "dest": 59
    },
    {
      "src": 124,
      "dest": 118
    },
    {
      "src": 82,
      "dest": 82
    },
    {
      "src": 77,
      "dest": 77
    },
    {
      "src": 126,
      "dest": 120
    },
    {
      "src": 27,
      "dest": 27
    },
    {
      "src": 19,
      "dest": 19
    },
    {
      "src": 54,
      "dest": 54
    },
    {
      "src": 88,
      "dest": 88
    },
    {
      "src": 21,
      "dest": 21
    },
    {
      "src": 66,
      "dest": 66
    },
    {
      "src": 45,
      "dest": 45
    },
    {
      "src": 131,
      "dest": 125
    },
    {
      "src": 52,
      "dest": 52
    },
    {
      "src": 133,
      "dest": 127
    },
    {
      "src": 29,
      "dest": 29
    },
    {
      "src": 113,
      "dest": 107
    },
    {
      "src": 69,
      "dest": 69
    },
    {
      "src": 108,
      "dest": 102
    },
    {
      "src": 74,
      "dest": 74
    },
    {
      "src": 68,
      "dest": 68
    },
    {
      "src": 14,
      "dest": 14
    },
    {
      "src": 39,
      "dest": 39
    },
    {
      "src": 10,
      "dest": 10
    },
    {
      "src": 102,
      "dest": 97
    },
    {
      "src": 37,
      "dest": 37
    },
    {
      "src": 112,
      "dest": 106
    },
    {
      "src": 61,
      "dest": 61
    },
    {
      "src": 9,
      "dest": 9
    },
    {
      "src": 132,
      "dest": 126
    },
    {
      "src": 31,
      "dest": 31
    },
    {
      "src": 100,
      "dest": 95
    },
    {
      "src": 47,
      "dest": 47
    },
    {
      "src": 4,
      "dest": 4
    },
    {
      "src": 18,
      "dest": 18
    },
    {
      "src": 43,
      "dest": 43
    },
    {
      "src": 85,
      "dest": 85
    },
    {
      "src": 139,
      "dest": 133
    },
    {
      "src": 46,
      "dest": 46
    },
    {
      "src": 128,
      "dest": 122
    },
    {
      "src": 36,
      "dest": 36
    },
    {
      "src": 84,
      "dest": 84
    },
    {
      "src": 125,
      "dest": 119
    },
    {
      "src": 101,
      "dest": 96
    },
    {
      "src": 20,
      "dest": 20
    },
    {
      "src": 138,
      "dest": 132
    },
    {
      "src": 109,
      "dest": 103
    },
    {
      "src": 16,
      "dest": 16
    },
    {
      "src": 35,
      "dest": 35
    },
    {
      "src": 75,
      "dest": 75
    },
    {
      "src": 30,
      "dest": 30
    },
    {
      "src": 116,
      "dest": 110
    },
    {
      "src": 67,
      "dest": 67
    },
    {
      "src": 129,
      "dest": 123
    },
    {
      "src": 141,
      "dest": 254
    },
    {
      "src": 23,
      "dest": 23
    },
    {
      "src": 72,
      "dest": 72
    },
    {
      "src": 65,
      "dest": 65
    },
    {
      "src": 3,
      "dest": 3
    },
    {
      "src": 136,
      "dest": 130
    },
    {
      "src": 58,
      "dest": 58
    },
    {
      "src": 50,
      "dest": 50
    },
    {
      "src": 60,
      "dest": 60
    },
    {
      "src": 34,
      "dest": 34
    },
    {
      "src": 7,
      "dest": 7
    },
    {
      "src": 57,
      "dest": 57
    },
    {
      "src": 119,
      "dest": 113
    },
    {
      "src": 32,
      "dest": 32
    },
    {
      "src": 79,
      "dest": 79
    },
    {
      "src": 17,
      "dest": 17
    },
    {
      "src": 48,
      "dest": 48
    },
    {
      "src": 56,
      "dest": 56
    },
    {
      "src": 87,
      "dest": 87
    },
    {
      "src": 120,
      "dest": 114
    },
    {
      "src": 70,
      "dest": 70
    },
    {
      "src": 73,
      "dest": 73
    },
    {
      "src": 103,
      "dest": 98
    },
    {
      "src": 38,
      "dest": 38
    },
    {
      "src": 53,
      "dest": 53
    },
    {
      "src": 78,
      "dest": 78
    },
    {
      "src": 140,
      "dest": 253
    },
    {
      "src": 8,
      "dest": 8
    },
    {
      "src": 104,
      "dest": 99
    },
    {
      "src": 134,
      "dest": 128
    },
    {
      "src": 12,
      "dest": 12
    }
  ],
  "actions": [
    {
      "action": "insert",
      "tree": 252,
      "parent": 254,
      "at": 5
    },
    {
      "action": "insert",
      "tree": 251,
      "parent": 252,
      "at": 0
    },
    {
      "action": "insert",
      "tree": 136,
      "parent": 251,
      "at": 0
    },
    {
      "action": "insert",
      "tree": 137,
      "parent": 251,
      "at": 1
    },
    {
      "action": "insert",
      "tree": 250,
      "parent": 251,
      "at": 2
    },
    {
      "action": "insert",
      "tree": 135,
      "parent": 136,
      "at": 0
    },
    {
      "action": "insert",
      "tree": 139,
      "parent": 250,
      "at": 0
    },
    {
      "action": "insert",
      "tree": 141,
      "parent": 250,
      "at": 1
    },
    {
      "action": "insert",
      "tree": 143,
      "parent": 250,
      "at": 2
    },
    {
      "action": "insert",
      "tree": 153,
      "parent": 250,
      "at": 3
    },
    {
      "action": "insert",
      "tree": 165,
      "parent": 250,
      "at": 4
    },
    {
      "action": "insert",
      "tree": 191,
      "parent": 250,
      "at": 5
    },
    {
      "action": "insert",
      "tree": 216,
      "parent": 250,
      "at": 6
    },
    {
      "action": "insert",
      "tree": 247,
      "parent": 250,
      "at": 7
    },
    {
      "action": "insert",
      "tree": 249,
      "parent": 250,
      "at": 8
    },
    {
      "action": "move",
      "tree": 104,
      "parent": 126,
      "at": 1
    },
    {
      "action": "insert",
      "tree": 134,
      "parent": 135,
      "at": 0
    },
    {
      "action": "insert",
      "tree": 138,
      "parent": 139,
      "at": 0
    },
    {
      "action": "insert",
      "tree": 140,
      "parent": 141,
      "at": 0
    },
    {
      "action": "insert",
      "tree": 142,
      "parent": 143,
      "at": 0
    },
    {
      "action": "insert",
      "tree": 144,
      "parent": 153,
      "at": 0
    },
    {
      "action": "insert",
      "tree": 150,
      "parent": 153,
      "at": 1
    },
    {
      "action": "insert",
      "tree": 152,
      "parent": 153,
      "at": 2
    },
    {
      "action": "insert",
      "tree": 164,
      "parent": 165,
      "at": 0
    },
    {
      "action": "insert",
      "tree": 190,
      "parent": 191,
      "at": 0
    },
    {
      "action": "insert",
      "tree": 192,
      "parent": 216,
      "at": 0
    },
    {
      "action": "insert",
      "tree": 196,
      "parent": 216,
      "at": 1
    },
    {
      "action": "insert",
      "tree": 215,
      "parent": 216,
      "at": 2
    },
    {
      "action": "insert",
      "tree": 217,
      "parent": 247,
      "at": 0
    },
    {
      "action": "insert",
      "tree": 227,
      "parent": 247,
      "at": 1
    },
    {
      "action": "insert",
      "tree": 246,
      "parent": 247,
      "at": 2
    },
    {
      "action": "insert",
      "tree": 248,
      "parent": 249,
      "at": 0
    },
    {
      "action": "insert",
      "tree": 148,
      "parent": 150,
      "at": 0
    },
    {
      "action": "insert",
      "tree": 149,
      "parent": 150,
      "at": 1
    },
    {
      "action": "insert",
      "tree": 151,
      "parent": 152,
      "at": 0
    },
    {
      "action": "insert",
      "tree": 162,
      "parent": 164,
      "at": 0
    },
    {
      "action": "insert",
      "tree": 163,
      "parent": 164,
      "at": 1
    },
    {
      "action": "insert",
      "tree": 188,
      "parent": 190,
      "at": 0
    },
    {
      "action": "insert",
      "tree": 189,
      "parent": 190,
      "at": 1
    },
    {
      "action": "insert",
      "tree": 194,
      "parent": 196,
      "at": 0
    },
    {
      "action": "insert",
      "tree": 195,
      "parent": 196,
      "at": 1
    },
    {
      "action": "insert",
      "tree": 214,
      "parent": 215,
      "at": 0
    },
    {
      "action": "insert",
      "tree": 219,
      "parent": 227,
      "at": 0
    },
    {
      "action": "insert",
      "tree": 226,
      "parent": 227,
      "at": 1
    },
    {
      "action": "insert",
      "tree": 245,
      "parent": 246,
      "at": 0
    },
    {
      "action": "insert",
      "tree": 146,
      "parent": 148,
      "at": 0
    },
    {
      "action": "insert",
      "tree": 147,
      "parent": 148,
      "at": 1
    },
    {
      "action": "insert",
      "tree": 159,
      "parent": 162,
      "at": 0
    },
    {
      "action": "insert",
      "tree": 160,
      "parent": 162,
      "at": 1
    },
    {
      "action": "insert",
      "tree": 161,
      "parent": 162,
      "at": 2
    },
    {
      "action": "insert",
      "tree": 167,
      "parent": 188,
      "at": 0
    },
    {
      "action": "insert",
      "tree": 168,
      "parent": 188,
      "at": 1
    },
    {
      "action": "insert",
      "tree": 187,
      "parent": 188,
      "at": 2
    },
    {
      "action": "insert",
      "tree": 193,
      "parent": 194,
      "at": 0
    },
    {
      "action": "insert",
      "tree": 198,
      "parent": 214,
      "at": 0
    },
    {
      "action": "insert",
      "tree": 213,
      "parent": 214,
      "at": 1
    },
    {
      "action": "insert",
      "tree": 218,
      "parent": 219,
      "at": 0
    },
    {
      "action": "insert",
      "tree": 222,
      "parent": 226,
      "at": 0
    },
    {
      "action": "insert",
      "tree": 225,
      "parent": 226,
      "at": 1
    },
    {
      "action": "insert",
      "tree": 229,
      "parent": 245,
      "at": 0
    },
    {
      "action": "insert",
      "tree": 244,
      "parent": 245,
      "at": 1
    },
    {
      "action": "insert",
      "tree": 145,
      "parent": 146,
      "at": 0
    },
    {
      "action": "insert",
      "tree": 157,
      "parent": 159,
      "at": 0
    },
    {
      "action": "insert",
      "tree": 158,
      "parent": 159,
      "at": 1
    },
    {
      "action": "insert",
      "tree": 166,
      "parent": 167,
      "at": 0
    },
    {
      "action": "insert",
      "tree": 170,
      "parent": 187,
      "at": 0
    },
    {
      "action": "insert",
      "tree": 186,
      "parent": 187,
      "at": 1
    },
    {
      "action": "insert",
      "tree": 197,
      "parent": 198,
      "at": 0
    },
    {
      "action": "insert",
      "tree": 200,
      "parent": 213,
      "at": 0
    },
    {
      "action": "insert",
      "tree": 212,
      "parent": 213,
      "at": 1
    },
    {
      "action": "insert",
      "tree": 221,
      "parent": 222,
      "at": 0
    },
    {
      "action": "insert",
      "tree": 224,
      "parent": 225,
      "at": 0
    },
    {
      "action": "insert",
      "tree": 228,
      "parent": 229,
      "at": 0
    },
    {
      "action": "insert",
      "tree": 231,
      "parent": 244,
      "at": 0
    },
    {
      "action": "insert",
      "tree": 243,
      "parent": 244,
      "at": 1
    },
    {
      "action": "insert",
      "tree": 155,
      "parent": 157,
      "at": 0
    },
    {
      "action": "insert",
      "tree": 156,
      "parent": 157,
      "at": 1
    },
    {
      "action": "insert",
      "tree": 169,
      "parent": 170,
      "at": 0
    },
    {
      "action": "insert",
      "tree": 177,
      "parent": 186,
      "at": 0
    },
    {
      "action": "insert",
      "tree": 180,
      "parent": 186,
      "at": 1
    },
    {
      "action": "insert",
      "tree": 185,
      "parent": 186,
      "at": 2
    },
    {
      "action": "insert",
      "tree": 199,
      "parent": 200,
      "at": 0
    },
    {
      "action": "insert",
      "tree": 211,
      "parent": 212,
      "at": 0
    },
    {
      "action": "insert",
      "tree": 220,
      "parent": 221,
      "at": 0
    },
    {
      "action": "insert",
      "tree": 223,
      "parent": 224,
      "at": 0
    },
    {
      "action": "insert",
      "tree": 230,
      "parent": 231,
      "at": 0
    },
    {
      "action": "insert",
      "tree": 242,
      "parent": 243,
      "at": 0
    },
    {
      "action": "insert",
      "tree": 154,
      "parent": 155,
      "at": 0
    },
    {
      "action": "insert",
      "tree": 176,
      "parent": 177,
      "at": 0
    },
    {
      "action": "insert",
      "tree": 179,
      "parent": 180,
      "at": 0
    },
    {
      "action": "insert",
      "tree": 184,
      "parent": 185,
      "at": 0
    },
    {
      "action": "insert",
      "tree": 202,
      "parent": 211,
      "at": 0
    },
    {
      "action": "insert",
      "tree": 210,
      "parent": 211,
      "at": 1
    },
    {
      "action": "insert",
      "tree": 233,
      "parent": 242,
      "at": 0
    },
    {
      "action": "insert",
      "tree": 241,
      "parent": 242,
      "at": 1
    },
    {
      "action": "insert",
      "tree": 174,
      "parent": 176,
      "at": 0
    },
    {
      "action": "insert",
      "tree": 175,
      "parent": 176,
      "at": 1
    },
    {
      "action": "insert",
      "tree": 178,
      "parent": 179,
      "at": 0
    },
    {
      "action": "insert",
      "tree": 182,
      "parent": 184,
      "at": 0
    },
    {
      "action": "insert",
      "tree": 183,
      "parent": 184,
      "at": 1
    },
    {
      "action": "insert",
      "tree": 201,
      "parent": 202,
      "at": 0
    },
    {
      "action": "insert",
      "tree": 209,
      "parent": 210,
      "at": 0
    },
    {
      "action": "insert",
      "tree": 232,
      "parent": 233,
      "at": 0
    },
    {
      "action": "insert",
      "tree": 240,
      "parent": 241,
      "at": 0
    },
    {
      "action": "insert",
      "tree": 172,
      "parent": 174,
      "at": 0
    },
    {
      "action": "insert",
      "tree": 173,
      "parent": 174,
      "at": 1
    },
    {
      "action": "insert",
      "tree": 181,
      "parent": 182,
      "at": 0
    },
    {
      "action": "insert",
      "tree": 208,
      "parent": 209,
      "at": 0
    },
    {
      "action": "insert",
      "tree": 239,
      "parent": 240,
      "at": 0
    },
    {
      "action": "insert",
      "tree": 171,
      "parent": 172,
      "at": 0
    },
    {
      "action": "insert",
      "tree": 206,
      "parent": 208,
      "at": 0
    },
    {
      "action": "insert",
      "tree": 207,
      "parent": 208,
      "at": 1
    },
    {
      "action": "insert",
      "tree": 237,
      "parent": 239,
      "at": 0
    },
    {
      "action": "insert",
      "tree": 238,
      "parent": 239,
      "at": 1
    },
    {
      "action": "insert",
      "tree": 204,
      "parent": 206,
      "at": 0
    },
    {
      "action": "insert",
      "tree": 205,
      "parent": 206,
      "at": 1
    },
    {
      "action": "insert",
      "tree": 235,
      "parent": 237,
      "at": 0
    },
    {
      "action": "insert",
      "tree": 236,
      "parent": 237,
      "at": 1
    },
    {
      "action": "insert",
      "tree": 203,
      "parent": 204,
      "at": 0
    },
    {
      "action": "insert",
      "tree": 234,
      "parent": 235,
      "at": 0
    },
    {
      "action": "delete",
      "tree": 92
    },
    {
      "action": "delete",
      "tree": 93
    },
    {
      "action": "delete",
      "tree": 94
    },
    {
      "action": "delete",
      "tree": 95
    },
    {
      "action": "delete",
      "tree": 96
    },
    {
      "action": "delete",
      "tree": 105
    }
  ]
}