{
  "matches": [
    {
      "src": 10,
      "dest": 56
    },
    {
      "src": 7,
      "dest": 53
    },
    {
      "src": 6,
      "dest": 52
    },
    {
      "src": 1,
      "dest": 1
    },
    {
      "src": 0,
      "dest": 0
    },
    {
      "src": 4,
      "dest": 24
    },
    {
      "src": 9,
      "dest": 55
    },
    {
      "src": 5,
      "dest": 25
    },
    {
      "src": 3,
      "dest": 23
    },
    {
      "src": 2,
      "dest": 2
    },
    {
      "src": 8,
      "dest": 54
    }
  ],
  "actions": [
    {
      "action": "insert",
      "tree": 7,
      "parent": 56,
      "at": 1
    },
    {
      "action": "insert",
      "tree": 12,
      "parent": 56,
      "at": 2
    },
    {
      "action": "insert",
      "tree": 17,
      "parent": 56,
      "at": 3
    },
    {
      "action": "insert",
      "tree": 22,
      "parent": 56,
      "at": 4
    },
    {
      "action": "insert",
      "tree": 6,
      "parent": 7,
      "at": 0
    },
    {
      "action": "insert",
      "tree": 11,
      "parent": 12,
      "at": 0
    },
    {
      "action": "insert",
      "tree": 16,
      "parent": 17,
      "at": 0
    },
    {
      "action": "insert",
      "tree": 21,
      "parent": 22,
      "at": 0
    },
    {
      "action": "insert",
      "tree": 4,
      "parent": 6,
      "at": 0
    },
    {
      "action": "insert",
      "tree": 5,
      "parent": 6,
      "at": 1
    },
    {
      "action": "insert",
      "tree": 9,
      "parent": 11,
      "at": 0
    },
    {
      "action": "insert",
      "tree": 10,
      "parent": 11,
      "at": 1
    },
    {
      "action": "insert",
      "tree": 14,
      "parent": 16,
      "at": 0
    },
    {
      "action": "insert",
      "tree": 15,
      "parent": 16,
      "at": 1
    },
    {
      "action": "insert",
      "tree": 19,
      "parent": 21,
      "at": 0
    },
    {
      "action": "insert",
      "tree": 20,
      "parent": 21,
      "at": 1
    },
    {
      "action": "insert",
      "tree": 3,
      "parent": 4,
      "at": 0
    },
    {
      "action": "insert",
      "tree": 8,
      "parent": 9,
      "at": 0
    },
    {
      "action": "insert",
      "tree": 13,
      "parent": 14,
      "at": 0
    },
    {
      "action": "insert",
      "tree": 18,
      "parent": 19,
      "at": 0
    },
    {
      "action": "insert",
      "tree": 38,
      "parent": 52,
      "at": 0
    },
    {
      "action": "insert",
      "tree": 51,
      "parent": 52,
      "at": 1
    },
    {
      "action": "insert",
      "tree": 37,
      "parent": 38,
      "at": 0
    },
    {
      "action": "insert",
      "tree": 50,
      "parent": 51,
      "at": 0
    },
    {
      "action": "insert",
      "tree": 35,
      "parent": 37,
      "at": 0
    },
    {
      "action": "insert",
      "tree": 36,
      "parent": 37,
      "at": 1
    },
    {
      "action": "insert",
      "tree": 48,
      "parent": 50,
      "at": 0
    },
    {
      "action": "insert",
      "tree": 49,
      "parent": 50,
      "at": 1
    },
    {
      "action": "insert",
      "tree": 27,
      "parent": 35,
      "at": 0
    },
    {
      "action": "insert",
      "tree": 34,
      "parent": 35,
      "at": 1
    },
    {
      "action": "insert",
      "tree": 40,
      "parent": 48,
      "at": 0
    },
    {
      "action": "insert",
      "tree": 47,
      "parent": 48,
      "at": 1
    },
    {
      "action": "insert",
      "tree": 26,
      "parent": 27,
      "at": 0
    },
    {
      "action": "insert",
      "tree": 30,
      "parent": 34,
      "at": 0
    },
    {
      "action": "insert",
      "tree": 33,
      "parent": 34,
      "at": 1
    },
    {
      "action": "insert",
      "tree": 39,
      "parent": 40,
      "at": 0
    },
    {
      "action": "insert",
      "tree": 43,
      "parent": 47,
      "at": 0
    },
    {
      "action": "insert",
      "tree": 46,
      "parent": 47,
      "at": 1
    },
    {
      "action": "insert",
      "tree": 29,
      "parent": 30,
      "at": 0
    },
    {
      "action": "insert",
      "tree": 32,
      "parent": 33,
      "at": 0
    },
    {
      "action": "insert",
      "tree": 42,
      "parent": 43,
      "at": 0
    },
    {
      "action": "insert",
      "tree": 45,
      "parent": 46,
      "at": 0
    },
    {
      "action": "insert",
      "tree": 28,
      "parent": 29,
      "at": 0
    },
    {
      "action": "insert",
      "tree": 31,
      "parent": 32,
      "at": 0
    },
    {
      "action": "insert",
      "tree": 41,
      "parent": 42,
      "at": 0
    },
    {
      "action": "insert",
      "tree": 44,
      "parent": 45,
      "at": 0
    }
  ]
}