{
  "matches": [
    {
      "src": 117,
      "dest": 129
    },
    {
      "src": 108,
      "dest": 120
    },
    {
      "src": 3,
      "dest": 3
    },
    {
      "src": 84,
      "dest": 96
    },
    {
      "src": 85,
      "dest": 97
    },
    {
      "src": 78,
      "dest": 90
    },
    {
      "src": 101,
      "dest": 113
    },
    {
      "src": 34,
      "dest": 33
    },
    {
      "src": 94,
      "dest": 106
    },
    {
      "src": 10,
      "dest": 10
    },
    {
      "src": 4,
      "dest": 4
    },
    {
      "src": 49,
      "dest": 48
    },
    {
      "src": 46,
      "dest": 45
    },
    {
      "src": 43,
      "dest": 42
    },
    {
      "src": 96,
      "dest": 108
    },
    {
      "src": 75,
      "dest": 87
    },
    {
      "src": 93,
      "dest": 105
    },
    {
      "src": 111,
      "dest": 123
    },
    {
      "src": 35,
      "dest": 34
    },
    {
      "src": 83,
      "dest": 95
    },
    {
      "src": 69,
      "dest": 81
    },
    {
      "src": 41,
      "dest": 40
    },
    {
      "src": 99,
      "dest": 111
    },
    {
      "src": 114,
      "dest": 126
    },
    {
      "src": 15,
      "dest": 15
    },
    {
      "src": 81,
      "dest": 93
    },
    {
      "src": 77,
      "dest": 89
    },
    {
      "src": 115,
      "dest": 127
    },
    {
      "src": 92,
      "dest": 104
    },
    {
      "src": 20,
      "dest": 20
    },
    {
      "src": 27,
      "dest": 61
    },
    {
      "src": 70,
      "dest": 82
    },
    {
      "src": 104,
      "dest": 116
    },
    {
      "src": 55,
      "dest": 67
    },
    {
      "src": 19,
      "dest": 19
    },
    {
      "src": 122,
      "dest": 134
    },
    {
      "src": 8,
      "dest": 8
    },
    {
      "src": 5,
      "dest": 5
    },
    {
      "src": 48,
      "dest": 47
    },
    {
      "src": 6,
      "dest": 6
    },
    {
      "src": 58,
      "dest": 70
    },
    {
      "src": 109,
      "dest": 121
    },
    {
      "src": 76,
      "dest": 88
    },
    {
      "src": 89,
      "dest": 101
    },
    {
      "src": 52,
      "dest": 51
    },
    {
      "src": 61,
      "dest": 73
    },
    {
      "src": 74,
      "dest": 86
    },
    {
      "src": 72,
      "dest": 84
    },
    {
      "src": 121,
      "dest": 133
    },
    {
      "src": 106,
      "dest": 118
    },
    {
      "src": 45,
      "dest": 44
    },
    {
      "src": 103,
      "dest": 115
    },
    {
      "src": 68,
      "dest": 80
    },
    {
      "src": 7,
      "dest": 7
    },
    {
      "src": 98,
      "dest": 110
    },
    {
      "src": 44,
      "dest": 43
    },
    {
      "src": 71,
      "dest": 83
    },
    {
      "src": 0,
      "dest": 0
    },
    {
      "src": 87,
      "dest": 99
    },
    {
      "src": 66,
      "dest": 78
    },
    {
      "src": 23,
      "dest": 53
    },
    {
      "src": 95,
      "dest": 107
    },
    {
      "src": 60,
      "dest": 72
    },
    {
      "src": 119,
      "dest": 131
    },
    {
      "src": 38,
      "dest": 37
    },
    {
      "src": 116,
      "dest": 128
    },
    {
      "src": 39,
      "dest": 38
    },
    {
      "src": 86,
      "dest": 98
    },
    {
      "src": 51,
      "dest": 50
    },
    {
      "src": 113,
      "dest": 125
    },
    {
      "src": 67,
      "dest": 79
    },
    {
      "src": 100,
      "dest": 112
    },
    {
      "src": 124,
      "dest": 136
    },
    {
      "src": 42,
      "dest": 41
    },
    {
      "src": 50,
      "dest": 49
    },
    {
      "src": 118,
      "dest": 130
    },
    {
      "src": 47,
      "dest": 46
    },
    {
      "src": 90,
      "dest": 102
    },
    {
      "src": 110,
      "dest": 122
    },
    {
      "src": 107,
      "dest": 119
    },
    {
      "src": 97,
      "dest": 109
    },
    {
      "src": 79,
      "dest": 91
    },
    {
      "src": 37,
      "dest": 36
    },
    {
      "src": 18,
      "dest": 18
    },
    {
      "src": 1,
      "dest": 1
    },
    {
      "src": 22,
      "dest": 52
    },
    {
      "src": 82,
      "dest": 94
    },
    {
      "src": 16,
      "dest": 16
    },
    {
      "src": 17,
      "dest": 17
    },
    {
      "src": 65,
      "dest": 77
    },
    {
      "src": 120,
      "dest": 132
    },
    {
      "src": 102,
      "dest": 114
    },
    {
      "src": 56,
      "dest": 68
    },
    {
      "src": 80,
      "dest": 92
    },
    {
      "src": 63,
      "dest": 75
    },
    {
      "src": 12,
      "dest": 12
    },
    {
      "src": 57,
      "dest": 69
    },
    {
      "src": 59,
      "dest": 71
    },
    {
      "src": 36,
      "dest": 35
    },
    {
      "src": 105,
      "dest": 117
    },
    {
      "src": 13,
      "dest": 13
    },
    {
      "src": 64,
      "dest": 76
    },
    {
      "src": 123,
      "dest": 135
    },
    {
      "src": 91,
      "dest": 103
    },
    {
      "src": 32,
      "dest": 63
    },
    {
      "src": 9,
      "dest": 9
    },
    {
      "src": 21,
      "dest": 21
    },
    {
      "src": 14,
      "dest": 14
    },
    {
      "src": 53,
      "dest": 65
    },
    {
      "src": 62,
      "dest": 74
    },
    {
      "src": 33,
      "dest": 64
    },
    {
      "src": 88,
      "dest": 100
    },
    {
      "src": 112,
      "dest": 124
    },
    {
      "src": 40,
      "dest": 39
    },
    {
      "src": 54,
      "dest": 66
    },
    {
      "src": 11,
      "dest": 11
    },
    {
      "src": 2,
      "dest": 2
    },
    {
      "src": 126,
      "dest": 138
    },
    {
      "src": 73,
      "dest": 85
    },
    {
      "src": 125,
      "dest": 137
    }
  ],
  "actions": [
    {
      "action": "move",
      "tree": 33,
      "parent": 134,
      "at": 2
    },
    {
      "action": "insert",
      "tree": 32,
      "parent": 134,
      "at": 0
    },
    {
      "action": "update",
      "tree": 18,
      "label": "sta"
    },
    {
      "action": "insert",
      "tree": 22,
      "parent": 32,
      "at": 0
    },
    {
      "action": "insert",
      "tree": 31,
      "parent": 32,
      "at": 1
    },
    {
      "action": "insert",
      "tree": 62,
      "parent": 64,
      "at": 1
    },
    {
      "action": "insert",
      "tree": 30,
      "parent": 31,
      "at": 0
    },
    {
      "action": "insert",
      "tree": 60,
      "parent": 62,
      "at": 0
    },
    {
      "action": "move",
      "tree": 27,
      "parent": 62,
      "at": 1
    },
    {
      "action": "insert",
      "tree": 28,
      "parent": 30,
      "at": 0
    },
    {
      "action": "insert",
      "tree": 29,
      "parent": 30,
      "at": 1
    },
    {
      "action": "insert",
      "tree": 58,
      "parent": 60,
      "at": 0
    },
    {
      "action": "insert",
      "tree": 59,
      "parent": 60,
      "at": 1
    },
    {
      "action": "insert",
      "tree": 26,
      "parent": 28,
      "at": 0
    },
    {
      "action": "insert",
      "tree": 27,
      "parent": 28,
      "at": 1
    },
    {
      "action": "insert",
      "tree": 56,
      "parent": 58,
      "at": 0
    },
    {
      "action": "insert",
      "tree": 57,
      "parent": 58,
      "at": 1
    },
    {
      "action": "insert",
      "tree": 24,
      "parent": 26,
      "at": 0
    },
    {
      "action": "insert",
      "tree": 25,
      "parent": 26,
      "at": 1
    },
    {
      "action": "insert",
      "tree": 54,
      "parent": 56,
      "at": 0
    },
    {
      "action": "insert",
      "tree": 55,
      "parent": 56,
      "at": 1
    },
    {
      "action": "insert",
      "tree": 23,
      "parent": 24,
      "at": 0
    },
    {
      "action": "update",
      "tree": 23,
      "label": "sta"
    },
    {
      "action": "move",
      "tree": 23,
      "parent": 54,
      "at": 0
    },
    {
      "action": "delete",
      "tree": 24
    },
    {
      "action": "delete",
      "tree": 25
    },
    {
      "action": "delete",
      "tree": 26
    },
    {
      "action": "delete",
      "tree": 28
    },
    {
      "action": "delete",
      "tree": 29
    },
    {
      "action": "delete",
      "tree": 30
    },
    {
      "action": "delete",
      "tree": 31
    }
  ]
}