[
  {
    "message": "Make pthreads_store_convert update its pzval param to NULL on failure\n\nThis removes some repeated logic in the code base",
    "id": "f202cebfb9a80747253c1a3887fec0bcaf65c8ce",
    "files": [
      "src/store.c"
    ],
    "date": 1478727028,
    "committer": {
      "name": "Thomas Punt",
      "email": "tpunt@hotmail.co.uk"
    }
  },
  {
    "message": "work on #525, probably fixed",
    "id": "f5215425145be3cf712af4b88822d5a3f1596e42",
    "files": [
      "src/store.c",
      "src/globals.h"
    ],
    "date": 1448629843,
    "committer": {
      "name": "Joe Watkins",
      "email": "krakjoe@php.net"
    }
  },
  {
    "message": "fix bug in copying constant strings",
    "id": "a79381e94c648e7a376ba08af016e4d853c09394",
    "files": [
      "src/prepare.c"
    ],
    "date": 1448018882,
    "committer": {
      "name": "Joe Watkins",
      "email": "krakjoe@php.net"
    }
  },
  {
    "message": "AddressSanitizer <3\nsantizer found many bugs, this fixes them all, hopefully ...\nadding sanitizer to travis to catch errors early as possible ...",
    "id": "4b2b3f3ca8f21c527f1dbd8e5e93e611d1f24fbb",
    "files": [
      "tests/killed-info.phpt",
      "src/globals.c",
      ".travis.yml",
      "src/object.c",
      "src/prepare.c",
      "src/globals.h",
      "src/store.c",
      "classes/thread.h"
    ],
    "date": 1443349305,
    "committer": {
      "name": "Joe Watkins",
      "email": "krakjoe@php.net"
    }
  },
  {
    "message": "remove started when creation fails",
    "id": "3ee74529b63994ad6e25bb01d252bc1127cc8e0a",
    "files": [
      "src/object.h",
      "src/object.c"
    ],
    "date": 1440310915,
    "committer": {
      "name": "Joe Watkins",
      "email": "krakjoe@php.net"
    }
  },
  {
    "message": "fix bug in copy with return types present",
    "id": "0de887492a2528cb1773aefdbbb6f79ff3344da0",
    "files": [
      "tests/pools.phpt",
      "src/object.c",
      "src/copy.h"
    ],
    "date": 1438853198,
    "committer": {
      "name": "Joe Watkins",
      "email": "krakjoe@php.net"
    }
  },
  {
    "message": "one test failing (resources)",
    "id": "382eb422bb541033144663120d6a3599373e8d15",
    "files": [
      "src/globals.c",
      "src/object.c",
      "src/prepare.c",
      "src/resources.c",
      "examples/Objects.php",
      "src/store.c",
      "src/resources.h"
    ],
    "date": 1437116393,
    "committer": {
      "name": "Joe Watkins",
      "email": "krakjoe@php.net"
    }
  },
  {
    "message": "Fix address collision in PTHREADS_ZG(resources)\n\nEach time a resource created in another thread context is used, its address is added to PTHREADS_ZG(resources). Until then it was never removed and since PTHREADS_ZG(resources) is tested on every resource destruction attempt, collisions would occur after some time (when PTHREADS_ZG(resources) contains a few hundred addresses) preventing unrelated resources from being destroyed and causing memory access violations.\n\nThis fix removes resources from PTHREADS_ZG(resources) when their dtor is called.\n\nNote that this fix uncovers another bug: PTHREADS_ZG(resources) is destroyed before EG(symbol_table) which prevent resources to be kept in ::run() 'local' variables when a worker is terminated.",
    "id": "8787eff16917a142580b00fe06f129197dc5e997",
    "files": [
      "src/object.c",
      "src/prepare.c"
    ],
    "date": 1420144000,
    "committer": {
      "name": "John Wellesz",
      "email": "John.Wellesz@teaser.fr"
    }
  },
  {
    "message": "simplify dtor/free, fix bug in submitTo",
    "id": "f4ef9c8edd0cf201e09afbb21de47b1093f57184",
    "files": [
      "src/object.c",
      "src/prepare.c",
      "classes/pool.h"
    ],
    "date": 1418058451,
    "committer": {
      "name": "krakjoe",
      "email": "joe.watkins@live.co.uk"
    }
  },
  {
    "message": "fix bug #347",
    "id": "0e5adcdaba7b6e48ba03e55ea600626d9ac798cd",
    "files": [
      "src/store.c",
      "tests/isset-empty-compat.phpt"
    ],
    "date": 1410369811,
    "committer": {
      "name": "krakjoe",
      "email": "joe.watkins@live.co.uk"
    }
  },
  {
    "message": "fix bug #336",
    "id": "4a269281873c1cdd6ae5c15ba4833bc1c5647fc2",
    "files": [
      "tests/legacy-ctor.phpt",
      "src/prepare.c"
    ],
    "date": 1410085106,
    "committer": {
      "name": "krakjoe",
      "email": "joe.watkins@live.co.uk"
    }
  },
  {
    "message": "fix #323 where ktype was no longer correctly set making chunk() key preservation fail.",
    "id": "2c9ce71611024bcb0da82c5775c3fdf6243b4158",
    "files": [
      "src/store.c"
    ],
    "date": 1403750469,
    "committer": {
      "name": "John Wellesz",
      "email": "John.Wellesz@teaser.fr"
    }
  },
  {
    "message": "fix bug uncovered now by #295",
    "id": "3add2ba037f7bb7aa5504706f7bbc0a3528363c7",
    "files": [
      "src/object.c"
    ],
    "date": 1397141707,
    "committer": {
      "name": "krakjoe",
      "email": "joe.watkins@live.co.uk"
    }
  },
  {
    "message": "try #292 buggyness",
    "id": "4ac9f127432590d69395da70fabecc8c33a2f414",
    "files": [
      "src/store.c"
    ],
    "date": 1397060127,
    "committer": {
      "name": "krakjoe",
      "email": "joe.watkins@live.co.uk"
    }
  },
  {
    "message": "fix #202 (most tests failing)",
    "id": "4618b42ea677a5ac1d3c10a32ae845d6a12ee1c7",
    "files": [
      "src/object.c"
    ],
    "date": 1386408126,
    "committer": {
      "name": "krakjoe",
      "email": "joe.watkins@live.co.uk"
    }
  },
  {
    "message": "fixed bug when abstract class is a C class wrapper definition",
    "id": "d706567395bcd66262b0cc65800240cd6d0121fc",
    "files": [
      "src/prepare.c"
    ],
    "date": 1381415332,
    "committer": {
      "name": "zelgerj",
      "email": "zelger@me.com"
    }
  },
  {
    "message": "Thread::getCurrentThreadId (static) method\nThread::getThreadId inconsistency fixed\nFix memory errors on copying statics/defaults in prepare()\nReplace usage of calloc() with malloc() in store routines\nReplace usage of calloc() with ecalloc() where buffers are passed into zend\nChanges to tests to bring them inline\nimpact #180",
    "id": "770bd4e7561701157954efc0c0ec5bf80fdf4083",
    "files": [
      "src/pthreads.h",
      "src/object.c",
      "tests/complex-statics-set-null.phpt",
      "src/store.c",
      "classes/thread.h",
      "tests/complex-statics.phpt"
    ],
    "date": 1381314922,
    "committer": {
      "name": "krakjoe",
      "email": "joe.watkins@live.co.uk"
    }
  },
  {
    "message": "regress bug #110",
    "id": "a7acaf778fe9eb3ee5018d7459cf81daf2ed6417",
    "files": [
      "src/thread.h",
      "src/store.c",
      "src/object.c",
      "tests/isset-unset.phpt",
      "src/globals.h"
    ],
    "date": 1368788764,
    "committer": {
      "name": "krakjoe",
      "email": "joe.watkins@live.co.uk"
    }
  },
  {
    "message": "build fixed 5.5 beta",
    "id": "5ce29604b40bca0eefef8e52b77b51975ea709e3",
    "files": [
      "src/prepare.c"
    ],
    "date": 1364300673,
    "committer": {
      "name": "krakjoe",
      "email": "joe.watkins@live.co.uk"
    }
  },
  {
    "message": "additional handler to fix bug in retrieval of object store keys at runtime when not using var_dump/print_r etc",
    "id": "92ff1a14c11a2a8e0b36b0fbb38c64338f533935",
    "files": [
      "src/handlers.h",
      "php_pthreads.c",
      "src/handlers.c"
    ],
    "date": 1359422127,
    "committer": {
      "name": "krakjoe",
      "email": "joe.watkins@live.co.uk"
    }
  },
  {
    "message": "remove synchronizing on a specific member, too buggy/unreliable\nrewrite some tests sensibly\nhousework",
    "id": "4f87deebff4336749681c311fe58fad2bfb086b4",
    "files": [
      "tests/binding.phpt",
      "src/store.c",
      "src/store.h",
      "classes/stackable.h",
      "tests/synchronization.phpt",
      "classes/thread.h",
      "src/synchro.c",
      "tests/synchronized-members.phpt"
    ],
    "date": 1359064352,
    "committer": {
      "name": "krakjoe",
      "email": "joe.watkins@live.co.uk"
    }
  },
  {
    "message": "remove all use of zend_handlers for properties\nfixup unset defaults test failing",
    "id": "1427d46197679fdb0b9b68807e4989d2d8c5cf93",
    "files": [
      "src/handlers.c"
    ],
    "date": 1358874518,
    "committer": {
      "name": "krakjoe",
      "email": "joe.watkins@live.co.uk"
    }
  },
  {
    "message": "various bug fixes\nresolve error in cleanup of shared resources\ncall EG as little as possible in critical places, avoid incurring those locks\nuse internal pthreads api for lock/unlock when writing annonymous members\nresolve leaks from removing object cache\nremove uneeded element from PTHREAD",
    "id": "223d087994ac09b2c3141b7a81023a2d00808604",
    "files": [
      "src/thread.h",
      "src/object.c",
      "src/store.h",
      "src/handlers.c",
      "src/resources.c",
      "classes/worker.h",
      "src/store.c"
    ],
    "date": 1358707633,
    "committer": {
      "name": "krakjoe",
      "email": "joe.watkins@live.co.uk"
    }
  },
  {
    "message": "address issues highlighted by #64013 on bugs.php.net:\n\tdoc_comment invalid pointer upon free because\ncomment on issue I've noticed with removing null resources recursively",
    "id": "b1145ac69d3d93fd87add474661c3d000334e3d6",
    "files": [
      "src/store.c",
      "src/prepare.c"
    ],
    "date": 1358537810,
    "committer": {
      "name": "krakjoe",
      "email": "joe.watkins@live.co.uk"
    }
  },
  {
    "message": "attempt to address pointer to pointer issues in bug #46",
    "id": "548c66aa245b106ad29a093b8e9d12dfcad79d3b",
    "files": [
      "php_pthreads.c"
    ],
    "date": 1358268343,
    "committer": {
      "name": "krakjoe",
      "email": "joe.watkins@live.co.uk"
    }
  },
  {
    "message": "fix bug #47",
    "id": "9690d1e579059bdd3f5a04a2068b613d0e1eb715",
    "files": [
      "src/prepare.c"
    ],
    "date": 1358193698,
    "committer": {
      "name": "krakjoe",
      "email": "joe.watkins@live.co.uk"
    }
  },
  {
    "message": "fix bug #46",
    "id": "9fc66d860336bdfdcb244d2fc427897eb29a1242",
    "files": [
      "src/store.c"
    ],
    "date": 1358190233,
    "committer": {
      "name": "krakjoe",
      "email": "joe.watkins@live.co.uk"
    }
  },
  {
    "message": "fix bug #45",
    "id": "99f3d418dff4a8bc5bd8ed7f92ca596088be5590",
    "files": [
      "src/store.c"
    ],
    "date": 1358171467,
    "committer": {
      "name": "krakjoe",
      "email": "joe.watkins@live.co.uk"
    }
  },
  {
    "message": "fixed freeing, added a testcase and fixed test complex-statics.phpt which issues an E_NOTICE error",
    "id": "ceb1550a7bce75eaaff01a94cfad81637c1b006b",
    "files": [
      "src/store.c",
      "tests/complex-statics.phpt",
      "tests/complex-statics-set-null.phpt"
    ],
    "date": 1357952095,
    "committer": {
      "name": "bwoebi",
      "email": "bobwei9@hotmail.com"
    }
  },
  {
    "message": "bug #39, corruption of resources occuring when writing to the object context",
    "id": "2e4f64bdaafa805a4c271a5766871e1c3610f8d9",
    "files": [
      "src/globals.c",
      "src/store.c",
      "tests/corrupted-resources.phpt"
    ],
    "date": 1357924567,
    "committer": {
      "name": "krakjoe",
      "email": "joe.watkins@live.co.uk"
    }
  },
  {
    "message": "bug #38 fix",
    "id": "472f4d0850b6366ce156ac29ee5aaab14d506ba5",
    "files": [
      "src/modifiers.c",
      "src/prepare.c"
    ],
    "date": 1357841125,
    "committer": {
      "name": "krakjoe",
      "email": "joe.watkins@live.co.uk"
    }
  },
  {
    "message": "some work on bug #32, corrections to tests",
    "id": "8684cdfa84c01c4416f0fe4a421b699e12a84c8f",
    "files": [
      "tests/statics.phpt",
      "src/store.c",
      "src/store.h",
      "src/prepare.c",
      "classes/thread.h",
      "tests/complex-statics.phpt",
      "tests/synchronized-members.phpt"
    ],
    "date": 1357830975,
    "committer": {
      "name": "krakjoe",
      "email": "joe.watkins@live.co.uk"
    }
  },
  {
    "message": "attempts at tackling bug #36\nSingleton.php working as the user originally expected, for some reason isset() unrealiable",
    "id": "b46d4d901d05e78b3a9111fa7a3f6c54cd7dc96f",
    "files": [
      "src/resources.c",
      "src/store.c",
      "examples/Singleton.php"
    ],
    "date": 1357791113,
    "committer": {
      "name": "krakjoe",
      "email": "joe.watkins@live.co.uk"
    }
  },
  {
    "message": "bug #32 fix attempt",
    "id": "a7b99ee894cb9c32cd0ff5ccacb450d8d4727bc5",
    "files": [
      "src/prepare.c"
    ],
    "date": 1357756719,
    "committer": {
      "name": "krakjoe",
      "email": "joe.watkins@live.co.uk"
    }
  },
  {
    "message": "bug #34 fix, hopefully",
    "id": "127ba5ea0c839f281004447109082126713e7c45",
    "files": [
      "tests/callstatic-etc.phpt",
      "src/prepare.c"
    ],
    "date": 1357754473,
    "committer": {
      "name": "krakjoe",
      "email": "joe.watkins@live.co.uk"
    }
  },
  {
    "message": "bug #31 attempt 3",
    "id": "c7c291666a4a251a43c4522b4ec363706b924522",
    "files": [
      "src/pthreads.h",
      "php_pthreads.c",
      "src/globals.h"
    ],
    "date": 1356896173,
    "committer": {
      "name": "krakjoe",
      "email": "joe.watkins@live.co.uk"
    }
  },
  {
    "message": "bug #31 attempt 3",
    "id": "0c55dba47a69b3bd2b757e5c0f6d81bcb65c1281",
    "files": [
      "src/pthreads.h",
      "php_pthreads.c",
      "src/globals.h"
    ],
    "date": 1356896173,
    "committer": {
      "name": "krakjoe",
      "email": "joe.watkins@live.co.uk"
    }
  },
  {
    "message": "bug #31 blind fix, no access to mac today",
    "id": "afe3abdf585eafe7f23b8fa3fb014097baf78b6a",
    "files": [
      "php_pthreads.c"
    ],
    "date": 1356892310,
    "committer": {
      "name": "krakjoe",
      "email": "joe.watkins@live.co.uk"
    }
  },
  {
    "message": "bug #31 blind fix, no access to mac today",
    "id": "36579bf940079a894f1b570b6fe2e6aab037e284",
    "files": [
      "php_pthreads.c",
      "examples/SharingResources.php"
    ],
    "date": 1356892310,
    "committer": {
      "name": "krakjoe",
      "email": "joe.watkins@live.co.uk"
    }
  },
  {
    "message": "bug #25 resolved from git\naccess to static properties using self resolved\naccess to parent::__constructor resolved",
    "id": "6b4004edb627e91b4f5b7122487ddfd19e32f5a7",
    "files": [
      "src/object.c",
      "src/handlers.c",
      "src/prepare.c"
    ],
    "date": 1356635288,
    "committer": {
      "name": "krakjoe",
      "email": "joe.watkins@live.co.uk"
    }
  },
  {
    "message": "bug #25 resolved from git\naccess to static properties using self resolved\naccess to parent::__constructor resolved",
    "id": "ba8d99ba837faa7b66a53eda8bd404c17f141f1e",
    "files": [
      "src/object.c",
      "src/handlers.c",
      "src/prepare.c"
    ],
    "date": 1356635288,
    "committer": {
      "name": "krakjoe",
      "email": "joe.watkins@live.co.uk"
    }
  },
  {
    "message": "bug #63858 highlighted an error in declaring global constants",
    "id": "fffe4ed5fa8e728227b649decb1fbc39615b4d30",
    "files": [
      "src/prepare.c"
    ],
    "date": 1356624824,
    "committer": {
      "name": "krakjoe",
      "email": "joe.watkins@live.co.uk"
    }
  },
  {
    "message": "bug #63858 highlighted an error in declaring global constants",
    "id": "3d40127dee9d37bdcba8773034e4dea212c622bd",
    "files": [
      "src/prepare.c"
    ],
    "date": 1356624824,
    "committer": {
      "name": "krakjoe",
      "email": "joe.watkins@live.co.uk"
    }
  },
  {
    "message": "bug #22 fix for static access to properties, bug resolved",
    "id": "4bcba14b1bc7d6022eb5f929343c3cf05d947174",
    "files": [
      "src/store.c"
    ],
    "date": 1355948236,
    "committer": {
      "name": "krakjoe",
      "email": "joe.watkins@live.co.uk"
    }
  },
  {
    "message": "bug #22 fix for static access to properties, bug resolved",
    "id": "5dba96c36124c228cd61843257b605bc377554fe",
    "files": [
      "src/store.c"
    ],
    "date": 1355948236,
    "committer": {
      "name": "krakjoe",
      "email": "joe.watkins@live.co.uk"
    }
  },
  {
    "message": "fixes bug #21 (redefining existing constants)",
    "id": "53508b7c432c90b629a51e2a6352de7ae755135b",
    "files": [
      "src/prepare.c"
    ],
    "date": 1355913771,
    "committer": {
      "name": "krakjoe",
      "email": "pthreads@pthreads.org"
    }
  },
  {
    "message": "fixes bug #21 (redefining existing constants)",
    "id": "12b9ae805b812e143b5b7eb93061bba4f05ba52a",
    "files": [
      "src/prepare.c"
    ],
    "date": 1355913771,
    "committer": {
      "name": "krakjoe",
      "email": "pthreads@pthreads.org"
    }
  },
  {
    "message": "inherit function table\nsome work on locking\nbug in state",
    "id": "69c09a714f1af87874ea20780ee3d549df3a27de",
    "files": [
      "src/pthreads.h",
      "src/lock.h",
      "src/object.c",
      "src/prepare.c",
      "src/lock.c",
      "src/state.c"
    ],
    "date": 1352921328,
    "committer": {
      "name": "krakjoe",
      "email": "joe.watkins@live.co.uk"
    }
  },
  {
    "message": "inherit function table\nsome work on locking\nbug in state",
    "id": "b80c41349cc7d736c61f158f344f8f78864d1702",
    "files": [
      "src/pthreads.h",
      "src/lock.h",
      "src/object.c",
      "src/prepare.c",
      "src/lock.c",
      "src/state.c"
    ],
    "date": 1352921328,
    "committer": {
      "name": "krakjoe",
      "email": "joe.watkins@live.co.uk"
    }
  },
  {
    "message": "bug #20 INI inheritance applied to child threads, in testing",
    "id": "98f35026e9499a10f8cd962bbad9b754899a7db6",
    "files": [
      "src/thread.h",
      "src/globals.c",
      "src/object.c",
      "src/prepare.c",
      "tests/ini.phpt"
    ],
    "date": 1352826036,
    "committer": {
      "name": "krakjoe",
      "email": "joe.watkins@live.co.uk"
    }
  },
  {
    "message": "bug #20 INI inheritance applied to child threads, in testing",
    "id": "f4c37534e6bc4b53fd9cf36d6006689499d4d763",
    "files": [
      "src/thread.h",
      "src/globals.c",
      "src/object.c",
      "src/prepare.c",
      "tests/ini.phpt"
    ],
    "date": 1352826036,
    "committer": {
      "name": "krakjoe",
      "email": "joe.watkins@live.co.uk"
    }
  },
  {
    "message": "bug #19 fix in testing\nsome more test files, must get on top of testing",
    "id": "97749cc422559dd6080ddad5b466f53158dd4383",
    "files": [
      "tests/binding.phpt",
      "tests/wait.phpt",
      "src/store.c",
      "src/prepare.c",
      "tests/statics.phpt",
      "tests/mutex.phpt",
      "tests/constants.phpt",
      "classes/mutex.h"
    ],
    "date": 1352714510,
    "committer": {
      "name": "krakjoe",
      "email": "joe.watkins@live.co.uk"
    }
  },
  {
    "message": "bug #19 fix in testing\nsome more test files, must get on top of testing",
    "id": "d9a56189a8f8240c248b31d476aa26631a162929",
    "files": [
      "tests/binding.phpt",
      "tests/wait.phpt",
      "src/store.c",
      "src/prepare.c",
      "tests/statics.phpt",
      "tests/mutex.phpt",
      "tests/constants.phpt",
      "classes/mutex.h"
    ],
    "date": 1352714510,
    "committer": {
      "name": "krakjoe",
      "email": "joe.watkins@live.co.uk"
    }
  },
  {
    "message": "Fixed issue #14 Installation fails on OS X",
    "id": "0e98cdda4e972025cff71fba1b317ee61016f2ed",
    "files": [
      "src/globals.c",
      "php_pthreads.c",
      "src/globals.h",
      "src/pthreads.h"
    ],
    "date": 1352488287,
    "committer": {
      "name": "Reeze Xia",
      "email": "reeze@php.net"
    }
  },
  {
    "message": "Fixed issue #14 Installation fails on OS X",
    "id": "a1372c86945c6afb3a5348c42d48b4f48f85ba68",
    "files": [
      "src/globals.c",
      "php_pthreads.c",
      "src/globals.h",
      "src/pthreads.h"
    ],
    "date": 1352488287,
    "committer": {
      "name": "Reeze Xia",
      "email": "reeze@php.net"
    }
  },
  {
    "message": "removed serialization of basic types for member data\nfixed leak apparent when constant arrays are set in prepared objects\nrename pthreads_serial to pthreads_store everywhere to keep things organized",
    "id": "2f55a6093e20863b7c59a52cdf0cc1f9be13f06b",
    "files": [
      "src/handlers.h",
      "src/thread.h",
      "src/object.c",
      "php_pthreads.c",
      "src/prepare.c",
      "src/serial.h",
      "config.m4",
      "src/globals.c",
      "src/store.c",
      "src/store.h",
      "src/handlers.c",
      "src/globals.h",
      "config.w32",
      "src/serial.c"
    ],
    "date": 1352115344,
    "committer": {
      "name": "krakjoe",
      "email": "joe.watkins@live.co.uk"
    }
  },
  {
    "message": "removed serialization of basic types for member data\nfixed leak apparent when constant arrays are set in prepared objects\nrename pthreads_serial to pthreads_store everywhere to keep things organized",
    "id": "db193c29553b95e997ae41b77599a0f51a9c0c69",
    "files": [
      "src/handlers.h",
      "src/thread.h",
      "src/object.c",
      "php_pthreads.c",
      "src/prepare.c",
      "src/serial.h",
      "config.m4",
      "src/globals.c",
      "src/store.c",
      "src/store.h",
      "src/handlers.c",
      "src/globals.h",
      "config.w32",
      "src/serial.c"
    ],
    "date": 1352115344,
    "committer": {
      "name": "krakjoe",
      "email": "joe.watkins@live.co.uk"
    }
  },
  {
    "message": "Much improved synchronization, no bugs\nRemove event object, it was broken and not flexible enough\nRegistered constants to express thread states in preparation for utility methods to come\nwait/notify from any context working properly",
    "id": "847293dff103309ed598cb37cc346bed47ac8001",
    "files": [
      "pthreads_object.h",
      "examples/Mutexes.php",
      "php_pthreads.c",
      "pthreads_event.h",
      "php_pthreads.h",
      "examples/Notifications.php"
    ],
    "date": 1347466584,
    "committer": {
      "name": "root",
      "email": "root@alex.bookbutler.net"
    }
  },
  {
    "message": "Much improved synchronization, no bugs\nRemove event object, it was broken and not flexible enough\nRegistered constants to express thread states in preparation for utility methods to come\nwait/notify from any context working properly",
    "id": "41b8304bc550c082c72087b340a5a25a398f699e",
    "files": [
      "pthreads_object.h",
      "examples/Mutexes.php",
      "php_pthreads.c",
      "pthreads_event.h",
      "php_pthreads.h",
      "examples/Notifications.php"
    ],
    "date": 1347466584,
    "committer": {
      "name": "root",
      "email": "root@alex.bookbutler.net"
    }
  },
  {
    "message": "some work on sync event to make sure it can be reused during the execution of threads\ncleanup Cond::wait, we can't actually provide spurious wakeup protection for Cond::wait, it will have to be down to the user\nremoved some extra blocking checks - buggy user code will create blocking, just like it does with any other threading API, they'll just have to learn what not to do\nI think almost ready for a release",
    "id": "edc3d9849f831e45437cc0ab4585bf65d01b420c",
    "files": [
      "pthreads_object.h",
      "examples/Notifications.php",
      "php_pthreads.c",
      "pthreads_event.h",
      "php_pthreads.h"
    ],
    "date": 1347302868,
    "committer": {
      "name": "root",
      "email": "root@alex.bookbutler.net"
    }
  },
  {
    "message": "some work on sync event to make sure it can be reused during the execution of threads\ncleanup Cond::wait, we can't actually provide spurious wakeup protection for Cond::wait, it will have to be down to the user\nremoved some extra blocking checks - buggy user code will create blocking, just like it does with any other threading API, they'll just have to learn what not to do\nI think almost ready for a release",
    "id": "5e55cdb3d9509a64a042bebd092549c38a95ea1b",
    "files": [
      "pthreads_object.h",
      "examples/Notifications.php",
      "php_pthreads.c",
      "pthreads_event.h",
      "php_pthreads.h"
    ],
    "date": 1347302868,
    "committer": {
      "name": "root",
      "email": "root@alex.bookbutler.net"
    }
  },
  {
    "message": "Better passing of symbols and recieving of results\nAbility to pass anything serializeable as a symbol\nAbility to return anything serializeable as result\nCouple of leaks fixed caused by errors in user code",
    "id": "5cf179381c736623ee7734ca74ff8f39a6efa818",
    "files": [
      "pthreads_object.h",
      "php_pthreads.c",
      "php_pthreads.h"
    ],
    "date": 1346444087,
    "committer": {
      "name": "root",
      "email": "root@alex.bookbutler.net"
    }
  },
  {
    "message": "Better passing of symbols and recieving of results\nAbility to pass anything serializeable as a symbol\nAbility to return anything serializeable as result\nCouple of leaks fixed caused by errors in user code",
    "id": "b1b8f1a583f1b60759be2d50f73244b01b380448",
    "files": [
      "pthreads_object.h",
      "php_pthreads.c",
      "php_pthreads.h"
    ],
    "date": 1346444087,
    "committer": {
      "name": "root",
      "email": "root@alex.bookbutler.net"
    }
  }
]