{
	"root": {
		"type": "460000",
		"typeLabel": "Program",
		"pos": "0",
		"length": "296",
		"children": [
			{
				"type": "450300",
				"typeLabel": "CppTop",
				"pos": "0",
				"length": "28",
				"children": [
					{
						"type": "400200",
						"typeLabel": "Include",
						"pos": "0",
						"length": "28",
						"children": [
							{
								"type": "480000",
								"label": "\"git-compat-util.h\"",
								"typeLabel": "GenericString",
								"pos": "9",
								"length": "19",
								"children": []
							}
						]
					}
				]
			},
			{
				"type": "450300",
				"typeLabel": "CppTop",
				"pos": "29",
				"length": "21",
				"children": [
					{
						"type": "400200",
						"typeLabel": "Include",
						"pos": "29",
						"length": "21",
						"children": [
							{
								"type": "480000",
								"label": "\"exec_cmd.h\"",
								"typeLabel": "GenericString",
								"pos": "38",
								"length": "12",
								"children": []
							}
						]
					}
				]
			},
			{
				"type": "450200",
				"typeLabel": "Definition",
				"pos": "52",
				"length": "243",
				"children": [
					{
						"type": "380000",
						"typeLabel": "Definition",
						"pos": "52",
						"length": "243",
						"children": [
							{
								"type": "200000",
								"typeLabel": "ParamList",
								"pos": "60",
								"length": "21",
								"children": [
									{
										"type": "220100",
										"typeLabel": "ParameterType",
										"pos": "61",
										"length": "8",
										"children": [
											{
												"type": "480000",
												"label": "argc",
												"typeLabel": "GenericString",
												"pos": "65",
												"length": "4",
												"children": []
											}
										]
									},
									{
										"type": "220100",
										"typeLabel": "ParameterType",
										"pos": "71",
										"length": "9",
										"children": [
											{
												"type": "480000",
												"label": "av",
												"typeLabel": "GenericString",
												"pos": "78",
												"length": "2",
												"children": []
											}
										]
									}
								]
							},
							{
								"type": "480000",
								"label": "main",
								"typeLabel": "GenericString",
								"pos": "56",
								"length": "4",
								"children": []
							},
							{
								"type": "330000",
								"typeLabel": "Compound",
								"pos": "82",
								"length": "213",
								"children": [
									{
										"type": "350100",
										"typeLabel": "DeclList",
										"pos": "179",
										"length": "38",
										"children": [
											{
												"type": "480000",
												"label": "argv",
												"typeLabel": "GenericString",
												"pos": "192",
												"length": "4",
												"children": []
											},
											{
												"type": "360100",
												"typeLabel": "InitExpr",
												"pos": "199",
												"length": "17",
												"children": [
													{
														"type": "241700",
														"typeLabel": "Cast",
														"pos": "199",
														"length": "17",
														"children": [
															{
																"type": "240100",
																"typeLabel": "Ident",
																"pos": "214",
																"length": "2",
																"children": [
																	{
																		"type": "480000",
																		"label": "av",
																		"typeLabel": "GenericString",
																		"pos": "214",
																		"length": "2",
																		"children": []
																	}
																]
															}
														]
													}
												]
											}
										]
									},
									{
										"type": "260300",
										"typeLabel": "ExprStatement",
										"pos": "220",
										"length": "42",
										"children": [
											{
												"type": "290100",
												"typeLabel": "Some",
												"pos": "220",
												"length": "42",
												"children": [
													{
														"type": "240700",
														"typeLabel": "Assignment",
														"pos": "220",
														"length": "41",
														"children": [
															{
																"type": "241200",
																"typeLabel": "ArrayAccess",
																"pos": "220",
																"length": "7",
																"children": [
																	{
																		"type": "240100",
																		"typeLabel": "Ident",
																		"pos": "220",
																		"length": "4",
																		"children": [
																			{
																				"type": "480000",
																				"label": "argv",
																				"typeLabel": "GenericString",
																				"pos": "220",
																				"length": "4",
																				"children": []
																			}
																		]
																	},
																	{
																		"type": "240200",
																		"label": "0",
																		"typeLabel": "Constant",
																		"pos": "225",
																		"length": "1",
																		"children": []
																	}
																]
															},
															{
																"type": "480000",
																"label": "=",
																"typeLabel": "GenericString",
																"pos": "228",
																"length": "1",
																"children": []
															},
															{
																"type": "240400",
																"typeLabel": "FunCall",
																"pos": "230",
																"length": "31",
																"children": [
																	{
																		"type": "240100",
																		"typeLabel": "Ident",
																		"pos": "230",
																		"length": "22",
																		"children": [
																			{
																				"type": "480000",
																				"label": "git_extract_argv0_path",
																				"typeLabel": "GenericString",
																				"pos": "230",
																				"length": "22",
																				"children": []
																			}
																		]
																	},
																	{
																		"type": "470000",
																		"typeLabel": "GenericList",
																		"pos": "252",
																		"length": "9",
																		"children": [
																			{
																				"type": "20100",
																				"typeLabel": "Left",
																				"pos": "253",
																				"length": "7",
																				"children": [
																					{
																						"type": "241200",
																						"typeLabel": "ArrayAccess",
																						"pos": "253",
																						"length": "7",
																						"children": [
																							{
																								"type": "240100",
																								"typeLabel": "Ident",
																								"pos": "253",
																								"length": "4",
																								"children": [
																									{
																										"type": "480000",
																										"label": "argv",
																										"typeLabel": "GenericString",
																										"pos": "253",
																										"length": "4",
																										"children": []
																									}
																								]
																							},
																							{
																								"type": "240200",
																								"label": "0",
																								"typeLabel": "Constant",
																								"pos": "258",
																								"length": "1",
																								"children": []
																							}
																						]
																					}
																				]
																			}
																		]
																	}
																]
															}
														]
													},
													{
														"type": "480000",
														"label": ";",
														"typeLabel": "GenericString",
														"pos": "261",
														"length": "1",
														"children": []
													}
												]
											}
										]
									},
									{
										"type": "280200",
										"typeLabel": "ReturnExpr",
										"pos": "265",
										"length": "28",
										"children": [
											{
												"type": "240400",
												"typeLabel": "FunCall",
												"pos": "272",
												"length": "20",
												"children": [
													{
														"type": "240100",
														"typeLabel": "Ident",
														"pos": "272",
														"length": "8",
														"children": [
															{
																"type": "480000",
																"label": "cmd_main",
																"typeLabel": "GenericString",
																"pos": "272",
																"length": "8",
																"children": []
															}
														]
													},
													{
														"type": "470000",
														"typeLabel": "GenericList",
														"pos": "280",
														"length": "12",
														"children": [
															{
																"type": "20100",
																"typeLabel": "Left",
																"pos": "281",
																"length": "4",
																"children": [
																	{
																		"type": "240100",
																		"typeLabel": "Ident",
																		"pos": "281",
																		"length": "4",
																		"children": [
																			{
																				"type": "480000",
																				"label": "argc",
																				"typeLabel": "GenericString",
																				"pos": "281",
																				"length": "4",
																				"children": []
																			}
																		]
																	}
																]
															},
															{
																"type": "20100",
																"typeLabel": "Left",
																"pos": "287",
																"length": "4",
																"children": [
																	{
																		"type": "240100",
																		"typeLabel": "Ident",
																		"pos": "287",
																		"length": "4",
																		"children": [
																			{
																				"type": "480000",
																				"label": "argv",
																				"typeLabel": "GenericString",
																				"pos": "287",
																				"length": "4",
																				"children": []
																			}
																		]
																	}
																]
															}
														]
													}
												]
											}
										]
									}
								]
							}
						]
					}
				]
			},
			{
				"type": "450800",
				"typeLabel": "FinalDef",
				"pos": "296",
				"length": "0",
				"children": []
			}
		]
	}
}