{
	"root": {
		"type": "460000",
		"typeLabel": "Program",
		"pos": "0",
		"length": "421",
		"children": [
			{
				"type": "450400",
				"typeLabel": "IfdefTop",
				"pos": "0",
				"length": "20",
				"children": [
					{
						"type": "440100",
						"typeLabel": "IfdefDirective",
						"pos": "0",
						"length": "20",
						"children": [
							{
								"type": "480000",
								"label": "#ifdef HAVE_CONFIG_H",
								"typeLabel": "GenericString",
								"pos": "0",
								"length": "20",
								"children": []
							}
						]
					}
				]
			},
			{
				"type": "450300",
				"typeLabel": "CppTop",
				"pos": "21",
				"length": "19",
				"children": [
					{
						"type": "400200",
						"typeLabel": "Include",
						"pos": "21",
						"length": "19",
						"children": [
							{
								"type": "480000",
								"label": "<config.h>",
								"typeLabel": "GenericString",
								"pos": "30",
								"length": "10",
								"children": []
							}
						]
					}
				]
			},
			{
				"type": "450400",
				"typeLabel": "IfdefTop",
				"pos": "41",
				"length": "6",
				"children": [
					{
						"type": "440100",
						"typeLabel": "IfdefDirective",
						"pos": "41",
						"length": "6",
						"children": [
							{
								"type": "480000",
								"label": "#endif",
								"typeLabel": "GenericString",
								"pos": "41",
								"length": "6",
								"children": []
							}
						]
					}
				]
			},
			{
				"type": "450300",
				"typeLabel": "CppTop",
				"pos": "48",
				"length": "20",
				"children": [
					{
						"type": "400200",
						"typeLabel": "Include",
						"pos": "48",
						"length": "20",
						"children": [
							{
								"type": "480000",
								"label": "<pthread.h>",
								"typeLabel": "GenericString",
								"pos": "57",
								"length": "11",
								"children": []
							}
						]
					}
				]
			},
			{
				"type": "450300",
				"typeLabel": "CppTop",
				"pos": "70",
				"length": "30",
				"children": [
					{
						"type": "400200",
						"typeLabel": "Include",
						"pos": "70",
						"length": "30",
						"children": [
							{
								"type": "480000",
								"label": "\"global_statistics.h\"",
								"typeLabel": "GenericString",
								"pos": "79",
								"length": "21",
								"children": []
							}
						]
					}
				]
			},
			{
				"type": "450100",
				"typeLabel": "Declaration",
				"pos": "102",
				"length": "72",
				"children": [
					{
						"type": "350100",
						"typeLabel": "DeclList",
						"pos": "102",
						"length": "72",
						"children": [
							{
								"type": "480000",
								"label": "global_statistics",
								"typeLabel": "GenericString",
								"pos": "127",
								"length": "17",
								"children": []
							},
							{
								"type": "360200",
								"typeLabel": "InitList",
								"pos": "147",
								"length": "26",
								"children": [
									{
										"type": "360100",
										"typeLabel": "InitExpr",
										"pos": "149",
										"length": "4",
										"children": [
											{
												"type": "240200",
												"label": "0ULL",
												"typeLabel": "Constant",
												"pos": "149",
												"length": "4",
												"children": []
											}
										]
									},
									{
										"type": "360100",
										"typeLabel": "InitExpr",
										"pos": "155",
										"length": "4",
										"children": [
											{
												"type": "240200",
												"label": "0ULL",
												"typeLabel": "Constant",
												"pos": "155",
												"length": "4",
												"children": []
											}
										]
									},
									{
										"type": "360100",
										"typeLabel": "InitExpr",
										"pos": "161",
										"length": "4",
										"children": [
											{
												"type": "240200",
												"label": "0ULL",
												"typeLabel": "Constant",
												"pos": "161",
												"length": "4",
												"children": []
											}
										]
									},
									{
										"type": "360100",
										"typeLabel": "InitExpr",
										"pos": "167",
										"length": "4",
										"children": [
											{
												"type": "240200",
												"label": "0ULL",
												"typeLabel": "Constant",
												"pos": "167",
												"length": "4",
												"children": []
											}
										]
									}
								]
							}
						]
					}
				]
			},
			{
				"type": "450100",
				"typeLabel": "Declaration",
				"pos": "176",
				"length": "68",
				"children": [
					{
						"type": "350100",
						"typeLabel": "DeclList",
						"pos": "176",
						"length": "68",
						"children": [
							{
								"type": "480000",
								"label": "global_statistics_mutex",
								"typeLabel": "GenericString",
								"pos": "192",
								"length": "23",
								"children": []
							},
							{
								"type": "360100",
								"typeLabel": "InitExpr",
								"pos": "218",
								"length": "25",
								"children": [
									{
										"type": "240100",
										"typeLabel": "Ident",
										"pos": "218",
										"length": "25",
										"children": [
											{
												"type": "480000",
												"label": "PTHREAD_MUTEX_INITIALIZER",
												"typeLabel": "GenericString",
												"pos": "218",
												"length": "25",
												"children": []
											}
										]
									}
								]
							}
						]
					}
				]
			},
			{
				"type": "450200",
				"typeLabel": "Definition",
				"pos": "246",
				"length": "84",
				"children": [
					{
						"type": "380000",
						"typeLabel": "Definition",
						"pos": "246",
						"length": "84",
						"children": [
							{
								"type": "200000",
								"typeLabel": "ParamList",
								"pos": "273",
								"length": "6",
								"children": [
									{
										"type": "220100",
										"typeLabel": "ParameterType",
										"pos": "274",
										"length": "4",
										"children": []
									}
								]
							},
							{
								"type": "480000",
								"label": "global_statistics_lock",
								"typeLabel": "GenericString",
								"pos": "251",
								"length": "22",
								"children": []
							},
							{
								"type": "330000",
								"typeLabel": "Compound",
								"pos": "280",
								"length": "50",
								"children": [
									{
										"type": "260300",
										"typeLabel": "ExprStatement",
										"pos": "283",
										"length": "45",
										"children": [
											{
												"type": "290100",
												"typeLabel": "Some",
												"pos": "283",
												"length": "45",
												"children": [
													{
														"type": "240400",
														"typeLabel": "FunCall",
														"pos": "283",
														"length": "44",
														"children": [
															{
																"type": "240100",
																"typeLabel": "Ident",
																"pos": "283",
																"length": "18",
																"children": [
																	{
																		"type": "480000",
																		"label": "pthread_mutex_lock",
																		"typeLabel": "GenericString",
																		"pos": "283",
																		"length": "18",
																		"children": []
																	}
																]
															},
															{
																"type": "470000",
																"typeLabel": "GenericList",
																"pos": "301",
																"length": "26",
																"children": [
																	{
																		"type": "20100",
																		"typeLabel": "Left",
																		"pos": "302",
																		"length": "24",
																		"children": [
																			{
																				"type": "241000",
																				"typeLabel": "Unary",
																				"pos": "302",
																				"length": "24",
																				"children": [
																					{
																						"type": "240100",
																						"typeLabel": "Ident",
																						"pos": "303",
																						"length": "23",
																						"children": [
																							{
																								"type": "480000",
																								"label": "global_statistics_mutex",
																								"typeLabel": "GenericString",
																								"pos": "303",
																								"length": "23",
																								"children": []
																							}
																						]
																					},
																					{
																						"type": "480000",
																						"label": "&",
																						"typeLabel": "GenericString",
																						"pos": "302",
																						"length": "1",
																						"children": []
																					}
																				]
																			}
																		]
																	}
																]
															}
														]
													},
													{
														"type": "480000",
														"label": ";",
														"typeLabel": "GenericString",
														"pos": "327",
														"length": "1",
														"children": []
													}
												]
											}
										]
									}
								]
							}
						]
					}
				]
			},
			{
				"type": "450200",
				"typeLabel": "Definition",
				"pos": "332",
				"length": "88",
				"children": [
					{
						"type": "380000",
						"typeLabel": "Definition",
						"pos": "332",
						"length": "88",
						"children": [
							{
								"type": "200000",
								"typeLabel": "ParamList",
								"pos": "361",
								"length": "6",
								"children": [
									{
										"type": "220100",
										"typeLabel": "ParameterType",
										"pos": "362",
										"length": "4",
										"children": []
									}
								]
							},
							{
								"type": "480000",
								"label": "global_statistics_unlock",
								"typeLabel": "GenericString",
								"pos": "337",
								"length": "24",
								"children": []
							},
							{
								"type": "330000",
								"typeLabel": "Compound",
								"pos": "368",
								"length": "52",
								"children": [
									{
										"type": "260300",
										"typeLabel": "ExprStatement",
										"pos": "371",
										"length": "47",
										"children": [
											{
												"type": "290100",
												"typeLabel": "Some",
												"pos": "371",
												"length": "47",
												"children": [
													{
														"type": "240400",
														"typeLabel": "FunCall",
														"pos": "371",
														"length": "46",
														"children": [
															{
																"type": "240100",
																"typeLabel": "Ident",
																"pos": "371",
																"length": "20",
																"children": [
																	{
																		"type": "480000",
																		"label": "pthread_mutex_unlock",
																		"typeLabel": "GenericString",
																		"pos": "371",
																		"length": "20",
																		"children": []
																	}
																]
															},
															{
																"type": "470000",
																"typeLabel": "GenericList",
																"pos": "391",
																"length": "26",
																"children": [
																	{
																		"type": "20100",
																		"typeLabel": "Left",
																		"pos": "392",
																		"length": "24",
																		"children": [
																			{
																				"type": "241000",
																				"typeLabel": "Unary",
																				"pos": "392",
																				"length": "24",
																				"children": [
																					{
																						"type": "240100",
																						"typeLabel": "Ident",
																						"pos": "393",
																						"length": "23",
																						"children": [
																							{
																								"type": "480000",
																								"label": "global_statistics_mutex",
																								"typeLabel": "GenericString",
																								"pos": "393",
																								"length": "23",
																								"children": []
																							}
																						]
																					},
																					{
																						"type": "480000",
																						"label": "&",
																						"typeLabel": "GenericString",
																						"pos": "392",
																						"length": "1",
																						"children": []
																					}
																				]
																			}
																		]
																	}
																]
															}
														]
													},
													{
														"type": "480000",
														"label": ";",
														"typeLabel": "GenericString",
														"pos": "417",
														"length": "1",
														"children": []
													}
												]
											}
										]
									}
								]
							}
						]
					}
				]
			},
			{
				"type": "450800",
				"typeLabel": "FinalDef",
				"pos": "421",
				"length": "0",
				"children": []
			}
		]
	}
}