{
  "matches": [
    {
      "src": 1026,
      "dest": 934
    },
    {
      "src": 60,
      "dest": 71
    },
    {
      "src": 1019,
      "dest": 927
    },
    {
      "src": 515,
      "dest": 484
    },
    {
      "src": 138,
      "dest": 112
    },
    {
      "src": 958,
      "dest": 850
    },
    {
      "src": 795,
      "dest": 687
    },
    {
      "src": 1074,
      "dest": 1005
    },
    {
      "src": 1209,
      "dest": 1148
    },
    {
      "src": 199,
      "dest": 173
    },
    {
      "src": 261,
      "dest": 235
    },
    {
      "src": 855,
      "dest": 747
    },
    {
      "src": 377,
      "dest": 349
    },
    {
      "src": 85,
      "dest": 96
    },
    {
      "src": 158,
      "dest": 132
    },
    {
      "src": 858,
      "dest": 750
    },
    {
      "src": 442,
      "dest": 414
    },
    {
      "src": 1168,
      "dest": 1107
    },
    {
      "src": 906,
      "dest": 798
    },
    {
      "src": 1002,
      "dest": 896
    },
    {
      "src": 683,
      "dest": 596
    },
    {
      "src": 957,
      "dest": 849
    },
    {
      "src": 824,
      "dest": 716
    },
    {
      "src": 907,
      "dest": 799
    },
    {
      "src": 510,
      "dest": 479
    },
    {
      "src": 19,
      "dest": 19
    },
    {
      "src": 490,
      "dest": 462
    },
    {
      "src": 57,
      "dest": 68
    },
    {
      "src": 863,
      "dest": 755
    },
    {
      "src": 224,
      "dest": 198
    },
    {
      "src": 1251,
      "dest": 1186
    },
    {
      "src": 646,
      "dest": 559
    },
    {
      "src": 810,
      "dest": 702
    },
    {
      "src": 2,
      "dest": 2
    },
    {
      "src": 195,
      "dest": 169
    },
    {
      "src": 1034,
      "dest": 965
    },
    {
      "src": 509,
      "dest": 478
    },
    {
      "src": 314,
      "dest": 288
    },
    {
      "src": 847,
      "dest": 739
    },
    {
      "src": 956,
      "dest": 848
    },
    {
      "src": 987,
      "dest": 945
    },
    {
      "src": 768,
      "dest": 660
    },
    {
      "src": 908,
      "dest": 800
    },
    {
      "src": 599,
      "dest": 512
    },
    {
      "src": 215,
      "dest": 189
    },
    {
      "src": 597,
      "dest": 510
    },
    {
      "src": 145,
      "dest": 119
    },
    {
      "src": 1247,
      "dest": 1182
    },
    {
      "src": 251,
      "dest": 225
    },
    {
      "src": 717,
      "dest": 630
    },
    {
      "src": 1176,
      "dest": 1115
    },
    {
      "src": 1058,
      "dest": 989
    },
    {
      "src": 997,
      "dest": 891
    },
    {
      "src": 861,
      "dest": 753
    },
    {
      "src": 813,
      "dest": 705
    },
    {
      "src": 471,
      "dest": 443
    },
    {
      "src": 647,
      "dest": 560
    },
    {
      "src": 8,
      "dest": 8
    },
    {
      "src": 343,
      "dest": 317
    },
    {
      "src": 981,
      "dest": 939
    },
    {
      "src": 312,
      "dest": 286
    },
    {
      "src": 1035,
      "dest": 966
    },
    {
      "src": 311,
      "dest": 285
    },
    {
      "src": 923,
      "dest": 815
    },
    {
      "src": 988,
      "dest": 946
    },
    {
      "src": 986,
      "dest": 944
    },
    {
      "src": 1227,
      "dest": 1166
    },
    {
      "src": 668,
      "dest": 581
    },
    {
      "src": 639,
      "dest": 552
    },
    {
      "src": 659,
      "dest": 572
    },
    {
      "src": 672,
      "dest": 585
    },
    {
      "src": 1208,
      "dest": 1147
    },
    {
      "src": 770,
      "dest": 662
    },
    {
      "src": 391,
      "dest": 363
    },
    {
      "src": 306,
      "dest": 280
    },
    {
      "src": 865,
      "dest": 757
    },
    {
      "src": 1193,
      "dest": 1132
    },
    {
      "src": 16,
      "dest": 16
    },
    {
      "src": 1088,
      "dest": 1019
    },
    {
      "src": 885,
      "dest": 777
    },
    {
      "src": 33,
      "dest": 33
    },
    {
      "src": 723,
      "dest": 636
    },
    {
      "src": 384,
      "dest": 356
    },
    {
      "src": 323,
      "dest": 297
    },
    {
      "src": 631,
      "dest": 544
    },
    {
      "src": 695,
      "dest": 608
    },
    {
      "src": 445,
      "dest": 417
    },
    {
      "src": 1204,
      "dest": 1143
    },
    {
      "src": 1109,
      "dest": 1040
    },
    {
      "src": 1200,
      "dest": 1139
    },
    {
      "src": 831,
      "dest": 723
    },
    {
      "src": 169,
      "dest": 143
    },
    {
      "src": 982,
      "dest": 940
    },
    {
      "src": 1094,
      "dest": 1025
    },
    {
      "src": 399,
      "dest": 371
    },
    {
      "src": 405,
      "dest": 377
    },
    {
      "src": 414,
      "dest": 386
    },
    {
      "src": 1188,
      "dest": 1127
    },
    {
      "src": 1175,
      "dest": 1114
    },
    {
      "src": 142,
      "dest": 116
    },
    {
      "src": 226,
      "dest": 200
    },
    {
      "src": 381,
      "dest": 353
    },
    {
      "src": 1032,
      "dest": 963
    },
    {
      "src": 932,
      "dest": 824
    },
    {
      "src": 283,
      "dest": 257
    },
    {
      "src": 797,
      "dest": 689
    },
    {
      "src": 992,
      "dest": 886
    },
    {
      "src": 703,
      "dest": 616
    },
    {
      "src": 604,
      "dest": 517
    },
    {
      "src": 519,
      "dest": 488
    },
    {
      "src": 147,
      "dest": 121
    },
    {
      "src": 1052,
      "dest": 983
    },
    {
      "src": 998,
      "dest": 892
    },
    {
      "src": 608,
      "dest": 521
    },
    {
      "src": 611,
      "dest": 524
    },
    {
      "src": 288,
      "dest": 262
    },
    {
      "src": 298,
      "dest": 272
    },
    {
      "src": 516,
      "dest": 485
    },
    {
      "src": 1031,
      "dest": 962
    },
    {
      "src": 1024,
      "dest": 932
    },
    {
      "src": 324,
      "dest": 298
    },
    {
      "src": 740,
      "dest": 650
    },
    {
      "src": 969,
      "dest": 861
    },
    {
      "src": 497,
      "dest": 466
    },
    {
      "src": 1223,
      "dest": 1162
    },
    {
      "src": 434,
      "dest": 406
    },
    {
      "src": 166,
      "dest": 140
    },
    {
      "src": 1091,
      "dest": 1022
    },
    {
      "src": 977,
      "dest": 869
    },
    {
      "src": 49,
      "dest": 63
    },
    {
      "src": 653,
      "dest": 566
    },
    {
      "src": 1115,
      "dest": 1046
    },
    {
      "src": 891,
      "dest": 783
    },
    {
      "src": 722,
      "dest": 635
    },
    {
      "src": 833,
      "dest": 725
    },
    {
      "src": 598,
      "dest": 511
    },
    {
      "src": 264,
      "dest": 238
    },
    {
      "src": 1044,
      "dest": 975
    },
    {
      "src": 388,
      "dest": 360
    },
    {
      "src": 270,
      "dest": 244
    },
    {
      "src": 194,
      "dest": 168
    },
    {
      "src": 844,
      "dest": 736
    },
    {
      "src": 1096,
      "dest": 1027
    },
    {
      "src": 1210,
      "dest": 1149
    },
    {
      "src": 415,
      "dest": 387
    },
    {
      "src": 967,
      "dest": 859
    },
    {
      "src": 189,
      "dest": 163
    },
    {
      "src": 766,
      "dest": 658
    },
    {
      "src": 82,
      "dest": 93
    },
    {
      "src": 1131,
      "dest": 1071
    },
    {
      "src": 614,
      "dest": 527
    },
    {
      "src": 933,
      "dest": 825
    },
    {
      "src": 79,
      "dest": 90
    },
    {
      "src": 439,
      "dest": 411
    },
    {
      "src": 1242,
      "dest": 1178
    },
    {
      "src": 394,
      "dest": 366
    },
    {
      "src": 502,
      "dest": 471
    },
    {
      "src": 1199,
      "dest": 1138
    },
    {
      "src": 645,
      "dest": 558
    },
    {
      "src": 901,
      "dest": 793
    },
    {
      "src": 353,
      "dest": 327
    },
    {
      "src": 903,
      "dest": 795
    },
    {
      "src": 991,
      "dest": 885
    },
    {
      "src": 1003,
      "dest": 911
    },
    {
      "src": 742,
      "dest": 652
    },
    {
      "src": 674,
      "dest": 587
    },
    {
      "src": 1218,
      "dest": 1157
    },
    {
      "src": 308,
      "dest": 282
    },
    {
      "src": 978,
      "dest": 870
    },
    {
      "src": 1169,
      "dest": 1108
    },
    {
      "src": 368,
      "dest": 342
    },
    {
      "src": 1158,
      "dest": 1097
    },
    {
      "src": 278,
      "dest": 252
    },
    {
      "src": 1226,
      "dest": 1165
    },
    {
      "src": 1171,
      "dest": 1110
    },
    {
      "src": 709,
      "dest": 622
    },
    {
      "src": 1112,
      "dest": 1043
    },
    {
      "src": 70,
      "dest": 81
    },
    {
      "src": 284,
      "dest": 258
    },
    {
      "src": 292,
      "dest": 266
    },
    {
      "src": 867,
      "dest": 759
    },
    {
      "src": 325,
      "dest": 299
    },
    {
      "src": 132,
      "dest": 106
    },
    {
      "src": 1038,
      "dest": 969
    },
    {
      "src": 694,
      "dest": 607
    },
    {
      "src": 1230,
      "dest": 1169
    },
    {
      "src": 229,
      "dest": 203
    },
    {
      "src": 1093,
      "dest": 1024
    },
    {
      "src": 828,
      "dest": 720
    },
    {
      "src": 291,
      "dest": 265
    },
    {
      "src": 663,
      "dest": 576
    },
    {
      "src": 225,
      "dest": 199
    },
    {
      "src": 417,
      "dest": 389
    },
    {
      "src": 1144,
      "dest": 1083
    },
    {
      "src": 493,
      "dest": 465
    },
    {
      "src": 698,
      "dest": 611
    },
    {
      "src": 46,
      "dest": 60
    },
    {
      "src": 412,
      "dest": 384
    },
    {
      "src": 329,
      "dest": 303
    },
    {
      "src": 1043,
      "dest": 974
    },
    {
      "src": 1141,
      "dest": 1080
    },
    {
      "src": 973,
      "dest": 865
    },
    {
      "src": 240,
      "dest": 214
    },
    {
      "src": 393,
      "dest": 365
    },
    {
      "src": 262,
      "dest": 236
    },
    {
      "src": 1078,
      "dest": 1009
    },
    {
      "src": 275,
      "dest": 249
    },
    {
      "src": 895,
      "dest": 787
    },
    {
      "src": 866,
      "dest": 758
    },
    {
      "src": 1211,
      "dest": 1150
    },
    {
      "src": 408,
      "dest": 380
    },
    {
      "src": 338,
      "dest": 312
    },
    {
      "src": 809,
      "dest": 701
    },
    {
      "src": 873,
      "dest": 765
    },
    {
      "src": 767,
      "dest": 659
    },
    {
      "src": 1107,
      "dest": 1038
    },
    {
      "src": 491,
      "dest": 463
    },
    {
      "src": 318,
      "dest": 292
    },
    {
      "src": 505,
      "dest": 474
    },
    {
      "src": 375,
      "dest": 347
    },
    {
      "src": 667,
      "dest": 580
    },
    {
      "src": 77,
      "dest": 88
    },
    {
      "src": 437,
      "dest": 409
    },
    {
      "src": 725,
      "dest": 638
    },
    {
      "src": 882,
      "dest": 774
    },
    {
      "src": 1148,
      "dest": 1087
    },
    {
      "src": 149,
      "dest": 123
    },
    {
      "src": 157,
      "dest": 131
    },
    {
      "src": 84,
      "dest": 95
    },
    {
      "src": 644,
      "dest": 557
    },
    {
      "src": 682,
      "dest": 595
    },
    {
      "src": 276,
      "dest": 250
    },
    {
      "src": 864,
      "dest": 756
    },
    {
      "src": 310,
      "dest": 284
    },
    {
      "src": 679,
      "dest": 592
    },
    {
      "src": 628,
      "dest": 541
    },
    {
      "src": 1134,
      "dest": 1074
    },
    {
      "src": 1121,
      "dest": 1049
    },
    {
      "src": 421,
      "dest": 393
    },
    {
      "src": 296,
      "dest": 270
    },
    {
      "src": 481,
      "dest": 453
    },
    {
      "src": 500,
      "dest": 469
    },
    {
      "src": 307,
      "dest": 281
    },
    {
      "src": 880,
      "dest": 772
    },
    {
      "src": 877,
      "dest": 769
    },
    {
      "src": 266,
      "dest": 240
    },
    {
      "src": 1219,
      "dest": 1158
    },
    {
      "src": 1186,
      "dest": 1125
    },
    {
      "src": 776,
      "dest": 668
    },
    {
      "src": 947,
      "dest": 839
    },
    {
      "src": 961,
      "dest": 853
    },
    {
      "src": 501,
      "dest": 470
    },
    {
      "src": 936,
      "dest": 828
    },
    {
      "src": 805,
      "dest": 697
    },
    {
      "src": 612,
      "dest": 525
    },
    {
      "src": 66,
      "dest": 77
    },
    {
      "src": 950,
      "dest": 842
    },
    {
      "src": 265,
      "dest": 239
    },
    {
      "src": 286,
      "dest": 260
    },
    {
      "src": 152,
      "dest": 126
    },
    {
      "src": 1203,
      "dest": 1142
    },
    {
      "src": 23,
      "dest": 23
    },
    {
      "src": 468,
      "dest": 440
    },
    {
      "src": 453,
      "dest": 425
    },
    {
      "src": 1007,
      "dest": 915
    },
    {
      "src": 281,
      "dest": 255
    },
    {
      "src": 718,
      "dest": 631
    },
    {
      "src": 840,
      "dest": 732
    },
    {
      "src": 733,
      "dest": 643
    },
    {
      "src": 812,
      "dest": 704
    },
    {
      "src": 185,
      "dest": 159
    },
    {
      "src": 233,
      "dest": 207
    },
    {
      "src": 918,
      "dest": 810
    },
    {
      "src": 219,
      "dest": 193
    },
    {
      "src": 443,
      "dest": 415
    },
    {
      "src": 700,
      "dest": 613
    },
    {
      "src": 487,
      "dest": 459
    },
    {
      "src": 344,
      "dest": 318
    },
    {
      "src": 1092,
      "dest": 1023
    },
    {
      "src": 1071,
      "dest": 1002
    },
    {
      "src": 1194,
      "dest": 1133
    },
    {
      "src": 970,
      "dest": 862
    },
    {
      "src": 187,
      "dest": 161
    },
    {
      "src": 213,
      "dest": 187
    },
    {
      "src": 910,
      "dest": 802
    },
    {
      "src": 26,
      "dest": 26
    },
    {
      "src": 1006,
      "dest": 914
    },
    {
      "src": 273,
      "dest": 247
    },
    {
      "src": 963,
      "dest": 855
    },
    {
      "src": 894,
      "dest": 786
    },
    {
      "src": 17,
      "dest": 17
    },
    {
      "src": 177,
      "dest": 151
    },
    {
      "src": 707,
      "dest": 620
    },
    {
      "src": 788,
      "dest": 680
    },
    {
      "src": 779,
      "dest": 671
    },
    {
      "src": 342,
      "dest": 316
    },
    {
      "src": 350,
      "dest": 324
    },
    {
      "src": 920,
      "dest": 812
    },
    {
      "src": 363,
      "dest": 337
    },
    {
      "src": 7,
      "dest": 7
    },
    {
      "src": 892,
      "dest": 784
    },
    {
      "src": 1228,
      "dest": 1167
    },
    {
      "src": 474,
      "dest": 446
    },
    {
      "src": 924,
      "dest": 816
    },
    {
      "src": 670,
      "dest": 583
    },
    {
      "src": 1102,
      "dest": 1033
    },
    {
      "src": 934,
      "dest": 826
    },
    {
      "src": 796,
      "dest": 688
    },
    {
      "src": 765,
      "dest": 657
    },
    {
      "src": 690,
      "dest": 603
    },
    {
      "src": 1028,
      "dest": 936
    },
    {
      "src": 1079,
      "dest": 1010
    },
    {
      "src": 1192,
      "dest": 1131
    },
    {
      "src": 1142,
      "dest": 1081
    },
    {
      "src": 192,
      "dest": 166
    },
    {
      "src": 1165,
      "dest": 1104
    },
    {
      "src": 1166,
      "dest": 1105
    },
    {
      "src": 898,
      "dest": 790
    },
    {
      "src": 837,
      "dest": 729
    },
    {
      "src": 843,
      "dest": 735
    },
    {
      "src": 321,
      "dest": 295
    },
    {
      "src": 20,
      "dest": 20
    },
    {
      "src": 472,
      "dest": 444
    },
    {
      "src": 50,
      "dest": 64
    },
    {
      "src": 665,
      "dest": 578
    },
    {
      "src": 202,
      "dest": 176
    },
    {
      "src": 524,
      "dest": 493
    },
    {
      "src": 249,
      "dest": 223
    },
    {
      "src": 479,
      "dest": 451
    },
    {
      "src": 159,
      "dest": 133
    },
    {
      "src": 1099,
      "dest": 1030
    },
    {
      "src": 1073,
      "dest": 1004
    },
    {
      "src": 585,
      "dest": 498
    },
    {
      "src": 814,
      "dest": 706
    },
    {
      "src": 613,
      "dest": 526
    },
    {
      "src": 999,
      "dest": 893
    },
    {
      "src": 1060,
      "dest": 991
    },
    {
      "src": 396,
      "dest": 368
    },
    {
      "src": 1036,
      "dest": 967
    },
    {
      "src": 15,
      "dest": 15
    },
    {
      "src": 972,
      "dest": 864
    },
    {
      "src": 1154,
      "dest": 1093
    },
    {
      "src": 525,
      "dest": 494
    },
    {
      "src": 464,
      "dest": 436
    },
    {
      "src": 803,
      "dest": 695
    },
    {
      "src": 627,
      "dest": 540
    },
    {
      "src": 995,
      "dest": 889
    },
    {
      "src": 302,
      "dest": 276
    },
    {
      "src": 636,
      "dest": 549
    },
    {
      "src": 164,
      "dest": 138
    },
    {
      "src": 946,
      "dest": 838
    },
    {
      "src": 1233,
      "dest": 1172
    },
    {
      "src": 616,
      "dest": 529
    },
    {
      "src": 301,
      "dest": 275
    },
    {
      "src": 959,
      "dest": 851
    },
    {
      "src": 1149,
      "dest": 1088
    },
    {
      "src": 40,
      "dest": 40
    },
    {
      "src": 1196,
      "dest": 1135
    },
    {
      "src": 1098,
      "dest": 1029
    },
    {
      "src": 252,
      "dest": 226
    },
    {
      "src": 448,
      "dest": 420
    },
    {
      "src": 295,
      "dest": 269
    },
    {
      "src": 1178,
      "dest": 1117
    },
    {
      "src": 662,
      "dest": 575
    },
    {
      "src": 952,
      "dest": 844
    },
    {
      "src": 180,
      "dest": 154
    },
    {
      "src": 268,
      "dest": 242
    },
    {
      "src": 1040,
      "dest": 971
    },
    {
      "src": 131,
      "dest": 105
    },
    {
      "src": 854,
      "dest": 746
    },
    {
      "src": 856,
      "dest": 748
    },
    {
      "src": 1214,
      "dest": 1153
    },
    {
      "src": 380,
      "dest": 352
    },
    {
      "src": 890,
      "dest": 782
    },
    {
      "src": 822,
      "dest": 714
    },
    {
      "src": 744,
      "dest": 654
    },
    {
      "src": 22,
      "dest": 22
    },
    {
      "src": 269,
      "dest": 243
    },
    {
      "src": 383,
      "dest": 355
    },
    {
      "src": 136,
      "dest": 110
    },
    {
      "src": 127,
      "dest": 101
    },
    {
      "src": 657,
      "dest": 570
    },
    {
      "src": 851,
      "dest": 743
    },
    {
      "src": 209,
      "dest": 183
    },
    {
      "src": 889,
      "dest": 781
    },
    {
      "src": 1101,
      "dest": 1032
    },
    {
      "src": 706,
      "dest": 619
    },
    {
      "src": 974,
      "dest": 866
    },
    {
      "src": 424,
      "dest": 396
    },
    {
      "src": 985,
      "dest": 943
    },
    {
      "src": 430,
      "dest": 402
    },
    {
      "src": 845,
      "dest": 737
    },
    {
      "src": 736,
      "dest": 646
    },
    {
      "src": 351,
      "dest": 325
    },
    {
      "src": 697,
      "dest": 610
    },
    {
      "src": 839,
      "dest": 731
    },
    {
      "src": 41,
      "dest": 55
    },
    {
      "src": 791,
      "dest": 683
    },
    {
      "src": 591,
      "dest": 504
    },
    {
      "src": 160,
      "dest": 134
    },
    {
      "src": 406,
      "dest": 378
    },
    {
      "src": 313,
      "dest": 287
    },
    {
      "src": 75,
      "dest": 86
    },
    {
      "src": 1069,
      "dest": 1000
    },
    {
      "src": 76,
      "dest": 87
    },
    {
      "src": 1174,
      "dest": 1113
    },
    {
      "src": 806,
      "dest": 698
    },
    {
      "src": 508,
      "dest": 477
    },
    {
      "src": 1170,
      "dest": 1109
    },
    {
      "src": 398,
      "dest": 370
    },
    {
      "src": 51,
      "dest": 65
    },
    {
      "src": 1039,
      "dest": 970
    },
    {
      "src": 376,
      "dest": 348
    },
    {
      "src": 1000,
      "dest": 894
    },
    {
      "src": 827,
      "dest": 719
    },
    {
      "src": 319,
      "dest": 293
    },
    {
      "src": 144,
      "dest": 118
    },
    {
      "src": 370,
      "dest": 344
    },
    {
      "src": 163,
      "dest": 137
    },
    {
      "src": 315,
      "dest": 289
    },
    {
      "src": 6,
      "dest": 6
    },
    {
      "src": 1050,
      "dest": 981
    },
    {
      "src": 62,
      "dest": 73
    },
    {
      "src": 137,
      "dest": 111
    },
    {
      "src": 1143,
      "dest": 1082
    },
    {
      "src": 643,
      "dest": 556
    },
    {
      "src": 586,
      "dest": 499
    },
    {
      "src": 461,
      "dest": 433
    },
    {
      "src": 511,
      "dest": 480
    },
    {
      "src": 685,
      "dest": 598
    },
    {
      "src": 400,
      "dest": 372
    },
    {
      "src": 514,
      "dest": 483
    },
    {
      "src": 966,
      "dest": 858
    },
    {
      "src": 780,
      "dest": 672
    },
    {
      "src": 596,
      "dest": 509
    },
    {
      "src": 52,
      "dest": 66
    },
    {
      "src": 1240,
      "dest": 1176
    },
    {
      "src": 45,
      "dest": 59
    },
    {
      "src": 887,
      "dest": 779
    },
    {
      "src": 589,
      "dest": 502
    },
    {
      "src": 475,
      "dest": 447
    },
    {
      "src": 654,
      "dest": 567
    },
    {
      "src": 781,
      "dest": 673
    },
    {
      "src": 691,
      "dest": 604
    },
    {
      "src": 382,
      "dest": 354
    },
    {
      "src": 673,
      "dest": 586
    },
    {
      "src": 1067,
      "dest": 998
    },
    {
      "src": 677,
      "dest": 590
    },
    {
      "src": 345,
      "dest": 319
    },
    {
      "src": 1076,
      "dest": 1007
    },
    {
      "src": 1022,
      "dest": 930
    },
    {
      "src": 785,
      "dest": 677
    },
    {
      "src": 922,
      "dest": 814
    },
    {
      "src": 601,
      "dest": 514
    },
    {
      "src": 317,
      "dest": 291
    },
    {
      "src": 735,
      "dest": 645
    },
    {
      "src": 11,
      "dest": 11
    },
    {
      "src": 426,
      "dest": 398
    },
    {
      "src": 243,
      "dest": 217
    },
    {
      "src": 939,
      "dest": 831
    },
    {
      "src": 507,
      "dest": 476
    },
    {
      "src": 975,
      "dest": 867
    },
    {
      "src": 897,
      "dest": 789
    },
    {
      "src": 793,
      "dest": 685
    },
    {
      "src": 447,
      "dest": 419
    },
    {
      "src": 741,
      "dest": 651
    },
    {
      "src": 826,
      "dest": 718
    },
    {
      "src": 619,
      "dest": 532
    },
    {
      "src": 129,
      "dest": 103
    },
    {
      "src": 458,
      "dest": 430
    },
    {
      "src": 242,
      "dest": 216
    },
    {
      "src": 816,
      "dest": 708
    },
    {
      "src": 395,
      "dest": 367
    },
    {
      "src": 1159,
      "dest": 1098
    },
    {
      "src": 1004,
      "dest": 912
    },
    {
      "src": 984,
      "dest": 942
    },
    {
      "src": 600,
      "dest": 513
    },
    {
      "src": 821,
      "dest": 713
    },
    {
      "src": 29,
      "dest": 29
    },
    {
      "src": 181,
      "dest": 155
    },
    {
      "src": 870,
      "dest": 762
    },
    {
      "src": 420,
      "dest": 392
    },
    {
      "src": 881,
      "dest": 773
    },
    {
      "src": 1220,
      "dest": 1159
    },
    {
      "src": 1213,
      "dest": 1152
    },
    {
      "src": 990,
      "dest": 948
    },
    {
      "src": 1217,
      "dest": 1156
    },
    {
      "src": 772,
      "dest": 664
    },
    {
      "src": 1151,
      "dest": 1090
    },
    {
      "src": 857,
      "dest": 749
    },
    {
      "src": 255,
      "dest": 229
    },
    {
      "src": 1015,
      "dest": 923
    },
    {
      "src": 1048,
      "dest": 979
    },
    {
      "src": 389,
      "dest": 361
    },
    {
      "src": 232,
      "dest": 206
    },
    {
      "src": 1113,
      "dest": 1044
    },
    {
      "src": 737,
      "dest": 647
    },
    {
      "src": 367,
      "dest": 341
    },
    {
      "src": 1248,
      "dest": 1183
    },
    {
      "src": 397,
      "dest": 369
    },
    {
      "src": 392,
      "dest": 364
    },
    {
      "src": 582,
      "dest": 495
    },
    {
      "src": 1029,
      "dest": 960
    },
    {
      "src": 299,
      "dest": 273
    },
    {
      "src": 1163,
      "dest": 1102
    },
    {
      "src": 304,
      "dest": 278
    },
    {
      "src": 1011,
      "dest": 919
    },
    {
      "src": 1114,
      "dest": 1045
    },
    {
      "src": 943,
      "dest": 835
    },
    {
      "src": 361,
      "dest": 335
    },
    {
      "src": 618,
      "dest": 531
    },
    {
      "src": 1252,
      "dest": 1187
    },
    {
      "src": 183,
      "dest": 157
    },
    {
      "src": 419,
      "dest": 391
    },
    {
      "src": 1184,
      "dest": 1123
    },
    {
      "src": 1106,
      "dest": 1037
    },
    {
      "src": 280,
      "dest": 254
    },
    {
      "src": 241,
      "dest": 215
    },
    {
      "src": 331,
      "dest": 305
    },
    {
      "src": 917,
      "dest": 809
    },
    {
      "src": 650,
      "dest": 563
    },
    {
      "src": 980,
      "dest": 938
    },
    {
      "src": 1212,
      "dest": 1151
    },
    {
      "src": 513,
      "dest": 482
    },
    {
      "src": 841,
      "dest": 733
    },
    {
      "src": 686,
      "dest": 599
    },
    {
      "src": 48,
      "dest": 62
    },
    {
      "src": 73,
      "dest": 84
    },
    {
      "src": 191,
      "dest": 165
    },
    {
      "src": 640,
      "dest": 553
    },
    {
      "src": 1082,
      "dest": 1013
    },
    {
      "src": 584,
      "dest": 497
    },
    {
      "src": 602,
      "dest": 515
    },
    {
      "src": 874,
      "dest": 766
    },
    {
      "src": 962,
      "dest": 854
    },
    {
      "src": 872,
      "dest": 764
    },
    {
      "src": 25,
      "dest": 25
    },
    {
      "src": 135,
      "dest": 109
    },
    {
      "src": 819,
      "dest": 711
    },
    {
      "src": 1077,
      "dest": 1008
    },
    {
      "src": 693,
      "dest": 606
    },
    {
      "src": 139,
      "dest": 113
    },
    {
      "src": 1009,
      "dest": 917
    },
    {
      "src": 1206,
      "dest": 1145
    },
    {
      "src": 834,
      "dest": 726
    },
    {
      "src": 927,
      "dest": 819
    },
    {
      "src": 441,
      "dest": 413
    },
    {
      "src": 470,
      "dest": 442
    },
    {
      "src": 652,
      "dest": 565
    },
    {
      "src": 630,
      "dest": 543
    },
    {
      "src": 254,
      "dest": 228
    },
    {
      "src": 126,
      "dest": 100
    },
    {
      "src": 1150,
      "dest": 1089
    },
    {
      "src": 360,
      "dest": 334
    },
    {
      "src": 913,
      "dest": 805
    },
    {
      "src": 358,
      "dest": 332
    },
    {
      "src": 248,
      "dest": 222
    },
    {
      "src": 36,
      "dest": 36
    },
    {
      "src": 455,
      "dest": 427
    },
    {
      "src": 354,
      "dest": 328
    },
    {
      "src": 606,
      "dest": 519
    },
    {
      "src": 205,
      "dest": 179
    },
    {
      "src": 801,
      "dest": 693
    },
    {
      "src": 815,
      "dest": 707
    },
    {
      "src": 429,
      "dest": 401
    },
    {
      "src": 407,
      "dest": 379
    },
    {
      "src": 143,
      "dest": 117
    },
    {
      "src": 28,
      "dest": 28
    },
    {
      "src": 0,
      "dest": 0
    },
    {
      "src": 58,
      "dest": 69
    },
    {
      "src": 919,
      "dest": 811
    },
    {
      "src": 256,
      "dest": 230
    },
    {
      "src": 941,
      "dest": 833
    },
    {
      "src": 900,
      "dest": 792
    },
    {
      "src": 625,
      "dest": 538
    },
    {
      "src": 201,
      "dest": 175
    },
    {
      "src": 1238,
      "dest": 1174
    },
    {
      "src": 32,
      "dest": 32
    },
    {
      "src": 156,
      "dest": 130
    },
    {
      "src": 1157,
      "dest": 1096
    },
    {
      "src": 859,
      "dest": 751
    },
    {
      "src": 775,
      "dest": 667
    },
    {
      "src": 67,
      "dest": 78
    },
    {
      "src": 208,
      "dest": 182
    },
    {
      "src": 1216,
      "dest": 1155
    },
    {
      "src": 699,
      "dest": 612
    },
    {
      "src": 10,
      "dest": 10
    },
    {
      "src": 838,
      "dest": 730
    },
    {
      "src": 416,
      "dest": 388
    },
    {
      "src": 74,
      "dest": 85
    },
    {
      "src": 409,
      "dest": 381
    },
    {
      "src": 676,
      "dest": 589
    },
    {
      "src": 925,
      "dest": 817
    },
    {
      "src": 402,
      "dest": 374
    },
    {
      "src": 188,
      "dest": 162
    },
    {
      "src": 681,
      "dest": 594
    },
    {
      "src": 63,
      "dest": 74
    },
    {
      "src": 823,
      "dest": 715
    },
    {
      "src": 587,
      "dest": 500
    },
    {
      "src": 347,
      "dest": 321
    },
    {
      "src": 1104,
      "dest": 1035
    },
    {
      "src": 81,
      "dest": 92
    },
    {
      "src": 1172,
      "dest": 1111
    },
    {
      "src": 1075,
      "dest": 1006
    },
    {
      "src": 244,
      "dest": 218
    },
    {
      "src": 1020,
      "dest": 928
    },
    {
      "src": 130,
      "dest": 104
    },
    {
      "src": 1066,
      "dest": 997
    },
    {
      "src": 56,
      "dest": 67
    },
    {
      "src": 326,
      "dest": 300
    },
    {
      "src": 1130,
      "dest": 1070
    },
    {
      "src": 783,
      "dest": 675
    },
    {
      "src": 207,
      "dest": 181
    },
    {
      "src": 1129,
      "dest": 1069
    },
    {
      "src": 1160,
      "dest": 1099
    },
    {
      "src": 624,
      "dest": 537
    },
    {
      "src": 790,
      "dest": 682
    },
    {
      "src": 293,
      "dest": 267
    },
    {
      "src": 64,
      "dest": 75
    },
    {
      "src": 1055,
      "dest": 986
    },
    {
      "src": 21,
      "dest": 21
    },
    {
      "src": 1207,
      "dest": 1146
    },
    {
      "src": 1049,
      "dest": 980
    },
    {
      "src": 374,
      "dest": 346
    },
    {
      "src": 200,
      "dest": 174
    },
    {
      "src": 590,
      "dest": 503
    },
    {
      "src": 1164,
      "dest": 1103
    },
    {
      "src": 787,
      "dest": 679
    },
    {
      "src": 993,
      "dest": 887
    },
    {
      "src": 1183,
      "dest": 1122
    },
    {
      "src": 1250,
      "dest": 1185
    },
    {
      "src": 366,
      "dest": 340
    },
    {
      "src": 359,
      "dest": 333
    },
    {
      "src": 427,
      "dest": 399
    },
    {
      "src": 1244,
      "dest": 1180
    },
    {
      "src": 425,
      "dest": 397
    },
    {
      "src": 937,
      "dest": 829
    },
    {
      "src": 1222,
      "dest": 1161
    },
    {
      "src": 926,
      "dest": 818
    },
    {
      "src": 72,
      "dest": 83
    },
    {
      "src": 1234,
      "dest": 1173
    },
    {
      "src": 726,
      "dest": 639
    },
    {
      "src": 234,
      "dest": 208
    },
    {
      "src": 960,
      "dest": 852
    },
    {
      "src": 955,
      "dest": 847
    },
    {
      "src": 485,
      "dest": 457
    },
    {
      "src": 410,
      "dest": 382
    },
    {
      "src": 13,
      "dest": 13
    },
    {
      "src": 328,
      "dest": 302
    },
    {
      "src": 605,
      "dest": 518
    },
    {
      "src": 1041,
      "dest": 972
    },
    {
      "src": 349,
      "dest": 323
    },
    {
      "src": 721,
      "dest": 634
    },
    {
      "src": 948,
      "dest": 840
    },
    {
      "src": 5,
      "dest": 5
    },
    {
      "src": 69,
      "dest": 80
    },
    {
      "src": 1116,
      "dest": 1047
    },
    {
      "src": 675,
      "dest": 588
    },
    {
      "src": 592,
      "dest": 505
    },
    {
      "src": 463,
      "dest": 435
    },
    {
      "src": 938,
      "dest": 830
    },
    {
      "src": 909,
      "dest": 801
    },
    {
      "src": 1018,
      "dest": 926
    },
    {
      "src": 128,
      "dest": 102
    },
    {
      "src": 921,
      "dest": 813
    },
    {
      "src": 203,
      "dest": 177
    },
    {
      "src": 214,
      "dest": 188
    },
    {
      "src": 1215,
      "dest": 1154
    },
    {
      "src": 411,
      "dest": 383
    },
    {
      "src": 482,
      "dest": 454
    },
    {
      "src": 708,
      "dest": 621
    },
    {
      "src": 379,
      "dest": 351
    },
    {
      "src": 486,
      "dest": 458
    },
    {
      "src": 190,
      "dest": 164
    },
    {
      "src": 743,
      "dest": 653
    },
    {
      "src": 1014,
      "dest": 922
    },
    {
      "src": 713,
      "dest": 626
    },
    {
      "src": 271,
      "dest": 245
    },
    {
      "src": 211,
      "dest": 185
    },
    {
      "src": 282,
      "dest": 256
    },
    {
      "src": 878,
      "dest": 770
    },
    {
      "src": 153,
      "dest": 127
    },
    {
      "src": 274,
      "dest": 248
    },
    {
      "src": 334,
      "dest": 308
    },
    {
      "src": 876,
      "dest": 768
    },
    {
      "src": 623,
      "dest": 536
    },
    {
      "src": 928,
      "dest": 820
    },
    {
      "src": 852,
      "dest": 744
    },
    {
      "src": 1054,
      "dest": 985
    },
    {
      "src": 184,
      "dest": 158
    },
    {
      "src": 629,
      "dest": 542
    },
    {
      "src": 912,
      "dest": 804
    },
    {
      "src": 884,
      "dest": 776
    },
    {
      "src": 869,
      "dest": 761
    },
    {
      "src": 1147,
      "dest": 1086
    },
    {
      "src": 469,
      "dest": 441
    },
    {
      "src": 1,
      "dest": 1
    },
    {
      "src": 1046,
      "dest": 977
    },
    {
      "src": 340,
      "dest": 314
    },
    {
      "src": 162,
      "dest": 136
    },
    {
      "src": 710,
      "dest": 623
    },
    {
      "src": 24,
      "dest": 24
    },
    {
      "src": 440,
      "dest": 412
    },
    {
      "src": 715,
      "dest": 628
    },
    {
      "src": 1205,
      "dest": 1144
    },
    {
      "src": 798,
      "dest": 690
    },
    {
      "src": 80,
      "dest": 91
    },
    {
      "src": 1137,
      "dest": 1077
    },
    {
      "src": 290,
      "dest": 264
    },
    {
      "src": 522,
      "dest": 491
    },
    {
      "src": 1087,
      "dest": 1018
    },
    {
      "src": 764,
      "dest": 656
    },
    {
      "src": 1179,
      "dest": 1118
    },
    {
      "src": 846,
      "dest": 738
    },
    {
      "src": 206,
      "dest": 180
    },
    {
      "src": 655,
      "dest": 568
    },
    {
      "src": 35,
      "dest": 35
    },
    {
      "src": 171,
      "dest": 145
    },
    {
      "src": 1013,
      "dest": 921
    },
    {
      "src": 714,
      "dest": 627
    },
    {
      "src": 179,
      "dest": 153
    },
    {
      "src": 483,
      "dest": 455
    },
    {
      "src": 337,
      "dest": 311
    },
    {
      "src": 31,
      "dest": 31
    },
    {
      "src": 150,
      "dest": 124
    },
    {
      "src": 521,
      "dest": 490
    },
    {
      "src": 666,
      "dest": 579
    },
    {
      "src": 449,
      "dest": 421
    },
    {
      "src": 648,
      "dest": 561
    },
    {
      "src": 297,
      "dest": 271
    },
    {
      "src": 170,
      "dest": 144
    },
    {
      "src": 480,
      "dest": 452
    },
    {
      "src": 964,
      "dest": 856
    },
    {
      "src": 883,
      "dest": 775
    },
    {
      "src": 465,
      "dest": 437
    },
    {
      "src": 1021,
      "dest": 929
    },
    {
      "src": 503,
      "dest": 472
    },
    {
      "src": 230,
      "dest": 204
    },
    {
      "src": 1017,
      "dest": 925
    },
    {
      "src": 651,
      "dest": 564
    },
    {
      "src": 904,
      "dest": 796
    },
    {
      "src": 784,
      "dest": 676
    },
    {
      "src": 799,
      "dest": 691
    },
    {
      "src": 18,
      "dest": 18
    },
    {
      "src": 911,
      "dest": 803
    },
    {
      "src": 322,
      "dest": 296
    },
    {
      "src": 899,
      "dest": 791
    },
    {
      "src": 871,
      "dest": 763
    },
    {
      "src": 1135,
      "dest": 1075
    },
    {
      "src": 1005,
      "dest": 913
    },
    {
      "src": 438,
      "dest": 410
    },
    {
      "src": 173,
      "dest": 147
    },
    {
      "src": 842,
      "dest": 734
    },
    {
      "src": 174,
      "dest": 148
    },
    {
      "src": 133,
      "dest": 107
    },
    {
      "src": 30,
      "dest": 30
    },
    {
      "src": 930,
      "dest": 822
    },
    {
      "src": 478,
      "dest": 450
    },
    {
      "src": 294,
      "dest": 268
    },
    {
      "src": 1173,
      "dest": 1112
    },
    {
      "src": 155,
      "dest": 129
    },
    {
      "src": 825,
      "dest": 717
    },
    {
      "src": 154,
      "dest": 128
    },
    {
      "src": 1061,
      "dest": 992
    },
    {
      "src": 965,
      "dest": 857
    },
    {
      "src": 915,
      "dest": 807
    },
    {
      "src": 332,
      "dest": 306
    },
    {
      "src": 454,
      "dest": 426
    },
    {
      "src": 1239,
      "dest": 1175
    },
    {
      "src": 378,
      "dest": 350
    },
    {
      "src": 1132,
      "dest": 1072
    },
    {
      "src": 971,
      "dest": 863
    },
    {
      "src": 1068,
      "dest": 999
    },
    {
      "src": 1229,
      "dest": 1168
    },
    {
      "src": 996,
      "dest": 890
    },
    {
      "src": 617,
      "dest": 530
    },
    {
      "src": 333,
      "dest": 307
    },
    {
      "src": 404,
      "dest": 376
    },
    {
      "src": 422,
      "dest": 394
    },
    {
      "src": 504,
      "dest": 473
    },
    {
      "src": 1190,
      "dest": 1129
    },
    {
      "src": 386,
      "dest": 358
    },
    {
      "src": 65,
      "dest": 76
    },
    {
      "src": 1224,
      "dest": 1163
    },
    {
      "src": 1195,
      "dest": 1134
    },
    {
      "src": 272,
      "dest": 246
    },
    {
      "src": 218,
      "dest": 192
    },
    {
      "src": 335,
      "dest": 309
    },
    {
      "src": 423,
      "dest": 395
    },
    {
      "src": 688,
      "dest": 601
    },
    {
      "src": 773,
      "dest": 665
    },
    {
      "src": 1057,
      "dest": 988
    },
    {
      "src": 632,
      "dest": 545
    },
    {
      "src": 258,
      "dest": 232
    },
    {
      "src": 893,
      "dest": 785
    },
    {
      "src": 1042,
      "dest": 973
    },
    {
      "src": 401,
      "dest": 373
    },
    {
      "src": 277,
      "dest": 251
    },
    {
      "src": 634,
      "dest": 547
    },
    {
      "src": 1047,
      "dest": 978
    },
    {
      "src": 512,
      "dest": 481
    },
    {
      "src": 1059,
      "dest": 990
    },
    {
      "src": 635,
      "dest": 548
    },
    {
      "src": 739,
      "dest": 649
    },
    {
      "src": 951,
      "dest": 843
    },
    {
      "src": 1225,
      "dest": 1164
    },
    {
      "src": 300,
      "dest": 274
    },
    {
      "src": 594,
      "dest": 507
    },
    {
      "src": 3,
      "dest": 3
    },
    {
      "src": 1100,
      "dest": 1031
    },
    {
      "src": 595,
      "dest": 508
    },
    {
      "src": 186,
      "dest": 160
    },
    {
      "src": 403,
      "dest": 375
    },
    {
      "src": 167,
      "dest": 141
    },
    {
      "src": 446,
      "dest": 418
    },
    {
      "src": 1127,
      "dest": 1056
    },
    {
      "src": 217,
      "dest": 191
    },
    {
      "src": 498,
      "dest": 467
    },
    {
      "src": 868,
      "dest": 760
    },
    {
      "src": 1201,
      "dest": 1140
    },
    {
      "src": 1095,
      "dest": 1026
    },
    {
      "src": 413,
      "dest": 385
    },
    {
      "src": 976,
      "dest": 868
    },
    {
      "src": 1156,
      "dest": 1095
    },
    {
      "src": 124,
      "dest": 98
    },
    {
      "src": 285,
      "dest": 259
    },
    {
      "src": 626,
      "dest": 539
    },
    {
      "src": 983,
      "dest": 941
    },
    {
      "src": 848,
      "dest": 740
    },
    {
      "src": 141,
      "dest": 115
    },
    {
      "src": 786,
      "dest": 678
    },
    {
      "src": 362,
      "dest": 336
    },
    {
      "src": 1198,
      "dest": 1137
    },
    {
      "src": 260,
      "dest": 234
    },
    {
      "src": 387,
      "dest": 359
    },
    {
      "src": 1202,
      "dest": 1141
    },
    {
      "src": 336,
      "dest": 310
    },
    {
      "src": 1167,
      "dest": 1106
    },
    {
      "src": 769,
      "dest": 661
    },
    {
      "src": 1117,
      "dest": 1048
    },
    {
      "src": 125,
      "dest": 99
    },
    {
      "src": 929,
      "dest": 821
    },
    {
      "src": 477,
      "dest": 449
    },
    {
      "src": 484,
      "dest": 456
    },
    {
      "src": 792,
      "dest": 684
    },
    {
      "src": 320,
      "dest": 294
    },
    {
      "src": 435,
      "dest": 407
    },
    {
      "src": 1124,
      "dest": 1052
    },
    {
      "src": 689,
      "dest": 602
    },
    {
      "src": 385,
      "dest": 357
    },
    {
      "src": 473,
      "dest": 445
    },
    {
      "src": 1008,
      "dest": 916
    },
    {
      "src": 704,
      "dest": 617
    },
    {
      "src": 250,
      "dest": 224
    },
    {
      "src": 1070,
      "dest": 1001
    },
    {
      "src": 849,
      "dest": 741
    },
    {
      "src": 953,
      "dest": 845
    },
    {
      "src": 1097,
      "dest": 1028
    },
    {
      "src": 418,
      "dest": 390
    },
    {
      "src": 1108,
      "dest": 1039
    },
    {
      "src": 896,
      "dest": 788
    },
    {
      "src": 705,
      "dest": 618
    },
    {
      "src": 603,
      "dest": 516
    },
    {
      "src": 789,
      "dest": 681
    },
    {
      "src": 476,
      "dest": 448
    },
    {
      "src": 1155,
      "dest": 1094
    },
    {
      "src": 1191,
      "dest": 1130
    },
    {
      "src": 944,
      "dest": 836
    },
    {
      "src": 239,
      "dest": 213
    },
    {
      "src": 610,
      "dest": 523
    },
    {
      "src": 661,
      "dest": 574
    },
    {
      "src": 638,
      "dest": 551
    },
    {
      "src": 860,
      "dest": 752
    },
    {
      "src": 204,
      "dest": 178
    },
    {
      "src": 807,
      "dest": 699
    },
    {
      "src": 1231,
      "dest": 1170
    },
    {
      "src": 1001,
      "dest": 895
    },
    {
      "src": 711,
      "dest": 624
    },
    {
      "src": 263,
      "dest": 237
    },
    {
      "src": 716,
      "dest": 629
    },
    {
      "src": 364,
      "dest": 338
    },
    {
      "src": 729,
      "dest": 642
    },
    {
      "src": 1090,
      "dest": 1021
    },
    {
      "src": 467,
      "dest": 439
    },
    {
      "src": 832,
      "dest": 724
    },
    {
      "src": 444,
      "dest": 416
    },
    {
      "src": 853,
      "dest": 745
    },
    {
      "src": 499,
      "dest": 468
    },
    {
      "src": 817,
      "dest": 709
    },
    {
      "src": 649,
      "dest": 562
    },
    {
      "src": 371,
      "dest": 345
    },
    {
      "src": 309,
      "dest": 283
    },
    {
      "src": 246,
      "dest": 220
    },
    {
      "src": 916,
      "dest": 808
    },
    {
      "src": 818,
      "dest": 710
    },
    {
      "src": 433,
      "dest": 405
    },
    {
      "src": 622,
      "dest": 535
    },
    {
      "src": 719,
      "dest": 632
    },
    {
      "src": 1023,
      "dest": 931
    },
    {
      "src": 642,
      "dest": 555
    },
    {
      "src": 777,
      "dest": 669
    },
    {
      "src": 457,
      "dest": 429
    },
    {
      "src": 1110,
      "dest": 1041
    },
    {
      "src": 44,
      "dest": 58
    },
    {
      "src": 431,
      "dest": 403
    },
    {
      "src": 1025,
      "dest": 933
    },
    {
      "src": 886,
      "dest": 778
    },
    {
      "src": 257,
      "dest": 231
    },
    {
      "src": 1243,
      "dest": 1179
    },
    {
      "src": 287,
      "dest": 261
    },
    {
      "src": 1161,
      "dest": 1100
    },
    {
      "src": 1105,
      "dest": 1036
    },
    {
      "src": 875,
      "dest": 767
    },
    {
      "src": 1136,
      "dest": 1076
    },
    {
      "src": 888,
      "dest": 780
    },
    {
      "src": 1177,
      "dest": 1116
    },
    {
      "src": 175,
      "dest": 149
    },
    {
      "src": 738,
      "dest": 648
    },
    {
      "src": 197,
      "dest": 171
    },
    {
      "src": 231,
      "dest": 205
    },
    {
      "src": 12,
      "dest": 12
    },
    {
      "src": 221,
      "dest": 195
    },
    {
      "src": 1072,
      "dest": 1003
    },
    {
      "src": 782,
      "dest": 674
    },
    {
      "src": 1089,
      "dest": 1020
    },
    {
      "src": 140,
      "dest": 114
    },
    {
      "src": 42,
      "dest": 56
    },
    {
      "src": 942,
      "dest": 834
    },
    {
      "src": 346,
      "dest": 320
    },
    {
      "src": 850,
      "dest": 742
    },
    {
      "src": 460,
      "dest": 432
    },
    {
      "src": 1180,
      "dest": 1119
    },
    {
      "src": 198,
      "dest": 172
    },
    {
      "src": 1085,
      "dest": 1016
    },
    {
      "src": 621,
      "dest": 534
    },
    {
      "src": 237,
      "dest": 211
    },
    {
      "src": 940,
      "dest": 832
    },
    {
      "src": 802,
      "dest": 694
    },
    {
      "src": 348,
      "dest": 322
    },
    {
      "src": 520,
      "dest": 489
    },
    {
      "src": 459,
      "dest": 431
    },
    {
      "src": 436,
      "dest": 408
    },
    {
      "src": 835,
      "dest": 727
    },
    {
      "src": 523,
      "dest": 492
    },
    {
      "src": 979,
      "dest": 871
    },
    {
      "src": 583,
      "dest": 496
    },
    {
      "src": 633,
      "dest": 546
    },
    {
      "src": 692,
      "dest": 605
    },
    {
      "src": 146,
      "dest": 120
    },
    {
      "src": 196,
      "dest": 170
    },
    {
      "src": 148,
      "dest": 122
    },
    {
      "src": 1081,
      "dest": 1012
    },
    {
      "src": 38,
      "dest": 38
    },
    {
      "src": 390,
      "dest": 362
    },
    {
      "src": 905,
      "dest": 797
    },
    {
      "src": 327,
      "dest": 301
    },
    {
      "src": 945,
      "dest": 837
    },
    {
      "src": 357,
      "dest": 331
    },
    {
      "src": 1103,
      "dest": 1034
    },
    {
      "src": 1012,
      "dest": 920
    },
    {
      "src": 1146,
      "dest": 1085
    },
    {
      "src": 1185,
      "dest": 1124
    },
    {
      "src": 656,
      "dest": 569
    },
    {
      "src": 182,
      "dest": 156
    },
    {
      "src": 1181,
      "dest": 1120
    },
    {
      "src": 4,
      "dest": 4
    },
    {
      "src": 620,
      "dest": 533
    },
    {
      "src": 305,
      "dest": 279
    },
    {
      "src": 1189,
      "dest": 1128
    },
    {
      "src": 804,
      "dest": 696
    },
    {
      "src": 228,
      "dest": 202
    },
    {
      "src": 1111,
      "dest": 1042
    },
    {
      "src": 27,
      "dest": 27
    },
    {
      "src": 1246,
      "dest": 1181
    },
    {
      "src": 47,
      "dest": 61
    },
    {
      "src": 39,
      "dest": 39
    },
    {
      "src": 820,
      "dest": 712
    },
    {
      "src": 774,
      "dest": 666
    },
    {
      "src": 829,
      "dest": 721
    },
    {
      "src": 1221,
      "dest": 1160
    },
    {
      "src": 492,
      "dest": 464
    },
    {
      "src": 9,
      "dest": 9
    },
    {
      "src": 615,
      "dest": 528
    },
    {
      "src": 1051,
      "dest": 982
    },
    {
      "src": 1062,
      "dest": 993
    },
    {
      "src": 593,
      "dest": 506
    },
    {
      "src": 664,
      "dest": 577
    },
    {
      "src": 247,
      "dest": 221
    },
    {
      "src": 1182,
      "dest": 1121
    },
    {
      "src": 1083,
      "dest": 1014
    },
    {
      "src": 641,
      "dest": 554
    },
    {
      "src": 954,
      "dest": 846
    },
    {
      "src": 210,
      "dest": 184
    },
    {
      "src": 1187,
      "dest": 1126
    },
    {
      "src": 216,
      "dest": 190
    },
    {
      "src": 811,
      "dest": 703
    },
    {
      "src": 341,
      "dest": 315
    },
    {
      "src": 176,
      "dest": 150
    },
    {
      "src": 450,
      "dest": 422
    },
    {
      "src": 165,
      "dest": 139
    },
    {
      "src": 1145,
      "dest": 1084
    },
    {
      "src": 702,
      "dest": 615
    },
    {
      "src": 517,
      "dest": 486
    },
    {
      "src": 303,
      "dest": 277
    },
    {
      "src": 466,
      "dest": 438
    },
    {
      "src": 61,
      "dest": 72
    },
    {
      "src": 432,
      "dest": 404
    },
    {
      "src": 1086,
      "dest": 1017
    },
    {
      "src": 1249,
      "dest": 1184
    },
    {
      "src": 330,
      "dest": 304
    },
    {
      "src": 1241,
      "dest": 1177
    },
    {
      "src": 734,
      "dest": 644
    },
    {
      "src": 1123,
      "dest": 1051
    },
    {
      "src": 637,
      "dest": 550
    },
    {
      "src": 1253,
      "dest": 1188
    },
    {
      "src": 712,
      "dest": 625
    },
    {
      "src": 279,
      "dest": 253
    },
    {
      "src": 588,
      "dest": 501
    },
    {
      "src": 724,
      "dest": 637
    },
    {
      "src": 968,
      "dest": 860
    },
    {
      "src": 161,
      "dest": 135
    },
    {
      "src": 763,
      "dest": 655
    },
    {
      "src": 462,
      "dest": 434
    },
    {
      "src": 86,
      "dest": 97
    },
    {
      "src": 289,
      "dest": 263
    },
    {
      "src": 134,
      "dest": 108
    },
    {
      "src": 259,
      "dest": 233
    },
    {
      "src": 339,
      "dest": 313
    },
    {
      "src": 914,
      "dest": 806
    },
    {
      "src": 1045,
      "dest": 976
    },
    {
      "src": 808,
      "dest": 700
    },
    {
      "src": 935,
      "dest": 827
    },
    {
      "src": 1080,
      "dest": 1011
    },
    {
      "src": 356,
      "dest": 330
    },
    {
      "src": 489,
      "dest": 461
    },
    {
      "src": 1010,
      "dest": 918
    },
    {
      "src": 1064,
      "dest": 995
    },
    {
      "src": 931,
      "dest": 823
    },
    {
      "src": 1122,
      "dest": 1050
    },
    {
      "src": 365,
      "dest": 339
    },
    {
      "src": 178,
      "dest": 152
    },
    {
      "src": 369,
      "dest": 343
    },
    {
      "src": 800,
      "dest": 692
    },
    {
      "src": 488,
      "dest": 460
    },
    {
      "src": 352,
      "dest": 326
    },
    {
      "src": 1133,
      "dest": 1073
    },
    {
      "src": 59,
      "dest": 70
    },
    {
      "src": 355,
      "dest": 329
    },
    {
      "src": 1084,
      "dest": 1015
    },
    {
      "src": 994,
      "dest": 888
    },
    {
      "src": 671,
      "dest": 584
    },
    {
      "src": 267,
      "dest": 241
    },
    {
      "src": 71,
      "dest": 82
    },
    {
      "src": 607,
      "dest": 520
    },
    {
      "src": 1153,
      "dest": 1092
    },
    {
      "src": 428,
      "dest": 400
    },
    {
      "src": 212,
      "dest": 186
    },
    {
      "src": 1162,
      "dest": 1101
    },
    {
      "src": 1030,
      "dest": 961
    },
    {
      "src": 678,
      "dest": 591
    },
    {
      "src": 451,
      "dest": 423
    },
    {
      "src": 68,
      "dest": 79
    },
    {
      "src": 949,
      "dest": 841
    },
    {
      "src": 456,
      "dest": 428
    },
    {
      "src": 83,
      "dest": 94
    },
    {
      "src": 172,
      "dest": 146
    },
    {
      "src": 1125,
      "dest": 1053
    },
    {
      "src": 701,
      "dest": 614
    },
    {
      "src": 14,
      "dest": 14
    },
    {
      "src": 778,
      "dest": 670
    },
    {
      "src": 728,
      "dest": 641
    },
    {
      "src": 771,
      "dest": 663
    },
    {
      "src": 1152,
      "dest": 1091
    },
    {
      "src": 609,
      "dest": 522
    },
    {
      "src": 879,
      "dest": 771
    },
    {
      "src": 43,
      "dest": 57
    },
    {
      "src": 1063,
      "dest": 994
    },
    {
      "src": 1197,
      "dest": 1136
    },
    {
      "src": 222,
      "dest": 196
    },
    {
      "src": 245,
      "dest": 219
    },
    {
      "src": 830,
      "dest": 722
    },
    {
      "src": 902,
      "dest": 794
    },
    {
      "src": 452,
      "dest": 424
    },
    {
      "src": 151,
      "dest": 125
    },
    {
      "src": 1027,
      "dest": 935
    },
    {
      "src": 1053,
      "dest": 984
    },
    {
      "src": 1037,
      "dest": 968
    },
    {
      "src": 518,
      "dest": 487
    },
    {
      "src": 168,
      "dest": 142
    },
    {
      "src": 669,
      "dest": 582
    },
    {
      "src": 78,
      "dest": 89
    },
    {
      "src": 506,
      "dest": 475
    },
    {
      "src": 680,
      "dest": 593
    },
    {
      "src": 720,
      "dest": 633
    },
    {
      "src": 1056,
      "dest": 987
    },
    {
      "src": 684,
      "dest": 597
    },
    {
      "src": 836,
      "dest": 728
    },
    {
      "src": 34,
      "dest": 34
    },
    {
      "src": 989,
      "dest": 947
    },
    {
      "src": 235,
      "dest": 209
    },
    {
      "src": 1065,
      "dest": 996
    },
    {
      "src": 253,
      "dest": 227
    },
    {
      "src": 687,
      "dest": 600
    },
    {
      "src": 193,
      "dest": 167
    },
    {
      "src": 1232,
      "dest": 1171
    },
    {
      "src": 794,
      "dest": 686
    },
    {
      "src": 660,
      "dest": 573
    },
    {
      "src": 1140,
      "dest": 1079
    },
    {
      "src": 1033,
      "dest": 964
    },
    {
      "src": 236,
      "dest": 210
    },
    {
      "src": 223,
      "dest": 197
    },
    {
      "src": 862,
      "dest": 754
    },
    {
      "src": 227,
      "dest": 201
    },
    {
      "src": 316,
      "dest": 290
    },
    {
      "src": 238,
      "dest": 212
    },
    {
      "src": 37,
      "dest": 37
    },
    {
      "src": 727,
      "dest": 640
    },
    {
      "src": 658,
      "dest": 571
    },
    {
      "src": 220,
      "dest": 194
    },
    {
      "src": 696,
      "dest": 609
    },
    {
      "src": 1016,
      "dest": 924
    }
  ],
  "actions": [
    {
      "action": "insert",
      "tree": 47,
      "parent": 1188,
      "at": 7
    },
    {
      "action": "insert",
      "tree": 54,
      "parent": 1188,
      "at": 8
    },
    {
      "action": "insert",
      "tree": 46,
      "parent": 47,
      "at": 0
    },
    {
      "action": "insert",
      "tree": 53,
      "parent": 54,
      "at": 0
    },
    {
      "action": "insert",
      "tree": 42,
      "parent": 46,
      "at": 0
    },
    {
      "action": "insert",
      "tree": 43,
      "parent": 46,
      "at": 1
    },
    {
      "action": "insert",
      "tree": 45,
      "parent": 46,
      "at": 2
    },
    {
      "action": "insert",
      "tree": 49,
      "parent": 53,
      "at": 0
    },
    {
      "action": "insert",
      "tree": 50,
      "parent": 53,
      "at": 1
    },
    {
      "action": "insert",
      "tree": 52,
      "parent": 53,
      "at": 2
    },
    {
      "action": "insert",
      "tree": 41,
      "parent": 42,
      "at": 0
    },
    {
      "action": "insert",
      "tree": 44,
      "parent": 45,
      "at": 0
    },
    {
      "action": "insert",
      "tree": 48,
      "parent": 49,
      "at": 0
    },
    {
      "action": "insert",
      "tree": 51,
      "parent": 52,
      "at": 0
    },
    {
      "action": "move",
      "tree": 86,
      "parent": 98,
      "at": 0
    },
    {
      "action": "move",
      "tree": 525,
      "parent": 497,
      "at": 8
    },
    {
      "action": "update",
      "tree": 890,
      "label": "\"git-diff-cache [-p] [-r] [-z] [-m] [-M] [-R] [--cached] <tree-ish>\""
    },
    {
      "action": "insert",
      "tree": 1078,
      "parent": 1184,
      "at": 7
    },
    {
      "action": "move",
      "tree": 1244,
      "parent": 1184,
      "at": 14
    },
    {
      "action": "move",
      "tree": 1137,
      "parent": 1078,
      "at": 0
    },
    {
      "action": "insert",
      "tree": 959,
      "parent": 1016,
      "at": 7
    },
    {
      "action": "insert",
      "tree": 884,
      "parent": 913,
      "at": 1
    },
    {
      "action": "insert",
      "tree": 937,
      "parent": 959,
      "at": 0
    },
    {
      "action": "move",
      "tree": 990,
      "parent": 959,
      "at": 1
    },
    {
      "action": "insert",
      "tree": 958,
      "parent": 959,
      "at": 2
    },
    {
      "action": "insert",
      "tree": 882,
      "parent": 884,
      "at": 0
    },
    {
      "action": "insert",
      "tree": 883,
      "parent": 884,
      "at": 1
    },
    {
      "action": "insert",
      "tree": 910,
      "parent": 912,
      "at": 1
    },
    {
      "action": "insert",
      "tree": 956,
      "parent": 958,
      "at": 0
    },
    {
      "action": "insert",
      "tree": 957,
      "parent": 958,
      "at": 1
    },
    {
      "action": "insert",
      "tree": 1059,
      "parent": 1074,
      "at": 2
    },
    {
      "action": "move",
      "tree": 744,
      "parent": 655,
      "at": 1
    },
    {
      "action": "insert",
      "tree": 873,
      "parent": 882,
      "at": 0
    },
    {
      "action": "insert",
      "tree": 881,
      "parent": 882,
      "at": 1
    },
    {
      "action": "insert",
      "tree": 909,
      "parent": 910,
      "at": 0
    },
    {
      "action": "insert",
      "tree": 955,
      "parent": 956,
      "at": 0
    },
    {
      "action": "insert",
      "tree": 1055,
      "parent": 1056,
      "at": 0
    },
    {
      "action": "insert",
      "tree": 1058,
      "parent": 1059,
      "at": 0
    },
    {
      "action": "insert",
      "tree": 1068,
      "parent": 1069,
      "at": 0
    },
    {
      "action": "insert",
      "tree": 872,
      "parent": 873,
      "at": 0
    },
    {
      "action": "insert",
      "tree": 876,
      "parent": 881,
      "at": 0
    },
    {
      "action": "insert",
      "tree": 878,
      "parent": 881,
      "at": 1
    },
    {
      "action": "insert",
      "tree": 880,
      "parent": 881,
      "at": 2
    },
    {
      "action": "insert",
      "tree": 907,
      "parent": 909,
      "at": 0
    },
    {
      "action": "insert",
      "tree": 908,
      "parent": 909,
      "at": 1
    },
    {
      "action": "insert",
      "tree": 953,
      "parent": 955,
      "at": 0
    },
    {
      "action": "insert",
      "tree": 954,
      "parent": 955,
      "at": 1
    },
    {
      "action": "insert",
      "tree": 1054,
      "parent": 1055,
      "at": 0
    },
    {
      "action": "insert",
      "tree": 1057,
      "parent": 1058,
      "at": 0
    },
    {
      "action": "insert",
      "tree": 1067,
      "parent": 1068,
      "at": 0
    },
    {
      "action": "insert",
      "tree": 875,
      "parent": 876,
      "at": 0
    },
    {
      "action": "insert",
      "tree": 877,
      "parent": 878,
      "at": 0
    },
    {
      "action": "insert",
      "tree": 879,
      "parent": 880,
      "at": 0
    },
    {
      "action": "insert",
      "tree": 898,
      "parent": 907,
      "at": 0
    },
    {
      "action": "insert",
      "tree": 899,
      "parent": 907,
      "at": 1
    },
    {
      "action": "insert",
      "tree": 906,
      "parent": 907,
      "at": 2
    },
    {
      "action": "update",
      "tree": 985,
      "label": "\"-R\""
    },
    {
      "action": "insert",
      "tree": 950,
      "parent": 953,
      "at": 0
    },
    {
      "action": "insert",
      "tree": 951,
      "parent": 953,
      "at": 1
    },
    {
      "action": "insert",
      "tree": 952,
      "parent": 953,
      "at": 2
    },
    {
      "action": "insert",
      "tree": 1061,
      "parent": 1067,
      "at": 0
    },
    {
      "action": "insert",
      "tree": 1064,
      "parent": 1067,
      "at": 1
    },
    {
      "action": "insert",
      "tree": 1066,
      "parent": 1067,
      "at": 2
    },
    {
      "action": "insert",
      "tree": 874,
      "parent": 875,
      "at": 0
    },
    {
      "action": "insert",
      "tree": 897,
      "parent": 898,
      "at": 0
    },
    {
      "action": "insert",
      "tree": 901,
      "parent": 906,
      "at": 0
    },
    {
      "action": "insert",
      "tree": 905,
      "parent": 906,
      "at": 1
    },
    {
      "action": "insert",
      "tree": 949,
      "parent": 950,
      "at": 0
    },
    {
      "action": "insert",
      "tree": 1060,
      "parent": 1061,
      "at": 0
    },
    {
      "action": "insert",
      "tree": 1062,
      "parent": 1064,
      "at": 0
    },
    {
      "action": "insert",
      "tree": 1063,
      "parent": 1064,
      "at": 1
    },
    {
      "action": "insert",
      "tree": 1065,
      "parent": 1066,
      "at": 0
    },
    {
      "action": "insert",
      "tree": 900,
      "parent": 901,
      "at": 0
    },
    {
      "action": "insert",
      "tree": 904,
      "parent": 905,
      "at": 0
    },
    {
      "action": "insert",
      "tree": 903,
      "parent": 904,
      "at": 0
    },
    {
      "action": "insert",
      "tree": 902,
      "parent": 903,
      "at": 0
    },
    {
      "action": "delete",
      "tree": 53
    },
    {
      "action": "delete",
      "tree": 54
    },
    {
      "action": "delete",
      "tree": 55
    },
    {
      "action": "delete",
      "tree": 87
    },
    {
      "action": "delete",
      "tree": 88
    },
    {
      "action": "delete",
      "tree": 89
    },
    {
      "action": "delete",
      "tree": 90
    },
    {
      "action": "delete",
      "tree": 91
    },
    {
      "action": "delete",
      "tree": 92
    },
    {
      "action": "delete",
      "tree": 93
    },
    {
      "action": "delete",
      "tree": 94
    },
    {
      "action": "delete",
      "tree": 95
    },
    {
      "action": "delete",
      "tree": 96
    },
    {
      "action": "delete",
      "tree": 97
    },
    {
      "action": "delete",
      "tree": 98
    },
    {
      "action": "delete",
      "tree": 99
    },
    {
      "action": "delete",
      "tree": 100
    },
    {
      "action": "delete",
      "tree": 101
    },
    {
      "action": "delete",
      "tree": 102
    },
    {
      "action": "delete",
      "tree": 103
    },
    {
      "action": "delete",
      "tree": 104
    },
    {
      "action": "delete",
      "tree": 105
    },
    {
      "action": "delete",
      "tree": 106
    },
    {
      "action": "delete",
      "tree": 107
    },
    {
      "action": "delete",
      "tree": 108
    },
    {
      "action": "delete",
      "tree": 109
    },
    {
      "action": "delete",
      "tree": 110
    },
    {
      "action": "delete",
      "tree": 111
    },
    {
      "action": "delete",
      "tree": 112
    },
    {
      "action": "delete",
      "tree": 113
    },
    {
      "action": "delete",
      "tree": 114
    },
    {
      "action": "delete",
      "tree": 115
    },
    {
      "action": "delete",
      "tree": 116
    },
    {
      "action": "delete",
      "tree": 117
    },
    {
      "action": "delete",
      "tree": 118
    },
    {
      "action": "delete",
      "tree": 119
    },
    {
      "action": "delete",
      "tree": 120
    },
    {
      "action": "delete",
      "tree": 121
    },
    {
      "action": "delete",
      "tree": 122
    },
    {
      "action": "delete",
      "tree": 123
    },
    {
      "action": "delete",
      "tree": 372
    },
    {
      "action": "delete",
      "tree": 373
    },
    {
      "action": "delete",
      "tree": 494
    },
    {
      "action": "delete",
      "tree": 495
    },
    {
      "action": "delete",
      "tree": 496
    },
    {
      "action": "delete",
      "tree": 526
    },
    {
      "action": "delete",
      "tree": 527
    },
    {
      "action": "delete",
      "tree": 528
    },
    {
      "action": "delete",
      "tree": 529
    },
    {
      "action": "delete",
      "tree": 530
    },
    {
      "action": "delete",
      "tree": 531
    },
    {
      "action": "delete",
      "tree": 532
    },
    {
      "action": "delete",
      "tree": 533
    },
    {
      "action": "delete",
      "tree": 534
    },
    {
      "action": "delete",
      "tree": 535
    },
    {
      "action": "delete",
      "tree": 536
    },
    {
      "action": "delete",
      "tree": 537
    },
    {
      "action": "delete",
      "tree": 538
    },
    {
      "action": "delete",
      "tree": 539
    },
    {
      "action": "delete",
      "tree": 540
    },
    {
      "action": "delete",
      "tree": 541
    },
    {
      "action": "delete",
      "tree": 542
    },
    {
      "action": "delete",
      "tree": 543
    },
    {
      "action": "delete",
      "tree": 544
    },
    {
      "action": "delete",
      "tree": 545
    },
    {
      "action": "delete",
      "tree": 546
    },
    {
      "action": "delete",
      "tree": 547
    },
    {
      "action": "delete",
      "tree": 548
    },
    {
      "action": "delete",
      "tree": 549
    },
    {
      "action": "delete",
      "tree": 550
    },
    {
      "action": "delete",
      "tree": 551
    },
    {
      "action": "delete",
      "tree": 552
    },
    {
      "action": "delete",
      "tree": 553
    },
    {
      "action": "delete",
      "tree": 554
    },
    {
      "action": "delete",
      "tree": 555
    },
    {
      "action": "delete",
      "tree": 556
    },
    {
      "action": "delete",
      "tree": 557
    },
    {
      "action": "delete",
      "tree": 558
    },
    {
      "action": "delete",
      "tree": 559
    },
    {
      "action": "delete",
      "tree": 560
    },
    {
      "action": "delete",
      "tree": 561
    },
    {
      "action": "delete",
      "tree": 562
    },
    {
      "action": "delete",
      "tree": 563
    },
    {
      "action": "delete",
      "tree": 564
    },
    {
      "action": "delete",
      "tree": 565
    },
    {
      "action": "delete",
      "tree": 566
    },
    {
      "action": "delete",
      "tree": 567
    },
    {
      "action": "delete",
      "tree": 568
    },
    {
      "action": "delete",
      "tree": 569
    },
    {
      "action": "delete",
      "tree": 570
    },
    {
      "action": "delete",
      "tree": 571
    },
    {
      "action": "delete",
      "tree": 572
    },
    {
      "action": "delete",
      "tree": 573
    },
    {
      "action": "delete",
      "tree": 574
    },
    {
      "action": "delete",
      "tree": 575
    },
    {
      "action": "delete",
      "tree": 576
    },
    {
      "action": "delete",
      "tree": 577
    },
    {
      "action": "delete",
      "tree": 578
    },
    {
      "action": "delete",
      "tree": 579
    },
    {
      "action": "delete",
      "tree": 580
    },
    {
      "action": "delete",
      "tree": 581
    },
    {
      "action": "delete",
      "tree": 730
    },
    {
      "action": "delete",
      "tree": 731
    },
    {
      "action": "delete",
      "tree": 732
    },
    {
      "action": "delete",
      "tree": 745
    },
    {
      "action": "delete",
      "tree": 746
    },
    {
      "action": "delete",
      "tree": 747
    },
    {
      "action": "delete",
      "tree": 748
    },
    {
      "action": "delete",
      "tree": 749
    },
    {
      "action": "delete",
      "tree": 750
    },
    {
      "action": "delete",
      "tree": 751
    },
    {
      "action": "delete",
      "tree": 752
    },
    {
      "action": "delete",
      "tree": 753
    },
    {
      "action": "delete",
      "tree": 754
    },
    {
      "action": "delete",
      "tree": 755
    },
    {
      "action": "delete",
      "tree": 756
    },
    {
      "action": "delete",
      "tree": 757
    },
    {
      "action": "delete",
      "tree": 758
    },
    {
      "action": "delete",
      "tree": 759
    },
    {
      "action": "delete",
      "tree": 760
    },
    {
      "action": "delete",
      "tree": 761
    },
    {
      "action": "delete",
      "tree": 762
    },
    {
      "action": "delete",
      "tree": 1126
    },
    {
      "action": "delete",
      "tree": 1128
    },
    {
      "action": "delete",
      "tree": 1118
    },
    {
      "action": "delete",
      "tree": 1119
    },
    {
      "action": "delete",
      "tree": 1120
    },
    {
      "action": "delete",
      "tree": 1138
    },
    {
      "action": "delete",
      "tree": 1139
    },
    {
      "action": "delete",
      "tree": 1235
    },
    {
      "action": "delete",
      "tree": 1236
    },
    {
      "action": "delete",
      "tree": 1237
    },
    {
      "action": "delete",
      "tree": 1245
    }
  ]
}