{
	"root": {
		"type": "460000",
		"typeLabel": "Program",
		"pos": "537",
		"length": "1406",
		"children": [
			{
				"type": "450300",
				"typeLabel": "CppTop",
				"pos": "537",
				"length": "18",
				"children": [
					{
						"type": "400200",
						"typeLabel": "Include",
						"pos": "537",
						"length": "18",
						"children": [
							{
								"type": "480000",
								"label": "<stdio.h>",
								"typeLabel": "GenericString",
								"pos": "546",
								"length": "9",
								"children": []
							}
						]
					}
				]
			},
			{
				"type": "450300",
				"typeLabel": "CppTop",
				"pos": "556",
				"length": "19",
				"children": [
					{
						"type": "400200",
						"typeLabel": "Include",
						"pos": "556",
						"length": "19",
						"children": [
							{
								"type": "480000",
								"label": "<stdlib.h>",
								"typeLabel": "GenericString",
								"pos": "565",
								"length": "10",
								"children": []
							}
						]
					}
				]
			},
			{
				"type": "450300",
				"typeLabel": "CppTop",
				"pos": "576",
				"length": "18",
				"children": [
					{
						"type": "400200",
						"typeLabel": "Include",
						"pos": "576",
						"length": "18",
						"children": [
							{
								"type": "480000",
								"label": "<conio.h>",
								"typeLabel": "GenericString",
								"pos": "585",
								"length": "9",
								"children": []
							}
						]
					}
				]
			},
			{
				"type": "450400",
				"typeLabel": "IfdefTop",
				"pos": "595",
				"length": "27",
				"children": [
					{
						"type": "440100",
						"typeLabel": "IfdefDirective",
						"pos": "595",
						"length": "27",
						"children": [
							{
								"type": "480000",
								"label": "#ifndef WIN32_LEAN_AND_MEAN",
								"typeLabel": "GenericString",
								"pos": "595",
								"length": "27",
								"children": []
							}
						]
					}
				]
			},
			{
				"type": "450300",
				"typeLabel": "CppTop",
				"pos": "623",
				"length": "29",
				"children": [
					{
						"type": "400100",
						"typeLabel": "Define",
						"pos": "623",
						"length": "29",
						"children": [
							{
								"type": "410001",
								"typeLabel": "DefineVar",
								"pos": "623",
								"length": "29",
								"children": []
							},
							{
								"type": "420001",
								"typeLabel": "DefineEmpty",
								"pos": "623",
								"length": "29",
								"children": []
							}
						]
					}
				]
			},
			{
				"type": "450400",
				"typeLabel": "IfdefTop",
				"pos": "652",
				"length": "6",
				"children": [
					{
						"type": "440100",
						"typeLabel": "IfdefDirective",
						"pos": "652",
						"length": "6",
						"children": [
							{
								"type": "480000",
								"label": "#endif",
								"typeLabel": "GenericString",
								"pos": "652",
								"length": "6",
								"children": []
							}
						]
					}
				]
			},
			{
				"type": "450300",
				"typeLabel": "CppTop",
				"pos": "659",
				"length": "20",
				"children": [
					{
						"type": "400200",
						"typeLabel": "Include",
						"pos": "659",
						"length": "20",
						"children": [
							{
								"type": "480000",
								"label": "<windows.h>",
								"typeLabel": "GenericString",
								"pos": "668",
								"length": "11",
								"children": []
							}
						]
					}
				]
			},
			{
				"type": "450400",
				"typeLabel": "IfdefTop",
				"pos": "681",
				"length": "19",
				"children": [
					{
						"type": "440100",
						"typeLabel": "IfdefDirective",
						"pos": "681",
						"length": "19",
						"children": [
							{
								"type": "480000",
								"label": "#ifdef __BORLANDC__",
								"typeLabel": "GenericString",
								"pos": "681",
								"length": "19",
								"children": []
							}
						]
					}
				]
			},
			{
				"type": "450300",
				"typeLabel": "CppTop",
				"pos": "701",
				"length": "22",
				"children": [
					{
						"type": "400100",
						"typeLabel": "Define",
						"pos": "701",
						"length": "22",
						"children": [
							{
								"type": "410001",
								"typeLabel": "DefineVar",
								"pos": "701",
								"length": "22",
								"children": []
							},
							{
								"type": "420100",
								"typeLabel": "DefineExpr",
								"pos": "717",
								"length": "5",
								"children": [
									{
										"type": "240100",
										"typeLabel": "Ident",
										"pos": "717",
										"length": "5",
										"children": [
											{
												"type": "480000",
												"label": "kbhit",
												"typeLabel": "GenericString",
												"pos": "717",
												"length": "5",
												"children": []
											}
										]
									}
								]
							}
						]
					}
				]
			},
			{
				"type": "450300",
				"typeLabel": "CppTop",
				"pos": "723",
				"length": "22",
				"children": [
					{
						"type": "400100",
						"typeLabel": "Define",
						"pos": "723",
						"length": "22",
						"children": [
							{
								"type": "410001",
								"typeLabel": "DefineVar",
								"pos": "723",
								"length": "22",
								"children": []
							},
							{
								"type": "420100",
								"typeLabel": "DefineExpr",
								"pos": "739",
								"length": "5",
								"children": [
									{
										"type": "240100",
										"typeLabel": "Ident",
										"pos": "739",
										"length": "5",
										"children": [
											{
												"type": "480000",
												"label": "getch",
												"typeLabel": "GenericString",
												"pos": "739",
												"length": "5",
												"children": []
											}
										]
									}
								]
							}
						]
					}
				]
			},
			{
				"type": "450400",
				"typeLabel": "IfdefTop",
				"pos": "745",
				"length": "6",
				"children": [
					{
						"type": "440100",
						"typeLabel": "IfdefDirective",
						"pos": "745",
						"length": "6",
						"children": [
							{
								"type": "480000",
								"label": "#endif",
								"typeLabel": "GenericString",
								"pos": "745",
								"length": "6",
								"children": []
							}
						]
					}
				]
			},
			{
				"type": "450200",
				"typeLabel": "Definition",
				"pos": "757",
				"length": "1185",
				"children": [
					{
						"type": "380000",
						"typeLabel": "Definition",
						"pos": "757",
						"length": "1185",
						"children": [
							{
								"type": "200000",
								"typeLabel": "ParamList",
								"pos": "765",
								"length": "6",
								"children": [
									{
										"type": "220100",
										"typeLabel": "ParameterType",
										"pos": "766",
										"length": "4",
										"children": []
									}
								]
							},
							{
								"type": "480000",
								"label": "main",
								"typeLabel": "GenericString",
								"pos": "761",
								"length": "4",
								"children": []
							},
							{
								"type": "330000",
								"typeLabel": "Compound",
								"pos": "772",
								"length": "1170",
								"children": [
									{
										"type": "350100",
										"typeLabel": "DeclList",
										"pos": "778",
										"length": "19",
										"children": [
											{
												"type": "480000",
												"label": "p",
												"typeLabel": "GenericString",
												"pos": "795",
												"length": "1",
												"children": []
											}
										]
									},
									{
										"type": "350100",
										"typeLabel": "DeclList",
										"pos": "802",
										"length": "16",
										"children": [
											{
												"type": "480000",
												"label": "retval",
												"typeLabel": "GenericString",
												"pos": "811",
												"length": "6",
												"children": []
											}
										]
									},
									{
										"type": "350100",
										"typeLabel": "DeclList",
										"pos": "823",
										"length": "21",
										"children": [
											{
												"type": "480000",
												"label": "inquote",
												"typeLabel": "GenericString",
												"pos": "832",
												"length": "7",
												"children": []
											},
											{
												"type": "360100",
												"typeLabel": "InitExpr",
												"pos": "842",
												"length": "1",
												"children": [
													{
														"type": "240200",
														"label": "0",
														"typeLabel": "Constant",
														"pos": "842",
														"length": "1",
														"children": []
													}
												]
											}
										]
									},
									{
										"type": "350100",
										"typeLabel": "DeclList",
										"pos": "849",
										"length": "20",
										"children": [
											{
												"type": "480000",
												"label": "silent",
												"typeLabel": "GenericString",
												"pos": "858",
												"length": "6",
												"children": []
											},
											{
												"type": "360100",
												"typeLabel": "InitExpr",
												"pos": "867",
												"length": "1",
												"children": [
													{
														"type": "240200",
														"label": "0",
														"typeLabel": "Constant",
														"pos": "867",
														"length": "1",
														"children": []
													}
												]
											}
										]
									},
									{
										"type": "350100",
										"typeLabel": "DeclList",
										"pos": "874",
										"length": "19",
										"children": [
											{
												"type": "480000",
												"label": "hstdout",
												"typeLabel": "GenericString",
												"pos": "885",
												"length": "7",
												"children": []
											}
										]
									},
									{
										"type": "350100",
										"typeLabel": "DeclList",
										"pos": "898",
										"length": "18",
										"children": [
											{
												"type": "480000",
												"label": "written",
												"typeLabel": "GenericString",
												"pos": "908",
												"length": "7",
												"children": []
											}
										]
									},
									{
										"type": "260300",
										"typeLabel": "ExprStatement",
										"pos": "922",
										"length": "39",
										"children": [
											{
												"type": "290100",
												"typeLabel": "Some",
												"pos": "922",
												"length": "39",
												"children": [
													{
														"type": "240700",
														"typeLabel": "Assignment",
														"pos": "922",
														"length": "38",
														"children": [
															{
																"type": "240100",
																"typeLabel": "Ident",
																"pos": "922",
																"length": "1",
																"children": [
																	{
																		"type": "480000",
																		"label": "p",
																		"typeLabel": "GenericString",
																		"pos": "922",
																		"length": "1",
																		"children": []
																	}
																]
															},
															{
																"type": "480000",
																"label": "=",
																"typeLabel": "GenericString",
																"pos": "924",
																"length": "1",
																"children": []
															},
															{
																"type": "241700",
																"typeLabel": "Cast",
																"pos": "926",
																"length": "34",
																"children": [
																	{
																		"type": "240400",
																		"typeLabel": "FunCall",
																		"pos": "943",
																		"length": "17",
																		"children": [
																			{
																				"type": "240100",
																				"typeLabel": "Ident",
																				"pos": "943",
																				"length": "15",
																				"children": [
																					{
																						"type": "480000",
																						"label": "GetCommandLineW",
																						"typeLabel": "GenericString",
																						"pos": "943",
																						"length": "15",
																						"children": []
																					}
																				]
																			},
																			{
																				"type": "470000",
																				"typeLabel": "GenericList",
																				"pos": "958",
																				"length": "2",
																				"children": []
																			}
																		]
																	}
																]
															}
														]
													},
													{
														"type": "480000",
														"label": ";",
														"typeLabel": "GenericString",
														"pos": "960",
														"length": "1",
														"children": []
													}
												]
											}
										]
									},
									{
										"type": "310100",
										"typeLabel": "While",
										"pos": "1037",
										"length": "132",
										"children": [
											{
												"type": "241000",
												"typeLabel": "Unary",
												"pos": "1044",
												"length": "2",
												"children": [
													{
														"type": "240100",
														"typeLabel": "Ident",
														"pos": "1045",
														"length": "1",
														"children": [
															{
																"type": "480000",
																"label": "p",
																"typeLabel": "GenericString",
																"pos": "1045",
																"length": "1",
																"children": []
															}
														]
													},
													{
														"type": "480000",
														"label": "*",
														"typeLabel": "GenericString",
														"pos": "1044",
														"length": "1",
														"children": []
													}
												]
											},
											{
												"type": "330000",
												"typeLabel": "Compound",
												"pos": "1052",
												"length": "117",
												"children": [
													{
														"type": "300100",
														"typeLabel": "If",
														"pos": "1055",
														"length": "102",
														"children": [
															{
																"type": "490100",
																"typeLabel": "IfToken",
																"pos": "1055",
																"length": "2",
																"children": []
															},
															{
																"type": "241100",
																"typeLabel": "Binary",
																"pos": "1059",
																"length": "10",
																"children": [
																	{
																		"type": "241000",
																		"typeLabel": "Unary",
																		"pos": "1059",
																		"length": "2",
																		"children": [
																			{
																				"type": "240100",
																				"typeLabel": "Ident",
																				"pos": "1060",
																				"length": "1",
																				"children": [
																					{
																						"type": "480000",
																						"label": "p",
																						"typeLabel": "GenericString",
																						"pos": "1060",
																						"length": "1",
																						"children": []
																					}
																				]
																			},
																			{
																				"type": "480000",
																				"label": "*",
																				"typeLabel": "GenericString",
																				"pos": "1059",
																				"length": "1",
																				"children": []
																			}
																		]
																	},
																	{
																		"type": "480000",
																		"label": "==",
																		"typeLabel": "GenericString",
																		"pos": "1062",
																		"length": "2",
																		"children": []
																	},
																	{
																		"type": "240200",
																		"label": "L'\"'",
																		"typeLabel": "Constant",
																		"pos": "1065",
																		"length": "4",
																		"children": []
																	}
																]
															},
															{
																"type": "260300",
																"typeLabel": "ExprStatement",
																"pos": "1076",
																"length": "19",
																"children": [
																	{
																		"type": "290100",
																		"typeLabel": "Some",
																		"pos": "1076",
																		"length": "19",
																		"children": [
																			{
																				"type": "240700",
																				"typeLabel": "Assignment",
																				"pos": "1076",
																				"length": "18",
																				"children": [
																					{
																						"type": "240100",
																						"typeLabel": "Ident",
																						"pos": "1076",
																						"length": "7",
																						"children": [
																							{
																								"type": "480000",
																								"label": "inquote",
																								"typeLabel": "GenericString",
																								"pos": "1076",
																								"length": "7",
																								"children": []
																							}
																						]
																					},
																					{
																						"type": "480000",
																						"label": "=",
																						"typeLabel": "GenericString",
																						"pos": "1084",
																						"length": "1",
																						"children": []
																					},
																					{
																						"type": "241000",
																						"typeLabel": "Unary",
																						"pos": "1086",
																						"length": "8",
																						"children": [
																							{
																								"type": "240100",
																								"typeLabel": "Ident",
																								"pos": "1087",
																								"length": "7",
																								"children": [
																									{
																										"type": "480000",
																										"label": "inquote",
																										"typeLabel": "GenericString",
																										"pos": "1087",
																										"length": "7",
																										"children": []
																									}
																								]
																							},
																							{
																								"type": "480000",
																								"label": "!",
																								"typeLabel": "GenericString",
																								"pos": "1086",
																								"length": "1",
																								"children": []
																							}
																						]
																					}
																				]
																			},
																			{
																				"type": "480000",
																				"label": ";",
																				"typeLabel": "GenericString",
																				"pos": "1094",
																				"length": "1",
																				"children": []
																			}
																		]
																	}
																]
															},
															{
																"type": "300100",
																"typeLabel": "If",
																"pos": "1102",
																"length": "55",
																"children": [
																	{
																		"type": "490100",
																		"typeLabel": "IfToken",
																		"pos": "1102",
																		"length": "2",
																		"children": []
																	},
																	{
																		"type": "241100",
																		"typeLabel": "Binary",
																		"pos": "1106",
																		"length": "22",
																		"children": [
																			{
																				"type": "241000",
																				"typeLabel": "Unary",
																				"pos": "1106",
																				"length": "8",
																				"children": [
																					{
																						"type": "240100",
																						"typeLabel": "Ident",
																						"pos": "1107",
																						"length": "7",
																						"children": [
																							{
																								"type": "480000",
																								"label": "inquote",
																								"typeLabel": "GenericString",
																								"pos": "1107",
																								"length": "7",
																								"children": []
																							}
																						]
																					},
																					{
																						"type": "480000",
																						"label": "!",
																						"typeLabel": "GenericString",
																						"pos": "1106",
																						"length": "1",
																						"children": []
																					}
																				]
																			},
																			{
																				"type": "480000",
																				"label": "&&",
																				"typeLabel": "GenericString",
																				"pos": "1115",
																				"length": "2",
																				"children": []
																			},
																			{
																				"type": "241100",
																				"typeLabel": "Binary",
																				"pos": "1118",
																				"length": "10",
																				"children": [
																					{
																						"type": "241000",
																						"typeLabel": "Unary",
																						"pos": "1118",
																						"length": "2",
																						"children": [
																							{
																								"type": "240100",
																								"typeLabel": "Ident",
																								"pos": "1119",
																								"length": "1",
																								"children": [
																									{
																										"type": "480000",
																										"label": "p",
																										"typeLabel": "GenericString",
																										"pos": "1119",
																										"length": "1",
																										"children": []
																									}
																								]
																							},
																							{
																								"type": "480000",
																								"label": "*",
																								"typeLabel": "GenericString",
																								"pos": "1118",
																								"length": "1",
																								"children": []
																							}
																						]
																					},
																					{
																						"type": "480000",
																						"label": "==",
																						"typeLabel": "GenericString",
																						"pos": "1121",
																						"length": "2",
																						"children": []
																					},
																					{
																						"type": "240200",
																						"label": "L' '",
																						"typeLabel": "Constant",
																						"pos": "1124",
																						"length": "4",
																						"children": []
																					}
																				]
																			}
																		]
																	},
																	{
																		"type": "330000",
																		"typeLabel": "Compound",
																		"pos": "1131",
																		"length": "26",
																		"children": [
																			{
																				"type": "260300",
																				"typeLabel": "ExprStatement",
																				"pos": "1138",
																				"length": "4",
																				"children": [
																					{
																						"type": "290100",
																						"typeLabel": "Some",
																						"pos": "1138",
																						"length": "4",
																						"children": [
																							{
																								"type": "240900",
																								"typeLabel": "Infix",
																								"pos": "1138",
																								"length": "3",
																								"children": [
																									{
																										"type": "240100",
																										"typeLabel": "Ident",
																										"pos": "1140",
																										"length": "1",
																										"children": [
																											{
																												"type": "480000",
																												"label": "p",
																												"typeLabel": "GenericString",
																												"pos": "1140",
																												"length": "1",
																												"children": []
																											}
																										]
																									},
																									{
																										"type": "480000",
																										"label": "++",
																										"typeLabel": "GenericString",
																										"pos": "1138",
																										"length": "2",
																										"children": []
																									}
																								]
																							},
																							{
																								"type": "480000",
																								"label": ";",
																								"typeLabel": "GenericString",
																								"pos": "1141",
																								"length": "1",
																								"children": []
																							}
																						]
																					}
																				]
																			},
																			{
																				"type": "280002",
																				"typeLabel": "Break",
																				"pos": "1148",
																				"length": "6",
																				"children": []
																			}
																		]
																	}
																]
															}
														]
													},
													{
														"type": "260300",
														"typeLabel": "ExprStatement",
														"pos": "1159",
														"length": "4",
														"children": [
															{
																"type": "290100",
																"typeLabel": "Some",
																"pos": "1159",
																"length": "4",
																"children": [
																	{
																		"type": "240900",
																		"typeLabel": "Infix",
																		"pos": "1159",
																		"length": "3",
																		"children": [
																			{
																				"type": "240100",
																				"typeLabel": "Ident",
																				"pos": "1161",
																				"length": "1",
																				"children": [
																					{
																						"type": "480000",
																						"label": "p",
																						"typeLabel": "GenericString",
																						"pos": "1161",
																						"length": "1",
																						"children": []
																					}
																				]
																			},
																			{
																				"type": "480000",
																				"label": "++",
																				"typeLabel": "GenericString",
																				"pos": "1159",
																				"length": "2",
																				"children": []
																			}
																		]
																	},
																	{
																		"type": "480000",
																		"label": ";",
																		"typeLabel": "GenericString",
																		"pos": "1162",
																		"length": "1",
																		"children": []
																	}
																]
															}
														]
													}
												]
											}
										]
									},
									{
										"type": "310100",
										"typeLabel": "While",
										"pos": "1174",
										"length": "31",
										"children": [
											{
												"type": "241100",
												"typeLabel": "Binary",
												"pos": "1181",
												"length": "10",
												"children": [
													{
														"type": "241000",
														"typeLabel": "Unary",
														"pos": "1181",
														"length": "2",
														"children": [
															{
																"type": "240100",
																"typeLabel": "Ident",
																"pos": "1182",
																"length": "1",
																"children": [
																	{
																		"type": "480000",
																		"label": "p",
																		"typeLabel": "GenericString",
																		"pos": "1182",
																		"length": "1",
																		"children": []
																	}
																]
															},
															{
																"type": "480000",
																"label": "*",
																"typeLabel": "GenericString",
																"pos": "1181",
																"length": "1",
																"children": []
															}
														]
													},
													{
														"type": "480000",
														"label": "==",
														"typeLabel": "GenericString",
														"pos": "1184",
														"length": "2",
														"children": []
													},
													{
														"type": "240200",
														"label": "L' '",
														"typeLabel": "Constant",
														"pos": "1187",
														"length": "4",
														"children": []
													}
												]
											},
											{
												"type": "260300",
												"typeLabel": "ExprStatement",
												"pos": "1201",
												"length": "4",
												"children": [
													{
														"type": "290100",
														"typeLabel": "Some",
														"pos": "1201",
														"length": "4",
														"children": [
															{
																"type": "240900",
																"typeLabel": "Infix",
																"pos": "1201",
																"length": "3",
																"children": [
																	{
																		"type": "240100",
																		"typeLabel": "Ident",
																		"pos": "1203",
																		"length": "1",
																		"children": [
																			{
																				"type": "480000",
																				"label": "p",
																				"typeLabel": "GenericString",
																				"pos": "1203",
																				"length": "1",
																				"children": []
																			}
																		]
																	},
																	{
																		"type": "480000",
																		"label": "++",
																		"typeLabel": "GenericString",
																		"pos": "1201",
																		"length": "2",
																		"children": []
																	}
																]
															},
															{
																"type": "480000",
																"label": ";",
																"typeLabel": "GenericString",
																"pos": "1204",
																"length": "1",
																"children": []
															}
														]
													}
												]
											}
										]
									},
									{
										"type": "300100",
										"typeLabel": "If",
										"pos": "1274",
										"length": "113",
										"children": [
											{
												"type": "490100",
												"typeLabel": "IfToken",
												"pos": "1274",
												"length": "2",
												"children": []
											},
											{
												"type": "241100",
												"typeLabel": "Binary",
												"pos": "1278",
												"length": "44",
												"children": [
													{
														"type": "241100",
														"typeLabel": "Binary",
														"pos": "1278",
														"length": "28",
														"children": [
															{
																"type": "241100",
																"typeLabel": "Binary",
																"pos": "1278",
																"length": "12",
																"children": [
																	{
																		"type": "241200",
																		"typeLabel": "ArrayAccess",
																		"pos": "1278",
																		"length": "4",
																		"children": [
																			{
																				"type": "240100",
																				"typeLabel": "Ident",
																				"pos": "1278",
																				"length": "1",
																				"children": [
																					{
																						"type": "480000",
																						"label": "p",
																						"typeLabel": "GenericString",
																						"pos": "1278",
																						"length": "1",
																						"children": []
																					}
																				]
																			},
																			{
																				"type": "240200",
																				"label": "0",
																				"typeLabel": "Constant",
																				"pos": "1280",
																				"length": "1",
																				"children": []
																			}
																		]
																	},
																	{
																		"type": "480000",
																		"label": "==",
																		"typeLabel": "GenericString",
																		"pos": "1283",
																		"length": "2",
																		"children": []
																	},
																	{
																		"type": "240200",
																		"label": "L'-'",
																		"typeLabel": "Constant",
																		"pos": "1286",
																		"length": "4",
																		"children": []
																	}
																]
															},
															{
																"type": "480000",
																"label": "&&",
																"typeLabel": "GenericString",
																"pos": "1291",
																"length": "2",
																"children": []
															},
															{
																"type": "241100",
																"typeLabel": "Binary",
																"pos": "1294",
																"length": "12",
																"children": [
																	{
																		"type": "241200",
																		"typeLabel": "ArrayAccess",
																		"pos": "1294",
																		"length": "4",
																		"children": [
																			{
																				"type": "240100",
																				"typeLabel": "Ident",
																				"pos": "1294",
																				"length": "1",
																				"children": [
																					{
																						"type": "480000",
																						"label": "p",
																						"typeLabel": "GenericString",
																						"pos": "1294",
																						"length": "1",
																						"children": []
																					}
																				]
																			},
																			{
																				"type": "240200",
																				"label": "1",
																				"typeLabel": "Constant",
																				"pos": "1296",
																				"length": "1",
																				"children": []
																			}
																		]
																	},
																	{
																		"type": "480000",
																		"label": "==",
																		"typeLabel": "GenericString",
																		"pos": "1299",
																		"length": "2",
																		"children": []
																	},
																	{
																		"type": "240200",
																		"label": "L's'",
																		"typeLabel": "Constant",
																		"pos": "1302",
																		"length": "4",
																		"children": []
																	}
																]
															}
														]
													},
													{
														"type": "480000",
														"label": "&&",
														"typeLabel": "GenericString",
														"pos": "1307",
														"length": "2",
														"children": []
													},
													{
														"type": "241100",
														"typeLabel": "Binary",
														"pos": "1310",
														"length": "12",
														"children": [
															{
																"type": "241200",
																"typeLabel": "ArrayAccess",
																"pos": "1310",
																"length": "4",
																"children": [
																	{
																		"type": "240100",
																		"typeLabel": "Ident",
																		"pos": "1310",
																		"length": "1",
																		"children": [
																			{
																				"type": "480000",
																				"label": "p",
																				"typeLabel": "GenericString",
																				"pos": "1310",
																				"length": "1",
																				"children": []
																			}
																		]
																	},
																	{
																		"type": "240200",
																		"label": "2",
																		"typeLabel": "Constant",
																		"pos": "1312",
																		"length": "1",
																		"children": []
																	}
																]
															},
															{
																"type": "480000",
																"label": "==",
																"typeLabel": "GenericString",
																"pos": "1315",
																"length": "2",
																"children": []
															},
															{
																"type": "240200",
																"label": "L' '",
																"typeLabel": "Constant",
																"pos": "1318",
																"length": "4",
																"children": []
															}
														]
													}
												]
											},
											{
												"type": "330000",
												"typeLabel": "Compound",
												"pos": "1328",
												"length": "59",
												"children": [
													{
														"type": "260300",
														"typeLabel": "ExprStatement",
														"pos": "1331",
														"length": "11",
														"children": [
															{
																"type": "290100",
																"typeLabel": "Some",
																"pos": "1331",
																"length": "11",
																"children": [
																	{
																		"type": "240700",
																		"typeLabel": "Assignment",
																		"pos": "1331",
																		"length": "10",
																		"children": [
																			{
																				"type": "240100",
																				"typeLabel": "Ident",
																				"pos": "1331",
																				"length": "6",
																				"children": [
																					{
																						"type": "480000",
																						"label": "silent",
																						"typeLabel": "GenericString",
																						"pos": "1331",
																						"length": "6",
																						"children": []
																					}
																				]
																			},
																			{
																				"type": "480000",
																				"label": "=",
																				"typeLabel": "GenericString",
																				"pos": "1338",
																				"length": "1",
																				"children": []
																			},
																			{
																				"type": "240200",
																				"label": "1",
																				"typeLabel": "Constant",
																				"pos": "1340",
																				"length": "1",
																				"children": []
																			}
																		]
																	},
																	{
																		"type": "480000",
																		"label": ";",
																		"typeLabel": "GenericString",
																		"pos": "1341",
																		"length": "1",
																		"children": []
																	}
																]
															}
														]
													},
													{
														"type": "260300",
														"typeLabel": "ExprStatement",
														"pos": "1344",
														"length": "7",
														"children": [
															{
																"type": "290100",
																"typeLabel": "Some",
																"pos": "1344",
																"length": "7",
																"children": [
																	{
																		"type": "240700",
																		"typeLabel": "Assignment",
																		"pos": "1344",
																		"length": "6",
																		"children": [
																			{
																				"type": "240100",
																				"typeLabel": "Ident",
																				"pos": "1344",
																				"length": "1",
																				"children": [
																					{
																						"type": "480000",
																						"label": "p",
																						"typeLabel": "GenericString",
																						"pos": "1344",
																						"length": "1",
																						"children": []
																					}
																				]
																			},
																			{
																				"type": "480000",
																				"label": "+=",
																				"typeLabel": "GenericString",
																				"pos": "1346",
																				"length": "2",
																				"children": []
																			},
																			{
																				"type": "240200",
																				"label": "3",
																				"typeLabel": "Constant",
																				"pos": "1349",
																				"length": "1",
																				"children": []
																			}
																		]
																	},
																	{
																		"type": "480000",
																		"label": ";",
																		"typeLabel": "GenericString",
																		"pos": "1350",
																		"length": "1",
																		"children": []
																	}
																]
															}
														]
													},
													{
														"type": "310100",
														"typeLabel": "While",
														"pos": "1353",
														"length": "28",
														"children": [
															{
																"type": "241100",
																"typeLabel": "Binary",
																"pos": "1360",
																"length": "10",
																"children": [
																	{
																		"type": "241000",
																		"typeLabel": "Unary",
																		"pos": "1360",
																		"length": "2",
																		"children": [
																			{
																				"type": "240100",
																				"typeLabel": "Ident",
																				"pos": "1361",
																				"length": "1",
																				"children": [
																					{
																						"type": "480000",
																						"label": "p",
																						"typeLabel": "GenericString",
																						"pos": "1361",
																						"length": "1",
																						"children": []
																					}
																				]
																			},
																			{
																				"type": "480000",
																				"label": "*",
																				"typeLabel": "GenericString",
																				"pos": "1360",
																				"length": "1",
																				"children": []
																			}
																		]
																	},
																	{
																		"type": "480000",
																		"label": "==",
																		"typeLabel": "GenericString",
																		"pos": "1363",
																		"length": "2",
																		"children": []
																	},
																	{
																		"type": "240200",
																		"label": "L' '",
																		"typeLabel": "Constant",
																		"pos": "1366",
																		"length": "4",
																		"children": []
																	}
																]
															},
															{
																"type": "260300",
																"typeLabel": "ExprStatement",
																"pos": "1377",
																"length": "4",
																"children": [
																	{
																		"type": "290100",
																		"typeLabel": "Some",
																		"pos": "1377",
																		"length": "4",
																		"children": [
																			{
																				"type": "240900",
																				"typeLabel": "Infix",
																				"pos": "1377",
																				"length": "3",
																				"children": [
																					{
																						"type": "240100",
																						"typeLabel": "Ident",
																						"pos": "1379",
																						"length": "1",
																						"children": [
																							{
																								"type": "480000",
																								"label": "p",
																								"typeLabel": "GenericString",
																								"pos": "1379",
																								"length": "1",
																								"children": []
																							}
																						]
																					},
																					{
																						"type": "480000",
																						"label": "++",
																						"typeLabel": "GenericString",
																						"pos": "1377",
																						"length": "2",
																						"children": []
																					}
																				]
																			},
																			{
																				"type": "480000",
																				"label": ";",
																				"typeLabel": "GenericString",
																				"pos": "1380",
																				"length": "1",
																				"children": []
																			}
																		]
																	}
																]
															}
														]
													}
												]
											}
										]
									},
									{
										"type": "260300",
										"typeLabel": "ExprStatement",
										"pos": "1456",
										"length": "42",
										"children": [
											{
												"type": "290100",
												"typeLabel": "Some",
												"pos": "1456",
												"length": "42",
												"children": [
													{
														"type": "240700",
														"typeLabel": "Assignment",
														"pos": "1456",
														"length": "41",
														"children": [
															{
																"type": "240100",
																"typeLabel": "Ident",
																"pos": "1456",
																"length": "7",
																"children": [
																	{
																		"type": "480000",
																		"label": "hstdout",
																		"typeLabel": "GenericString",
																		"pos": "1456",
																		"length": "7",
																		"children": []
																	}
																]
															},
															{
																"type": "480000",
																"label": "=",
																"typeLabel": "GenericString",
																"pos": "1464",
																"length": "1",
																"children": []
															},
															{
																"type": "240400",
																"typeLabel": "FunCall",
																"pos": "1466",
																"length": "31",
																"children": [
																	{
																		"type": "240100",
																		"typeLabel": "Ident",
																		"pos": "1466",
																		"length": "12",
																		"children": [
																			{
																				"type": "480000",
																				"label": "GetStdHandle",
																				"typeLabel": "GenericString",
																				"pos": "1466",
																				"length": "12",
																				"children": []
																			}
																		]
																	},
																	{
																		"type": "470000",
																		"typeLabel": "GenericList",
																		"pos": "1478",
																		"length": "19",
																		"children": [
																			{
																				"type": "20100",
																				"typeLabel": "Left",
																				"pos": "1479",
																				"length": "17",
																				"children": [
																					{
																						"type": "240100",
																						"typeLabel": "Ident",
																						"pos": "1479",
																						"length": "17",
																						"children": [
																							{
																								"type": "480000",
																								"label": "STD_OUTPUT_HANDLE",
																								"typeLabel": "GenericString",
																								"pos": "1479",
																								"length": "17",
																								"children": []
																							}
																						]
																					}
																				]
																			}
																		]
																	}
																]
															}
														]
													},
													{
														"type": "480000",
														"label": ";",
														"typeLabel": "GenericString",
														"pos": "1497",
														"length": "1",
														"children": []
													}
												]
											}
										]
									},
									{
										"type": "260300",
										"typeLabel": "ExprStatement",
										"pos": "1503",
										"length": "53",
										"children": [
											{
												"type": "290100",
												"typeLabel": "Some",
												"pos": "1503",
												"length": "53",
												"children": [
													{
														"type": "240400",
														"typeLabel": "FunCall",
														"pos": "1503",
														"length": "52",
														"children": [
															{
																"type": "240100",
																"typeLabel": "Ident",
																"pos": "1503",
																"length": "13",
																"children": [
																	{
																		"type": "480000",
																		"label": "WriteConsoleW",
																		"typeLabel": "GenericString",
																		"pos": "1503",
																		"length": "13",
																		"children": []
																	}
																]
															},
															{
																"type": "470000",
																"typeLabel": "GenericList",
																"pos": "1516",
																"length": "39",
																"children": [
																	{
																		"type": "20100",
																		"typeLabel": "Left",
																		"pos": "1517",
																		"length": "7",
																		"children": [
																			{
																				"type": "240100",
																				"typeLabel": "Ident",
																				"pos": "1517",
																				"length": "7",
																				"children": [
																					{
																						"type": "480000",
																						"label": "hstdout",
																						"typeLabel": "GenericString",
																						"pos": "1517",
																						"length": "7",
																						"children": []
																					}
																				]
																			}
																		]
																	},
																	{
																		"type": "20100",
																		"typeLabel": "Left",
																		"pos": "1526",
																		"length": "1",
																		"children": [
																			{
																				"type": "240100",
																				"typeLabel": "Ident",
																				"pos": "1526",
																				"length": "1",
																				"children": [
																					{
																						"type": "480000",
																						"label": "p",
																						"typeLabel": "GenericString",
																						"pos": "1526",
																						"length": "1",
																						"children": []
																					}
																				]
																			}
																		]
																	},
																	{
																		"type": "20100",
																		"typeLabel": "Left",
																		"pos": "1529",
																		"length": "9",
																		"children": [
																			{
																				"type": "240400",
																				"typeLabel": "FunCall",
																				"pos": "1529",
																				"length": "9",
																				"children": [
																					{
																						"type": "240100",
																						"typeLabel": "Ident",
																						"pos": "1529",
																						"length": "6",
																						"children": [
																							{
																								"type": "480000",
																								"label": "wcslen",
																								"typeLabel": "GenericString",
																								"pos": "1529",
																								"length": "6",
																								"children": []
																							}
																						]
																					},
																					{
																						"type": "470000",
																						"typeLabel": "GenericList",
																						"pos": "1535",
																						"length": "3",
																						"children": [
																							{
																								"type": "20100",
																								"typeLabel": "Left",
																								"pos": "1536",
																								"length": "1",
																								"children": [
																									{
																										"type": "240100",
																										"typeLabel": "Ident",
																										"pos": "1536",
																										"length": "1",
																										"children": [
																											{
																												"type": "480000",
																												"label": "p",
																												"typeLabel": "GenericString",
																												"pos": "1536",
																												"length": "1",
																												"children": []
																											}
																										]
																									}
																								]
																							}
																						]
																					}
																				]
																			}
																		]
																	},
																	{
																		"type": "20100",
																		"typeLabel": "Left",
																		"pos": "1540",
																		"length": "8",
																		"children": [
																			{
																				"type": "241000",
																				"typeLabel": "Unary",
																				"pos": "1540",
																				"length": "8",
																				"children": [
																					{
																						"type": "240100",
																						"typeLabel": "Ident",
																						"pos": "1541",
																						"length": "7",
																						"children": [
																							{
																								"type": "480000",
																								"label": "written",
																								"typeLabel": "GenericString",
																								"pos": "1541",
																								"length": "7",
																								"children": []
																							}
																						]
																					},
																					{
																						"type": "480000",
																						"label": "&",
																						"typeLabel": "GenericString",
																						"pos": "1540",
																						"length": "1",
																						"children": []
																					}
																				]
																			}
																		]
																	},
																	{
																		"type": "20100",
																		"typeLabel": "Left",
																		"pos": "1550",
																		"length": "4",
																		"children": [
																			{
																				"type": "240100",
																				"typeLabel": "Ident",
																				"pos": "1550",
																				"length": "4",
																				"children": [
																					{
																						"type": "480000",
																						"label": "NULL",
																						"typeLabel": "GenericString",
																						"pos": "1550",
																						"length": "4",
																						"children": []
																					}
																				]
																			}
																		]
																	}
																]
															}
														]
													},
													{
														"type": "480000",
														"label": ";",
														"typeLabel": "GenericString",
														"pos": "1555",
														"length": "1",
														"children": []
													}
												]
											}
										]
									},
									{
										"type": "260300",
										"typeLabel": "ExprStatement",
										"pos": "1561",
										"length": "51",
										"children": [
											{
												"type": "290100",
												"typeLabel": "Some",
												"pos": "1561",
												"length": "51",
												"children": [
													{
														"type": "240400",
														"typeLabel": "FunCall",
														"pos": "1561",
														"length": "50",
														"children": [
															{
																"type": "240100",
																"typeLabel": "Ident",
																"pos": "1561",
																"length": "13",
																"children": [
																	{
																		"type": "480000",
																		"label": "WriteConsoleW",
																		"typeLabel": "GenericString",
																		"pos": "1561",
																		"length": "13",
																		"children": []
																	}
																]
															},
															{
																"type": "470000",
																"typeLabel": "GenericList",
																"pos": "1574",
																"length": "37",
																"children": [
																	{
																		"type": "20100",
																		"typeLabel": "Left",
																		"pos": "1575",
																		"length": "7",
																		"children": [
																			{
																				"type": "240100",
																				"typeLabel": "Ident",
																				"pos": "1575",
																				"length": "7",
																				"children": [
																					{
																						"type": "480000",
																						"label": "hstdout",
																						"typeLabel": "GenericString",
																						"pos": "1575",
																						"length": "7",
																						"children": []
																					}
																				]
																			}
																		]
																	},
																	{
																		"type": "20100",
																		"typeLabel": "Left",
																		"pos": "1584",
																		"length": "7",
																		"children": [
																			{
																				"type": "240200",
																				"label": "L\"\\r\\n\"",
																				"typeLabel": "Constant",
																				"pos": "1584",
																				"length": "7",
																				"children": []
																			}
																		]
																	},
																	{
																		"type": "20100",
																		"typeLabel": "Left",
																		"pos": "1593",
																		"length": "1",
																		"children": [
																			{
																				"type": "240200",
																				"label": "2",
																				"typeLabel": "Constant",
																				"pos": "1593",
																				"length": "1",
																				"children": []
																			}
																		]
																	},
																	{
																		"type": "20100",
																		"typeLabel": "Left",
																		"pos": "1596",
																		"length": "8",
																		"children": [
																			{
																				"type": "241000",
																				"typeLabel": "Unary",
																				"pos": "1596",
																				"length": "8",
																				"children": [
																					{
																						"type": "240100",
																						"typeLabel": "Ident",
																						"pos": "1597",
																						"length": "7",
																						"children": [
																							{
																								"type": "480000",
																								"label": "written",
																								"typeLabel": "GenericString",
																								"pos": "1597",
																								"length": "7",
																								"children": []
																							}
																						]
																					},
																					{
																						"type": "480000",
																						"label": "&",
																						"typeLabel": "GenericString",
																						"pos": "1596",
																						"length": "1",
																						"children": []
																					}
																				]
																			}
																		]
																	},
																	{
																		"type": "20100",
																		"typeLabel": "Left",
																		"pos": "1606",
																		"length": "4",
																		"children": [
																			{
																				"type": "240100",
																				"typeLabel": "Ident",
																				"pos": "1606",
																				"length": "4",
																				"children": [
																					{
																						"type": "480000",
																						"label": "NULL",
																						"typeLabel": "GenericString",
																						"pos": "1606",
																						"length": "4",
																						"children": []
																					}
																				]
																			}
																		]
																	}
																]
															}
														]
													},
													{
														"type": "480000",
														"label": ";",
														"typeLabel": "GenericString",
														"pos": "1611",
														"length": "1",
														"children": []
													}
												]
											}
										]
									},
									{
										"type": "260300",
										"typeLabel": "ExprStatement",
										"pos": "1647",
										"length": "21",
										"children": [
											{
												"type": "290100",
												"typeLabel": "Some",
												"pos": "1647",
												"length": "21",
												"children": [
													{
														"type": "240700",
														"typeLabel": "Assignment",
														"pos": "1647",
														"length": "20",
														"children": [
															{
																"type": "240100",
																"typeLabel": "Ident",
																"pos": "1647",
																"length": "6",
																"children": [
																	{
																		"type": "480000",
																		"label": "retval",
																		"typeLabel": "GenericString",
																		"pos": "1647",
																		"length": "6",
																		"children": []
																	}
																]
															},
															{
																"type": "480000",
																"label": "=",
																"typeLabel": "GenericString",
																"pos": "1654",
																"length": "1",
																"children": []
															},
															{
																"type": "240400",
																"typeLabel": "FunCall",
																"pos": "1656",
																"length": "11",
																"children": [
																	{
																		"type": "240100",
																		"typeLabel": "Ident",
																		"pos": "1656",
																		"length": "8",
																		"children": [
																			{
																				"type": "480000",
																				"label": "_wsystem",
																				"typeLabel": "GenericString",
																				"pos": "1656",
																				"length": "8",
																				"children": []
																			}
																		]
																	},
																	{
																		"type": "470000",
																		"typeLabel": "GenericList",
																		"pos": "1664",
																		"length": "3",
																		"children": [
																			{
																				"type": "20100",
																				"typeLabel": "Left",
																				"pos": "1665",
																				"length": "1",
																				"children": [
																					{
																						"type": "240100",
																						"typeLabel": "Ident",
																						"pos": "1665",
																						"length": "1",
																						"children": [
																							{
																								"type": "480000",
																								"label": "p",
																								"typeLabel": "GenericString",
																								"pos": "1665",
																								"length": "1",
																								"children": []
																							}
																						]
																					}
																				]
																			}
																		]
																	}
																]
															}
														]
													},
													{
														"type": "480000",
														"label": ";",
														"typeLabel": "GenericString",
														"pos": "1667",
														"length": "1",
														"children": []
													}
												]
											}
										]
									},
									{
										"type": "300100",
										"typeLabel": "If",
										"pos": "1674",
										"length": "113",
										"children": [
											{
												"type": "490100",
												"typeLabel": "IfToken",
												"pos": "1674",
												"length": "2",
												"children": []
											},
											{
												"type": "241100",
												"typeLabel": "Binary",
												"pos": "1678",
												"length": "12",
												"children": [
													{
														"type": "240100",
														"typeLabel": "Ident",
														"pos": "1678",
														"length": "6",
														"children": [
															{
																"type": "480000",
																"label": "retval",
																"typeLabel": "GenericString",
																"pos": "1678",
																"length": "6",
																"children": []
															}
														]
													},
													{
														"type": "480000",
														"label": "==",
														"typeLabel": "GenericString",
														"pos": "1685",
														"length": "2",
														"children": []
													},
													{
														"type": "241000",
														"typeLabel": "Unary",
														"pos": "1688",
														"length": "2",
														"children": [
															{
																"type": "240200",
																"label": "1",
																"typeLabel": "Constant",
																"pos": "1689",
																"length": "1",
																"children": []
															},
															{
																"type": "480000",
																"label": "-",
																"typeLabel": "GenericString",
																"pos": "1688",
																"length": "1",
																"children": []
															}
														]
													}
												]
											},
											{
												"type": "260300",
												"typeLabel": "ExprStatement",
												"pos": "1693",
												"length": "28",
												"children": [
													{
														"type": "290100",
														"typeLabel": "Some",
														"pos": "1693",
														"length": "28",
														"children": [
															{
																"type": "240400",
																"typeLabel": "FunCall",
																"pos": "1693",
																"length": "27",
																"children": [
																	{
																		"type": "240100",
																		"typeLabel": "Ident",
																		"pos": "1693",
																		"length": "6",
																		"children": [
																			{
																				"type": "480000",
																				"label": "perror",
																				"typeLabel": "GenericString",
																				"pos": "1693",
																				"length": "6",
																				"children": []
																			}
																		]
																	},
																	{
																		"type": "470000",
																		"typeLabel": "GenericList",
																		"pos": "1699",
																		"length": "21",
																		"children": [
																			{
																				"type": "20100",
																				"typeLabel": "Left",
																				"pos": "1700",
																				"length": "19",
																				"children": [
																					{
																						"type": "240200",
																						"label": "\"vimrun system(): \"",
																						"typeLabel": "Constant",
																						"pos": "1700",
																						"length": "19",
																						"children": []
																					}
																				]
																			}
																		]
																	}
																]
															},
															{
																"type": "480000",
																"label": ";",
																"typeLabel": "GenericString",
																"pos": "1720",
																"length": "1",
																"children": []
															}
														]
													}
												]
											},
											{
												"type": "300100",
												"typeLabel": "If",
												"pos": "1731",
												"length": "56",
												"children": [
													{
														"type": "490100",
														"typeLabel": "IfToken",
														"pos": "1731",
														"length": "2",
														"children": []
													},
													{
														"type": "241100",
														"typeLabel": "Binary",
														"pos": "1735",
														"length": "11",
														"children": [
															{
																"type": "240100",
																"typeLabel": "Ident",
																"pos": "1735",
																"length": "6",
																"children": [
																	{
																		"type": "480000",
																		"label": "retval",
																		"typeLabel": "GenericString",
																		"pos": "1735",
																		"length": "6",
																		"children": []
																	}
																]
															},
															{
																"type": "480000",
																"label": "!=",
																"typeLabel": "GenericString",
																"pos": "1742",
																"length": "2",
																"children": []
															},
															{
																"type": "240200",
																"label": "0",
																"typeLabel": "Constant",
																"pos": "1745",
																"length": "1",
																"children": []
															}
														]
													},
													{
														"type": "260300",
														"typeLabel": "ExprStatement",
														"pos": "1749",
														"length": "38",
														"children": [
															{
																"type": "290100",
																"typeLabel": "Some",
																"pos": "1749",
																"length": "38",
																"children": [
																	{
																		"type": "240400",
																		"typeLabel": "FunCall",
																		"pos": "1749",
																		"length": "37",
																		"children": [
																			{
																				"type": "240100",
																				"typeLabel": "Ident",
																				"pos": "1749",
																				"length": "6",
																				"children": [
																					{
																						"type": "480000",
																						"label": "printf",
																						"typeLabel": "GenericString",
																						"pos": "1749",
																						"length": "6",
																						"children": []
																					}
																				]
																			},
																			{
																				"type": "470000",
																				"typeLabel": "GenericList",
																				"pos": "1755",
																				"length": "31",
																				"children": [
																					{
																						"type": "20100",
																						"typeLabel": "Left",
																						"pos": "1756",
																						"length": "21",
																						"children": [
																							{
																								"type": "240200",
																								"label": "\"shell returned %d\\n\"",
																								"typeLabel": "Constant",
																								"pos": "1756",
																								"length": "21",
																								"children": []
																							}
																						]
																					},
																					{
																						"type": "20100",
																						"typeLabel": "Left",
																						"pos": "1779",
																						"length": "6",
																						"children": [
																							{
																								"type": "240100",
																								"typeLabel": "Ident",
																								"pos": "1779",
																								"length": "6",
																								"children": [
																									{
																										"type": "480000",
																										"label": "retval",
																										"typeLabel": "GenericString",
																										"pos": "1779",
																										"length": "6",
																										"children": []
																									}
																								]
																							}
																						]
																					}
																				]
																			}
																		]
																	},
																	{
																		"type": "480000",
																		"label": ";",
																		"typeLabel": "GenericString",
																		"pos": "1786",
																		"length": "1",
																		"children": []
																	}
																]
															}
														]
													}
												]
											}
										]
									},
									{
										"type": "300100",
										"typeLabel": "If",
										"pos": "1793",
										"length": "127",
										"children": [
											{
												"type": "490100",
												"typeLabel": "IfToken",
												"pos": "1793",
												"length": "2",
												"children": []
											},
											{
												"type": "241000",
												"typeLabel": "Unary",
												"pos": "1797",
												"length": "7",
												"children": [
													{
														"type": "240100",
														"typeLabel": "Ident",
														"pos": "1798",
														"length": "6",
														"children": [
															{
																"type": "480000",
																"label": "silent",
																"typeLabel": "GenericString",
																"pos": "1798",
																"length": "6",
																"children": []
															}
														]
													},
													{
														"type": "480000",
														"label": "!",
														"typeLabel": "GenericString",
														"pos": "1797",
														"length": "1",
														"children": []
													}
												]
											},
											{
												"type": "330000",
												"typeLabel": "Compound",
												"pos": "1810",
												"length": "110",
												"children": [
													{
														"type": "260300",
														"typeLabel": "ExprStatement",
														"pos": "1813",
														"length": "44",
														"children": [
															{
																"type": "290100",
																"typeLabel": "Some",
																"pos": "1813",
																"length": "44",
																"children": [
																	{
																		"type": "240400",
																		"typeLabel": "FunCall",
																		"pos": "1813",
																		"length": "43",
																		"children": [
																			{
																				"type": "240100",
																				"typeLabel": "Ident",
																				"pos": "1813",
																				"length": "4",
																				"children": [
																					{
																						"type": "480000",
																						"label": "puts",
																						"typeLabel": "GenericString",
																						"pos": "1813",
																						"length": "4",
																						"children": []
																					}
																				]
																			},
																			{
																				"type": "470000",
																				"typeLabel": "GenericList",
																				"pos": "1817",
																				"length": "39",
																				"children": [
																					{
																						"type": "20100",
																						"typeLabel": "Left",
																						"pos": "1818",
																						"length": "37",
																						"children": [
																							{
																								"type": "240200",
																								"label": "\"Hit any key to close this window...\"",
																								"typeLabel": "Constant",
																								"pos": "1818",
																								"length": "37",
																								"children": []
																							}
																						]
																					}
																				]
																			}
																		]
																	},
																	{
																		"type": "480000",
																		"label": ";",
																		"typeLabel": "GenericString",
																		"pos": "1856",
																		"length": "1",
																		"children": []
																	}
																]
															}
														]
													},
													{
														"type": "310100",
														"typeLabel": "While",
														"pos": "1860",
														"length": "37",
														"children": [
															{
																"type": "240400",
																"typeLabel": "FunCall",
																"pos": "1867",
																"length": "8",
																"children": [
																	{
																		"type": "240100",
																		"typeLabel": "Ident",
																		"pos": "1867",
																		"length": "6",
																		"children": [
																			{
																				"type": "480000",
																				"label": "_kbhit",
																				"typeLabel": "GenericString",
																				"pos": "1867",
																				"length": "6",
																				"children": []
																			}
																		]
																	},
																	{
																		"type": "470000",
																		"typeLabel": "GenericList",
																		"pos": "1873",
																		"length": "2",
																		"children": []
																	}
																]
															},
															{
																"type": "260300",
																"typeLabel": "ExprStatement",
																"pos": "1882",
																"length": "15",
																"children": [
																	{
																		"type": "290100",
																		"typeLabel": "Some",
																		"pos": "1882",
																		"length": "15",
																		"children": [
																			{
																				"type": "241700",
																				"typeLabel": "Cast",
																				"pos": "1882",
																				"length": "14",
																				"children": [
																					{
																						"type": "240400",
																						"typeLabel": "FunCall",
																						"pos": "1888",
																						"length": "8",
																						"children": [
																							{
																								"type": "240100",
																								"typeLabel": "Ident",
																								"pos": "1888",
																								"length": "6",
																								"children": [
																									{
																										"type": "480000",
																										"label": "_getch",
																										"typeLabel": "GenericString",
																										"pos": "1888",
																										"length": "6",
																										"children": []
																									}
																								]
																							},
																							{
																								"type": "470000",
																								"typeLabel": "GenericList",
																								"pos": "1894",
																								"length": "2",
																								"children": []
																							}
																						]
																					}
																				]
																			},
																			{
																				"type": "480000",
																				"label": ";",
																				"typeLabel": "GenericString",
																				"pos": "1896",
																				"length": "1",
																				"children": []
																			}
																		]
																	}
																]
															}
														]
													},
													{
														"type": "260300",
														"typeLabel": "ExprStatement",
														"pos": "1899",
														"length": "15",
														"children": [
															{
																"type": "290100",
																"typeLabel": "Some",
																"pos": "1899",
																"length": "15",
																"children": [
																	{
																		"type": "241700",
																		"typeLabel": "Cast",
																		"pos": "1899",
																		"length": "14",
																		"children": [
																			{
																				"type": "240400",
																				"typeLabel": "FunCall",
																				"pos": "1905",
																				"length": "8",
																				"children": [
																					{
																						"type": "240100",
																						"typeLabel": "Ident",
																						"pos": "1905",
																						"length": "6",
																						"children": [
																							{
																								"type": "480000",
																								"label": "_getch",
																								"typeLabel": "GenericString",
																								"pos": "1905",
																								"length": "6",
																								"children": []
																							}
																						]
																					},
																					{
																						"type": "470000",
																						"typeLabel": "GenericList",
																						"pos": "1911",
																						"length": "2",
																						"children": []
																					}
																				]
																			}
																		]
																	},
																	{
																		"type": "480000",
																		"label": ";",
																		"typeLabel": "GenericString",
																		"pos": "1913",
																		"length": "1",
																		"children": []
																	}
																]
															}
														]
													}
												]
											}
										]
									},
									{
										"type": "280200",
										"typeLabel": "ReturnExpr",
										"pos": "1926",
										"length": "14",
										"children": [
											{
												"type": "240100",
												"typeLabel": "Ident",
												"pos": "1933",
												"length": "6",
												"children": [
													{
														"type": "480000",
														"label": "retval",
														"typeLabel": "GenericString",
														"pos": "1933",
														"length": "6",
														"children": []
													}
												]
											}
										]
									}
								]
							}
						]
					}
				]
			},
			{
				"type": "450800",
				"typeLabel": "FinalDef",
				"pos": "1943",
				"length": "0",
				"children": []
			}
		]
	}
}