{
	"root": {
		"type": "460000",
		"typeLabel": "Program",
		"pos": "1570",
		"length": "788",
		"children": [
			{
				"type": "450300",
				"typeLabel": "CppTop",
				"pos": "1570",
				"length": "36",
				"children": [
					{
						"type": "400200",
						"typeLabel": "Include",
						"pos": "1570",
						"length": "36",
						"children": [
							{
								"type": "480000",
								"label": "\"src/core/iomgr/endpoint.h\"",
								"typeLabel": "GenericString",
								"pos": "1579",
								"length": "27",
								"children": []
							}
						]
					}
				]
			},
			{
				"type": "450200",
				"typeLabel": "Definition",
				"pos": "1608",
				"length": "215",
				"children": [
					{
						"type": "380000",
						"typeLabel": "Definition",
						"pos": "1608",
						"length": "215",
						"children": [
							{
								"type": "200000",
								"typeLabel": "ParamList",
								"pos": "1641",
								"length": "119",
								"children": [
									{
										"type": "220100",
										"typeLabel": "ParameterType",
										"pos": "1642",
										"length": "17",
										"children": [
											{
												"type": "480000",
												"label": "ep",
												"typeLabel": "GenericString",
												"pos": "1657",
												"length": "2",
												"children": []
											}
										]
									},
									{
										"type": "220100",
										"typeLabel": "ParameterType",
										"pos": "1661",
										"length": "24",
										"children": [
											{
												"type": "480000",
												"label": "cb",
												"typeLabel": "GenericString",
												"pos": "1683",
												"length": "2",
												"children": []
											}
										]
									},
									{
										"type": "220100",
										"typeLabel": "ParameterType",
										"pos": "1721",
										"length": "15",
										"children": [
											{
												"type": "480000",
												"label": "user_data",
												"typeLabel": "GenericString",
												"pos": "1727",
												"length": "9",
												"children": []
											}
										]
									},
									{
										"type": "220100",
										"typeLabel": "ParameterType",
										"pos": "1738",
										"length": "21",
										"children": [
											{
												"type": "480000",
												"label": "deadline",
												"typeLabel": "GenericString",
												"pos": "1751",
												"length": "8",
												"children": []
											}
										]
									}
								]
							},
							{
								"type": "480000",
								"label": "grpc_endpoint_notify_on_read",
								"typeLabel": "GenericString",
								"pos": "1613",
								"length": "28",
								"children": []
							},
							{
								"type": "330000",
								"typeLabel": "Compound",
								"pos": "1761",
								"length": "62",
								"children": [
									{
										"type": "260300",
										"typeLabel": "ExprStatement",
										"pos": "1765",
										"length": "56",
										"children": [
											{
												"type": "290100",
												"typeLabel": "Some",
												"pos": "1765",
												"length": "56",
												"children": [
													{
														"type": "240400",
														"typeLabel": "FunCall",
														"pos": "1765",
														"length": "55",
														"children": [
															{
																"type": "241400",
																"typeLabel": "RecordPtAccess",
																"pos": "1765",
																"length": "26",
																"children": [
																	{
																		"type": "241400",
																		"typeLabel": "RecordPtAccess",
																		"pos": "1765",
																		"length": "10",
																		"children": [
																			{
																				"type": "240100",
																				"typeLabel": "Ident",
																				"pos": "1765",
																				"length": "2",
																				"children": [
																					{
																						"type": "480000",
																						"label": "ep",
																						"typeLabel": "GenericString",
																						"pos": "1765",
																						"length": "2",
																						"children": []
																					}
																				]
																			},
																			{
																				"type": "480000",
																				"label": "vtable",
																				"typeLabel": "GenericString",
																				"pos": "1769",
																				"length": "6",
																				"children": []
																			}
																		]
																	},
																	{
																		"type": "480000",
																		"label": "notify_on_read",
																		"typeLabel": "GenericString",
																		"pos": "1777",
																		"length": "14",
																		"children": []
																	}
																]
															},
															{
																"type": "470000",
																"typeLabel": "GenericList",
																"pos": "1791",
																"length": "29",
																"children": [
																	{
																		"type": "20100",
																		"typeLabel": "Left",
																		"pos": "1792",
																		"length": "2",
																		"children": [
																			{
																				"type": "240100",
																				"typeLabel": "Ident",
																				"pos": "1792",
																				"length": "2",
																				"children": [
																					{
																						"type": "480000",
																						"label": "ep",
																						"typeLabel": "GenericString",
																						"pos": "1792",
																						"length": "2",
																						"children": []
																					}
																				]
																			}
																		]
																	},
																	{
																		"type": "20100",
																		"typeLabel": "Left",
																		"pos": "1796",
																		"length": "2",
																		"children": [
																			{
																				"type": "240100",
																				"typeLabel": "Ident",
																				"pos": "1796",
																				"length": "2",
																				"children": [
																					{
																						"type": "480000",
																						"label": "cb",
																						"typeLabel": "GenericString",
																						"pos": "1796",
																						"length": "2",
																						"children": []
																					}
																				]
																			}
																		]
																	},
																	{
																		"type": "20100",
																		"typeLabel": "Left",
																		"pos": "1800",
																		"length": "9",
																		"children": [
																			{
																				"type": "240100",
																				"typeLabel": "Ident",
																				"pos": "1800",
																				"length": "9",
																				"children": [
																					{
																						"type": "480000",
																						"label": "user_data",
																						"typeLabel": "GenericString",
																						"pos": "1800",
																						"length": "9",
																						"children": []
																					}
																				]
																			}
																		]
																	},
																	{
																		"type": "20100",
																		"typeLabel": "Left",
																		"pos": "1811",
																		"length": "8",
																		"children": [
																			{
																				"type": "240100",
																				"typeLabel": "Ident",
																				"pos": "1811",
																				"length": "8",
																				"children": [
																					{
																						"type": "480000",
																						"label": "deadline",
																						"typeLabel": "GenericString",
																						"pos": "1811",
																						"length": "8",
																						"children": []
																					}
																				]
																			}
																		]
																	}
																]
															}
														]
													},
													{
														"type": "480000",
														"label": ";",
														"typeLabel": "GenericString",
														"pos": "1820",
														"length": "1",
														"children": []
													}
												]
											}
										]
									}
								]
							}
						]
					}
				]
			},
			{
				"type": "450200",
				"typeLabel": "Definition",
				"pos": "1825",
				"length": "254",
				"children": [
					{
						"type": "380000",
						"typeLabel": "Definition",
						"pos": "1825",
						"length": "254",
						"children": [
							{
								"type": "200000",
								"typeLabel": "ParamList",
								"pos": "1871",
								"length": "130",
								"children": [
									{
										"type": "220100",
										"typeLabel": "ParameterType",
										"pos": "1877",
										"length": "17",
										"children": [
											{
												"type": "480000",
												"label": "ep",
												"typeLabel": "GenericString",
												"pos": "1892",
												"length": "2",
												"children": []
											}
										]
									},
									{
										"type": "220100",
										"typeLabel": "ParameterType",
										"pos": "1896",
										"length": "17",
										"children": [
											{
												"type": "480000",
												"label": "slices",
												"typeLabel": "GenericString",
												"pos": "1907",
												"length": "6",
												"children": []
											}
										]
									},
									{
										"type": "220100",
										"typeLabel": "ParameterType",
										"pos": "1915",
										"length": "14",
										"children": [
											{
												"type": "480000",
												"label": "nslices",
												"typeLabel": "GenericString",
												"pos": "1922",
												"length": "7",
												"children": []
											}
										]
									},
									{
										"type": "220100",
										"typeLabel": "ParameterType",
										"pos": "1935",
										"length": "25",
										"children": [
											{
												"type": "480000",
												"label": "cb",
												"typeLabel": "GenericString",
												"pos": "1958",
												"length": "2",
												"children": []
											}
										]
									},
									{
										"type": "220100",
										"typeLabel": "ParameterType",
										"pos": "1962",
										"length": "15",
										"children": [
											{
												"type": "480000",
												"label": "user_data",
												"typeLabel": "GenericString",
												"pos": "1968",
												"length": "9",
												"children": []
											}
										]
									},
									{
										"type": "220100",
										"typeLabel": "ParameterType",
										"pos": "1979",
										"length": "21",
										"children": [
											{
												"type": "480000",
												"label": "deadline",
												"typeLabel": "GenericString",
												"pos": "1992",
												"length": "8",
												"children": []
											}
										]
									}
								]
							},
							{
								"type": "480000",
								"label": "grpc_endpoint_write",
								"typeLabel": "GenericString",
								"pos": "1852",
								"length": "19",
								"children": []
							},
							{
								"type": "330000",
								"typeLabel": "Compound",
								"pos": "2002",
								"length": "77",
								"children": [
									{
										"type": "280200",
										"typeLabel": "ReturnExpr",
										"pos": "2006",
										"length": "71",
										"children": [
											{
												"type": "240400",
												"typeLabel": "FunCall",
												"pos": "2013",
												"length": "63",
												"children": [
													{
														"type": "241400",
														"typeLabel": "RecordPtAccess",
														"pos": "2013",
														"length": "17",
														"children": [
															{
																"type": "241400",
																"typeLabel": "RecordPtAccess",
																"pos": "2013",
																"length": "10",
																"children": [
																	{
																		"type": "240100",
																		"typeLabel": "Ident",
																		"pos": "2013",
																		"length": "2",
																		"children": [
																			{
																				"type": "480000",
																				"label": "ep",
																				"typeLabel": "GenericString",
																				"pos": "2013",
																				"length": "2",
																				"children": []
																			}
																		]
																	},
																	{
																		"type": "480000",
																		"label": "vtable",
																		"typeLabel": "GenericString",
																		"pos": "2017",
																		"length": "6",
																		"children": []
																	}
																]
															},
															{
																"type": "480000",
																"label": "write",
																"typeLabel": "GenericString",
																"pos": "2025",
																"length": "5",
																"children": []
															}
														]
													},
													{
														"type": "470000",
														"typeLabel": "GenericList",
														"pos": "2030",
														"length": "46",
														"children": [
															{
																"type": "20100",
																"typeLabel": "Left",
																"pos": "2031",
																"length": "2",
																"children": [
																	{
																		"type": "240100",
																		"typeLabel": "Ident",
																		"pos": "2031",
																		"length": "2",
																		"children": [
																			{
																				"type": "480000",
																				"label": "ep",
																				"typeLabel": "GenericString",
																				"pos": "2031",
																				"length": "2",
																				"children": []
																			}
																		]
																	}
																]
															},
															{
																"type": "20100",
																"typeLabel": "Left",
																"pos": "2035",
																"length": "6",
																"children": [
																	{
																		"type": "240100",
																		"typeLabel": "Ident",
																		"pos": "2035",
																		"length": "6",
																		"children": [
																			{
																				"type": "480000",
																				"label": "slices",
																				"typeLabel": "GenericString",
																				"pos": "2035",
																				"length": "6",
																				"children": []
																			}
																		]
																	}
																]
															},
															{
																"type": "20100",
																"typeLabel": "Left",
																"pos": "2043",
																"length": "7",
																"children": [
																	{
																		"type": "240100",
																		"typeLabel": "Ident",
																		"pos": "2043",
																		"length": "7",
																		"children": [
																			{
																				"type": "480000",
																				"label": "nslices",
																				"typeLabel": "GenericString",
																				"pos": "2043",
																				"length": "7",
																				"children": []
																			}
																		]
																	}
																]
															},
															{
																"type": "20100",
																"typeLabel": "Left",
																"pos": "2052",
																"length": "2",
																"children": [
																	{
																		"type": "240100",
																		"typeLabel": "Ident",
																		"pos": "2052",
																		"length": "2",
																		"children": [
																			{
																				"type": "480000",
																				"label": "cb",
																				"typeLabel": "GenericString",
																				"pos": "2052",
																				"length": "2",
																				"children": []
																			}
																		]
																	}
																]
															},
															{
																"type": "20100",
																"typeLabel": "Left",
																"pos": "2056",
																"length": "9",
																"children": [
																	{
																		"type": "240100",
																		"typeLabel": "Ident",
																		"pos": "2056",
																		"length": "9",
																		"children": [
																			{
																				"type": "480000",
																				"label": "user_data",
																				"typeLabel": "GenericString",
																				"pos": "2056",
																				"length": "9",
																				"children": []
																			}
																		]
																	}
																]
															},
															{
																"type": "20100",
																"typeLabel": "Left",
																"pos": "2067",
																"length": "8",
																"children": [
																	{
																		"type": "240100",
																		"typeLabel": "Ident",
																		"pos": "2067",
																		"length": "8",
																		"children": [
																			{
																				"type": "480000",
																				"label": "deadline",
																				"typeLabel": "GenericString",
																				"pos": "2067",
																				"length": "8",
																				"children": []
																			}
																		]
																	}
																]
															}
														]
													}
												]
											}
										]
									}
								]
							}
						]
					}
				]
			},
			{
				"type": "450200",
				"typeLabel": "Definition",
				"pos": "2081",
				"length": "122",
				"children": [
					{
						"type": "380000",
						"typeLabel": "Definition",
						"pos": "2081",
						"length": "122",
						"children": [
							{
								"type": "200000",
								"typeLabel": "ParamList",
								"pos": "2114",
								"length": "42",
								"children": [
									{
										"type": "220100",
										"typeLabel": "ParameterType",
										"pos": "2115",
										"length": "17",
										"children": [
											{
												"type": "480000",
												"label": "ep",
												"typeLabel": "GenericString",
												"pos": "2130",
												"length": "2",
												"children": []
											}
										]
									},
									{
										"type": "220100",
										"typeLabel": "ParameterType",
										"pos": "2134",
										"length": "21",
										"children": [
											{
												"type": "480000",
												"label": "pollset",
												"typeLabel": "GenericString",
												"pos": "2148",
												"length": "7",
												"children": []
											}
										]
									}
								]
							},
							{
								"type": "480000",
								"label": "grpc_endpoint_add_to_pollset",
								"typeLabel": "GenericString",
								"pos": "2086",
								"length": "28",
								"children": []
							},
							{
								"type": "330000",
								"typeLabel": "Compound",
								"pos": "2157",
								"length": "46",
								"children": [
									{
										"type": "260300",
										"typeLabel": "ExprStatement",
										"pos": "2161",
										"length": "40",
										"children": [
											{
												"type": "290100",
												"typeLabel": "Some",
												"pos": "2161",
												"length": "40",
												"children": [
													{
														"type": "240400",
														"typeLabel": "FunCall",
														"pos": "2161",
														"length": "39",
														"children": [
															{
																"type": "241400",
																"typeLabel": "RecordPtAccess",
																"pos": "2161",
																"length": "26",
																"children": [
																	{
																		"type": "241400",
																		"typeLabel": "RecordPtAccess",
																		"pos": "2161",
																		"length": "10",
																		"children": [
																			{
																				"type": "240100",
																				"typeLabel": "Ident",
																				"pos": "2161",
																				"length": "2",
																				"children": [
																					{
																						"type": "480000",
																						"label": "ep",
																						"typeLabel": "GenericString",
																						"pos": "2161",
																						"length": "2",
																						"children": []
																					}
																				]
																			},
																			{
																				"type": "480000",
																				"label": "vtable",
																				"typeLabel": "GenericString",
																				"pos": "2165",
																				"length": "6",
																				"children": []
																			}
																		]
																	},
																	{
																		"type": "480000",
																		"label": "add_to_pollset",
																		"typeLabel": "GenericString",
																		"pos": "2173",
																		"length": "14",
																		"children": []
																	}
																]
															},
															{
																"type": "470000",
																"typeLabel": "GenericList",
																"pos": "2187",
																"length": "13",
																"children": [
																	{
																		"type": "20100",
																		"typeLabel": "Left",
																		"pos": "2188",
																		"length": "2",
																		"children": [
																			{
																				"type": "240100",
																				"typeLabel": "Ident",
																				"pos": "2188",
																				"length": "2",
																				"children": [
																					{
																						"type": "480000",
																						"label": "ep",
																						"typeLabel": "GenericString",
																						"pos": "2188",
																						"length": "2",
																						"children": []
																					}
																				]
																			}
																		]
																	},
																	{
																		"type": "20100",
																		"typeLabel": "Left",
																		"pos": "2192",
																		"length": "7",
																		"children": [
																			{
																				"type": "240100",
																				"typeLabel": "Ident",
																				"pos": "2192",
																				"length": "7",
																				"children": [
																					{
																						"type": "480000",
																						"label": "pollset",
																						"typeLabel": "GenericString",
																						"pos": "2192",
																						"length": "7",
																						"children": []
																					}
																				]
																			}
																		]
																	}
																]
															}
														]
													},
													{
														"type": "480000",
														"label": ";",
														"typeLabel": "GenericString",
														"pos": "2200",
														"length": "1",
														"children": []
													}
												]
											}
										]
									}
								]
							}
						]
					}
				]
			},
			{
				"type": "450200",
				"typeLabel": "Definition",
				"pos": "2205",
				"length": "76",
				"children": [
					{
						"type": "380000",
						"typeLabel": "Definition",
						"pos": "2205",
						"length": "76",
						"children": [
							{
								"type": "200000",
								"typeLabel": "ParamList",
								"pos": "2232",
								"length": "19",
								"children": [
									{
										"type": "220100",
										"typeLabel": "ParameterType",
										"pos": "2233",
										"length": "17",
										"children": [
											{
												"type": "480000",
												"label": "ep",
												"typeLabel": "GenericString",
												"pos": "2248",
												"length": "2",
												"children": []
											}
										]
									}
								]
							},
							{
								"type": "480000",
								"label": "grpc_endpoint_shutdown",
								"typeLabel": "GenericString",
								"pos": "2210",
								"length": "22",
								"children": []
							},
							{
								"type": "330000",
								"typeLabel": "Compound",
								"pos": "2252",
								"length": "29",
								"children": [
									{
										"type": "260300",
										"typeLabel": "ExprStatement",
										"pos": "2254",
										"length": "25",
										"children": [
											{
												"type": "290100",
												"typeLabel": "Some",
												"pos": "2254",
												"length": "25",
												"children": [
													{
														"type": "240400",
														"typeLabel": "FunCall",
														"pos": "2254",
														"length": "24",
														"children": [
															{
																"type": "241400",
																"typeLabel": "RecordPtAccess",
																"pos": "2254",
																"length": "20",
																"children": [
																	{
																		"type": "241400",
																		"typeLabel": "RecordPtAccess",
																		"pos": "2254",
																		"length": "10",
																		"children": [
																			{
																				"type": "240100",
																				"typeLabel": "Ident",
																				"pos": "2254",
																				"length": "2",
																				"children": [
																					{
																						"type": "480000",
																						"label": "ep",
																						"typeLabel": "GenericString",
																						"pos": "2254",
																						"length": "2",
																						"children": []
																					}
																				]
																			},
																			{
																				"type": "480000",
																				"label": "vtable",
																				"typeLabel": "GenericString",
																				"pos": "2258",
																				"length": "6",
																				"children": []
																			}
																		]
																	},
																	{
																		"type": "480000",
																		"label": "shutdown",
																		"typeLabel": "GenericString",
																		"pos": "2266",
																		"length": "8",
																		"children": []
																	}
																]
															},
															{
																"type": "470000",
																"typeLabel": "GenericList",
																"pos": "2274",
																"length": "4",
																"children": [
																	{
																		"type": "20100",
																		"typeLabel": "Left",
																		"pos": "2275",
																		"length": "2",
																		"children": [
																			{
																				"type": "240100",
																				"typeLabel": "Ident",
																				"pos": "2275",
																				"length": "2",
																				"children": [
																					{
																						"type": "480000",
																						"label": "ep",
																						"typeLabel": "GenericString",
																						"pos": "2275",
																						"length": "2",
																						"children": []
																					}
																				]
																			}
																		]
																	}
																]
															}
														]
													},
													{
														"type": "480000",
														"label": ";",
														"typeLabel": "GenericString",
														"pos": "2278",
														"length": "1",
														"children": []
													}
												]
											}
										]
									}
								]
							}
						]
					}
				]
			},
			{
				"type": "450200",
				"typeLabel": "Definition",
				"pos": "2283",
				"length": "74",
				"children": [
					{
						"type": "380000",
						"typeLabel": "Definition",
						"pos": "2283",
						"length": "74",
						"children": [
							{
								"type": "200000",
								"typeLabel": "ParamList",
								"pos": "2309",
								"length": "19",
								"children": [
									{
										"type": "220100",
										"typeLabel": "ParameterType",
										"pos": "2310",
										"length": "17",
										"children": [
											{
												"type": "480000",
												"label": "ep",
												"typeLabel": "GenericString",
												"pos": "2325",
												"length": "2",
												"children": []
											}
										]
									}
								]
							},
							{
								"type": "480000",
								"label": "grpc_endpoint_destroy",
								"typeLabel": "GenericString",
								"pos": "2288",
								"length": "21",
								"children": []
							},
							{
								"type": "330000",
								"typeLabel": "Compound",
								"pos": "2329",
								"length": "28",
								"children": [
									{
										"type": "260300",
										"typeLabel": "ExprStatement",
										"pos": "2331",
										"length": "24",
										"children": [
											{
												"type": "290100",
												"typeLabel": "Some",
												"pos": "2331",
												"length": "24",
												"children": [
													{
														"type": "240400",
														"typeLabel": "FunCall",
														"pos": "2331",
														"length": "23",
														"children": [
															{
																"type": "241400",
																"typeLabel": "RecordPtAccess",
																"pos": "2331",
																"length": "19",
																"children": [
																	{
																		"type": "241400",
																		"typeLabel": "RecordPtAccess",
																		"pos": "2331",
																		"length": "10",
																		"children": [
																			{
																				"type": "240100",
																				"typeLabel": "Ident",
																				"pos": "2331",
																				"length": "2",
																				"children": [
																					{
																						"type": "480000",
																						"label": "ep",
																						"typeLabel": "GenericString",
																						"pos": "2331",
																						"length": "2",
																						"children": []
																					}
																				]
																			},
																			{
																				"type": "480000",
																				"label": "vtable",
																				"typeLabel": "GenericString",
																				"pos": "2335",
																				"length": "6",
																				"children": []
																			}
																		]
																	},
																	{
																		"type": "480000",
																		"label": "destroy",
																		"typeLabel": "GenericString",
																		"pos": "2343",
																		"length": "7",
																		"children": []
																	}
																]
															},
															{
																"type": "470000",
																"typeLabel": "GenericList",
																"pos": "2350",
																"length": "4",
																"children": [
																	{
																		"type": "20100",
																		"typeLabel": "Left",
																		"pos": "2351",
																		"length": "2",
																		"children": [
																			{
																				"type": "240100",
																				"typeLabel": "Ident",
																				"pos": "2351",
																				"length": "2",
																				"children": [
																					{
																						"type": "480000",
																						"label": "ep",
																						"typeLabel": "GenericString",
																						"pos": "2351",
																						"length": "2",
																						"children": []
																					}
																				]
																			}
																		]
																	}
																]
															}
														]
													},
													{
														"type": "480000",
														"label": ";",
														"typeLabel": "GenericString",
														"pos": "2354",
														"length": "1",
														"children": []
													}
												]
											}
										]
									}
								]
							}
						]
					}
				]
			},
			{
				"type": "450800",
				"typeLabel": "FinalDef",
				"pos": "2358",
				"length": "0",
				"children": []
			}
		]
	}
}