{
  "matches": [
    {
      "src": 1544,
      "dest": 1544
    },
    {
      "src": 528,
      "dest": 528
    },
    {
      "src": 552,
      "dest": 552
    },
    {
      "src": 313,
      "dest": 313
    },
    {
      "src": 1621,
      "dest": 1621
    },
    {
      "src": 1593,
      "dest": 1593
    },
    {
      "src": 659,
      "dest": 659
    },
    {
      "src": 454,
      "dest": 454
    },
    {
      "src": 297,
      "dest": 297
    },
    {
      "src": 821,
      "dest": 821
    },
    {
      "src": 424,
      "dest": 424
    },
    {
      "src": 1534,
      "dest": 1534
    },
    {
      "src": 332,
      "dest": 332
    },
    {
      "src": 1587,
      "dest": 1587
    },
    {
      "src": 1253,
      "dest": 1253
    },
    {
      "src": 1277,
      "dest": 1277
    },
    {
      "src": 8,
      "dest": 8
    },
    {
      "src": 733,
      "dest": 733
    },
    {
      "src": 846,
      "dest": 846
    },
    {
      "src": 458,
      "dest": 458
    },
    {
      "src": 1575,
      "dest": 1575
    },
    {
      "src": 927,
      "dest": 927
    },
    {
      "src": 1367,
      "dest": 1367
    },
    {
      "src": 1480,
      "dest": 1480
    },
    {
      "src": 1572,
      "dest": 1572
    },
    {
      "src": 1464,
      "dest": 1464
    },
    {
      "src": 525,
      "dest": 525
    },
    {
      "src": 363,
      "dest": 363
    },
    {
      "src": 624,
      "dest": 624
    },
    {
      "src": 376,
      "dest": 376
    },
    {
      "src": 546,
      "dest": 546
    },
    {
      "src": 1014,
      "dest": 1014
    },
    {
      "src": 69,
      "dest": 69
    },
    {
      "src": 1256,
      "dest": 1256
    },
    {
      "src": 115,
      "dest": 115
    },
    {
      "src": 1139,
      "dest": 1139
    },
    {
      "src": 1128,
      "dest": 1128
    },
    {
      "src": 1426,
      "dest": 1426
    },
    {
      "src": 1148,
      "dest": 1148
    },
    {
      "src": 805,
      "dest": 805
    },
    {
      "src": 1075,
      "dest": 1075
    },
    {
      "src": 1672,
      "dest": 1672
    },
    {
      "src": 761,
      "dest": 761
    },
    {
      "src": 1679,
      "dest": 1679
    },
    {
      "src": 117,
      "dest": 117
    },
    {
      "src": 817,
      "dest": 817
    },
    {
      "src": 116,
      "dest": 116
    },
    {
      "src": 1180,
      "dest": 1180
    },
    {
      "src": 291,
      "dest": 291
    },
    {
      "src": 1379,
      "dest": 1379
    },
    {
      "src": 1158,
      "dest": 1158
    },
    {
      "src": 215,
      "dest": 215
    },
    {
      "src": 1591,
      "dest": 1591
    },
    {
      "src": 1474,
      "dest": 1474
    },
    {
      "src": 753,
      "dest": 753
    },
    {
      "src": 1579,
      "dest": 1579
    },
    {
      "src": 1468,
      "dest": 1468
    },
    {
      "src": 1094,
      "dest": 1094
    },
    {
      "src": 1718,
      "dest": 1742
    },
    {
      "src": 1229,
      "dest": 1229
    },
    {
      "src": 768,
      "dest": 768
    },
    {
      "src": 92,
      "dest": 92
    },
    {
      "src": 1400,
      "dest": 1400
    },
    {
      "src": 575,
      "dest": 575
    },
    {
      "src": 1107,
      "dest": 1107
    },
    {
      "src": 1618,
      "dest": 1618
    },
    {
      "src": 931,
      "dest": 931
    },
    {
      "src": 640,
      "dest": 640
    },
    {
      "src": 1691,
      "dest": 1714
    },
    {
      "src": 970,
      "dest": 970
    },
    {
      "src": 65,
      "dest": 65
    },
    {
      "src": 1034,
      "dest": 1034
    },
    {
      "src": 1071,
      "dest": 1071
    },
    {
      "src": 727,
      "dest": 727
    },
    {
      "src": 1309,
      "dest": 1309
    },
    {
      "src": 822,
      "dest": 822
    },
    {
      "src": 551,
      "dest": 551
    },
    {
      "src": 1117,
      "dest": 1117
    },
    {
      "src": 176,
      "dest": 176
    },
    {
      "src": 891,
      "dest": 891
    },
    {
      "src": 175,
      "dest": 175
    },
    {
      "src": 21,
      "dest": 21
    },
    {
      "src": 943,
      "dest": 943
    },
    {
      "src": 1695,
      "dest": 1719
    },
    {
      "src": 1398,
      "dest": 1398
    },
    {
      "src": 785,
      "dest": 785
    },
    {
      "src": 1041,
      "dest": 1041
    },
    {
      "src": 1423,
      "dest": 1423
    },
    {
      "src": 1485,
      "dest": 1485
    },
    {
      "src": 1675,
      "dest": 1675
    },
    {
      "src": 1472,
      "dest": 1472
    },
    {
      "src": 1320,
      "dest": 1320
    },
    {
      "src": 77,
      "dest": 77
    },
    {
      "src": 1498,
      "dest": 1498
    },
    {
      "src": 26,
      "dest": 26
    },
    {
      "src": 362,
      "dest": 362
    },
    {
      "src": 679,
      "dest": 679
    },
    {
      "src": 1230,
      "dest": 1230
    },
    {
      "src": 667,
      "dest": 667
    },
    {
      "src": 1559,
      "dest": 1559
    },
    {
      "src": 1103,
      "dest": 1103
    },
    {
      "src": 210,
      "dest": 210
    },
    {
      "src": 311,
      "dest": 311
    },
    {
      "src": 1224,
      "dest": 1224
    },
    {
      "src": 462,
      "dest": 462
    },
    {
      "src": 879,
      "dest": 879
    },
    {
      "src": 34,
      "dest": 34
    },
    {
      "src": 440,
      "dest": 440
    },
    {
      "src": 1172,
      "dest": 1172
    },
    {
      "src": 1031,
      "dest": 1031
    },
    {
      "src": 502,
      "dest": 502
    },
    {
      "src": 1486,
      "dest": 1486
    },
    {
      "src": 203,
      "dest": 203
    },
    {
      "src": 227,
      "dest": 227
    },
    {
      "src": 779,
      "dest": 779
    },
    {
      "src": 1772,
      "dest": 1796
    },
    {
      "src": 270,
      "dest": 270
    },
    {
      "src": 394,
      "dest": 394
    },
    {
      "src": 751,
      "dest": 751
    },
    {
      "src": 1594,
      "dest": 1594
    },
    {
      "src": 1768,
      "dest": 1792
    },
    {
      "src": 686,
      "dest": 686
    },
    {
      "src": 1611,
      "dest": 1611
    },
    {
      "src": 1478,
      "dest": 1478
    },
    {
      "src": 238,
      "dest": 238
    },
    {
      "src": 1274,
      "dest": 1274
    },
    {
      "src": 464,
      "dest": 464
    },
    {
      "src": 906,
      "dest": 906
    },
    {
      "src": 787,
      "dest": 787
    },
    {
      "src": 1735,
      "dest": 1759
    },
    {
      "src": 1254,
      "dest": 1254
    },
    {
      "src": 1376,
      "dest": 1376
    },
    {
      "src": 1065,
      "dest": 1065
    },
    {
      "src": 1627,
      "dest": 1627
    },
    {
      "src": 1636,
      "dest": 1636
    },
    {
      "src": 1092,
      "dest": 1092
    },
    {
      "src": 1660,
      "dest": 1685
    },
    {
      "src": 1366,
      "dest": 1366
    },
    {
      "src": 1162,
      "dest": 1162
    },
    {
      "src": 913,
      "dest": 913
    },
    {
      "src": 1530,
      "dest": 1530
    },
    {
      "src": 895,
      "dest": 895
    },
    {
      "src": 1319,
      "dest": 1319
    },
    {
      "src": 30,
      "dest": 30
    },
    {
      "src": 1740,
      "dest": 1764
    },
    {
      "src": 1466,
      "dest": 1466
    },
    {
      "src": 42,
      "dest": 42
    },
    {
      "src": 772,
      "dest": 772
    },
    {
      "src": 1081,
      "dest": 1081
    },
    {
      "src": 634,
      "dest": 634
    },
    {
      "src": 109,
      "dest": 109
    },
    {
      "src": 1652,
      "dest": 1652
    },
    {
      "src": 928,
      "dest": 928
    },
    {
      "src": 160,
      "dest": 160
    },
    {
      "src": 211,
      "dest": 211
    },
    {
      "src": 790,
      "dest": 790
    },
    {
      "src": 179,
      "dest": 179
    },
    {
      "src": 1054,
      "dest": 1054
    },
    {
      "src": 1012,
      "dest": 1012
    },
    {
      "src": 1153,
      "dest": 1153
    },
    {
      "src": 1640,
      "dest": 1640
    },
    {
      "src": 1370,
      "dest": 1370
    },
    {
      "src": 1573,
      "dest": 1573
    },
    {
      "src": 1280,
      "dest": 1280
    },
    {
      "src": 327,
      "dest": 327
    },
    {
      "src": 549,
      "dest": 549
    },
    {
      "src": 490,
      "dest": 490
    },
    {
      "src": 1425,
      "dest": 1425
    },
    {
      "src": 135,
      "dest": 135
    },
    {
      "src": 407,
      "dest": 407
    },
    {
      "src": 681,
      "dest": 681
    },
    {
      "src": 872,
      "dest": 872
    },
    {
      "src": 155,
      "dest": 155
    },
    {
      "src": 951,
      "dest": 951
    },
    {
      "src": 755,
      "dest": 755
    },
    {
      "src": 844,
      "dest": 844
    },
    {
      "src": 500,
      "dest": 500
    },
    {
      "src": 1551,
      "dest": 1551
    },
    {
      "src": 157,
      "dest": 157
    },
    {
      "src": 672,
      "dest": 672
    },
    {
      "src": 1634,
      "dest": 1634
    },
    {
      "src": 1765,
      "dest": 1789
    },
    {
      "src": 377,
      "dest": 377
    },
    {
      "src": 504,
      "dest": 504
    },
    {
      "src": 367,
      "dest": 367
    },
    {
      "src": 1279,
      "dest": 1279
    },
    {
      "src": 1467,
      "dest": 1467
    },
    {
      "src": 93,
      "dest": 93
    },
    {
      "src": 1767,
      "dest": 1791
    },
    {
      "src": 1686,
      "dest": 1709
    },
    {
      "src": 557,
      "dest": 557
    },
    {
      "src": 1026,
      "dest": 1026
    },
    {
      "src": 723,
      "dest": 723
    },
    {
      "src": 1726,
      "dest": 1750
    },
    {
      "src": 1564,
      "dest": 1564
    },
    {
      "src": 272,
      "dest": 272
    },
    {
      "src": 1701,
      "dest": 1725
    },
    {
      "src": 1187,
      "dest": 1187
    },
    {
      "src": 627,
      "dest": 627
    },
    {
      "src": 1300,
      "dest": 1300
    },
    {
      "src": 795,
      "dest": 795
    },
    {
      "src": 1276,
      "dest": 1276
    },
    {
      "src": 1125,
      "dest": 1125
    },
    {
      "src": 1323,
      "dest": 1323
    },
    {
      "src": 1527,
      "dest": 1527
    },
    {
      "src": 1585,
      "dest": 1585
    },
    {
      "src": 199,
      "dest": 199
    },
    {
      "src": 335,
      "dest": 335
    },
    {
      "src": 610,
      "dest": 610
    },
    {
      "src": 893,
      "dest": 893
    },
    {
      "src": 1484,
      "dest": 1484
    },
    {
      "src": 1221,
      "dest": 1221
    },
    {
      "src": 709,
      "dest": 709
    },
    {
      "src": 1705,
      "dest": 1729
    },
    {
      "src": 1141,
      "dest": 1141
    },
    {
      "src": 1606,
      "dest": 1606
    },
    {
      "src": 1190,
      "dest": 1190
    },
    {
      "src": 1709,
      "dest": 1733
    },
    {
      "src": 1097,
      "dest": 1097
    },
    {
      "src": 935,
      "dest": 935
    },
    {
      "src": 1052,
      "dest": 1052
    },
    {
      "src": 1602,
      "dest": 1602
    },
    {
      "src": 1270,
      "dest": 1270
    },
    {
      "src": 261,
      "dest": 261
    },
    {
      "src": 194,
      "dest": 194
    },
    {
      "src": 1362,
      "dest": 1362
    },
    {
      "src": 31,
      "dest": 31
    },
    {
      "src": 623,
      "dest": 623
    },
    {
      "src": 1563,
      "dest": 1563
    },
    {
      "src": 1598,
      "dest": 1598
    },
    {
      "src": 1561,
      "dest": 1561
    },
    {
      "src": 966,
      "dest": 966
    },
    {
      "src": 456,
      "dest": 456
    },
    {
      "src": 1183,
      "dest": 1183
    },
    {
      "src": 688,
      "dest": 688
    },
    {
      "src": 1509,
      "dest": 1509
    },
    {
      "src": 560,
      "dest": 560
    },
    {
      "src": 1096,
      "dest": 1096
    },
    {
      "src": 1126,
      "dest": 1126
    },
    {
      "src": 78,
      "dest": 78
    },
    {
      "src": 1175,
      "dest": 1175
    },
    {
      "src": 1242,
      "dest": 1242
    },
    {
      "src": 1070,
      "dest": 1070
    },
    {
      "src": 929,
      "dest": 929
    },
    {
      "src": 9,
      "dest": 9
    },
    {
      "src": 347,
      "dest": 347
    },
    {
      "src": 130,
      "dest": 130
    },
    {
      "src": 446,
      "dest": 446
    },
    {
      "src": 299,
      "dest": 299
    },
    {
      "src": 136,
      "dest": 136
    },
    {
      "src": 1250,
      "dest": 1250
    },
    {
      "src": 355,
      "dest": 355
    },
    {
      "src": 1442,
      "dest": 1442
    },
    {
      "src": 1749,
      "dest": 1773
    },
    {
      "src": 316,
      "dest": 316
    },
    {
      "src": 1481,
      "dest": 1481
    },
    {
      "src": 331,
      "dest": 331
    },
    {
      "src": 204,
      "dest": 204
    },
    {
      "src": 665,
      "dest": 665
    },
    {
      "src": 1736,
      "dest": 1760
    },
    {
      "src": 698,
      "dest": 698
    },
    {
      "src": 254,
      "dest": 254
    },
    {
      "src": 1600,
      "dest": 1600
    },
    {
      "src": 383,
      "dest": 383
    },
    {
      "src": 591,
      "dest": 591
    },
    {
      "src": 1066,
      "dest": 1066
    },
    {
      "src": 1456,
      "dest": 1456
    },
    {
      "src": 212,
      "dest": 212
    },
    {
      "src": 119,
      "dest": 119
    },
    {
      "src": 1,
      "dest": 1
    },
    {
      "src": 1539,
      "dest": 1539
    },
    {
      "src": 1499,
      "dest": 1499
    },
    {
      "src": 968,
      "dest": 968
    },
    {
      "src": 1247,
      "dest": 1247
    },
    {
      "src": 530,
      "dest": 530
    },
    {
      "src": 1682,
      "dest": 1682
    },
    {
      "src": 140,
      "dest": 140
    },
    {
      "src": 632,
      "dest": 632
    },
    {
      "src": 1102,
      "dest": 1102
    },
    {
      "src": 1027,
      "dest": 1027
    },
    {
      "src": 1713,
      "dest": 1737
    },
    {
      "src": 47,
      "dest": 47
    },
    {
      "src": 957,
      "dest": 957
    },
    {
      "src": 1269,
      "dest": 1269
    },
    {
      "src": 1560,
      "dest": 1560
    },
    {
      "src": 265,
      "dest": 265
    },
    {
      "src": 418,
      "dest": 418
    },
    {
      "src": 1536,
      "dest": 1536
    },
    {
      "src": 72,
      "dest": 72
    },
    {
      "src": 1033,
      "dest": 1033
    },
    {
      "src": 838,
      "dest": 838
    },
    {
      "src": 1113,
      "dest": 1113
    },
    {
      "src": 1252,
      "dest": 1252
    },
    {
      "src": 1664,
      "dest": 1664
    },
    {
      "src": 1641,
      "dest": 1641
    },
    {
      "src": 1136,
      "dest": 1136
    },
    {
      "src": 488,
      "dest": 488
    },
    {
      "src": 237,
      "dest": 237
    },
    {
      "src": 1526,
      "dest": 1526
    },
    {
      "src": 1615,
      "dest": 1615
    },
    {
      "src": 1748,
      "dest": 1772
    },
    {
      "src": 1493,
      "dest": 1493
    },
    {
      "src": 818,
      "dest": 818
    },
    {
      "src": 1202,
      "dest": 1202
    },
    {
      "src": 1676,
      "dest": 1676
    },
    {
      "src": 544,
      "dest": 544
    },
    {
      "src": 1144,
      "dest": 1144
    },
    {
      "src": 810,
      "dest": 810
    },
    {
      "src": 427,
      "dest": 427
    },
    {
      "src": 512,
      "dest": 512
    },
    {
      "src": 410,
      "dest": 410
    },
    {
      "src": 91,
      "dest": 91
    },
    {
      "src": 385,
      "dest": 385
    },
    {
      "src": 1753,
      "dest": 1777
    },
    {
      "src": 712,
      "dest": 712
    },
    {
      "src": 1693,
      "dest": 1716
    },
    {
      "src": 1525,
      "dest": 1525
    },
    {
      "src": 64,
      "dest": 64
    },
    {
      "src": 1110,
      "dest": 1110
    },
    {
      "src": 481,
      "dest": 481
    },
    {
      "src": 824,
      "dest": 824
    },
    {
      "src": 1156,
      "dest": 1156
    },
    {
      "src": 1396,
      "dest": 1396
    },
    {
      "src": 420,
      "dest": 420
    },
    {
      "src": 1236,
      "dest": 1236
    },
    {
      "src": 402,
      "dest": 402
    },
    {
      "src": 1137,
      "dest": 1137
    },
    {
      "src": 979,
      "dest": 979
    },
    {
      "src": 875,
      "dest": 875
    },
    {
      "src": 108,
      "dest": 108
    },
    {
      "src": 796,
      "dest": 796
    },
    {
      "src": 253,
      "dest": 253
    },
    {
      "src": 832,
      "dest": 832
    },
    {
      "src": 1546,
      "dest": 1546
    },
    {
      "src": 1409,
      "dest": 1409
    },
    {
      "src": 1438,
      "dest": 1438
    },
    {
      "src": 62,
      "dest": 62
    },
    {
      "src": 1462,
      "dest": 1462
    },
    {
      "src": 296,
      "dest": 296
    },
    {
      "src": 631,
      "dest": 631
    },
    {
      "src": 366,
      "dest": 366
    },
    {
      "src": 718,
      "dest": 718
    },
    {
      "src": 1521,
      "dest": 1521
    },
    {
      "src": 1532,
      "dest": 1532
    },
    {
      "src": 925,
      "dest": 925
    },
    {
      "src": 121,
      "dest": 121
    },
    {
      "src": 962,
      "dest": 962
    },
    {
      "src": 439,
      "dest": 439
    },
    {
      "src": 661,
      "dest": 661
    },
    {
      "src": 1238,
      "dest": 1238
    },
    {
      "src": 341,
      "dest": 341
    },
    {
      "src": 1653,
      "dest": 1653
    },
    {
      "src": 886,
      "dest": 886
    },
    {
      "src": 0,
      "dest": 0
    },
    {
      "src": 959,
      "dest": 959
    },
    {
      "src": 1199,
      "dest": 1199
    },
    {
      "src": 1524,
      "dest": 1524
    },
    {
      "src": 569,
      "dest": 569
    },
    {
      "src": 950,
      "dest": 950
    },
    {
      "src": 852,
      "dest": 852
    },
    {
      "src": 1302,
      "dest": 1302
    },
    {
      "src": 1349,
      "dest": 1349
    },
    {
      "src": 1383,
      "dest": 1383
    },
    {
      "src": 1239,
      "dest": 1239
    },
    {
      "src": 1635,
      "dest": 1635
    },
    {
      "src": 1506,
      "dest": 1506
    },
    {
      "src": 133,
      "dest": 133
    },
    {
      "src": 1261,
      "dest": 1261
    },
    {
      "src": 1072,
      "dest": 1072
    },
    {
      "src": 1762,
      "dest": 1786
    },
    {
      "src": 1105,
      "dest": 1105
    },
    {
      "src": 1023,
      "dest": 1023
    },
    {
      "src": 269,
      "dest": 269
    },
    {
      "src": 1008,
      "dest": 1008
    },
    {
      "src": 862,
      "dest": 862
    },
    {
      "src": 1588,
      "dest": 1588
    },
    {
      "src": 1232,
      "dest": 1232
    },
    {
      "src": 1068,
      "dest": 1068
    },
    {
      "src": 7,
      "dest": 7
    },
    {
      "src": 903,
      "dest": 903
    },
    {
      "src": 1112,
      "dest": 1112
    },
    {
      "src": 1704,
      "dest": 1728
    },
    {
      "src": 19,
      "dest": 19
    },
    {
      "src": 1381,
      "dest": 1381
    },
    {
      "src": 1241,
      "dest": 1241
    },
    {
      "src": 1590,
      "dest": 1590
    },
    {
      "src": 255,
      "dest": 255
    },
    {
      "src": 1082,
      "dest": 1082
    },
    {
      "src": 726,
      "dest": 726
    },
    {
      "src": 777,
      "dest": 777
    },
    {
      "src": 1049,
      "dest": 1049
    },
    {
      "src": 1191,
      "dest": 1191
    },
    {
      "src": 1037,
      "dest": 1037
    },
    {
      "src": 1776,
      "dest": 1800
    },
    {
      "src": 207,
      "dest": 207
    },
    {
      "src": 531,
      "dest": 531
    },
    {
      "src": 452,
      "dest": 452
    },
    {
      "src": 477,
      "dest": 477
    },
    {
      "src": 375,
      "dest": 375
    },
    {
      "src": 1258,
      "dest": 1258
    },
    {
      "src": 181,
      "dest": 181
    },
    {
      "src": 814,
      "dest": 814
    },
    {
      "src": 1030,
      "dest": 1030
    },
    {
      "src": 1505,
      "dest": 1505
    },
    {
      "src": 592,
      "dest": 592
    },
    {
      "src": 279,
      "dest": 279
    },
    {
      "src": 1710,
      "dest": 1734
    },
    {
      "src": 1213,
      "dest": 1213
    },
    {
      "src": 1042,
      "dest": 1042
    },
    {
      "src": 842,
      "dest": 842
    },
    {
      "src": 1360,
      "dest": 1360
    },
    {
      "src": 885,
      "dest": 885
    },
    {
      "src": 1412,
      "dest": 1412
    },
    {
      "src": 508,
      "dest": 508
    },
    {
      "src": 827,
      "dest": 827
    },
    {
      "src": 873,
      "dest": 873
    },
    {
      "src": 802,
      "dest": 802
    },
    {
      "src": 1000,
      "dest": 1000
    },
    {
      "src": 437,
      "dest": 437
    },
    {
      "src": 174,
      "dest": 174
    },
    {
      "src": 613,
      "dest": 613
    },
    {
      "src": 730,
      "dest": 730
    },
    {
      "src": 1057,
      "dest": 1057
    },
    {
      "src": 1666,
      "dest": 1666
    },
    {
      "src": 540,
      "dest": 540
    },
    {
      "src": 1318,
      "dest": 1318
    },
    {
      "src": 1259,
      "dest": 1259
    },
    {
      "src": 1196,
      "dest": 1196
    },
    {
      "src": 1761,
      "dest": 1785
    },
    {
      "src": 1496,
      "dest": 1496
    },
    {
      "src": 86,
      "dest": 86
    },
    {
      "src": 947,
      "dest": 947
    },
    {
      "src": 348,
      "dest": 348
    },
    {
      "src": 1348,
      "dest": 1348
    },
    {
      "src": 612,
      "dest": 612
    },
    {
      "src": 1176,
      "dest": 1176
    },
    {
      "src": 1197,
      "dest": 1197
    },
    {
      "src": 284,
      "dest": 284
    },
    {
      "src": 1696,
      "dest": 1720
    },
    {
      "src": 342,
      "dest": 342
    },
    {
      "src": 1490,
      "dest": 1490
    },
    {
      "src": 469,
      "dest": 469
    },
    {
      "src": 621,
      "dest": 621
    },
    {
      "src": 292,
      "dest": 292
    },
    {
      "src": 398,
      "dest": 398
    },
    {
      "src": 942,
      "dest": 942
    },
    {
      "src": 1363,
      "dest": 1363
    },
    {
      "src": 1758,
      "dest": 1782
    },
    {
      "src": 24,
      "dest": 24
    },
    {
      "src": 1733,
      "dest": 1757
    },
    {
      "src": 793,
      "dest": 793
    },
    {
      "src": 132,
      "dest": 132
    },
    {
      "src": 71,
      "dest": 71
    },
    {
      "src": 1596,
      "dest": 1596
    },
    {
      "src": 1689,
      "dest": 1712
    },
    {
      "src": 1690,
      "dest": 1713
    },
    {
      "src": 941,
      "dest": 941
    },
    {
      "src": 1427,
      "dest": 1427
    },
    {
      "src": 485,
      "dest": 485
    },
    {
      "src": 236,
      "dest": 236
    },
    {
      "src": 257,
      "dest": 257
    },
    {
      "src": 1143,
      "dest": 1143
    },
    {
      "src": 841,
      "dest": 841
    },
    {
      "src": 778,
      "dest": 778
    },
    {
      "src": 1465,
      "dest": 1465
    },
    {
      "src": 614,
      "dest": 614
    },
    {
      "src": 960,
      "dest": 960
    },
    {
      "src": 339,
      "dest": 339
    },
    {
      "src": 899,
      "dest": 899
    },
    {
      "src": 1007,
      "dest": 1007
    },
    {
      "src": 705,
      "dest": 705
    },
    {
      "src": 111,
      "dest": 111
    },
    {
      "src": 853,
      "dest": 853
    },
    {
      "src": 974,
      "dest": 974
    },
    {
      "src": 467,
      "dest": 467
    },
    {
      "src": 1084,
      "dest": 1084
    },
    {
      "src": 606,
      "dest": 606
    },
    {
      "src": 1111,
      "dest": 1111
    },
    {
      "src": 711,
      "dest": 711
    },
    {
      "src": 1181,
      "dest": 1181
    },
    {
      "src": 247,
      "dest": 247
    },
    {
      "src": 921,
      "dest": 921
    },
    {
      "src": 1317,
      "dest": 1317
    },
    {
      "src": 1244,
      "dest": 1244
    },
    {
      "src": 29,
      "dest": 29
    },
    {
      "src": 476,
      "dest": 476
    },
    {
      "src": 1721,
      "dest": 1745
    },
    {
      "src": 1528,
      "dest": 1528
    },
    {
      "src": 651,
      "dest": 651
    },
    {
      "src": 746,
      "dest": 746
    },
    {
      "src": 43,
      "dest": 43
    },
    {
      "src": 10,
      "dest": 10
    },
    {
      "src": 173,
      "dest": 173
    },
    {
      "src": 382,
      "dest": 382
    },
    {
      "src": 1483,
      "dest": 1483
    },
    {
      "src": 471,
      "dest": 471
    },
    {
      "src": 1101,
      "dest": 1101
    },
    {
      "src": 1114,
      "dest": 1114
    },
    {
      "src": 526,
      "dest": 526
    },
    {
      "src": 1678,
      "dest": 1678
    },
    {
      "src": 63,
      "dest": 63
    },
    {
      "src": 1655,
      "dest": 1655
    },
    {
      "src": 74,
      "dest": 74
    },
    {
      "src": 1699,
      "dest": 1723
    },
    {
      "src": 600,
      "dest": 600
    },
    {
      "src": 1003,
      "dest": 1003
    },
    {
      "src": 301,
      "dest": 301
    },
    {
      "src": 1388,
      "dest": 1388
    },
    {
      "src": 48,
      "dest": 48
    },
    {
      "src": 1340,
      "dest": 1340
    },
    {
      "src": 1771,
      "dest": 1795
    },
    {
      "src": 1555,
      "dest": 1555
    },
    {
      "src": 1714,
      "dest": 1738
    },
    {
      "src": 745,
      "dest": 745
    },
    {
      "src": 264,
      "dest": 264
    },
    {
      "src": 1687,
      "dest": 1710
    },
    {
      "src": 1210,
      "dest": 1210
    },
    {
      "src": 971,
      "dest": 971
    },
    {
      "src": 668,
      "dest": 668
    },
    {
      "src": 1329,
      "dest": 1329
    },
    {
      "src": 938,
      "dest": 938
    },
    {
      "src": 159,
      "dest": 159
    },
    {
      "src": 83,
      "dest": 83
    },
    {
      "src": 991,
      "dest": 991
    },
    {
      "src": 780,
      "dest": 780
    },
    {
      "src": 1623,
      "dest": 1623
    },
    {
      "src": 166,
      "dest": 166
    },
    {
      "src": 1567,
      "dest": 1567
    },
    {
      "src": 1459,
      "dest": 1459
    },
    {
      "src": 90,
      "dest": 90
    },
    {
      "src": 1452,
      "dest": 1452
    },
    {
      "src": 522,
      "dest": 522
    },
    {
      "src": 1009,
      "dest": 1009
    },
    {
      "src": 326,
      "dest": 326
    },
    {
      "src": 391,
      "dest": 391
    },
    {
      "src": 806,
      "dest": 806
    },
    {
      "src": 128,
      "dest": 128
    },
    {
      "src": 1404,
      "dest": 1404
    },
    {
      "src": 1502,
      "dest": 1502
    },
    {
      "src": 881,
      "dest": 881
    },
    {
      "src": 422,
      "dest": 422
    },
    {
      "src": 1724,
      "dest": 1748
    },
    {
      "src": 216,
      "dest": 216
    },
    {
      "src": 728,
      "dest": 728
    },
    {
      "src": 55,
      "dest": 55
    },
    {
      "src": 866,
      "dest": 866
    },
    {
      "src": 1001,
      "dest": 1001
    },
    {
      "src": 495,
      "dest": 495
    },
    {
      "src": 100,
      "dest": 100
    },
    {
      "src": 1371,
      "dest": 1371
    },
    {
      "src": 1083,
      "dest": 1083
    },
    {
      "src": 246,
      "dest": 246
    },
    {
      "src": 1755,
      "dest": 1779
    },
    {
      "src": 907,
      "dest": 907
    },
    {
      "src": 1159,
      "dest": 1159
    },
    {
      "src": 804,
      "dest": 804
    },
    {
      "src": 747,
      "dest": 747
    },
    {
      "src": 887,
      "dest": 887
    },
    {
      "src": 545,
      "dest": 545
    },
    {
      "src": 224,
      "dest": 224
    },
    {
      "src": 583,
      "dest": 583
    },
    {
      "src": 1732,
      "dest": 1756
    },
    {
      "src": 298,
      "dest": 298
    },
    {
      "src": 652,
      "dest": 652
    },
    {
      "src": 1354,
      "dest": 1354
    },
    {
      "src": 1273,
      "dest": 1273
    },
    {
      "src": 890,
      "dest": 890
    },
    {
      "src": 519,
      "dest": 519
    },
    {
      "src": 767,
      "dest": 767
    },
    {
      "src": 1307,
      "dest": 1307
    },
    {
      "src": 18,
      "dest": 18
    },
    {
      "src": 443,
      "dest": 443
    },
    {
      "src": 16,
      "dest": 16
    },
    {
      "src": 1432,
      "dest": 1432
    },
    {
      "src": 554,
      "dest": 554
    },
    {
      "src": 374,
      "dest": 374
    },
    {
      "src": 722,
      "dest": 722
    },
    {
      "src": 567,
      "dest": 567
    },
    {
      "src": 990,
      "dest": 990
    },
    {
      "src": 1267,
      "dest": 1267
    },
    {
      "src": 310,
      "dest": 310
    },
    {
      "src": 1194,
      "dest": 1194
    },
    {
      "src": 54,
      "dest": 54
    },
    {
      "src": 784,
      "dest": 784
    },
    {
      "src": 436,
      "dest": 436
    },
    {
      "src": 1170,
      "dest": 1170
    },
    {
      "src": 333,
      "dest": 333
    },
    {
      "src": 1152,
      "dest": 1152
    },
    {
      "src": 1185,
      "dest": 1185
    },
    {
      "src": 775,
      "dest": 775
    },
    {
      "src": 1322,
      "dest": 1322
    },
    {
      "src": 932,
      "dest": 932
    },
    {
      "src": 956,
      "dest": 956
    },
    {
      "src": 1359,
      "dest": 1359
    },
    {
      "src": 498,
      "dest": 498
    },
    {
      "src": 1604,
      "dest": 1604
    },
    {
      "src": 201,
      "dest": 201
    },
    {
      "src": 648,
      "dest": 648
    },
    {
      "src": 1351,
      "dest": 1351
    },
    {
      "src": 760,
      "dest": 760
    },
    {
      "src": 864,
      "dest": 864
    },
    {
      "src": 1630,
      "dest": 1630
    },
    {
      "src": 994,
      "dest": 994
    },
    {
      "src": 46,
      "dest": 46
    },
    {
      "src": 1603,
      "dest": 1603
    },
    {
      "src": 415,
      "dest": 415
    },
    {
      "src": 1769,
      "dest": 1793
    },
    {
      "src": 491,
      "dest": 491
    },
    {
      "src": 687,
      "dest": 687
    },
    {
      "src": 847,
      "dest": 847
    },
    {
      "src": 1616,
      "dest": 1616
    },
    {
      "src": 1123,
      "dest": 1123
    },
    {
      "src": 220,
      "dest": 220
    },
    {
      "src": 268,
      "dest": 268
    },
    {
      "src": 1017,
      "dest": 1017
    },
    {
      "src": 1605,
      "dest": 1605
    },
    {
      "src": 1104,
      "dest": 1104
    },
    {
      "src": 1342,
      "dest": 1342
    },
    {
      "src": 1471,
      "dest": 1471
    },
    {
      "src": 1667,
      "dest": 1667
    },
    {
      "src": 1734,
      "dest": 1758
    },
    {
      "src": 429,
      "dest": 429
    },
    {
      "src": 601,
      "dest": 601
    },
    {
      "src": 1408,
      "dest": 1408
    },
    {
      "src": 505,
      "dest": 505
    },
    {
      "src": 122,
      "dest": 122
    },
    {
      "src": 197,
      "dest": 197
    },
    {
      "src": 1343,
      "dest": 1343
    },
    {
      "src": 1369,
      "dest": 1369
    },
    {
      "src": 1039,
      "dest": 1039
    },
    {
      "src": 1669,
      "dest": 1669
    },
    {
      "src": 324,
      "dest": 324
    },
    {
      "src": 151,
      "dest": 151
    },
    {
      "src": 290,
      "dest": 290
    },
    {
      "src": 1570,
      "dest": 1570
    },
    {
      "src": 707,
      "dest": 707
    },
    {
      "src": 669,
      "dest": 669
    },
    {
      "src": 978,
      "dest": 978
    },
    {
      "src": 188,
      "dest": 188
    },
    {
      "src": 1739,
      "dest": 1763
    },
    {
      "src": 349,
      "dest": 349
    },
    {
      "src": 1520,
      "dest": 1520
    },
    {
      "src": 1166,
      "dest": 1166
    },
    {
      "src": 52,
      "dest": 52
    },
    {
      "src": 450,
      "dest": 450
    },
    {
      "src": 953,
      "dest": 953
    },
    {
      "src": 992,
      "dest": 992
    },
    {
      "src": 716,
      "dest": 716
    },
    {
      "src": 771,
      "dest": 771
    },
    {
      "src": 409,
      "dest": 409
    },
    {
      "src": 924,
      "dest": 924
    },
    {
      "src": 1220,
      "dest": 1220
    },
    {
      "src": 954,
      "dest": 954
    },
    {
      "src": 1712,
      "dest": 1736
    },
    {
      "src": 663,
      "dest": 663
    },
    {
      "src": 1131,
      "dest": 1131
    },
    {
      "src": 1581,
      "dest": 1581
    },
    {
      "src": 884,
      "dest": 884
    },
    {
      "src": 1443,
      "dest": 1443
    },
    {
      "src": 1095,
      "dest": 1095
    },
    {
      "src": 860,
      "dest": 860
    },
    {
      "src": 1119,
      "dest": 1119
    },
    {
      "src": 308,
      "dest": 308
    },
    {
      "src": 101,
      "dest": 101
    },
    {
      "src": 1454,
      "dest": 1454
    },
    {
      "src": 1715,
      "dest": 1739
    },
    {
      "src": 704,
      "dest": 704
    },
    {
      "src": 1659,
      "dest": 1659
    },
    {
      "src": 381,
      "dest": 381
    },
    {
      "src": 1775,
      "dest": 1799
    },
    {
      "src": 1421,
      "dest": 1421
    },
    {
      "src": 637,
      "dest": 637
    },
    {
      "src": 233,
      "dest": 233
    },
    {
      "src": 904,
      "dest": 904
    },
    {
      "src": 917,
      "dest": 917
    },
    {
      "src": 1488,
      "dest": 1488
    },
    {
      "src": 617,
      "dest": 617
    },
    {
      "src": 94,
      "dest": 94
    },
    {
      "src": 714,
      "dest": 714
    },
    {
      "src": 110,
      "dest": 110
    },
    {
      "src": 1719,
      "dest": 1743
    },
    {
      "src": 1523,
      "dest": 1523
    },
    {
      "src": 836,
      "dest": 836
    },
    {
      "src": 675,
      "dest": 675
    },
    {
      "src": 1725,
      "dest": 1749
    },
    {
      "src": 1703,
      "dest": 1727
    },
    {
      "src": 1091,
      "dest": 1091
    },
    {
      "src": 380,
      "dest": 380
    },
    {
      "src": 25,
      "dest": 25
    },
    {
      "src": 423,
      "dest": 423
    },
    {
      "src": 1571,
      "dest": 1571
    },
    {
      "src": 1681,
      "dest": 1681
    },
    {
      "src": 499,
      "dest": 499
    },
    {
      "src": 40,
      "dest": 40
    },
    {
      "src": 789,
      "dest": 789
    },
    {
      "src": 1195,
      "dest": 1195
    },
    {
      "src": 35,
      "dest": 35
    },
    {
      "src": 1059,
      "dest": 1059
    },
    {
      "src": 193,
      "dest": 193
    },
    {
      "src": 1727,
      "dest": 1751
    },
    {
      "src": 1543,
      "dest": 1543
    },
    {
      "src": 448,
      "dest": 448
    },
    {
      "src": 898,
      "dest": 898
    },
    {
      "src": 1108,
      "dest": 1108
    },
    {
      "src": 1295,
      "dest": 1295
    },
    {
      "src": 1339,
      "dest": 1339
    },
    {
      "src": 451,
      "dest": 451
    },
    {
      "src": 1063,
      "dest": 1063
    },
    {
      "src": 1447,
      "dest": 1447
    },
    {
      "src": 1297,
      "dest": 1297
    },
    {
      "src": 1358,
      "dest": 1358
    },
    {
      "src": 578,
      "dest": 578
    },
    {
      "src": 266,
      "dest": 266
    },
    {
      "src": 609,
      "dest": 609
    },
    {
      "src": 5,
      "dest": 5
    },
    {
      "src": 1006,
      "dest": 1006
    },
    {
      "src": 1089,
      "dest": 1089
    },
    {
      "src": 550,
      "dest": 550
    },
    {
      "src": 1548,
      "dest": 1548
    },
    {
      "src": 1024,
      "dest": 1024
    },
    {
      "src": 797,
      "dest": 797
    },
    {
      "src": 87,
      "dest": 87
    },
    {
      "src": 304,
      "dest": 304
    },
    {
      "src": 868,
      "dest": 868
    },
    {
      "src": 445,
      "dest": 445
    },
    {
      "src": 939,
      "dest": 939
    },
    {
      "src": 1308,
      "dest": 1308
    },
    {
      "src": 642,
      "dest": 642
    },
    {
      "src": 518,
      "dest": 518
    },
    {
      "src": 113,
      "dest": 113
    },
    {
      "src": 431,
      "dest": 431
    },
    {
      "src": 1056,
      "dest": 1056
    },
    {
      "src": 837,
      "dest": 837
    },
    {
      "src": 1566,
      "dest": 1566
    },
    {
      "src": 1384,
      "dest": 1384
    },
    {
      "src": 547,
      "dest": 547
    },
    {
      "src": 605,
      "dest": 605
    },
    {
      "src": 1265,
      "dest": 1265
    },
    {
      "src": 1044,
      "dest": 1044
    },
    {
      "src": 788,
      "dest": 788
    },
    {
      "src": 1020,
      "dest": 1020
    },
    {
      "src": 1098,
      "dest": 1098
    },
    {
      "src": 1217,
      "dest": 1217
    },
    {
      "src": 243,
      "dest": 243
    },
    {
      "src": 22,
      "dest": 22
    },
    {
      "src": 1631,
      "dest": 1631
    },
    {
      "src": 1165,
      "dest": 1165
    },
    {
      "src": 1291,
      "dest": 1291
    },
    {
      "src": 248,
      "dest": 248
    },
    {
      "src": 187,
      "dest": 187
    },
    {
      "src": 752,
      "dest": 752
    },
    {
      "src": 878,
      "dest": 878
    },
    {
      "src": 996,
      "dest": 996
    },
    {
      "src": 1043,
      "dest": 1043
    },
    {
      "src": 1109,
      "dest": 1109
    },
    {
      "src": 460,
      "dest": 460
    },
    {
      "src": 800,
      "dest": 800
    },
    {
      "src": 38,
      "dest": 38
    },
    {
      "src": 1047,
      "dest": 1047
    },
    {
      "src": 735,
      "dest": 735
    },
    {
      "src": 1531,
      "dest": 1531
    },
    {
      "src": 183,
      "dest": 183
    },
    {
      "src": 826,
      "dest": 826
    },
    {
      "src": 1292,
      "dest": 1292
    },
    {
      "src": 1613,
      "dest": 1613
    },
    {
      "src": 657,
      "dest": 657
    },
    {
      "src": 1325,
      "dest": 1325
    },
    {
      "src": 103,
      "dest": 103
    },
    {
      "src": 625,
      "dest": 625
    },
    {
      "src": 1266,
      "dest": 1266
    },
    {
      "src": 1658,
      "dest": 1658
    },
    {
      "src": 1355,
      "dest": 1355
    },
    {
      "src": 584,
      "dest": 584
    },
    {
      "src": 812,
      "dest": 812
    },
    {
      "src": 513,
      "dest": 513
    },
    {
      "src": 378,
      "dest": 378
    },
    {
      "src": 475,
      "dest": 475
    },
    {
      "src": 1060,
      "dest": 1060
    },
    {
      "src": 276,
      "dest": 276
    },
    {
      "src": 1774,
      "dest": 1798
    },
    {
      "src": 1200,
      "dest": 1200
    },
    {
      "src": 234,
      "dest": 234
    },
    {
      "src": 1512,
      "dest": 1512
    },
    {
      "src": 323,
      "dest": 323
    },
    {
      "src": 1328,
      "dest": 1328
    },
    {
      "src": 1529,
      "dest": 1529
    },
    {
      "src": 1589,
      "dest": 1589
    },
    {
      "src": 1249,
      "dest": 1249
    },
    {
      "src": 693,
      "dest": 693
    },
    {
      "src": 534,
      "dest": 534
    },
    {
      "src": 915,
      "dest": 915
    },
    {
      "src": 791,
      "dest": 791
    },
    {
      "src": 15,
      "dest": 15
    },
    {
      "src": 285,
      "dest": 285
    },
    {
      "src": 1557,
      "dest": 1557
    },
    {
      "src": 851,
      "dest": 851
    },
    {
      "src": 902,
      "dest": 902
    },
    {
      "src": 1356,
      "dest": 1356
    },
    {
      "src": 364,
      "dest": 364
    },
    {
      "src": 307,
      "dest": 307
    },
    {
      "src": 1448,
      "dest": 1448
    },
    {
      "src": 1550,
      "dest": 1550
    },
    {
      "src": 1214,
      "dest": 1214
    },
    {
      "src": 1160,
      "dest": 1160
    },
    {
      "src": 1312,
      "dest": 1312
    },
    {
      "src": 1397,
      "dest": 1397
    },
    {
      "src": 1773,
      "dest": 1797
    },
    {
      "src": 744,
      "dest": 744
    },
    {
      "src": 783,
      "dest": 783
    },
    {
      "src": 79,
      "dest": 79
    },
    {
      "src": 1632,
      "dest": 1632
    },
    {
      "src": 1203,
      "dest": 1203
    },
    {
      "src": 1341,
      "dest": 1341
    },
    {
      "src": 670,
      "dest": 670
    },
    {
      "src": 794,
      "dest": 794
    },
    {
      "src": 177,
      "dest": 177
    },
    {
      "src": 1743,
      "dest": 1767
    },
    {
      "src": 1064,
      "dest": 1064
    },
    {
      "src": 630,
      "dest": 630
    },
    {
      "src": 1406,
      "dest": 1406
    },
    {
      "src": 345,
      "dest": 345
    },
    {
      "src": 1271,
      "dest": 1271
    },
    {
      "src": 1413,
      "dest": 1413
    },
    {
      "src": 1078,
      "dest": 1078
    },
    {
      "src": 1419,
      "dest": 1419
    },
    {
      "src": 459,
      "dest": 459
    },
    {
      "src": 581,
      "dest": 581
    },
    {
      "src": 14,
      "dest": 14
    },
    {
      "src": 703,
      "dest": 703
    },
    {
      "src": 833,
      "dest": 833
    },
    {
      "src": 1684,
      "dest": 1684
    },
    {
      "src": 97,
      "dest": 97
    },
    {
      "src": 1053,
      "dest": 1053
    },
    {
      "src": 344,
      "dest": 344
    },
    {
      "src": 1692,
      "dest": 1715
    },
    {
      "src": 170,
      "dest": 170
    },
    {
      "src": 1751,
      "dest": 1775
    },
    {
      "src": 463,
      "dest": 463
    },
    {
      "src": 1133,
      "dest": 1133
    },
    {
      "src": 205,
      "dest": 205
    },
    {
      "src": 1433,
      "dest": 1433
    },
    {
      "src": 1263,
      "dest": 1263
    },
    {
      "src": 649,
      "dest": 649
    },
    {
      "src": 435,
      "dest": 435
    },
    {
      "src": 555,
      "dest": 555
    },
    {
      "src": 1121,
      "dest": 1121
    },
    {
      "src": 527,
      "dest": 527
    },
    {
      "src": 1154,
      "dest": 1154
    },
    {
      "src": 593,
      "dest": 593
    },
    {
      "src": 1677,
      "dest": 1677
    },
    {
      "src": 1515,
      "dest": 1515
    },
    {
      "src": 1445,
      "dest": 1445
    },
    {
      "src": 1538,
      "dest": 1538
    },
    {
      "src": 105,
      "dest": 105
    },
    {
      "src": 644,
      "dest": 644
    },
    {
      "src": 666,
      "dest": 666
    },
    {
      "src": 412,
      "dest": 412
    },
    {
      "src": 602,
      "dest": 602
    },
    {
      "src": 1612,
      "dest": 1612
    },
    {
      "src": 1005,
      "dest": 1005
    },
    {
      "src": 1332,
      "dest": 1332
    },
    {
      "src": 715,
      "dest": 715
    },
    {
      "src": 33,
      "dest": 33
    },
    {
      "src": 590,
      "dest": 590
    },
    {
      "src": 156,
      "dest": 156
    },
    {
      "src": 635,
      "dest": 635
    },
    {
      "src": 764,
      "dest": 764
    },
    {
      "src": 1764,
      "dest": 1788
    },
    {
      "src": 660,
      "dest": 660
    },
    {
      "src": 1511,
      "dest": 1511
    },
    {
      "src": 1163,
      "dest": 1163
    },
    {
      "src": 626,
      "dest": 626
    },
    {
      "src": 399,
      "dest": 399
    },
    {
      "src": 300,
      "dest": 300
    },
    {
      "src": 1407,
      "dest": 1407
    },
    {
      "src": 1216,
      "dest": 1216
    },
    {
      "src": 1545,
      "dest": 1545
    },
    {
      "src": 465,
      "dest": 465
    },
    {
      "src": 1747,
      "dest": 1771
    },
    {
      "src": 741,
      "dest": 741
    },
    {
      "src": 213,
      "dest": 213
    },
    {
      "src": 608,
      "dest": 608
    },
    {
      "src": 1580,
      "dest": 1580
    },
    {
      "src": 1476,
      "dest": 1476
    },
    {
      "src": 1226,
      "dest": 1226
    },
    {
      "src": 561,
      "dest": 561
    },
    {
      "src": 1489,
      "dest": 1489
    },
    {
      "src": 912,
      "dest": 912
    },
    {
      "src": 1741,
      "dest": 1765
    },
    {
      "src": 82,
      "dest": 82
    },
    {
      "src": 999,
      "dest": 999
    },
    {
      "src": 405,
      "dest": 405
    },
    {
      "src": 1651,
      "dest": 1651
    },
    {
      "src": 312,
      "dest": 312
    },
    {
      "src": 1645,
      "dest": 1645
    },
    {
      "src": 511,
      "dest": 511
    },
    {
      "src": 123,
      "dest": 123
    },
    {
      "src": 1264,
      "dest": 1264
    },
    {
      "src": 1414,
      "dest": 1414
    },
    {
      "src": 570,
      "dest": 570
    },
    {
      "src": 1262,
      "dest": 1262
    },
    {
      "src": 278,
      "dest": 278
    },
    {
      "src": 295,
      "dest": 295
    },
    {
      "src": 231,
      "dest": 231
    },
    {
      "src": 604,
      "dest": 604
    },
    {
      "src": 1077,
      "dest": 1077
    },
    {
      "src": 501,
      "dest": 501
    },
    {
      "src": 762,
      "dest": 762
    },
    {
      "src": 1357,
      "dest": 1357
    },
    {
      "src": 318,
      "dest": 318
    },
    {
      "src": 1040,
      "dest": 1040
    },
    {
      "src": 274,
      "dest": 274
    },
    {
      "src": 1055,
      "dest": 1055
    },
    {
      "src": 73,
      "dest": 73
    },
    {
      "src": 98,
      "dest": 98
    },
    {
      "src": 948,
      "dest": 948
    },
    {
      "src": 137,
      "dest": 137
    },
    {
      "src": 685,
      "dest": 685
    },
    {
      "src": 1729,
      "dest": 1753
    },
    {
      "src": 242,
      "dest": 242
    },
    {
      "src": 1184,
      "dest": 1184
    },
    {
      "src": 1577,
      "dest": 1577
    },
    {
      "src": 389,
      "dest": 389
    },
    {
      "src": 235,
      "dest": 235
    },
    {
      "src": 1036,
      "dest": 1036
    },
    {
      "src": 1311,
      "dest": 1311
    },
    {
      "src": 1599,
      "dest": 1599
    },
    {
      "src": 759,
      "dest": 759
    },
    {
      "src": 1365,
      "dest": 1365
    },
    {
      "src": 849,
      "dest": 849
    },
    {
      "src": 1193,
      "dest": 1193
    },
    {
      "src": 283,
      "dest": 283
    },
    {
      "src": 289,
      "dest": 289
    },
    {
      "src": 1609,
      "dest": 1609
    },
    {
      "src": 1373,
      "dest": 1373
    },
    {
      "src": 393,
      "dest": 393
    },
    {
      "src": 1510,
      "dest": 1510
    },
    {
      "src": 1507,
      "dest": 1507
    },
    {
      "src": 1516,
      "dest": 1516
    },
    {
      "src": 129,
      "dest": 129
    },
    {
      "src": 1330,
      "dest": 1330
    },
    {
      "src": 198,
      "dest": 198
    },
    {
      "src": 13,
      "dest": 13
    },
    {
      "src": 1707,
      "dest": 1731
    },
    {
      "src": 1455,
      "dest": 1455
    },
    {
      "src": 1491,
      "dest": 1491
    },
    {
      "src": 823,
      "dest": 823
    },
    {
      "src": 509,
      "dest": 509
    },
    {
      "src": 825,
      "dest": 825
    },
    {
      "src": 404,
      "dest": 404
    },
    {
      "src": 428,
      "dest": 428
    },
    {
      "src": 217,
      "dest": 217
    },
    {
      "src": 1115,
      "dest": 1115
    },
    {
      "src": 202,
      "dest": 202
    },
    {
      "src": 27,
      "dest": 27
    },
    {
      "src": 1663,
      "dest": 1663
    },
    {
      "src": 1668,
      "dest": 1668
    },
    {
      "src": 241,
      "dest": 241
    },
    {
      "src": 258,
      "dest": 258
    },
    {
      "src": 541,
      "dest": 541
    },
    {
      "src": 1246,
      "dest": 1246
    },
    {
      "src": 1147,
      "dest": 1147
    },
    {
      "src": 678,
      "dest": 678
    },
    {
      "src": 1225,
      "dest": 1225
    },
    {
      "src": 1178,
      "dest": 1178
    },
    {
      "src": 168,
      "dest": 168
    },
    {
      "src": 517,
      "dest": 517
    },
    {
      "src": 1004,
      "dest": 1004
    },
    {
      "src": 1766,
      "dest": 1790
    },
    {
      "src": 1206,
      "dest": 1206
    },
    {
      "src": 1399,
      "dest": 1399
    },
    {
      "src": 697,
      "dest": 697
    },
    {
      "src": 719,
      "dest": 719
    },
    {
      "src": 114,
      "dest": 114
    },
    {
      "src": 514,
      "dest": 514
    },
    {
      "src": 1067,
      "dest": 1067
    },
    {
      "src": 58,
      "dest": 58
    },
    {
      "src": 1218,
      "dest": 1218
    },
    {
      "src": 820,
      "dest": 820
    },
    {
      "src": 271,
      "dest": 271
    },
    {
      "src": 351,
      "dest": 351
    },
    {
      "src": 497,
      "dest": 497
    },
    {
      "src": 1624,
      "dest": 1624
    },
    {
      "src": 81,
      "dest": 81
    },
    {
      "src": 1607,
      "dest": 1607
    },
    {
      "src": 1223,
      "dest": 1223
    },
    {
      "src": 586,
      "dest": 586
    },
    {
      "src": 1090,
      "dest": 1090
    },
    {
      "src": 889,
      "dest": 889
    },
    {
      "src": 320,
      "dest": 320
    },
    {
      "src": 455,
      "dest": 455
    },
    {
      "src": 1628,
      "dest": 1628
    },
    {
      "src": 1361,
      "dest": 1361
    },
    {
      "src": 1100,
      "dest": 1100
    },
    {
      "src": 1380,
      "dest": 1380
    },
    {
      "src": 1431,
      "dest": 1431
    },
    {
      "src": 102,
      "dest": 102
    },
    {
      "src": 894,
      "dest": 894
    },
    {
      "src": 1730,
      "dest": 1754
    },
    {
      "src": 1016,
      "dest": 1016
    },
    {
      "src": 1287,
      "dest": 1287
    },
    {
      "src": 975,
      "dest": 975
    },
    {
      "src": 1080,
      "dest": 1080
    },
    {
      "src": 603,
      "dest": 603
    },
    {
      "src": 1614,
      "dest": 1614
    },
    {
      "src": 112,
      "dest": 112
    },
    {
      "src": 598,
      "dest": 598
    },
    {
      "src": 1350,
      "dest": 1350
    },
    {
      "src": 185,
      "dest": 185
    },
    {
      "src": 487,
      "dest": 487
    },
    {
      "src": 1345,
      "dest": 1345
    },
    {
      "src": 1513,
      "dest": 1513
    },
    {
      "src": 993,
      "dest": 993
    },
    {
      "src": 1592,
      "dest": 1592
    },
    {
      "src": 1179,
      "dest": 1179
    },
    {
      "src": 1289,
      "dest": 1289
    },
    {
      "src": 908,
      "dest": 908
    },
    {
      "src": 1633,
      "dest": 1633
    },
    {
      "src": 1387,
      "dest": 1387
    },
    {
      "src": 1694,
      "dest": 1717
    },
    {
      "src": 1029,
      "dest": 1029
    },
    {
      "src": 338,
      "dest": 338
    },
    {
      "src": 882,
      "dest": 882
    },
    {
      "src": 997,
      "dest": 997
    },
    {
      "src": 1717,
      "dest": 1741
    },
    {
      "src": 1584,
      "dest": 1584
    },
    {
      "src": 1116,
      "dest": 1116
    },
    {
      "src": 690,
      "dest": 690
    },
    {
      "src": 695,
      "dest": 695
    },
    {
      "src": 161,
      "dest": 161
    },
    {
      "src": 120,
      "dest": 120
    },
    {
      "src": 536,
      "dest": 536
    },
    {
      "src": 1434,
      "dest": 1434
    },
    {
      "src": 414,
      "dest": 414
    },
    {
      "src": 639,
      "dest": 639
    },
    {
      "src": 1650,
      "dest": 1650
    },
    {
      "src": 692,
      "dest": 692
    },
    {
      "src": 1473,
      "dest": 1473
    },
    {
      "src": 856,
      "dest": 856
    },
    {
      "src": 973,
      "dest": 973
    },
    {
      "src": 636,
      "dest": 636
    },
    {
      "src": 131,
      "dest": 131
    },
    {
      "src": 1275,
      "dest": 1275
    },
    {
      "src": 44,
      "dest": 44
    },
    {
      "src": 1683,
      "dest": 1683
    },
    {
      "src": 1583,
      "dest": 1583
    },
    {
      "src": 397,
      "dest": 397
    },
    {
      "src": 461,
      "dest": 461
    },
    {
      "src": 153,
      "dest": 153
    },
    {
      "src": 811,
      "dest": 811
    },
    {
      "src": 1334,
      "dest": 1334
    },
    {
      "src": 325,
      "dest": 325
    },
    {
      "src": 1237,
      "dest": 1237
    },
    {
      "src": 653,
      "dest": 653
    },
    {
      "src": 139,
      "dest": 139
    },
    {
      "src": 280,
      "dest": 280
    },
    {
      "src": 572,
      "dest": 572
    },
    {
      "src": 961,
      "dest": 961
    },
    {
      "src": 12,
      "dest": 12
    },
    {
      "src": 1742,
      "dest": 1766
    },
    {
      "src": 1680,
      "dest": 1680
    },
    {
      "src": 61,
      "dest": 61
    },
    {
      "src": 1661,
      "dest": 1661
    },
    {
      "src": 1118,
      "dest": 1118
    },
    {
      "src": 757,
      "dest": 757
    },
    {
      "src": 766,
      "dest": 766
    },
    {
      "src": 510,
      "dest": 510
    },
    {
      "src": 1519,
      "dest": 1519
    },
    {
      "src": 484,
      "dest": 484
    },
    {
      "src": 1716,
      "dest": 1740
    },
    {
      "src": 566,
      "dest": 566
    },
    {
      "src": 226,
      "dest": 226
    },
    {
      "src": 900,
      "dest": 900
    },
    {
      "src": 1601,
      "dest": 1601
    },
    {
      "src": 449,
      "dest": 449
    },
    {
      "src": 489,
      "dest": 489
    },
    {
      "src": 134,
      "dest": 134
    },
    {
      "src": 1306,
      "dest": 1306
    },
    {
      "src": 45,
      "dest": 45
    },
    {
      "src": 1777,
      "dest": 1801
    },
    {
      "src": 691,
      "dest": 691
    },
    {
      "src": 732,
      "dest": 732
    },
    {
      "src": 748,
      "dest": 748
    },
    {
      "src": 126,
      "dest": 126
    },
    {
      "src": 1416,
      "dest": 1416
    },
    {
      "src": 165,
      "dest": 165
    },
    {
      "src": 1625,
      "dest": 1625
    },
    {
      "src": 250,
      "dest": 250
    },
    {
      "src": 1757,
      "dest": 1781
    },
    {
      "src": 855,
      "dest": 855
    },
    {
      "src": 314,
      "dest": 314
    },
    {
      "src": 740,
      "dest": 740
    },
    {
      "src": 195,
      "dest": 195
    },
    {
      "src": 910,
      "dest": 910
    },
    {
      "src": 468,
      "dest": 468
    },
    {
      "src": 352,
      "dest": 352
    },
    {
      "src": 671,
      "dest": 671
    },
    {
      "src": 673,
      "dest": 673
    },
    {
      "src": 208,
      "dest": 208
    },
    {
      "src": 1305,
      "dest": 1305
    },
    {
      "src": 1501,
      "dest": 1501
    },
    {
      "src": 379,
      "dest": 379
    },
    {
      "src": 442,
      "dest": 442
    },
    {
      "src": 1211,
      "dest": 1211
    },
    {
      "src": 594,
      "dest": 594
    },
    {
      "src": 1331,
      "dest": 1331
    },
    {
      "src": 1746,
      "dest": 1770
    },
    {
      "src": 830,
      "dest": 830
    },
    {
      "src": 645,
      "dest": 645
    },
    {
      "src": 1552,
      "dest": 1552
    },
    {
      "src": 425,
      "dest": 425
    },
    {
      "src": 444,
      "dest": 444
    },
    {
      "src": 743,
      "dest": 743
    },
    {
      "src": 1135,
      "dest": 1135
    },
    {
      "src": 1417,
      "dest": 1417
    },
    {
      "src": 983,
      "dest": 983
    },
    {
      "src": 1324,
      "dest": 1324
    },
    {
      "src": 964,
      "dest": 964
    },
    {
      "src": 1453,
      "dest": 1453
    },
    {
      "src": 138,
      "dest": 138
    },
    {
      "src": 1346,
      "dest": 1346
    },
    {
      "src": 596,
      "dest": 596
    },
    {
      "src": 523,
      "dest": 523
    },
    {
      "src": 647,
      "dest": 647
    },
    {
      "src": 319,
      "dest": 319
    },
    {
      "src": 815,
      "dest": 815
    },
    {
      "src": 11,
      "dest": 11
    },
    {
      "src": 574,
      "dest": 574
    },
    {
      "src": 1720,
      "dest": 1744
    },
    {
      "src": 701,
      "dest": 701
    },
    {
      "src": 141,
      "dest": 141
    },
    {
      "src": 147,
      "dest": 147
    },
    {
      "src": 809,
      "dest": 809
    },
    {
      "src": 782,
      "dest": 782
    },
    {
      "src": 1186,
      "dest": 1186
    },
    {
      "src": 387,
      "dest": 387
    },
    {
      "src": 368,
      "dest": 368
    },
    {
      "src": 724,
      "dest": 724
    },
    {
      "src": 1553,
      "dest": 1553
    },
    {
      "src": 419,
      "dest": 419
    },
    {
      "src": 330,
      "dest": 330
    },
    {
      "src": 328,
      "dest": 328
    },
    {
      "src": 1492,
      "dest": 1492
    },
    {
      "src": 892,
      "dest": 892
    },
    {
      "src": 1013,
      "dest": 1013
    },
    {
      "src": 769,
      "dest": 769
    },
    {
      "src": 144,
      "dest": 144
    },
    {
      "src": 76,
      "dest": 76
    },
    {
      "src": 1500,
      "dest": 1500
    },
    {
      "src": 390,
      "dest": 390
    },
    {
      "src": 599,
      "dest": 599
    },
    {
      "src": 1255,
      "dest": 1255
    },
    {
      "src": 493,
      "dest": 493
    },
    {
      "src": 1389,
      "dest": 1389
    },
    {
      "src": 1429,
      "dest": 1429
    },
    {
      "src": 196,
      "dest": 196
    },
    {
      "src": 1120,
      "dest": 1120
    },
    {
      "src": 384,
      "dest": 384
    },
    {
      "src": 49,
      "dest": 49
    },
    {
      "src": 731,
      "dest": 731
    },
    {
      "src": 1303,
      "dest": 1303
    },
    {
      "src": 492,
      "dest": 492
    },
    {
      "src": 883,
      "dest": 883
    },
    {
      "src": 1205,
      "dest": 1205
    },
    {
      "src": 816,
      "dest": 816
    },
    {
      "src": 223,
      "dest": 223
    },
    {
      "src": 1745,
      "dest": 1769
    },
    {
      "src": 568,
      "dest": 568
    },
    {
      "src": 876,
      "dest": 876
    },
    {
      "src": 930,
      "dest": 930
    },
    {
      "src": 1639,
      "dest": 1639
    },
    {
      "src": 184,
      "dest": 184
    },
    {
      "src": 524,
      "dest": 524
    },
    {
      "src": 1099,
      "dest": 1099
    },
    {
      "src": 432,
      "dest": 432
    },
    {
      "src": 1164,
      "dest": 1164
    },
    {
      "src": 680,
      "dest": 680
    },
    {
      "src": 535,
      "dest": 535
    },
    {
      "src": 986,
      "dest": 986
    },
    {
      "src": 1576,
      "dest": 1576
    },
    {
      "src": 934,
      "dest": 934
    },
    {
      "src": 1578,
      "dest": 1578
    },
    {
      "src": 1245,
      "dest": 1245
    },
    {
      "src": 118,
      "dest": 118
    },
    {
      "src": 819,
      "dest": 819
    },
    {
      "src": 1390,
      "dest": 1390
    },
    {
      "src": 1282,
      "dest": 1282
    },
    {
      "src": 674,
      "dest": 674
    },
    {
      "src": 869,
      "dest": 869
    },
    {
      "src": 538,
      "dest": 538
    },
    {
      "src": 148,
      "dest": 148
    },
    {
      "src": 916,
      "dest": 916
    },
    {
      "src": 1477,
      "dest": 1477
    },
    {
      "src": 1161,
      "dest": 1161
    },
    {
      "src": 1569,
      "dest": 1569
    },
    {
      "src": 870,
      "dest": 870
    },
    {
      "src": 839,
      "dest": 839
    },
    {
      "src": 1750,
      "dest": 1774
    },
    {
      "src": 897,
      "dest": 897
    },
    {
      "src": 321,
      "dest": 321
    },
    {
      "src": 1062,
      "dest": 1062
    },
    {
      "src": 1428,
      "dest": 1428
    },
    {
      "src": 865,
      "dest": 865
    },
    {
      "src": 877,
      "dest": 877
    },
    {
      "src": 987,
      "dest": 987
    },
    {
      "src": 801,
      "dest": 801
    },
    {
      "src": 1415,
      "dest": 1415
    },
    {
      "src": 28,
      "dest": 28
    },
    {
      "src": 1595,
      "dest": 1595
    },
    {
      "src": 976,
      "dest": 976
    },
    {
      "src": 1763,
      "dest": 1787
    },
    {
      "src": 713,
      "dest": 713
    },
    {
      "src": 1353,
      "dest": 1353
    },
    {
      "src": 565,
      "dest": 565
    },
    {
      "src": 776,
      "dest": 776
    },
    {
      "src": 99,
      "dest": 99
    },
    {
      "src": 483,
      "dest": 483
    },
    {
      "src": 1284,
      "dest": 1284
    },
    {
      "src": 1385,
      "dest": 1385
    },
    {
      "src": 717,
      "dest": 717
    },
    {
      "src": 507,
      "dest": 507
    },
    {
      "src": 240,
      "dest": 240
    },
    {
      "src": 1314,
      "dest": 1314
    },
    {
      "src": 1074,
      "dest": 1074
    },
    {
      "src": 1518,
      "dest": 1518
    },
    {
      "src": 1642,
      "dest": 1642
    },
    {
      "src": 770,
      "dest": 770
    },
    {
      "src": 919,
      "dest": 919
    },
    {
      "src": 564,
      "dest": 564
    },
    {
      "src": 763,
      "dest": 763
    },
    {
      "src": 1288,
      "dest": 1288
    },
    {
      "src": 859,
      "dest": 859
    },
    {
      "src": 1535,
      "dest": 1535
    },
    {
      "src": 1073,
      "dest": 1073
    },
    {
      "src": 1257,
      "dest": 1257
    },
    {
      "src": 478,
      "dest": 478
    },
    {
      "src": 539,
      "dest": 539
    },
    {
      "src": 228,
      "dest": 228
    },
    {
      "src": 1617,
      "dest": 1617
    },
    {
      "src": 516,
      "dest": 516
    },
    {
      "src": 1310,
      "dest": 1310
    },
    {
      "src": 150,
      "dest": 150
    },
    {
      "src": 1173,
      "dest": 1173
    },
    {
      "src": 453,
      "dest": 453
    },
    {
      "src": 874,
      "dest": 874
    },
    {
      "src": 1537,
      "dest": 1537
    },
    {
      "src": 706,
      "dest": 706
    },
    {
      "src": 68,
      "dest": 68
    },
    {
      "src": 972,
      "dest": 972
    },
    {
      "src": 1038,
      "dest": 1038
    },
    {
      "src": 396,
      "dest": 396
    },
    {
      "src": 1449,
      "dest": 1449
    },
    {
      "src": 905,
      "dest": 905
    },
    {
      "src": 710,
      "dest": 710
    },
    {
      "src": 920,
      "dest": 920
    },
    {
      "src": 1189,
      "dest": 1189
    },
    {
      "src": 373,
      "dest": 373
    },
    {
      "src": 765,
      "dest": 765
    },
    {
      "src": 267,
      "dest": 267
    },
    {
      "src": 1140,
      "dest": 1140
    },
    {
      "src": 154,
      "dest": 154
    },
    {
      "src": 944,
      "dest": 944
    },
    {
      "src": 861,
      "dest": 861
    },
    {
      "src": 1313,
      "dest": 1313
    },
    {
      "src": 532,
      "dest": 532
    },
    {
      "src": 322,
      "dest": 322
    },
    {
      "src": 309,
      "dest": 309
    },
    {
      "src": 430,
      "dest": 430
    },
    {
      "src": 263,
      "dest": 263
    },
    {
      "src": 1685,
      "dest": 1708
    },
    {
      "src": 1649,
      "dest": 1649
    },
    {
      "src": 190,
      "dest": 190
    },
    {
      "src": 533,
      "dest": 533
    },
    {
      "src": 909,
      "dest": 909
    },
    {
      "src": 37,
      "dest": 37
    },
    {
      "src": 75,
      "dest": 75
    },
    {
      "src": 984,
      "dest": 984
    },
    {
      "src": 1495,
      "dest": 1495
    },
    {
      "src": 372,
      "dest": 372
    },
    {
      "src": 1674,
      "dest": 1674
    },
    {
      "src": 1622,
      "dest": 1622
    },
    {
      "src": 80,
      "dest": 80
    },
    {
      "src": 985,
      "dest": 985
    },
    {
      "src": 282,
      "dest": 282
    },
    {
      "src": 145,
      "dest": 145
    },
    {
      "src": 1299,
      "dest": 1299
    },
    {
      "src": 1656,
      "dest": 1656
    },
    {
      "src": 162,
      "dest": 162
    },
    {
      "src": 158,
      "dest": 158
    },
    {
      "src": 218,
      "dest": 218
    },
    {
      "src": 1010,
      "dest": 1010
    },
    {
      "src": 1375,
      "dest": 1375
    },
    {
      "src": 1770,
      "dest": 1794
    },
    {
      "src": 329,
      "dest": 329
    },
    {
      "src": 306,
      "dest": 306
    },
    {
      "src": 684,
      "dest": 684
    },
    {
      "src": 1207,
      "dest": 1207
    },
    {
      "src": 1475,
      "dest": 1475
    },
    {
      "src": 286,
      "dest": 286
    },
    {
      "src": 1231,
      "dest": 1231
    },
    {
      "src": 655,
      "dest": 655
    },
    {
      "src": 888,
      "dest": 888
    },
    {
      "src": 1296,
      "dest": 1296
    },
    {
      "src": 1440,
      "dest": 1440
    },
    {
      "src": 937,
      "dest": 937
    },
    {
      "src": 1494,
      "dest": 1494
    },
    {
      "src": 1243,
      "dest": 1243
    },
    {
      "src": 1671,
      "dest": 1671
    },
    {
      "src": 124,
      "dest": 124
    },
    {
      "src": 1344,
      "dest": 1344
    },
    {
      "src": 720,
      "dest": 720
    },
    {
      "src": 57,
      "dest": 57
    },
    {
      "src": 340,
      "dest": 340
    },
    {
      "src": 1304,
      "dest": 1304
    },
    {
      "src": 754,
      "dest": 754
    },
    {
      "src": 1394,
      "dest": 1394
    },
    {
      "src": 1209,
      "dest": 1209
    },
    {
      "src": 1286,
      "dest": 1286
    },
    {
      "src": 1391,
      "dest": 1391
    },
    {
      "src": 1326,
      "dest": 1326
    },
    {
      "src": 358,
      "dest": 358
    },
    {
      "src": 1463,
      "dest": 1463
    },
    {
      "src": 186,
      "dest": 186
    },
    {
      "src": 595,
      "dest": 595
    },
    {
      "src": 1461,
      "dest": 1461
    },
    {
      "src": 1372,
      "dest": 1372
    },
    {
      "src": 294,
      "dest": 294
    },
    {
      "src": 1738,
      "dest": 1762
    },
    {
      "src": 89,
      "dest": 89
    },
    {
      "src": 1335,
      "dest": 1335
    },
    {
      "src": 643,
      "dest": 643
    },
    {
      "src": 1437,
      "dest": 1437
    },
    {
      "src": 260,
      "dest": 260
    },
    {
      "src": 845,
      "dest": 845
    },
    {
      "src": 1410,
      "dest": 1410
    },
    {
      "src": 1586,
      "dest": 1586
    },
    {
      "src": 288,
      "dest": 288
    },
    {
      "src": 1562,
      "dest": 1562
    },
    {
      "src": 411,
      "dest": 411
    },
    {
      "src": 597,
      "dest": 597
    },
    {
      "src": 229,
      "dest": 229
    },
    {
      "src": 1597,
      "dest": 1597
    },
    {
      "src": 106,
      "dest": 106
    },
    {
      "src": 1316,
      "dest": 1316
    },
    {
      "src": 277,
      "dest": 277
    },
    {
      "src": 1420,
      "dest": 1420
    },
    {
      "src": 1336,
      "dest": 1336
    },
    {
      "src": 164,
      "dest": 164
    },
    {
      "src": 828,
      "dest": 828
    },
    {
      "src": 36,
      "dest": 36
    },
    {
      "src": 413,
      "dest": 413
    },
    {
      "src": 553,
      "dest": 553
    },
    {
      "src": 209,
      "dest": 209
    },
    {
      "src": 1565,
      "dest": 1565
    },
    {
      "src": 1168,
      "dest": 1168
    },
    {
      "src": 995,
      "dest": 995
    },
    {
      "src": 426,
      "dest": 426
    },
    {
      "src": 17,
      "dest": 17
    },
    {
      "src": 386,
      "dest": 386
    },
    {
      "src": 221,
      "dest": 221
    },
    {
      "src": 1333,
      "dest": 1333
    },
    {
      "src": 683,
      "dest": 683
    },
    {
      "src": 334,
      "dest": 334
    },
    {
      "src": 1711,
      "dest": 1735
    },
    {
      "src": 32,
      "dest": 32
    },
    {
      "src": 520,
      "dest": 520
    },
    {
      "src": 656,
      "dest": 656
    },
    {
      "src": 494,
      "dest": 494
    },
    {
      "src": 750,
      "dest": 750
    },
    {
      "src": 1294,
      "dest": 1294
    },
    {
      "src": 1395,
      "dest": 1395
    },
    {
      "src": 1418,
      "dest": 1418
    },
    {
      "src": 403,
      "dest": 403
    },
    {
      "src": 472,
      "dest": 472
    },
    {
      "src": 50,
      "dest": 50
    },
    {
      "src": 664,
      "dest": 664
    },
    {
      "src": 1444,
      "dest": 1444
    },
    {
      "src": 178,
      "dest": 178
    },
    {
      "src": 6,
      "dest": 6
    },
    {
      "src": 562,
      "dest": 562
    },
    {
      "src": 1015,
      "dest": 1015
    },
    {
      "src": 1146,
      "dest": 1146
    },
    {
      "src": 1620,
      "dest": 1620
    },
    {
      "src": 1393,
      "dest": 1393
    },
    {
      "src": 1662,
      "dest": 1662
    },
    {
      "src": 401,
      "dest": 401
    },
    {
      "src": 1378,
      "dest": 1378
    },
    {
      "src": 1188,
      "dest": 1188
    },
    {
      "src": 829,
      "dest": 829
    },
    {
      "src": 1673,
      "dest": 1673
    },
    {
      "src": 1665,
      "dest": 1665
    },
    {
      "src": 622,
      "dest": 622
    },
    {
      "src": 416,
      "dest": 416
    },
    {
      "src": 466,
      "dest": 466
    },
    {
      "src": 1644,
      "dest": 1644
    },
    {
      "src": 1347,
      "dest": 1347
    },
    {
      "src": 798,
      "dest": 798
    },
    {
      "src": 1106,
      "dest": 1106
    },
    {
      "src": 1401,
      "dest": 1401
    },
    {
      "src": 646,
      "dest": 646
    },
    {
      "src": 1540,
      "dest": 1540
    },
    {
      "src": 537,
      "dest": 537
    },
    {
      "src": 457,
      "dest": 457
    },
    {
      "src": 700,
      "dest": 700
    },
    {
      "src": 143,
      "dest": 143
    },
    {
      "src": 1301,
      "dest": 1301
    },
    {
      "src": 1298,
      "dest": 1298
    },
    {
      "src": 1458,
      "dest": 1458
    },
    {
      "src": 172,
      "dest": 172
    },
    {
      "src": 1021,
      "dest": 1021
    },
    {
      "src": 694,
      "dest": 694
    },
    {
      "src": 946,
      "dest": 946
    },
    {
      "src": 1124,
      "dest": 1124
    },
    {
      "src": 1503,
      "dest": 1503
    },
    {
      "src": 214,
      "dest": 214
    },
    {
      "src": 963,
      "dest": 963
    },
    {
      "src": 1514,
      "dest": 1514
    },
    {
      "src": 350,
      "dest": 350
    },
    {
      "src": 988,
      "dest": 988
    },
    {
      "src": 1657,
      "dest": 1657
    },
    {
      "src": 53,
      "dest": 53
    },
    {
      "src": 867,
      "dest": 867
    },
    {
      "src": 1439,
      "dest": 1439
    },
    {
      "src": 1430,
      "dest": 1430
    },
    {
      "src": 1708,
      "dest": 1732
    },
    {
      "src": 287,
      "dest": 287
    },
    {
      "src": 1058,
      "dest": 1058
    },
    {
      "src": 2,
      "dest": 2
    },
    {
      "src": 365,
      "dest": 365
    },
    {
      "src": 1638,
      "dest": 1638
    },
    {
      "src": 1290,
      "dest": 1290
    },
    {
      "src": 1315,
      "dest": 1315
    },
    {
      "src": 317,
      "dest": 317
    },
    {
      "src": 1558,
      "dest": 1558
    },
    {
      "src": 774,
      "dest": 774
    },
    {
      "src": 1086,
      "dest": 1086
    },
    {
      "src": 1700,
      "dest": 1724
    },
    {
      "src": 792,
      "dest": 792
    },
    {
      "src": 1517,
      "dest": 1517
    },
    {
      "src": 395,
      "dest": 395
    },
    {
      "src": 479,
      "dest": 479
    },
    {
      "src": 371,
      "dest": 371
    },
    {
      "src": 1541,
      "dest": 1541
    },
    {
      "src": 529,
      "dest": 529
    },
    {
      "src": 1422,
      "dest": 1422
    },
    {
      "src": 1192,
      "dest": 1192
    },
    {
      "src": 611,
      "dest": 611
    },
    {
      "src": 222,
      "dest": 222
    },
    {
      "src": 739,
      "dest": 739
    },
    {
      "src": 1228,
      "dest": 1228
    },
    {
      "src": 835,
      "dest": 835
    },
    {
      "src": 618,
      "dest": 618
    },
    {
      "src": 1436,
      "dest": 1436
    },
    {
      "src": 1697,
      "dest": 1721
    },
    {
      "src": 1522,
      "dest": 1522
    },
    {
      "src": 1723,
      "dest": 1747
    },
    {
      "src": 977,
      "dest": 977
    },
    {
      "src": 615,
      "dest": 615
    },
    {
      "src": 725,
      "dest": 725
    },
    {
      "src": 559,
      "dest": 559
    },
    {
      "src": 558,
      "dest": 558
    },
    {
      "src": 180,
      "dest": 180
    },
    {
      "src": 293,
      "dest": 293
    },
    {
      "src": 1169,
      "dest": 1169
    },
    {
      "src": 1549,
      "dest": 1549
    },
    {
      "src": 1130,
      "dest": 1130
    },
    {
      "src": 620,
      "dest": 620
    },
    {
      "src": 831,
      "dest": 831
    },
    {
      "src": 506,
      "dest": 506
    },
    {
      "src": 39,
      "dest": 39
    },
    {
      "src": 305,
      "dest": 305
    },
    {
      "src": 388,
      "dest": 388
    },
    {
      "src": 949,
      "dest": 949
    },
    {
      "src": 1085,
      "dest": 1085
    },
    {
      "src": 571,
      "dest": 571
    },
    {
      "src": 1731,
      "dest": 1755
    },
    {
      "src": 850,
      "dest": 850
    },
    {
      "src": 486,
      "dest": 486
    },
    {
      "src": 721,
      "dest": 721
    },
    {
      "src": 107,
      "dest": 107
    },
    {
      "src": 1568,
      "dest": 1568
    },
    {
      "src": 616,
      "dest": 616
    },
    {
      "src": 980,
      "dest": 980
    },
    {
      "src": 303,
      "dest": 303
    },
    {
      "src": 573,
      "dest": 573
    },
    {
      "src": 1212,
      "dest": 1212
    },
    {
      "src": 1728,
      "dest": 1752
    },
    {
      "src": 585,
      "dest": 585
    },
    {
      "src": 781,
      "dest": 781
    },
    {
      "src": 1204,
      "dest": 1204
    },
    {
      "src": 496,
      "dest": 496
    },
    {
      "src": 1352,
      "dest": 1352
    },
    {
      "src": 1155,
      "dest": 1155
    },
    {
      "src": 433,
      "dest": 433
    },
    {
      "src": 70,
      "dest": 70
    },
    {
      "src": 689,
      "dest": 689
    },
    {
      "src": 958,
      "dest": 958
    },
    {
      "src": 734,
      "dest": 734
    },
    {
      "src": 315,
      "dest": 315
    },
    {
      "src": 1648,
      "dest": 1648
    },
    {
      "src": 1542,
      "dest": 1542
    },
    {
      "src": 503,
      "dest": 503
    },
    {
      "src": 1208,
      "dest": 1208
    },
    {
      "src": 232,
      "dest": 232
    },
    {
      "src": 708,
      "dest": 708
    },
    {
      "src": 738,
      "dest": 738
    },
    {
      "src": 3,
      "dest": 3
    },
    {
      "src": 1702,
      "dest": 1726
    },
    {
      "src": 880,
      "dest": 880
    },
    {
      "src": 167,
      "dest": 167
    },
    {
      "src": 871,
      "dest": 871
    },
    {
      "src": 1405,
      "dest": 1405
    },
    {
      "src": 582,
      "dest": 582
    },
    {
      "src": 1574,
      "dest": 1574
    },
    {
      "src": 580,
      "dest": 580
    },
    {
      "src": 1222,
      "dest": 1222
    },
    {
      "src": 1150,
      "dest": 1150
    },
    {
      "src": 911,
      "dest": 911
    },
    {
      "src": 239,
      "dest": 239
    },
    {
      "src": 1647,
      "dest": 1647
    },
    {
      "src": 556,
      "dest": 556
    },
    {
      "src": 1132,
      "dest": 1132
    },
    {
      "src": 1018,
      "dest": 1018
    },
    {
      "src": 1227,
      "dest": 1227
    },
    {
      "src": 1608,
      "dest": 1608
    },
    {
      "src": 191,
      "dest": 191
    },
    {
      "src": 1619,
      "dest": 1619
    },
    {
      "src": 4,
      "dest": 4
    },
    {
      "src": 189,
      "dest": 189
    },
    {
      "src": 1235,
      "dest": 1235
    },
    {
      "src": 473,
      "dest": 473
    },
    {
      "src": 588,
      "dest": 588
    },
    {
      "src": 1019,
      "dest": 1019
    },
    {
      "src": 152,
      "dest": 152
    },
    {
      "src": 843,
      "dest": 843
    },
    {
      "src": 1504,
      "dest": 1504
    },
    {
      "src": 1122,
      "dest": 1122
    },
    {
      "src": 88,
      "dest": 88
    },
    {
      "src": 20,
      "dest": 20
    },
    {
      "src": 127,
      "dest": 127
    },
    {
      "src": 936,
      "dest": 936
    },
    {
      "src": 1087,
      "dest": 1087
    },
    {
      "src": 682,
      "dest": 682
    },
    {
      "src": 219,
      "dest": 219
    },
    {
      "src": 1088,
      "dest": 1088
    },
    {
      "src": 515,
      "dest": 515
    },
    {
      "src": 901,
      "dest": 901
    },
    {
      "src": 359,
      "dest": 359
    },
    {
      "src": 543,
      "dest": 543
    },
    {
      "src": 1556,
      "dest": 1556
    },
    {
      "src": 369,
      "dest": 369
    },
    {
      "src": 1028,
      "dest": 1028
    },
    {
      "src": 96,
      "dest": 96
    },
    {
      "src": 848,
      "dest": 848
    },
    {
      "src": 1654,
      "dest": 1654
    },
    {
      "src": 275,
      "dest": 275
    },
    {
      "src": 619,
      "dest": 619
    },
    {
      "src": 1283,
      "dest": 1283
    },
    {
      "src": 576,
      "dest": 576
    },
    {
      "src": 1338,
      "dest": 1338
    },
    {
      "src": 1403,
      "dest": 1403
    },
    {
      "src": 989,
      "dest": 989
    },
    {
      "src": 163,
      "dest": 163
    },
    {
      "src": 1134,
      "dest": 1134
    },
    {
      "src": 337,
      "dest": 337
    },
    {
      "src": 676,
      "dest": 676
    },
    {
      "src": 1759,
      "dest": 1783
    },
    {
      "src": 542,
      "dest": 542
    },
    {
      "src": 1706,
      "dest": 1730
    },
    {
      "src": 200,
      "dest": 200
    },
    {
      "src": 1533,
      "dest": 1533
    },
    {
      "src": 1233,
      "dest": 1233
    },
    {
      "src": 786,
      "dest": 786
    },
    {
      "src": 1051,
      "dest": 1051
    },
    {
      "src": 146,
      "dest": 146
    },
    {
      "src": 1752,
      "dest": 1776
    },
    {
      "src": 854,
      "dest": 854
    },
    {
      "src": 742,
      "dest": 742
    },
    {
      "src": 1061,
      "dest": 1061
    },
    {
      "src": 1201,
      "dest": 1201
    },
    {
      "src": 1234,
      "dest": 1234
    },
    {
      "src": 480,
      "dest": 480
    },
    {
      "src": 1435,
      "dest": 1435
    },
    {
      "src": 1368,
      "dest": 1368
    },
    {
      "src": 302,
      "dest": 302
    },
    {
      "src": 360,
      "dest": 360
    },
    {
      "src": 1321,
      "dest": 1321
    },
    {
      "src": 1240,
      "dest": 1240
    },
    {
      "src": 336,
      "dest": 336
    },
    {
      "src": 1327,
      "dest": 1327
    },
    {
      "src": 206,
      "dest": 206
    },
    {
      "src": 356,
      "dest": 356
    },
    {
      "src": 1760,
      "dest": 1784
    },
    {
      "src": 171,
      "dest": 171
    },
    {
      "src": 914,
      "dest": 914
    },
    {
      "src": 1167,
      "dest": 1167
    },
    {
      "src": 923,
      "dest": 923
    },
    {
      "src": 1364,
      "dest": 1364
    },
    {
      "src": 922,
      "dest": 922
    },
    {
      "src": 1637,
      "dest": 1637
    },
    {
      "src": 1174,
      "dest": 1174
    },
    {
      "src": 981,
      "dest": 981
    },
    {
      "src": 1337,
      "dest": 1337
    },
    {
      "src": 1411,
      "dest": 1411
    },
    {
      "src": 1487,
      "dest": 1487
    },
    {
      "src": 1629,
      "dest": 1629
    },
    {
      "src": 225,
      "dest": 225
    },
    {
      "src": 1035,
      "dest": 1035
    },
    {
      "src": 650,
      "dest": 650
    },
    {
      "src": 1374,
      "dest": 1374
    },
    {
      "src": 1737,
      "dest": 1761
    },
    {
      "src": 1756,
      "dest": 1780
    },
    {
      "src": 262,
      "dest": 262
    },
    {
      "src": 702,
      "dest": 702
    },
    {
      "src": 1219,
      "dest": 1219
    },
    {
      "src": 1050,
      "dest": 1050
    },
    {
      "src": 662,
      "dest": 662
    },
    {
      "src": 1177,
      "dest": 1177
    },
    {
      "src": 696,
      "dest": 696
    },
    {
      "src": 1386,
      "dest": 1386
    },
    {
      "src": 343,
      "dest": 343
    },
    {
      "src": 1093,
      "dest": 1093
    },
    {
      "src": 182,
      "dest": 182
    },
    {
      "src": 1022,
      "dest": 1022
    },
    {
      "src": 1272,
      "dest": 1272
    },
    {
      "src": 896,
      "dest": 896
    },
    {
      "src": 251,
      "dest": 251
    },
    {
      "src": 1045,
      "dest": 1045
    },
    {
      "src": 1688,
      "dest": 1711
    },
    {
      "src": 654,
      "dest": 654
    },
    {
      "src": 1754,
      "dest": 1778
    },
    {
      "src": 628,
      "dest": 628
    },
    {
      "src": 1698,
      "dest": 1722
    },
    {
      "src": 1142,
      "dest": 1142
    },
    {
      "src": 699,
      "dest": 699
    },
    {
      "src": 1002,
      "dest": 1002
    },
    {
      "src": 281,
      "dest": 281
    },
    {
      "src": 354,
      "dest": 354
    },
    {
      "src": 1392,
      "dest": 1392
    },
    {
      "src": 1446,
      "dest": 1446
    },
    {
      "src": 1582,
      "dest": 1582
    },
    {
      "src": 969,
      "dest": 969
    },
    {
      "src": 1281,
      "dest": 1281
    },
    {
      "src": 244,
      "dest": 244
    },
    {
      "src": 607,
      "dest": 607
    },
    {
      "src": 1025,
      "dest": 1025
    },
    {
      "src": 192,
      "dest": 192
    },
    {
      "src": 926,
      "dest": 926
    },
    {
      "src": 1479,
      "dest": 1479
    },
    {
      "src": 736,
      "dest": 736
    },
    {
      "src": 799,
      "dest": 799
    },
    {
      "src": 1032,
      "dest": 1032
    },
    {
      "src": 66,
      "dest": 66
    },
    {
      "src": 521,
      "dest": 521
    },
    {
      "src": 1670,
      "dest": 1670
    },
    {
      "src": 417,
      "dest": 417
    },
    {
      "src": 952,
      "dest": 952
    },
    {
      "src": 548,
      "dest": 548
    },
    {
      "src": 252,
      "dest": 252
    },
    {
      "src": 807,
      "dest": 807
    },
    {
      "src": 863,
      "dest": 863
    },
    {
      "src": 1248,
      "dest": 1248
    },
    {
      "src": 357,
      "dest": 357
    },
    {
      "src": 85,
      "dest": 85
    },
    {
      "src": 840,
      "dest": 840
    },
    {
      "src": 1011,
      "dest": 1011
    },
    {
      "src": 589,
      "dest": 589
    },
    {
      "src": 370,
      "dest": 370
    },
    {
      "src": 1744,
      "dest": 1768
    },
    {
      "src": 737,
      "dest": 737
    },
    {
      "src": 638,
      "dest": 638
    },
    {
      "src": 967,
      "dest": 967
    },
    {
      "src": 1198,
      "dest": 1198
    },
    {
      "src": 1138,
      "dest": 1138
    },
    {
      "src": 1547,
      "dest": 1547
    },
    {
      "src": 1643,
      "dest": 1643
    },
    {
      "src": 1610,
      "dest": 1610
    },
    {
      "src": 1145,
      "dest": 1145
    },
    {
      "src": 1127,
      "dest": 1127
    },
    {
      "src": 1482,
      "dest": 1482
    },
    {
      "src": 1182,
      "dest": 1182
    },
    {
      "src": 1626,
      "dest": 1626
    },
    {
      "src": 245,
      "dest": 245
    },
    {
      "src": 249,
      "dest": 249
    },
    {
      "src": 1402,
      "dest": 1402
    },
    {
      "src": 230,
      "dest": 230
    },
    {
      "src": 361,
      "dest": 361
    },
    {
      "src": 633,
      "dest": 633
    },
    {
      "src": 259,
      "dest": 259
    },
    {
      "src": 808,
      "dest": 808
    },
    {
      "src": 579,
      "dest": 579
    },
    {
      "src": 438,
      "dest": 438
    },
    {
      "src": 1251,
      "dest": 1251
    },
    {
      "src": 392,
      "dest": 392
    },
    {
      "src": 1046,
      "dest": 1046
    },
    {
      "src": 749,
      "dest": 749
    },
    {
      "src": 858,
      "dest": 858
    },
    {
      "src": 773,
      "dest": 773
    },
    {
      "src": 1171,
      "dest": 1171
    },
    {
      "src": 1278,
      "dest": 1278
    },
    {
      "src": 1457,
      "dest": 1457
    },
    {
      "src": 1722,
      "dest": 1746
    },
    {
      "src": 1450,
      "dest": 1450
    },
    {
      "src": 677,
      "dest": 677
    },
    {
      "src": 1460,
      "dest": 1460
    },
    {
      "src": 1285,
      "dest": 1285
    },
    {
      "src": 955,
      "dest": 955
    },
    {
      "src": 563,
      "dest": 563
    },
    {
      "src": 441,
      "dest": 441
    },
    {
      "src": 142,
      "dest": 142
    },
    {
      "src": 658,
      "dest": 658
    },
    {
      "src": 273,
      "dest": 273
    },
    {
      "src": 1260,
      "dest": 1260
    },
    {
      "src": 1079,
      "dest": 1079
    },
    {
      "src": 41,
      "dest": 41
    },
    {
      "src": 1377,
      "dest": 1377
    },
    {
      "src": 256,
      "dest": 256
    },
    {
      "src": 1469,
      "dest": 1469
    },
    {
      "src": 95,
      "dest": 95
    },
    {
      "src": 758,
      "dest": 758
    },
    {
      "src": 1268,
      "dest": 1268
    },
    {
      "src": 1149,
      "dest": 1149
    },
    {
      "src": 1497,
      "dest": 1497
    },
    {
      "src": 104,
      "dest": 104
    },
    {
      "src": 587,
      "dest": 587
    },
    {
      "src": 51,
      "dest": 51
    },
    {
      "src": 729,
      "dest": 729
    },
    {
      "src": 474,
      "dest": 474
    },
    {
      "src": 756,
      "dest": 756
    },
    {
      "src": 933,
      "dest": 933
    },
    {
      "src": 1382,
      "dest": 1382
    },
    {
      "src": 346,
      "dest": 346
    },
    {
      "src": 421,
      "dest": 421
    },
    {
      "src": 84,
      "dest": 84
    },
    {
      "src": 125,
      "dest": 125
    },
    {
      "src": 834,
      "dest": 834
    },
    {
      "src": 1554,
      "dest": 1554
    },
    {
      "src": 434,
      "dest": 434
    },
    {
      "src": 470,
      "dest": 470
    },
    {
      "src": 353,
      "dest": 353
    },
    {
      "src": 447,
      "dest": 447
    },
    {
      "src": 1508,
      "dest": 1508
    },
    {
      "src": 940,
      "dest": 940
    },
    {
      "src": 400,
      "dest": 400
    },
    {
      "src": 857,
      "dest": 857
    },
    {
      "src": 918,
      "dest": 918
    },
    {
      "src": 1441,
      "dest": 1441
    },
    {
      "src": 169,
      "dest": 169
    },
    {
      "src": 982,
      "dest": 982
    },
    {
      "src": 629,
      "dest": 629
    },
    {
      "src": 1646,
      "dest": 1646
    },
    {
      "src": 1215,
      "dest": 1215
    },
    {
      "src": 1048,
      "dest": 1048
    },
    {
      "src": 1293,
      "dest": 1293
    },
    {
      "src": 1069,
      "dest": 1069
    },
    {
      "src": 577,
      "dest": 577
    },
    {
      "src": 482,
      "dest": 482
    },
    {
      "src": 408,
      "dest": 408
    },
    {
      "src": 998,
      "dest": 998
    },
    {
      "src": 1424,
      "dest": 1424
    },
    {
      "src": 1129,
      "dest": 1129
    },
    {
      "src": 406,
      "dest": 406
    },
    {
      "src": 23,
      "dest": 23
    },
    {
      "src": 803,
      "dest": 803
    },
    {
      "src": 60,
      "dest": 60
    },
    {
      "src": 1151,
      "dest": 1151
    },
    {
      "src": 1470,
      "dest": 1470
    },
    {
      "src": 67,
      "dest": 67
    },
    {
      "src": 59,
      "dest": 59
    },
    {
      "src": 149,
      "dest": 149
    },
    {
      "src": 1157,
      "dest": 1157
    },
    {
      "src": 1076,
      "dest": 1076
    },
    {
      "src": 641,
      "dest": 641
    },
    {
      "src": 945,
      "dest": 945
    },
    {
      "src": 965,
      "dest": 965
    },
    {
      "src": 56,
      "dest": 56
    },
    {
      "src": 813,
      "dest": 813
    },
    {
      "src": 1451,
      "dest": 1451
    }
  ],
  "actions": [
    {
      "action": "insert",
      "tree": 1660,
      "parent": 1719,
      "at": 0
    },
    {
      "action": "insert",
      "tree": 1718,
      "parent": 1719,
      "at": 3
    },
    {
      "action": "move",
      "tree": 1660,
      "parent": 1718,
      "at": 0
    },
    {
      "action": "insert",
      "tree": 1699,
      "parent": 1718,
      "at": 1
    },
    {
      "action": "insert",
      "tree": 1707,
      "parent": 1718,
      "at": 2
    },
    {
      "action": "move",
      "tree": 1694,
      "parent": 1718,
      "at": 3
    },
    {
      "action": "insert",
      "tree": 1697,
      "parent": 1699,
      "at": 0
    },
    {
      "action": "insert",
      "tree": 1698,
      "parent": 1699,
      "at": 1
    },
    {
      "action": "insert",
      "tree": 1706,
      "parent": 1707,
      "at": 0
    },
    {
      "action": "insert",
      "tree": 1687,
      "parent": 1697,
      "at": 0
    },
    {
      "action": "insert",
      "tree": 1696,
      "parent": 1697,
      "at": 1
    },
    {
      "action": "insert",
      "tree": 1704,
      "parent": 1706,
      "at": 0
    },
    {
      "action": "insert",
      "tree": 1705,
      "parent": 1706,
      "at": 1
    },
    {
      "action": "insert",
      "tree": 1686,
      "parent": 1687,
      "at": 0
    },
    {
      "action": "insert",
      "tree": 1693,
      "parent": 1696,
      "at": 0
    },
    {
      "action": "insert",
      "tree": 1695,
      "parent": 1696,
      "at": 1
    },
    {
      "action": "insert",
      "tree": 1701,
      "parent": 1704,
      "at": 0
    },
    {
      "action": "insert",
      "tree": 1702,
      "parent": 1704,
      "at": 1
    },
    {
      "action": "insert",
      "tree": 1703,
      "parent": 1704,
      "at": 2
    },
    {
      "action": "insert",
      "tree": 1692,
      "parent": 1693,
      "at": 0
    },
    {
      "action": "insert",
      "tree": 1694,
      "parent": 1695,
      "at": 0
    },
    {
      "action": "insert",
      "tree": 1700,
      "parent": 1701,
      "at": 0
    },
    {
      "action": "insert",
      "tree": 1689,
      "parent": 1692,
      "at": 0
    },
    {
      "action": "insert",
      "tree": 1691,
      "parent": 1692,
      "at": 1
    },
    {
      "action": "insert",
      "tree": 1688,
      "parent": 1689,
      "at": 0
    },
    {
      "action": "insert",
      "tree": 1690,
      "parent": 1691,
      "at": 0
    }
  ]
}