{
	"root": {
		"type": "460000",
		"typeLabel": "Program",
		"pos": "45",
		"length": "1043",
		"children": [
			{
				"type": "450300",
				"typeLabel": "CppTop",
				"pos": "45",
				"length": "19",
				"children": [
					{
						"type": "400200",
						"typeLabel": "Include",
						"pos": "45",
						"length": "19",
						"children": [
							{
								"type": "480000",
								"label": "<signal.h>",
								"typeLabel": "GenericString",
								"pos": "54",
								"length": "10",
								"children": []
							}
						]
					}
				]
			},
			{
				"type": "450300",
				"typeLabel": "CppTop",
				"pos": "65",
				"length": "18",
				"children": [
					{
						"type": "400200",
						"typeLabel": "Include",
						"pos": "65",
						"length": "18",
						"children": [
							{
								"type": "480000",
								"label": "\"cache.h\"",
								"typeLabel": "GenericString",
								"pos": "74",
								"length": "9",
								"children": []
							}
						]
					}
				]
			},
			{
				"type": "450100",
				"typeLabel": "Declaration",
				"pos": "85",
				"length": "42",
				"children": [
					{
						"type": "350100",
						"typeLabel": "DeclList",
						"pos": "85",
						"length": "42",
						"children": [
							{
								"type": "340000",
								"typeLabel": "Storage",
								"pos": "85",
								"length": "6",
								"children": [
									{
										"type": "480000",
										"label": "static",
										"typeLabel": "GenericString",
										"pos": "85",
										"length": "6",
										"children": []
									}
								]
							},
							{
								"type": "480000",
								"label": "cache_file_list",
								"typeLabel": "GenericString",
								"pos": "111",
								"length": "15",
								"children": []
							}
						]
					}
				]
			},
			{
				"type": "450200",
				"typeLabel": "Definition",
				"pos": "129",
				"length": "185",
				"children": [
					{
						"type": "380000",
						"typeLabel": "Definition",
						"pos": "129",
						"length": "185",
						"children": [
							{
								"type": "340000",
								"typeLabel": "Storage",
								"pos": "129",
								"length": "6",
								"children": [
									{
										"type": "480000",
										"label": "static",
										"typeLabel": "GenericString",
										"pos": "129",
										"length": "6",
										"children": []
									}
								]
							},
							{
								"type": "200000",
								"typeLabel": "ParamList",
								"pos": "157",
								"length": "6",
								"children": [
									{
										"type": "220100",
										"typeLabel": "ParameterType",
										"pos": "158",
										"length": "4",
										"children": []
									}
								]
							},
							{
								"type": "480000",
								"label": "remove_lock_file",
								"typeLabel": "GenericString",
								"pos": "141",
								"length": "16",
								"children": []
							},
							{
								"type": "330000",
								"typeLabel": "Compound",
								"pos": "164",
								"length": "150",
								"children": [
									{
										"type": "310100",
										"typeLabel": "While",
										"pos": "167",
										"length": "145",
										"children": [
											{
												"type": "240100",
												"typeLabel": "Ident",
												"pos": "174",
												"length": "15",
												"children": [
													{
														"type": "480000",
														"label": "cache_file_list",
														"typeLabel": "GenericString",
														"pos": "174",
														"length": "15",
														"children": []
													}
												]
											},
											{
												"type": "330000",
												"typeLabel": "Compound",
												"pos": "191",
												"length": "121",
												"children": [
													{
														"type": "300100",
														"typeLabel": "If",
														"pos": "195",
														"length": "71",
														"children": [
															{
																"type": "490100",
																"typeLabel": "IfToken",
																"pos": "195",
																"length": "2",
																"children": []
															},
															{
																"type": "241200",
																"typeLabel": "ArrayAccess",
																"pos": "199",
																"length": "28",
																"children": [
																	{
																		"type": "241400",
																		"typeLabel": "RecordPtAccess",
																		"pos": "199",
																		"length": "25",
																		"children": [
																			{
																				"type": "240100",
																				"typeLabel": "Ident",
																				"pos": "199",
																				"length": "15",
																				"children": [
																					{
																						"type": "480000",
																						"label": "cache_file_list",
																						"typeLabel": "GenericString",
																						"pos": "199",
																						"length": "15",
																						"children": []
																					}
																				]
																			},
																			{
																				"type": "480000",
																				"label": "lockfile",
																				"typeLabel": "GenericString",
																				"pos": "216",
																				"length": "8",
																				"children": []
																			}
																		]
																	},
																	{
																		"type": "240200",
																		"label": "0",
																		"typeLabel": "Constant",
																		"pos": "225",
																		"length": "1",
																		"children": []
																	}
																]
															},
															{
																"type": "260300",
																"typeLabel": "ExprStatement",
																"pos": "232",
																"length": "34",
																"children": [
																	{
																		"type": "290100",
																		"typeLabel": "Some",
																		"pos": "232",
																		"length": "34",
																		"children": [
																			{
																				"type": "240400",
																				"typeLabel": "FunCall",
																				"pos": "232",
																				"length": "33",
																				"children": [
																					{
																						"type": "240100",
																						"typeLabel": "Ident",
																						"pos": "232",
																						"length": "6",
																						"children": [
																							{
																								"type": "480000",
																								"label": "unlink",
																								"typeLabel": "GenericString",
																								"pos": "232",
																								"length": "6",
																								"children": []
																							}
																						]
																					},
																					{
																						"type": "470000",
																						"typeLabel": "GenericList",
																						"pos": "238",
																						"length": "27",
																						"children": [
																							{
																								"type": "20100",
																								"typeLabel": "Left",
																								"pos": "239",
																								"length": "25",
																								"children": [
																									{
																										"type": "241400",
																										"typeLabel": "RecordPtAccess",
																										"pos": "239",
																										"length": "25",
																										"children": [
																											{
																												"type": "240100",
																												"typeLabel": "Ident",
																												"pos": "239",
																												"length": "15",
																												"children": [
																													{
																														"type": "480000",
																														"label": "cache_file_list",
																														"typeLabel": "GenericString",
																														"pos": "239",
																														"length": "15",
																														"children": []
																													}
																												]
																											},
																											{
																												"type": "480000",
																												"label": "lockfile",
																												"typeLabel": "GenericString",
																												"pos": "256",
																												"length": "8",
																												"children": []
																											}
																										]
																									}
																								]
																							}
																						]
																					}
																				]
																			},
																			{
																				"type": "480000",
																				"label": ";",
																				"typeLabel": "GenericString",
																				"pos": "265",
																				"length": "1",
																				"children": []
																			}
																		]
																	}
																]
															}
														]
													},
													{
														"type": "260300",
														"typeLabel": "ExprStatement",
														"pos": "269",
														"length": "40",
														"children": [
															{
																"type": "290100",
																"typeLabel": "Some",
																"pos": "269",
																"length": "40",
																"children": [
																	{
																		"type": "240700",
																		"typeLabel": "Assignment",
																		"pos": "269",
																		"length": "39",
																		"children": [
																			{
																				"type": "240100",
																				"typeLabel": "Ident",
																				"pos": "269",
																				"length": "15",
																				"children": [
																					{
																						"type": "480000",
																						"label": "cache_file_list",
																						"typeLabel": "GenericString",
																						"pos": "269",
																						"length": "15",
																						"children": []
																					}
																				]
																			},
																			{
																				"type": "480000",
																				"label": "=",
																				"typeLabel": "GenericString",
																				"pos": "285",
																				"length": "1",
																				"children": []
																			},
																			{
																				"type": "241400",
																				"typeLabel": "RecordPtAccess",
																				"pos": "287",
																				"length": "21",
																				"children": [
																					{
																						"type": "240100",
																						"typeLabel": "Ident",
																						"pos": "287",
																						"length": "15",
																						"children": [
																							{
																								"type": "480000",
																								"label": "cache_file_list",
																								"typeLabel": "GenericString",
																								"pos": "287",
																								"length": "15",
																								"children": []
																							}
																						]
																					},
																					{
																						"type": "480000",
																						"label": "next",
																						"typeLabel": "GenericString",
																						"pos": "304",
																						"length": "4",
																						"children": []
																					}
																				]
																			}
																		]
																	},
																	{
																		"type": "480000",
																		"label": ";",
																		"typeLabel": "GenericString",
																		"pos": "308",
																		"length": "1",
																		"children": []
																	}
																]
															}
														]
													}
												]
											}
										]
									}
								]
							}
						]
					}
				]
			},
			{
				"type": "450200",
				"typeLabel": "Definition",
				"pos": "316",
				"length": "74",
				"children": [
					{
						"type": "380000",
						"typeLabel": "Definition",
						"pos": "316",
						"length": "74",
						"children": [
							{
								"type": "340000",
								"typeLabel": "Storage",
								"pos": "316",
								"length": "6",
								"children": [
									{
										"type": "480000",
										"label": "static",
										"typeLabel": "GenericString",
										"pos": "316",
										"length": "6",
										"children": []
									}
								]
							},
							{
								"type": "200000",
								"typeLabel": "ParamList",
								"pos": "354",
								"length": "11",
								"children": [
									{
										"type": "220100",
										"typeLabel": "ParameterType",
										"pos": "355",
										"length": "9",
										"children": [
											{
												"type": "480000",
												"label": "signo",
												"typeLabel": "GenericString",
												"pos": "359",
												"length": "5",
												"children": []
											}
										]
									}
								]
							},
							{
								"type": "480000",
								"label": "remove_lock_file_on_signal",
								"typeLabel": "GenericString",
								"pos": "328",
								"length": "26",
								"children": []
							},
							{
								"type": "330000",
								"typeLabel": "Compound",
								"pos": "366",
								"length": "24",
								"children": [
									{
										"type": "260300",
										"typeLabel": "ExprStatement",
										"pos": "369",
										"length": "19",
										"children": [
											{
												"type": "290100",
												"typeLabel": "Some",
												"pos": "369",
												"length": "19",
												"children": [
													{
														"type": "240400",
														"typeLabel": "FunCall",
														"pos": "369",
														"length": "18",
														"children": [
															{
																"type": "240100",
																"typeLabel": "Ident",
																"pos": "369",
																"length": "16",
																"children": [
																	{
																		"type": "480000",
																		"label": "remove_lock_file",
																		"typeLabel": "GenericString",
																		"pos": "369",
																		"length": "16",
																		"children": []
																	}
																]
															},
															{
																"type": "470000",
																"typeLabel": "GenericList",
																"pos": "385",
																"length": "2",
																"children": []
															}
														]
													},
													{
														"type": "480000",
														"label": ";",
														"typeLabel": "GenericString",
														"pos": "387",
														"length": "1",
														"children": []
													}
												]
											}
										]
									}
								]
							}
						]
					}
				]
			},
			{
				"type": "450200",
				"typeLabel": "Definition",
				"pos": "392",
				"length": "324",
				"children": [
					{
						"type": "380000",
						"typeLabel": "Definition",
						"pos": "392",
						"length": "324",
						"children": [
							{
								"type": "200000",
								"typeLabel": "ParamList",
								"pos": "422",
								"length": "41",
								"children": [
									{
										"type": "220100",
										"typeLabel": "ParameterType",
										"pos": "423",
										"length": "21",
										"children": [
											{
												"type": "480000",
												"label": "cf",
												"typeLabel": "GenericString",
												"pos": "442",
												"length": "2",
												"children": []
											}
										]
									},
									{
										"type": "220100",
										"typeLabel": "ParameterType",
										"pos": "446",
										"length": "16",
										"children": [
											{
												"type": "480000",
												"label": "path",
												"typeLabel": "GenericString",
												"pos": "458",
												"length": "4",
												"children": []
											}
										]
									}
								]
							},
							{
								"type": "480000",
								"label": "hold_index_file_for_update",
								"typeLabel": "GenericString",
								"pos": "396",
								"length": "26",
								"children": []
							},
							{
								"type": "330000",
								"typeLabel": "Compound",
								"pos": "464",
								"length": "252",
								"children": [
									{
										"type": "260300",
										"typeLabel": "ExprStatement",
										"pos": "467",
										"length": "39",
										"children": [
											{
												"type": "290100",
												"typeLabel": "Some",
												"pos": "467",
												"length": "39",
												"children": [
													{
														"type": "240400",
														"typeLabel": "FunCall",
														"pos": "467",
														"length": "38",
														"children": [
															{
																"type": "240100",
																"typeLabel": "Ident",
																"pos": "467",
																"length": "7",
																"children": [
																	{
																		"type": "480000",
																		"label": "sprintf",
																		"typeLabel": "GenericString",
																		"pos": "467",
																		"length": "7",
																		"children": []
																	}
																]
															},
															{
																"type": "470000",
																"typeLabel": "GenericList",
																"pos": "474",
																"length": "31",
																"children": [
																	{
																		"type": "20100",
																		"typeLabel": "Left",
																		"pos": "475",
																		"length": "12",
																		"children": [
																			{
																				"type": "241400",
																				"typeLabel": "RecordPtAccess",
																				"pos": "475",
																				"length": "12",
																				"children": [
																					{
																						"type": "240100",
																						"typeLabel": "Ident",
																						"pos": "475",
																						"length": "2",
																						"children": [
																							{
																								"type": "480000",
																								"label": "cf",
																								"typeLabel": "GenericString",
																								"pos": "475",
																								"length": "2",
																								"children": []
																							}
																						]
																					},
																					{
																						"type": "480000",
																						"label": "lockfile",
																						"typeLabel": "GenericString",
																						"pos": "479",
																						"length": "8",
																						"children": []
																					}
																				]
																			}
																		]
																	},
																	{
																		"type": "20100",
																		"typeLabel": "Left",
																		"pos": "489",
																		"length": "9",
																		"children": [
																			{
																				"type": "240200",
																				"label": "\"%s.lock\"",
																				"typeLabel": "Constant",
																				"pos": "489",
																				"length": "9",
																				"children": []
																			}
																		]
																	},
																	{
																		"type": "20100",
																		"typeLabel": "Left",
																		"pos": "500",
																		"length": "4",
																		"children": [
																			{
																				"type": "240100",
																				"typeLabel": "Ident",
																				"pos": "500",
																				"length": "4",
																				"children": [
																					{
																						"type": "480000",
																						"label": "path",
																						"typeLabel": "GenericString",
																						"pos": "500",
																						"length": "4",
																						"children": []
																					}
																				]
																			}
																		]
																	}
																]
															}
														]
													},
													{
														"type": "480000",
														"label": ";",
														"typeLabel": "GenericString",
														"pos": "505",
														"length": "1",
														"children": []
													}
												]
											}
										]
									},
									{
										"type": "260300",
										"typeLabel": "ExprStatement",
										"pos": "508",
										"length": "27",
										"children": [
											{
												"type": "290100",
												"typeLabel": "Some",
												"pos": "508",
												"length": "27",
												"children": [
													{
														"type": "240700",
														"typeLabel": "Assignment",
														"pos": "508",
														"length": "26",
														"children": [
															{
																"type": "241400",
																"typeLabel": "RecordPtAccess",
																"pos": "508",
																"length": "8",
																"children": [
																	{
																		"type": "240100",
																		"typeLabel": "Ident",
																		"pos": "508",
																		"length": "2",
																		"children": [
																			{
																				"type": "480000",
																				"label": "cf",
																				"typeLabel": "GenericString",
																				"pos": "508",
																				"length": "2",
																				"children": []
																			}
																		]
																	},
																	{
																		"type": "480000",
																		"label": "next",
																		"typeLabel": "GenericString",
																		"pos": "512",
																		"length": "4",
																		"children": []
																	}
																]
															},
															{
																"type": "480000",
																"label": "=",
																"typeLabel": "GenericString",
																"pos": "517",
																"length": "1",
																"children": []
															},
															{
																"type": "240100",
																"typeLabel": "Ident",
																"pos": "519",
																"length": "15",
																"children": [
																	{
																		"type": "480000",
																		"label": "cache_file_list",
																		"typeLabel": "GenericString",
																		"pos": "519",
																		"length": "15",
																		"children": []
																	}
																]
															}
														]
													},
													{
														"type": "480000",
														"label": ";",
														"typeLabel": "GenericString",
														"pos": "534",
														"length": "1",
														"children": []
													}
												]
											}
										]
									},
									{
										"type": "260300",
										"typeLabel": "ExprStatement",
										"pos": "537",
										"length": "21",
										"children": [
											{
												"type": "290100",
												"typeLabel": "Some",
												"pos": "537",
												"length": "21",
												"children": [
													{
														"type": "240700",
														"typeLabel": "Assignment",
														"pos": "537",
														"length": "20",
														"children": [
															{
																"type": "240100",
																"typeLabel": "Ident",
																"pos": "537",
																"length": "15",
																"children": [
																	{
																		"type": "480000",
																		"label": "cache_file_list",
																		"typeLabel": "GenericString",
																		"pos": "537",
																		"length": "15",
																		"children": []
																	}
																]
															},
															{
																"type": "480000",
																"label": "=",
																"typeLabel": "GenericString",
																"pos": "553",
																"length": "1",
																"children": []
															},
															{
																"type": "240100",
																"typeLabel": "Ident",
																"pos": "555",
																"length": "2",
																"children": [
																	{
																		"type": "480000",
																		"label": "cf",
																		"typeLabel": "GenericString",
																		"pos": "555",
																		"length": "2",
																		"children": []
																	}
																]
															}
														]
													},
													{
														"type": "480000",
														"label": ";",
														"typeLabel": "GenericString",
														"pos": "557",
														"length": "1",
														"children": []
													}
												]
											}
										]
									},
									{
										"type": "300100",
										"typeLabel": "If",
										"pos": "560",
										"length": "93",
										"children": [
											{
												"type": "490100",
												"typeLabel": "IfToken",
												"pos": "560",
												"length": "2",
												"children": []
											},
											{
												"type": "241000",
												"typeLabel": "Unary",
												"pos": "564",
												"length": "9",
												"children": [
													{
														"type": "241400",
														"typeLabel": "RecordPtAccess",
														"pos": "565",
														"length": "8",
														"children": [
															{
																"type": "240100",
																"typeLabel": "Ident",
																"pos": "565",
																"length": "2",
																"children": [
																	{
																		"type": "480000",
																		"label": "cf",
																		"typeLabel": "GenericString",
																		"pos": "565",
																		"length": "2",
																		"children": []
																	}
																]
															},
															{
																"type": "480000",
																"label": "next",
																"typeLabel": "GenericString",
																"pos": "569",
																"length": "4",
																"children": []
															}
														]
													},
													{
														"type": "480000",
														"label": "!",
														"typeLabel": "GenericString",
														"pos": "564",
														"length": "1",
														"children": []
													}
												]
											},
											{
												"type": "330000",
												"typeLabel": "Compound",
												"pos": "575",
												"length": "78",
												"children": [
													{
														"type": "260300",
														"typeLabel": "ExprStatement",
														"pos": "579",
														"length": "43",
														"children": [
															{
																"type": "290100",
																"typeLabel": "Some",
																"pos": "579",
																"length": "43",
																"children": [
																	{
																		"type": "240400",
																		"typeLabel": "FunCall",
																		"pos": "579",
																		"length": "42",
																		"children": [
																			{
																				"type": "240100",
																				"typeLabel": "Ident",
																				"pos": "579",
																				"length": "6",
																				"children": [
																					{
																						"type": "480000",
																						"label": "signal",
																						"typeLabel": "GenericString",
																						"pos": "579",
																						"length": "6",
																						"children": []
																					}
																				]
																			},
																			{
																				"type": "470000",
																				"typeLabel": "GenericList",
																				"pos": "585",
																				"length": "36",
																				"children": [
																					{
																						"type": "20100",
																						"typeLabel": "Left",
																						"pos": "586",
																						"length": "6",
																						"children": [
																							{
																								"type": "240100",
																								"typeLabel": "Ident",
																								"pos": "586",
																								"length": "6",
																								"children": [
																									{
																										"type": "480000",
																										"label": "SIGINT",
																										"typeLabel": "GenericString",
																										"pos": "586",
																										"length": "6",
																										"children": []
																									}
																								]
																							}
																						]
																					},
																					{
																						"type": "20100",
																						"typeLabel": "Left",
																						"pos": "594",
																						"length": "26",
																						"children": [
																							{
																								"type": "240100",
																								"typeLabel": "Ident",
																								"pos": "594",
																								"length": "26",
																								"children": [
																									{
																										"type": "480000",
																										"label": "remove_lock_file_on_signal",
																										"typeLabel": "GenericString",
																										"pos": "594",
																										"length": "26",
																										"children": []
																									}
																								]
																							}
																						]
																					}
																				]
																			}
																		]
																	},
																	{
																		"type": "480000",
																		"label": ";",
																		"typeLabel": "GenericString",
																		"pos": "621",
																		"length": "1",
																		"children": []
																	}
																]
															}
														]
													},
													{
														"type": "260300",
														"typeLabel": "ExprStatement",
														"pos": "625",
														"length": "25",
														"children": [
															{
																"type": "290100",
																"typeLabel": "Some",
																"pos": "625",
																"length": "25",
																"children": [
																	{
																		"type": "240400",
																		"typeLabel": "FunCall",
																		"pos": "625",
																		"length": "24",
																		"children": [
																			{
																				"type": "240100",
																				"typeLabel": "Ident",
																				"pos": "625",
																				"length": "6",
																				"children": [
																					{
																						"type": "480000",
																						"label": "atexit",
																						"typeLabel": "GenericString",
																						"pos": "625",
																						"length": "6",
																						"children": []
																					}
																				]
																			},
																			{
																				"type": "470000",
																				"typeLabel": "GenericList",
																				"pos": "631",
																				"length": "18",
																				"children": [
																					{
																						"type": "20100",
																						"typeLabel": "Left",
																						"pos": "632",
																						"length": "16",
																						"children": [
																							{
																								"type": "240100",
																								"typeLabel": "Ident",
																								"pos": "632",
																								"length": "16",
																								"children": [
																									{
																										"type": "480000",
																										"label": "remove_lock_file",
																										"typeLabel": "GenericString",
																										"pos": "632",
																										"length": "16",
																										"children": []
																									}
																								]
																							}
																						]
																					}
																				]
																			}
																		]
																	},
																	{
																		"type": "480000",
																		"label": ";",
																		"typeLabel": "GenericString",
																		"pos": "649",
																		"length": "1",
																		"children": []
																	}
																]
															}
														]
													}
												]
											}
										]
									},
									{
										"type": "280200",
										"typeLabel": "ReturnExpr",
										"pos": "655",
										"length": "59",
										"children": [
											{
												"type": "240400",
												"typeLabel": "FunCall",
												"pos": "662",
												"length": "51",
												"children": [
													{
														"type": "240100",
														"typeLabel": "Ident",
														"pos": "662",
														"length": "4",
														"children": [
															{
																"type": "480000",
																"label": "open",
																"typeLabel": "GenericString",
																"pos": "662",
																"length": "4",
																"children": []
															}
														]
													},
													{
														"type": "470000",
														"typeLabel": "GenericList",
														"pos": "666",
														"length": "47",
														"children": [
															{
																"type": "20100",
																"typeLabel": "Left",
																"pos": "667",
																"length": "12",
																"children": [
																	{
																		"type": "241400",
																		"typeLabel": "RecordPtAccess",
																		"pos": "667",
																		"length": "12",
																		"children": [
																			{
																				"type": "240100",
																				"typeLabel": "Ident",
																				"pos": "667",
																				"length": "2",
																				"children": [
																					{
																						"type": "480000",
																						"label": "cf",
																						"typeLabel": "GenericString",
																						"pos": "667",
																						"length": "2",
																						"children": []
																					}
																				]
																			},
																			{
																				"type": "480000",
																				"label": "lockfile",
																				"typeLabel": "GenericString",
																				"pos": "671",
																				"length": "8",
																				"children": []
																			}
																		]
																	}
																]
															},
															{
																"type": "20100",
																"typeLabel": "Left",
																"pos": "681",
																"length": "25",
																"children": [
																	{
																		"type": "241100",
																		"typeLabel": "Binary",
																		"pos": "681",
																		"length": "25",
																		"children": [
																			{
																				"type": "241100",
																				"typeLabel": "Binary",
																				"pos": "681",
																				"length": "16",
																				"children": [
																					{
																						"type": "240100",
																						"typeLabel": "Ident",
																						"pos": "681",
																						"length": "6",
																						"children": [
																							{
																								"type": "480000",
																								"label": "O_RDWR",
																								"typeLabel": "GenericString",
																								"pos": "681",
																								"length": "6",
																								"children": []
																							}
																						]
																					},
																					{
																						"type": "480000",
																						"label": "|",
																						"typeLabel": "GenericString",
																						"pos": "688",
																						"length": "1",
																						"children": []
																					},
																					{
																						"type": "240100",
																						"typeLabel": "Ident",
																						"pos": "690",
																						"length": "7",
																						"children": [
																							{
																								"type": "480000",
																								"label": "O_CREAT",
																								"typeLabel": "GenericString",
																								"pos": "690",
																								"length": "7",
																								"children": []
																							}
																						]
																					}
																				]
																			},
																			{
																				"type": "480000",
																				"label": "|",
																				"typeLabel": "GenericString",
																				"pos": "698",
																				"length": "1",
																				"children": []
																			},
																			{
																				"type": "240100",
																				"typeLabel": "Ident",
																				"pos": "700",
																				"length": "6",
																				"children": [
																					{
																						"type": "480000",
																						"label": "O_EXCL",
																						"typeLabel": "GenericString",
																						"pos": "700",
																						"length": "6",
																						"children": []
																					}
																				]
																			}
																		]
																	}
																]
															},
															{
																"type": "20100",
																"typeLabel": "Left",
																"pos": "708",
																"length": "4",
																"children": [
																	{
																		"type": "240200",
																		"label": "0666",
																		"typeLabel": "Constant",
																		"pos": "708",
																		"length": "4",
																		"children": []
																	}
																]
															}
														]
													}
												]
											}
										]
									}
								]
							}
						]
					}
				]
			},
			{
				"type": "450200",
				"typeLabel": "Definition",
				"pos": "718",
				"length": "247",
				"children": [
					{
						"type": "380000",
						"typeLabel": "Definition",
						"pos": "718",
						"length": "247",
						"children": [
							{
								"type": "200000",
								"typeLabel": "ParamList",
								"pos": "739",
								"length": "23",
								"children": [
									{
										"type": "220100",
										"typeLabel": "ParameterType",
										"pos": "740",
										"length": "21",
										"children": [
											{
												"type": "480000",
												"label": "cf",
												"typeLabel": "GenericString",
												"pos": "759",
												"length": "2",
												"children": []
											}
										]
									}
								]
							},
							{
								"type": "480000",
								"label": "commit_index_file",
								"typeLabel": "GenericString",
								"pos": "722",
								"length": "17",
								"children": []
							},
							{
								"type": "330000",
								"typeLabel": "Compound",
								"pos": "763",
								"length": "202",
								"children": [
									{
										"type": "350100",
										"typeLabel": "DeclList",
										"pos": "766",
										"length": "25",
										"children": [
											{
												"type": "480000",
												"label": "indexfile",
												"typeLabel": "GenericString",
												"pos": "771",
												"length": "9",
												"children": []
											}
										]
									},
									{
										"type": "350100",
										"typeLabel": "DeclList",
										"pos": "793",
										"length": "6",
										"children": [
											{
												"type": "480000",
												"label": "i",
												"typeLabel": "GenericString",
												"pos": "797",
												"length": "1",
												"children": []
											}
										]
									},
									{
										"type": "260300",
										"typeLabel": "ExprStatement",
										"pos": "801",
										"length": "32",
										"children": [
											{
												"type": "290100",
												"typeLabel": "Some",
												"pos": "801",
												"length": "32",
												"children": [
													{
														"type": "240400",
														"typeLabel": "FunCall",
														"pos": "801",
														"length": "31",
														"children": [
															{
																"type": "240100",
																"typeLabel": "Ident",
																"pos": "801",
																"length": "6",
																"children": [
																	{
																		"type": "480000",
																		"label": "strcpy",
																		"typeLabel": "GenericString",
																		"pos": "801",
																		"length": "6",
																		"children": []
																	}
																]
															},
															{
																"type": "470000",
																"typeLabel": "GenericList",
																"pos": "807",
																"length": "25",
																"children": [
																	{
																		"type": "20100",
																		"typeLabel": "Left",
																		"pos": "808",
																		"length": "9",
																		"children": [
																			{
																				"type": "240100",
																				"typeLabel": "Ident",
																				"pos": "808",
																				"length": "9",
																				"children": [
																					{
																						"type": "480000",
																						"label": "indexfile",
																						"typeLabel": "GenericString",
																						"pos": "808",
																						"length": "9",
																						"children": []
																					}
																				]
																			}
																		]
																	},
																	{
																		"type": "20100",
																		"typeLabel": "Left",
																		"pos": "819",
																		"length": "12",
																		"children": [
																			{
																				"type": "241400",
																				"typeLabel": "RecordPtAccess",
																				"pos": "819",
																				"length": "12",
																				"children": [
																					{
																						"type": "240100",
																						"typeLabel": "Ident",
																						"pos": "819",
																						"length": "2",
																						"children": [
																							{
																								"type": "480000",
																								"label": "cf",
																								"typeLabel": "GenericString",
																								"pos": "819",
																								"length": "2",
																								"children": []
																							}
																						]
																					},
																					{
																						"type": "480000",
																						"label": "lockfile",
																						"typeLabel": "GenericString",
																						"pos": "823",
																						"length": "8",
																						"children": []
																					}
																				]
																			}
																		]
																	}
																]
															}
														]
													},
													{
														"type": "480000",
														"label": ";",
														"typeLabel": "GenericString",
														"pos": "832",
														"length": "1",
														"children": []
													}
												]
											}
										]
									},
									{
										"type": "260300",
										"typeLabel": "ExprStatement",
										"pos": "835",
										"length": "26",
										"children": [
											{
												"type": "290100",
												"typeLabel": "Some",
												"pos": "835",
												"length": "26",
												"children": [
													{
														"type": "240700",
														"typeLabel": "Assignment",
														"pos": "835",
														"length": "25",
														"children": [
															{
																"type": "240100",
																"typeLabel": "Ident",
																"pos": "835",
																"length": "1",
																"children": [
																	{
																		"type": "480000",
																		"label": "i",
																		"typeLabel": "GenericString",
																		"pos": "835",
																		"length": "1",
																		"children": []
																	}
																]
															},
															{
																"type": "480000",
																"label": "=",
																"typeLabel": "GenericString",
																"pos": "837",
																"length": "1",
																"children": []
															},
															{
																"type": "241100",
																"typeLabel": "Binary",
																"pos": "839",
																"length": "21",
																"children": [
																	{
																		"type": "240400",
																		"typeLabel": "FunCall",
																		"pos": "839",
																		"length": "17",
																		"children": [
																			{
																				"type": "240100",
																				"typeLabel": "Ident",
																				"pos": "839",
																				"length": "6",
																				"children": [
																					{
																						"type": "480000",
																						"label": "strlen",
																						"typeLabel": "GenericString",
																						"pos": "839",
																						"length": "6",
																						"children": []
																					}
																				]
																			},
																			{
																				"type": "470000",
																				"typeLabel": "GenericList",
																				"pos": "845",
																				"length": "11",
																				"children": [
																					{
																						"type": "20100",
																						"typeLabel": "Left",
																						"pos": "846",
																						"length": "9",
																						"children": [
																							{
																								"type": "240100",
																								"typeLabel": "Ident",
																								"pos": "846",
																								"length": "9",
																								"children": [
																									{
																										"type": "480000",
																										"label": "indexfile",
																										"typeLabel": "GenericString",
																										"pos": "846",
																										"length": "9",
																										"children": []
																									}
																								]
																							}
																						]
																					}
																				]
																			}
																		]
																	},
																	{
																		"type": "480000",
																		"label": "-",
																		"typeLabel": "GenericString",
																		"pos": "857",
																		"length": "1",
																		"children": []
																	},
																	{
																		"type": "240200",
																		"label": "5",
																		"typeLabel": "Constant",
																		"pos": "859",
																		"length": "1",
																		"children": []
																	}
																]
															}
														]
													},
													{
														"type": "480000",
														"label": ";",
														"typeLabel": "GenericString",
														"pos": "860",
														"length": "1",
														"children": []
													}
												]
											}
										]
									},
									{
										"type": "260300",
										"typeLabel": "ExprStatement",
										"pos": "875",
										"length": "17",
										"children": [
											{
												"type": "290100",
												"typeLabel": "Some",
												"pos": "875",
												"length": "17",
												"children": [
													{
														"type": "240700",
														"typeLabel": "Assignment",
														"pos": "875",
														"length": "16",
														"children": [
															{
																"type": "241200",
																"typeLabel": "ArrayAccess",
																"pos": "875",
																"length": "12",
																"children": [
																	{
																		"type": "240100",
																		"typeLabel": "Ident",
																		"pos": "875",
																		"length": "9",
																		"children": [
																			{
																				"type": "480000",
																				"label": "indexfile",
																				"typeLabel": "GenericString",
																				"pos": "875",
																				"length": "9",
																				"children": []
																			}
																		]
																	},
																	{
																		"type": "240100",
																		"typeLabel": "Ident",
																		"pos": "885",
																		"length": "1",
																		"children": [
																			{
																				"type": "480000",
																				"label": "i",
																				"typeLabel": "GenericString",
																				"pos": "885",
																				"length": "1",
																				"children": []
																			}
																		]
																	}
																]
															},
															{
																"type": "480000",
																"label": "=",
																"typeLabel": "GenericString",
																"pos": "888",
																"length": "1",
																"children": []
															},
															{
																"type": "240200",
																"label": "0",
																"typeLabel": "Constant",
																"pos": "890",
																"length": "1",
																"children": []
															}
														]
													},
													{
														"type": "480000",
														"label": ";",
														"typeLabel": "GenericString",
														"pos": "891",
														"length": "1",
														"children": []
													}
												]
											}
										]
									},
									{
										"type": "260300",
										"typeLabel": "ExprStatement",
										"pos": "894",
										"length": "36",
										"children": [
											{
												"type": "290100",
												"typeLabel": "Some",
												"pos": "894",
												"length": "36",
												"children": [
													{
														"type": "240700",
														"typeLabel": "Assignment",
														"pos": "894",
														"length": "35",
														"children": [
															{
																"type": "240100",
																"typeLabel": "Ident",
																"pos": "894",
																"length": "1",
																"children": [
																	{
																		"type": "480000",
																		"label": "i",
																		"typeLabel": "GenericString",
																		"pos": "894",
																		"length": "1",
																		"children": []
																	}
																]
															},
															{
																"type": "480000",
																"label": "=",
																"typeLabel": "GenericString",
																"pos": "896",
																"length": "1",
																"children": []
															},
															{
																"type": "240400",
																"typeLabel": "FunCall",
																"pos": "898",
																"length": "31",
																"children": [
																	{
																		"type": "240100",
																		"typeLabel": "Ident",
																		"pos": "898",
																		"length": "6",
																		"children": [
																			{
																				"type": "480000",
																				"label": "rename",
																				"typeLabel": "GenericString",
																				"pos": "898",
																				"length": "6",
																				"children": []
																			}
																		]
																	},
																	{
																		"type": "470000",
																		"typeLabel": "GenericList",
																		"pos": "904",
																		"length": "25",
																		"children": [
																			{
																				"type": "20100",
																				"typeLabel": "Left",
																				"pos": "905",
																				"length": "12",
																				"children": [
																					{
																						"type": "241400",
																						"typeLabel": "RecordPtAccess",
																						"pos": "905",
																						"length": "12",
																						"children": [
																							{
																								"type": "240100",
																								"typeLabel": "Ident",
																								"pos": "905",
																								"length": "2",
																								"children": [
																									{
																										"type": "480000",
																										"label": "cf",
																										"typeLabel": "GenericString",
																										"pos": "905",
																										"length": "2",
																										"children": []
																									}
																								]
																							},
																							{
																								"type": "480000",
																								"label": "lockfile",
																								"typeLabel": "GenericString",
																								"pos": "909",
																								"length": "8",
																								"children": []
																							}
																						]
																					}
																				]
																			},
																			{
																				"type": "20100",
																				"typeLabel": "Left",
																				"pos": "919",
																				"length": "9",
																				"children": [
																					{
																						"type": "240100",
																						"typeLabel": "Ident",
																						"pos": "919",
																						"length": "9",
																						"children": [
																							{
																								"type": "480000",
																								"label": "indexfile",
																								"typeLabel": "GenericString",
																								"pos": "919",
																								"length": "9",
																								"children": []
																							}
																						]
																					}
																				]
																			}
																		]
																	}
																]
															}
														]
													},
													{
														"type": "480000",
														"label": ";",
														"typeLabel": "GenericString",
														"pos": "929",
														"length": "1",
														"children": []
													}
												]
											}
										]
									},
									{
										"type": "260300",
										"typeLabel": "ExprStatement",
										"pos": "932",
										"length": "20",
										"children": [
											{
												"type": "290100",
												"typeLabel": "Some",
												"pos": "932",
												"length": "20",
												"children": [
													{
														"type": "240700",
														"typeLabel": "Assignment",
														"pos": "932",
														"length": "19",
														"children": [
															{
																"type": "241200",
																"typeLabel": "ArrayAccess",
																"pos": "932",
																"length": "15",
																"children": [
																	{
																		"type": "241400",
																		"typeLabel": "RecordPtAccess",
																		"pos": "932",
																		"length": "12",
																		"children": [
																			{
																				"type": "240100",
																				"typeLabel": "Ident",
																				"pos": "932",
																				"length": "2",
																				"children": [
																					{
																						"type": "480000",
																						"label": "cf",
																						"typeLabel": "GenericString",
																						"pos": "932",
																						"length": "2",
																						"children": []
																					}
																				]
																			},
																			{
																				"type": "480000",
																				"label": "lockfile",
																				"typeLabel": "GenericString",
																				"pos": "936",
																				"length": "8",
																				"children": []
																			}
																		]
																	},
																	{
																		"type": "240200",
																		"label": "0",
																		"typeLabel": "Constant",
																		"pos": "945",
																		"length": "1",
																		"children": []
																	}
																]
															},
															{
																"type": "480000",
																"label": "=",
																"typeLabel": "GenericString",
																"pos": "948",
																"length": "1",
																"children": []
															},
															{
																"type": "240200",
																"label": "0",
																"typeLabel": "Constant",
																"pos": "950",
																"length": "1",
																"children": []
															}
														]
													},
													{
														"type": "480000",
														"label": ";",
														"typeLabel": "GenericString",
														"pos": "951",
														"length": "1",
														"children": []
													}
												]
											}
										]
									},
									{
										"type": "280200",
										"typeLabel": "ReturnExpr",
										"pos": "954",
										"length": "9",
										"children": [
											{
												"type": "240100",
												"typeLabel": "Ident",
												"pos": "961",
												"length": "1",
												"children": [
													{
														"type": "480000",
														"label": "i",
														"typeLabel": "GenericString",
														"pos": "961",
														"length": "1",
														"children": []
													}
												]
											}
										]
									}
								]
							}
						]
					}
				]
			},
			{
				"type": "450200",
				"typeLabel": "Definition",
				"pos": "967",
				"length": "119",
				"children": [
					{
						"type": "380000",
						"typeLabel": "Definition",
						"pos": "967",
						"length": "119",
						"children": [
							{
								"type": "200000",
								"typeLabel": "ParamList",
								"pos": "991",
								"length": "23",
								"children": [
									{
										"type": "220100",
										"typeLabel": "ParameterType",
										"pos": "992",
										"length": "21",
										"children": [
											{
												"type": "480000",
												"label": "cf",
												"typeLabel": "GenericString",
												"pos": "1011",
												"length": "2",
												"children": []
											}
										]
									}
								]
							},
							{
								"type": "480000",
								"label": "rollback_index_file",
								"typeLabel": "GenericString",
								"pos": "972",
								"length": "19",
								"children": []
							},
							{
								"type": "330000",
								"typeLabel": "Compound",
								"pos": "1015",
								"length": "71",
								"children": [
									{
										"type": "300100",
										"typeLabel": "If",
										"pos": "1018",
										"length": "44",
										"children": [
											{
												"type": "490100",
												"typeLabel": "IfToken",
												"pos": "1018",
												"length": "2",
												"children": []
											},
											{
												"type": "241200",
												"typeLabel": "ArrayAccess",
												"pos": "1022",
												"length": "15",
												"children": [
													{
														"type": "241400",
														"typeLabel": "RecordPtAccess",
														"pos": "1022",
														"length": "12",
														"children": [
															{
																"type": "240100",
																"typeLabel": "Ident",
																"pos": "1022",
																"length": "2",
																"children": [
																	{
																		"type": "480000",
																		"label": "cf",
																		"typeLabel": "GenericString",
																		"pos": "1022",
																		"length": "2",
																		"children": []
																	}
																]
															},
															{
																"type": "480000",
																"label": "lockfile",
																"typeLabel": "GenericString",
																"pos": "1026",
																"length": "8",
																"children": []
															}
														]
													},
													{
														"type": "240200",
														"label": "0",
														"typeLabel": "Constant",
														"pos": "1035",
														"length": "1",
														"children": []
													}
												]
											},
											{
												"type": "260300",
												"typeLabel": "ExprStatement",
												"pos": "1041",
												"length": "21",
												"children": [
													{
														"type": "290100",
														"typeLabel": "Some",
														"pos": "1041",
														"length": "21",
														"children": [
															{
																"type": "240400",
																"typeLabel": "FunCall",
																"pos": "1041",
																"length": "20",
																"children": [
																	{
																		"type": "240100",
																		"typeLabel": "Ident",
																		"pos": "1041",
																		"length": "6",
																		"children": [
																			{
																				"type": "480000",
																				"label": "unlink",
																				"typeLabel": "GenericString",
																				"pos": "1041",
																				"length": "6",
																				"children": []
																			}
																		]
																	},
																	{
																		"type": "470000",
																		"typeLabel": "GenericList",
																		"pos": "1047",
																		"length": "14",
																		"children": [
																			{
																				"type": "20100",
																				"typeLabel": "Left",
																				"pos": "1048",
																				"length": "12",
																				"children": [
																					{
																						"type": "241400",
																						"typeLabel": "RecordPtAccess",
																						"pos": "1048",
																						"length": "12",
																						"children": [
																							{
																								"type": "240100",
																								"typeLabel": "Ident",
																								"pos": "1048",
																								"length": "2",
																								"children": [
																									{
																										"type": "480000",
																										"label": "cf",
																										"typeLabel": "GenericString",
																										"pos": "1048",
																										"length": "2",
																										"children": []
																									}
																								]
																							},
																							{
																								"type": "480000",
																								"label": "lockfile",
																								"typeLabel": "GenericString",
																								"pos": "1052",
																								"length": "8",
																								"children": []
																							}
																						]
																					}
																				]
																			}
																		]
																	}
																]
															},
															{
																"type": "480000",
																"label": ";",
																"typeLabel": "GenericString",
																"pos": "1061",
																"length": "1",
																"children": []
															}
														]
													}
												]
											}
										]
									},
									{
										"type": "260300",
										"typeLabel": "ExprStatement",
										"pos": "1064",
										"length": "20",
										"children": [
											{
												"type": "290100",
												"typeLabel": "Some",
												"pos": "1064",
												"length": "20",
												"children": [
													{
														"type": "240700",
														"typeLabel": "Assignment",
														"pos": "1064",
														"length": "19",
														"children": [
															{
																"type": "241200",
																"typeLabel": "ArrayAccess",
																"pos": "1064",
																"length": "15",
																"children": [
																	{
																		"type": "241400",
																		"typeLabel": "RecordPtAccess",
																		"pos": "1064",
																		"length": "12",
																		"children": [
																			{
																				"type": "240100",
																				"typeLabel": "Ident",
																				"pos": "1064",
																				"length": "2",
																				"children": [
																					{
																						"type": "480000",
																						"label": "cf",
																						"typeLabel": "GenericString",
																						"pos": "1064",
																						"length": "2",
																						"children": []
																					}
																				]
																			},
																			{
																				"type": "480000",
																				"label": "lockfile",
																				"typeLabel": "GenericString",
																				"pos": "1068",
																				"length": "8",
																				"children": []
																			}
																		]
																	},
																	{
																		"type": "240200",
																		"label": "0",
																		"typeLabel": "Constant",
																		"pos": "1077",
																		"length": "1",
																		"children": []
																	}
																]
															},
															{
																"type": "480000",
																"label": "=",
																"typeLabel": "GenericString",
																"pos": "1080",
																"length": "1",
																"children": []
															},
															{
																"type": "240200",
																"label": "0",
																"typeLabel": "Constant",
																"pos": "1082",
																"length": "1",
																"children": []
															}
														]
													},
													{
														"type": "480000",
														"label": ";",
														"typeLabel": "GenericString",
														"pos": "1083",
														"length": "1",
														"children": []
													}
												]
											}
										]
									}
								]
							}
						]
					}
				]
			},
			{
				"type": "450800",
				"typeLabel": "FinalDef",
				"pos": "1088",
				"length": "0",
				"children": []
			}
		]
	}
}