{
  "matches": [
    {
      "src": 776,
      "dest": 799
    },
    {
      "src": 238,
      "dest": 238
    },
    {
      "src": 782,
      "dest": 805
    },
    {
      "src": 561,
      "dest": 561
    },
    {
      "src": 334,
      "dest": 334
    },
    {
      "src": 116,
      "dest": 116
    },
    {
      "src": 483,
      "dest": 483
    },
    {
      "src": 18,
      "dest": 18
    },
    {
      "src": 378,
      "dest": 378
    },
    {
      "src": 420,
      "dest": 420
    },
    {
      "src": 871,
      "dest": 895
    },
    {
      "src": 224,
      "dest": 224
    },
    {
      "src": 326,
      "dest": 326
    },
    {
      "src": 201,
      "dest": 201
    },
    {
      "src": 97,
      "dest": 97
    },
    {
      "src": 677,
      "dest": 677
    },
    {
      "src": 171,
      "dest": 171
    },
    {
      "src": 89,
      "dest": 89
    },
    {
      "src": 588,
      "dest": 588
    },
    {
      "src": 280,
      "dest": 280
    },
    {
      "src": 839,
      "dest": 863
    },
    {
      "src": 513,
      "dest": 513
    },
    {
      "src": 225,
      "dest": 225
    },
    {
      "src": 343,
      "dest": 343
    },
    {
      "src": 842,
      "dest": 866
    },
    {
      "src": 372,
      "dest": 372
    },
    {
      "src": 638,
      "dest": 638
    },
    {
      "src": 271,
      "dest": 271
    },
    {
      "src": 541,
      "dest": 541
    },
    {
      "src": 72,
      "dest": 72
    },
    {
      "src": 829,
      "dest": 853
    },
    {
      "src": 293,
      "dest": 293
    },
    {
      "src": 150,
      "dest": 150
    },
    {
      "src": 388,
      "dest": 388
    },
    {
      "src": 129,
      "dest": 129
    },
    {
      "src": 333,
      "dest": 333
    },
    {
      "src": 692,
      "dest": 715
    },
    {
      "src": 424,
      "dest": 424
    },
    {
      "src": 664,
      "dest": 664
    },
    {
      "src": 680,
      "dest": 703
    },
    {
      "src": 735,
      "dest": 758
    },
    {
      "src": 158,
      "dest": 158
    },
    {
      "src": 702,
      "dest": 725
    },
    {
      "src": 564,
      "dest": 564
    },
    {
      "src": 524,
      "dest": 524
    },
    {
      "src": 809,
      "dest": 833
    },
    {
      "src": 557,
      "dest": 557
    },
    {
      "src": 747,
      "dest": 770
    },
    {
      "src": 587,
      "dest": 587
    },
    {
      "src": 799,
      "dest": 822
    },
    {
      "src": 723,
      "dest": 746
    },
    {
      "src": 715,
      "dest": 738
    },
    {
      "src": 157,
      "dest": 157
    },
    {
      "src": 825,
      "dest": 849
    },
    {
      "src": 601,
      "dest": 601
    },
    {
      "src": 518,
      "dest": 518
    },
    {
      "src": 64,
      "dest": 64
    },
    {
      "src": 858,
      "dest": 882
    },
    {
      "src": 808,
      "dest": 832
    },
    {
      "src": 846,
      "dest": 870
    },
    {
      "src": 624,
      "dest": 624
    },
    {
      "src": 870,
      "dest": 894
    },
    {
      "src": 533,
      "dest": 533
    },
    {
      "src": 263,
      "dest": 263
    },
    {
      "src": 169,
      "dest": 169
    },
    {
      "src": 197,
      "dest": 197
    },
    {
      "src": 645,
      "dest": 645
    },
    {
      "src": 356,
      "dest": 356
    },
    {
      "src": 606,
      "dest": 606
    },
    {
      "src": 41,
      "dest": 41
    },
    {
      "src": 59,
      "dest": 59
    },
    {
      "src": 53,
      "dest": 53
    },
    {
      "src": 309,
      "dest": 309
    },
    {
      "src": 400,
      "dest": 400
    },
    {
      "src": 875,
      "dest": 899
    },
    {
      "src": 812,
      "dest": 836
    },
    {
      "src": 700,
      "dest": 723
    },
    {
      "src": 455,
      "dest": 455
    },
    {
      "src": 493,
      "dest": 493
    },
    {
      "src": 850,
      "dest": 874
    },
    {
      "src": 731,
      "dest": 754
    },
    {
      "src": 287,
      "dest": 287
    },
    {
      "src": 330,
      "dest": 330
    },
    {
      "src": 24,
      "dest": 24
    },
    {
      "src": 744,
      "dest": 767
    },
    {
      "src": 461,
      "dest": 461
    },
    {
      "src": 496,
      "dest": 496
    },
    {
      "src": 284,
      "dest": 284
    },
    {
      "src": 633,
      "dest": 633
    },
    {
      "src": 801,
      "dest": 824
    },
    {
      "src": 556,
      "dest": 556
    },
    {
      "src": 87,
      "dest": 87
    },
    {
      "src": 265,
      "dest": 265
    },
    {
      "src": 788,
      "dest": 811
    },
    {
      "src": 831,
      "dest": 855
    },
    {
      "src": 340,
      "dest": 340
    },
    {
      "src": 863,
      "dest": 887
    },
    {
      "src": 79,
      "dest": 79
    },
    {
      "src": 876,
      "dest": 900
    },
    {
      "src": 222,
      "dest": 222
    },
    {
      "src": 616,
      "dest": 616
    },
    {
      "src": 12,
      "dest": 12
    },
    {
      "src": 625,
      "dest": 625
    },
    {
      "src": 148,
      "dest": 148
    },
    {
      "src": 439,
      "dest": 439
    },
    {
      "src": 853,
      "dest": 877
    },
    {
      "src": 653,
      "dest": 653
    },
    {
      "src": 438,
      "dest": 438
    },
    {
      "src": 390,
      "dest": 390
    },
    {
      "src": 617,
      "dest": 617
    },
    {
      "src": 44,
      "dest": 44
    },
    {
      "src": 74,
      "dest": 74
    },
    {
      "src": 394,
      "dest": 394
    },
    {
      "src": 837,
      "dest": 861
    },
    {
      "src": 242,
      "dest": 242
    },
    {
      "src": 676,
      "dest": 676
    },
    {
      "src": 254,
      "dest": 254
    },
    {
      "src": 202,
      "dest": 202
    },
    {
      "src": 726,
      "dest": 749
    },
    {
      "src": 602,
      "dest": 602
    },
    {
      "src": 275,
      "dest": 275
    },
    {
      "src": 552,
      "dest": 552
    },
    {
      "src": 803,
      "dest": 826
    },
    {
      "src": 187,
      "dest": 187
    },
    {
      "src": 781,
      "dest": 804
    },
    {
      "src": 522,
      "dest": 522
    },
    {
      "src": 21,
      "dest": 21
    },
    {
      "src": 651,
      "dest": 651
    },
    {
      "src": 110,
      "dest": 110
    },
    {
      "src": 445,
      "dest": 445
    },
    {
      "src": 797,
      "dest": 820
    },
    {
      "src": 629,
      "dest": 629
    },
    {
      "src": 646,
      "dest": 646
    },
    {
      "src": 232,
      "dest": 232
    },
    {
      "src": 451,
      "dest": 451
    },
    {
      "src": 464,
      "dest": 464
    },
    {
      "src": 542,
      "dest": 542
    },
    {
      "src": 298,
      "dest": 298
    },
    {
      "src": 634,
      "dest": 634
    },
    {
      "src": 180,
      "dest": 180
    },
    {
      "src": 789,
      "dest": 812
    },
    {
      "src": 436,
      "dest": 436
    },
    {
      "src": 609,
      "dest": 609
    },
    {
      "src": 498,
      "dest": 498
    },
    {
      "src": 717,
      "dest": 740
    },
    {
      "src": 399,
      "dest": 399
    },
    {
      "src": 54,
      "dest": 54
    },
    {
      "src": 7,
      "dest": 7
    },
    {
      "src": 15,
      "dest": 15
    },
    {
      "src": 184,
      "dest": 184
    },
    {
      "src": 217,
      "dest": 217
    },
    {
      "src": 55,
      "dest": 55
    },
    {
      "src": 531,
      "dest": 531
    },
    {
      "src": 851,
      "dest": 875
    },
    {
      "src": 580,
      "dest": 580
    },
    {
      "src": 91,
      "dest": 91
    },
    {
      "src": 401,
      "dest": 401
    },
    {
      "src": 583,
      "dest": 583
    },
    {
      "src": 426,
      "dest": 426
    },
    {
      "src": 320,
      "dest": 320
    },
    {
      "src": 117,
      "dest": 117
    },
    {
      "src": 60,
      "dest": 60
    },
    {
      "src": 560,
      "dest": 560
    },
    {
      "src": 828,
      "dest": 852
    },
    {
      "src": 648,
      "dest": 648
    },
    {
      "src": 509,
      "dest": 509
    },
    {
      "src": 599,
      "dest": 599
    },
    {
      "src": 530,
      "dest": 530
    },
    {
      "src": 273,
      "dest": 273
    },
    {
      "src": 873,
      "dest": 897
    },
    {
      "src": 706,
      "dest": 729
    },
    {
      "src": 244,
      "dest": 244
    },
    {
      "src": 19,
      "dest": 19
    },
    {
      "src": 627,
      "dest": 627
    },
    {
      "src": 93,
      "dest": 93
    },
    {
      "src": 315,
      "dest": 315
    },
    {
      "src": 325,
      "dest": 325
    },
    {
      "src": 266,
      "dest": 266
    },
    {
      "src": 174,
      "dest": 174
    },
    {
      "src": 446,
      "dest": 446
    },
    {
      "src": 880,
      "dest": 904
    },
    {
      "src": 520,
      "dest": 520
    },
    {
      "src": 176,
      "dest": 176
    },
    {
      "src": 264,
      "dest": 264
    },
    {
      "src": 69,
      "dest": 69
    },
    {
      "src": 452,
      "dest": 452
    },
    {
      "src": 503,
      "dest": 503
    },
    {
      "src": 278,
      "dest": 278
    },
    {
      "src": 523,
      "dest": 523
    },
    {
      "src": 458,
      "dest": 458
    },
    {
      "src": 780,
      "dest": 803
    },
    {
      "src": 586,
      "dest": 586
    },
    {
      "src": 126,
      "dest": 126
    },
    {
      "src": 86,
      "dest": 86
    },
    {
      "src": 279,
      "dest": 279
    },
    {
      "src": 137,
      "dest": 137
    },
    {
      "src": 482,
      "dest": 482
    },
    {
      "src": 236,
      "dest": 236
    },
    {
      "src": 125,
      "dest": 125
    },
    {
      "src": 441,
      "dest": 441
    },
    {
      "src": 443,
      "dest": 443
    },
    {
      "src": 322,
      "dest": 322
    },
    {
      "src": 823,
      "dest": 847
    },
    {
      "src": 149,
      "dest": 149
    },
    {
      "src": 212,
      "dest": 212
    },
    {
      "src": 761,
      "dest": 784
    },
    {
      "src": 448,
      "dest": 448
    },
    {
      "src": 665,
      "dest": 665
    },
    {
      "src": 360,
      "dest": 360
    },
    {
      "src": 412,
      "dest": 412
    },
    {
      "src": 743,
      "dest": 766
    },
    {
      "src": 404,
      "dest": 404
    },
    {
      "src": 193,
      "dest": 193
    },
    {
      "src": 190,
      "dest": 190
    },
    {
      "src": 510,
      "dest": 510
    },
    {
      "src": 574,
      "dest": 574
    },
    {
      "src": 857,
      "dest": 881
    },
    {
      "src": 685,
      "dest": 708
    },
    {
      "src": 882,
      "dest": 906
    },
    {
      "src": 660,
      "dest": 679
    },
    {
      "src": 100,
      "dest": 100
    },
    {
      "src": 361,
      "dest": 361
    },
    {
      "src": 376,
      "dest": 376
    },
    {
      "src": 311,
      "dest": 311
    },
    {
      "src": 841,
      "dest": 865
    },
    {
      "src": 754,
      "dest": 777
    },
    {
      "src": 430,
      "dest": 430
    },
    {
      "src": 85,
      "dest": 85
    },
    {
      "src": 71,
      "dest": 71
    },
    {
      "src": 65,
      "dest": 65
    },
    {
      "src": 338,
      "dest": 338
    },
    {
      "src": 798,
      "dest": 821
    },
    {
      "src": 477,
      "dest": 477
    },
    {
      "src": 473,
      "dest": 473
    },
    {
      "src": 559,
      "dest": 559
    },
    {
      "src": 547,
      "dest": 547
    },
    {
      "src": 752,
      "dest": 775
    },
    {
      "src": 705,
      "dest": 728
    },
    {
      "src": 883,
      "dest": 907
    },
    {
      "src": 800,
      "dest": 823
    },
    {
      "src": 159,
      "dest": 159
    },
    {
      "src": 749,
      "dest": 772
    },
    {
      "src": 34,
      "dest": 34
    },
    {
      "src": 611,
      "dest": 611
    },
    {
      "src": 138,
      "dest": 138
    },
    {
      "src": 485,
      "dest": 485
    },
    {
      "src": 836,
      "dest": 860
    },
    {
      "src": 250,
      "dest": 250
    },
    {
      "src": 17,
      "dest": 17
    },
    {
      "src": 579,
      "dest": 579
    },
    {
      "src": 352,
      "dest": 352
    },
    {
      "src": 95,
      "dest": 95
    },
    {
      "src": 94,
      "dest": 94
    },
    {
      "src": 10,
      "dest": 10
    },
    {
      "src": 539,
      "dest": 539
    },
    {
      "src": 819,
      "dest": 843
    },
    {
      "src": 152,
      "dest": 152
    },
    {
      "src": 223,
      "dest": 223
    },
    {
      "src": 718,
      "dest": 741
    },
    {
      "src": 391,
      "dest": 391
    },
    {
      "src": 262,
      "dest": 262
    },
    {
      "src": 421,
      "dest": 421
    },
    {
      "src": 678,
      "dest": 678
    },
    {
      "src": 327,
      "dest": 327
    },
    {
      "src": 610,
      "dest": 610
    },
    {
      "src": 682,
      "dest": 705
    },
    {
      "src": 729,
      "dest": 752
    },
    {
      "src": 679,
      "dest": 702
    },
    {
      "src": 582,
      "dest": 582
    },
    {
      "src": 810,
      "dest": 834
    },
    {
      "src": 66,
      "dest": 66
    },
    {
      "src": 82,
      "dest": 82
    },
    {
      "src": 29,
      "dest": 29
    },
    {
      "src": 112,
      "dest": 112
    },
    {
      "src": 210,
      "dest": 210
    },
    {
      "src": 490,
      "dest": 490
    },
    {
      "src": 256,
      "dest": 256
    },
    {
      "src": 741,
      "dest": 764
    },
    {
      "src": 584,
      "dest": 584
    },
    {
      "src": 341,
      "dest": 341
    },
    {
      "src": 121,
      "dest": 121
    },
    {
      "src": 775,
      "dest": 798
    },
    {
      "src": 308,
      "dest": 308
    },
    {
      "src": 77,
      "dest": 77
    },
    {
      "src": 843,
      "dest": 867
    },
    {
      "src": 96,
      "dest": 96
    },
    {
      "src": 615,
      "dest": 615
    },
    {
      "src": 432,
      "dest": 432
    },
    {
      "src": 216,
      "dest": 216
    },
    {
      "src": 466,
      "dest": 466
    },
    {
      "src": 716,
      "dest": 739
    },
    {
      "src": 131,
      "dest": 131
    },
    {
      "src": 351,
      "dest": 351
    },
    {
      "src": 437,
      "dest": 437
    },
    {
      "src": 637,
      "dest": 637
    },
    {
      "src": 306,
      "dest": 306
    },
    {
      "src": 874,
      "dest": 898
    },
    {
      "src": 8,
      "dest": 8
    },
    {
      "src": 821,
      "dest": 845
    },
    {
      "src": 444,
      "dest": 444
    },
    {
      "src": 869,
      "dest": 893
    },
    {
      "src": 300,
      "dest": 300
    },
    {
      "src": 295,
      "dest": 295
    },
    {
      "src": 725,
      "dest": 748
    },
    {
      "src": 386,
      "dest": 386
    },
    {
      "src": 614,
      "dest": 614
    },
    {
      "src": 794,
      "dest": 817
    },
    {
      "src": 83,
      "dest": 83
    },
    {
      "src": 70,
      "dest": 70
    },
    {
      "src": 594,
      "dest": 594
    },
    {
      "src": 566,
      "dest": 566
    },
    {
      "src": 191,
      "dest": 191
    },
    {
      "src": 598,
      "dest": 598
    },
    {
      "src": 472,
      "dest": 472
    },
    {
      "src": 28,
      "dest": 28
    },
    {
      "src": 332,
      "dest": 332
    },
    {
      "src": 51,
      "dest": 51
    },
    {
      "src": 529,
      "dest": 529
    },
    {
      "src": 283,
      "dest": 283
    },
    {
      "src": 691,
      "dest": 714
    },
    {
      "src": 267,
      "dest": 267
    },
    {
      "src": 486,
      "dest": 486
    },
    {
      "src": 270,
      "dest": 270
    },
    {
      "src": 45,
      "dest": 45
    },
    {
      "src": 14,
      "dest": 14
    },
    {
      "src": 811,
      "dest": 835
    },
    {
      "src": 866,
      "dest": 890
    },
    {
      "src": 738,
      "dest": 761
    },
    {
      "src": 535,
      "dest": 535
    },
    {
      "src": 313,
      "dest": 313
    },
    {
      "src": 364,
      "dest": 364
    },
    {
      "src": 543,
      "dest": 543
    },
    {
      "src": 704,
      "dest": 727
    },
    {
      "src": 813,
      "dest": 837
    },
    {
      "src": 241,
      "dest": 241
    },
    {
      "src": 303,
      "dest": 303
    },
    {
      "src": 581,
      "dest": 581
    },
    {
      "src": 878,
      "dest": 902
    },
    {
      "src": 196,
      "dest": 196
    },
    {
      "src": 281,
      "dest": 281
    },
    {
      "src": 179,
      "dest": 179
    },
    {
      "src": 43,
      "dest": 43
    },
    {
      "src": 286,
      "dest": 286
    },
    {
      "src": 80,
      "dest": 80
    },
    {
      "src": 585,
      "dest": 585
    },
    {
      "src": 467,
      "dest": 467
    },
    {
      "src": 727,
      "dest": 750
    },
    {
      "src": 248,
      "dest": 248
    },
    {
      "src": 649,
      "dest": 649
    },
    {
      "src": 165,
      "dest": 165
    },
    {
      "src": 709,
      "dest": 732
    },
    {
      "src": 495,
      "dest": 495
    },
    {
      "src": 186,
      "dest": 186
    },
    {
      "src": 658,
      "dest": 658
    },
    {
      "src": 161,
      "dest": 161
    },
    {
      "src": 694,
      "dest": 717
    },
    {
      "src": 163,
      "dest": 163
    },
    {
      "src": 576,
      "dest": 576
    },
    {
      "src": 772,
      "dest": 795
    },
    {
      "src": 474,
      "dest": 474
    },
    {
      "src": 746,
      "dest": 769
    },
    {
      "src": 151,
      "dest": 151
    },
    {
      "src": 540,
      "dest": 540
    },
    {
      "src": 591,
      "dest": 591
    },
    {
      "src": 865,
      "dest": 889
    },
    {
      "src": 695,
      "dest": 718
    },
    {
      "src": 397,
      "dest": 397
    },
    {
      "src": 136,
      "dest": 136
    },
    {
      "src": 807,
      "dest": 831
    },
    {
      "src": 272,
      "dest": 272
    },
    {
      "src": 84,
      "dest": 84
    },
    {
      "src": 76,
      "dest": 76
    },
    {
      "src": 481,
      "dest": 481
    },
    {
      "src": 200,
      "dest": 200
    },
    {
      "src": 299,
      "dest": 299
    },
    {
      "src": 198,
      "dest": 198
    },
    {
      "src": 396,
      "dest": 396
    },
    {
      "src": 35,
      "dest": 35
    },
    {
      "src": 108,
      "dest": 108
    },
    {
      "src": 13,
      "dest": 13
    },
    {
      "src": 142,
      "dest": 142
    },
    {
      "src": 760,
      "dest": 783
    },
    {
      "src": 336,
      "dest": 336
    },
    {
      "src": 36,
      "dest": 36
    },
    {
      "src": 790,
      "dest": 813
    },
    {
      "src": 670,
      "dest": 670
    },
    {
      "src": 824,
      "dest": 848
    },
    {
      "src": 99,
      "dest": 99
    },
    {
      "src": 433,
      "dest": 433
    },
    {
      "src": 756,
      "dest": 779
    },
    {
      "src": 1,
      "dest": 1
    },
    {
      "src": 656,
      "dest": 656
    },
    {
      "src": 409,
      "dest": 409
    },
    {
      "src": 618,
      "dest": 618
    },
    {
      "src": 9,
      "dest": 9
    },
    {
      "src": 38,
      "dest": 38
    },
    {
      "src": 657,
      "dest": 657
    },
    {
      "src": 639,
      "dest": 639
    },
    {
      "src": 497,
      "dest": 497
    },
    {
      "src": 107,
      "dest": 107
    },
    {
      "src": 526,
      "dest": 526
    },
    {
      "src": 771,
      "dest": 794
    },
    {
      "src": 644,
      "dest": 644
    },
    {
      "src": 119,
      "dest": 119
    },
    {
      "src": 30,
      "dest": 30
    },
    {
      "src": 362,
      "dest": 362
    },
    {
      "src": 46,
      "dest": 46
    },
    {
      "src": 860,
      "dest": 884
    },
    {
      "src": 447,
      "dest": 447
    },
    {
      "src": 435,
      "dest": 435
    },
    {
      "src": 553,
      "dest": 553
    },
    {
      "src": 742,
      "dest": 765
    },
    {
      "src": 285,
      "dest": 285
    },
    {
      "src": 182,
      "dest": 182
    },
    {
      "src": 221,
      "dest": 221
    },
    {
      "src": 240,
      "dest": 240
    },
    {
      "src": 392,
      "dest": 392
    },
    {
      "src": 132,
      "dest": 132
    },
    {
      "src": 81,
      "dest": 81
    },
    {
      "src": 827,
      "dest": 851
    },
    {
      "src": 297,
      "dest": 297
    },
    {
      "src": 181,
      "dest": 181
    },
    {
      "src": 312,
      "dest": 312
    },
    {
      "src": 768,
      "dest": 791
    },
    {
      "src": 713,
      "dest": 736
    },
    {
      "src": 194,
      "dest": 194
    },
    {
      "src": 164,
      "dest": 164
    },
    {
      "src": 259,
      "dest": 259
    },
    {
      "src": 463,
      "dest": 463
    },
    {
      "src": 115,
      "dest": 115
    },
    {
      "src": 6,
      "dest": 6
    },
    {
      "src": 292,
      "dest": 292
    },
    {
      "src": 418,
      "dest": 418
    },
    {
      "src": 572,
      "dest": 572
    },
    {
      "src": 215,
      "dest": 215
    },
    {
      "src": 257,
      "dest": 257
    },
    {
      "src": 521,
      "dest": 521
    },
    {
      "src": 379,
      "dest": 379
    },
    {
      "src": 492,
      "dest": 492
    },
    {
      "src": 593,
      "dest": 593
    },
    {
      "src": 58,
      "dest": 58
    },
    {
      "src": 304,
      "dest": 304
    },
    {
      "src": 753,
      "dest": 776
    },
    {
      "src": 156,
      "dest": 156
    },
    {
      "src": 228,
      "dest": 228
    },
    {
      "src": 11,
      "dest": 11
    },
    {
      "src": 434,
      "dest": 434
    },
    {
      "src": 133,
      "dest": 133
    },
    {
      "src": 375,
      "dest": 375
    },
    {
      "src": 879,
      "dest": 903
    },
    {
      "src": 730,
      "dest": 753
    },
    {
      "src": 802,
      "dest": 825
    },
    {
      "src": 324,
      "dest": 324
    },
    {
      "src": 109,
      "dest": 109
    },
    {
      "src": 237,
      "dest": 237
    },
    {
      "src": 382,
      "dest": 382
    },
    {
      "src": 166,
      "dest": 166
    },
    {
      "src": 699,
      "dest": 722
    },
    {
      "src": 39,
      "dest": 39
    },
    {
      "src": 641,
      "dest": 641
    },
    {
      "src": 251,
      "dest": 251
    },
    {
      "src": 49,
      "dest": 49
    },
    {
      "src": 185,
      "dest": 185
    },
    {
      "src": 751,
      "dest": 774
    },
    {
      "src": 47,
      "dest": 47
    },
    {
      "src": 357,
      "dest": 357
    },
    {
      "src": 168,
      "dest": 168
    },
    {
      "src": 234,
      "dest": 234
    },
    {
      "src": 573,
      "dest": 573
    },
    {
      "src": 608,
      "dest": 608
    },
    {
      "src": 253,
      "dest": 253
    },
    {
      "src": 429,
      "dest": 429
    },
    {
      "src": 777,
      "dest": 800
    },
    {
      "src": 307,
      "dest": 307
    },
    {
      "src": 696,
      "dest": 719
    },
    {
      "src": 247,
      "dest": 247
    },
    {
      "src": 555,
      "dest": 555
    },
    {
      "src": 471,
      "dest": 471
    },
    {
      "src": 380,
      "dest": 380
    },
    {
      "src": 105,
      "dest": 105
    },
    {
      "src": 494,
      "dest": 494
    },
    {
      "src": 465,
      "dest": 465
    },
    {
      "src": 230,
      "dest": 230
    },
    {
      "src": 684,
      "dest": 707
    },
    {
      "src": 820,
      "dest": 844
    },
    {
      "src": 855,
      "dest": 879
    },
    {
      "src": 600,
      "dest": 600
    },
    {
      "src": 370,
      "dest": 370
    },
    {
      "src": 647,
      "dest": 647
    },
    {
      "src": 114,
      "dest": 114
    },
    {
      "src": 475,
      "dest": 475
    },
    {
      "src": 734,
      "dest": 757
    },
    {
      "src": 816,
      "dest": 840
    },
    {
      "src": 33,
      "dest": 33
    },
    {
      "src": 847,
      "dest": 871
    },
    {
      "src": 835,
      "dest": 859
    },
    {
      "src": 37,
      "dest": 37
    },
    {
      "src": 135,
      "dest": 135
    },
    {
      "src": 787,
      "dest": 810
    },
    {
      "src": 674,
      "dest": 674
    },
    {
      "src": 597,
      "dest": 597
    },
    {
      "src": 246,
      "dest": 246
    },
    {
      "src": 5,
      "dest": 5
    },
    {
      "src": 796,
      "dest": 819
    },
    {
      "src": 413,
      "dest": 413
    },
    {
      "src": 78,
      "dest": 78
    },
    {
      "src": 603,
      "dest": 603
    },
    {
      "src": 507,
      "dest": 507
    },
    {
      "src": 56,
      "dest": 56
    },
    {
      "src": 67,
      "dest": 67
    },
    {
      "src": 538,
      "dest": 538
    },
    {
      "src": 852,
      "dest": 876
    },
    {
      "src": 549,
      "dest": 549
    },
    {
      "src": 663,
      "dest": 663
    },
    {
      "src": 123,
      "dest": 123
    },
    {
      "src": 845,
      "dest": 869
    },
    {
      "src": 231,
      "dest": 231
    },
    {
      "src": 613,
      "dest": 613
    },
    {
      "src": 188,
      "dest": 188
    },
    {
      "src": 650,
      "dest": 650
    },
    {
      "src": 209,
      "dest": 209
    },
    {
      "src": 139,
      "dest": 139
    },
    {
      "src": 294,
      "dest": 294
    },
    {
      "src": 779,
      "dest": 802
    },
    {
      "src": 296,
      "dest": 296
    },
    {
      "src": 745,
      "dest": 768
    },
    {
      "src": 368,
      "dest": 368
    },
    {
      "src": 374,
      "dest": 374
    },
    {
      "src": 57,
      "dest": 57
    },
    {
      "src": 512,
      "dest": 512
    },
    {
      "src": 795,
      "dest": 818
    },
    {
      "src": 867,
      "dest": 891
    },
    {
      "src": 508,
      "dest": 508
    },
    {
      "src": 367,
      "dest": 367
    },
    {
      "src": 762,
      "dest": 785
    },
    {
      "src": 630,
      "dest": 630
    },
    {
      "src": 460,
      "dest": 460
    },
    {
      "src": 381,
      "dest": 381
    },
    {
      "src": 449,
      "dest": 449
    },
    {
      "src": 323,
      "dest": 323
    },
    {
      "src": 328,
      "dest": 328
    },
    {
      "src": 545,
      "dest": 545
    },
    {
      "src": 703,
      "dest": 726
    },
    {
      "src": 27,
      "dest": 27
    },
    {
      "src": 363,
      "dest": 363
    },
    {
      "src": 258,
      "dest": 258
    },
    {
      "src": 310,
      "dest": 310
    },
    {
      "src": 92,
      "dest": 92
    },
    {
      "src": 162,
      "dest": 162
    },
    {
      "src": 154,
      "dest": 154
    },
    {
      "src": 861,
      "dest": 885
    },
    {
      "src": 577,
      "dest": 577
    },
    {
      "src": 344,
      "dest": 344
    },
    {
      "src": 626,
      "dest": 626
    },
    {
      "src": 826,
      "dest": 850
    },
    {
      "src": 204,
      "dest": 204
    },
    {
      "src": 661,
      "dest": 661
    },
    {
      "src": 489,
      "dest": 489
    },
    {
      "src": 252,
      "dest": 252
    },
    {
      "src": 456,
      "dest": 456
    },
    {
      "src": 817,
      "dest": 841
    },
    {
      "src": 261,
      "dest": 261
    },
    {
      "src": 854,
      "dest": 878
    },
    {
      "src": 383,
      "dest": 383
    },
    {
      "src": 708,
      "dest": 731
    },
    {
      "src": 569,
      "dest": 569
    },
    {
      "src": 337,
      "dest": 337
    },
    {
      "src": 765,
      "dest": 788
    },
    {
      "src": 628,
      "dest": 628
    },
    {
      "src": 347,
      "dest": 347
    },
    {
      "src": 504,
      "dest": 504
    },
    {
      "src": 551,
      "dest": 551
    },
    {
      "src": 758,
      "dest": 781
    },
    {
      "src": 314,
      "dest": 314
    },
    {
      "src": 282,
      "dest": 282
    },
    {
      "src": 711,
      "dest": 734
    },
    {
      "src": 219,
      "dest": 219
    },
    {
      "src": 453,
      "dest": 453
    },
    {
      "src": 342,
      "dest": 342
    },
    {
      "src": 502,
      "dest": 502
    },
    {
      "src": 88,
      "dest": 88
    },
    {
      "src": 815,
      "dest": 839
    },
    {
      "src": 774,
      "dest": 797
    },
    {
      "src": 268,
      "dest": 268
    },
    {
      "src": 408,
      "dest": 408
    },
    {
      "src": 757,
      "dest": 780
    },
    {
      "src": 487,
      "dest": 487
    },
    {
      "src": 484,
      "dest": 484
    },
    {
      "src": 63,
      "dest": 63
    },
    {
      "src": 291,
      "dest": 291
    },
    {
      "src": 532,
      "dest": 532
    },
    {
      "src": 249,
      "dest": 249
    },
    {
      "src": 355,
      "dest": 355
    },
    {
      "src": 348,
      "dest": 348
    },
    {
      "src": 301,
      "dest": 301
    },
    {
      "src": 755,
      "dest": 778
    },
    {
      "src": 701,
      "dest": 724
    },
    {
      "src": 147,
      "dest": 147
    },
    {
      "src": 457,
      "dest": 457
    },
    {
      "src": 329,
      "dest": 329
    },
    {
      "src": 321,
      "dest": 321
    },
    {
      "src": 25,
      "dest": 25
    },
    {
      "src": 75,
      "dest": 75
    },
    {
      "src": 740,
      "dest": 763
    },
    {
      "src": 546,
      "dest": 546
    },
    {
      "src": 213,
      "dest": 213
    },
    {
      "src": 732,
      "dest": 755
    },
    {
      "src": 872,
      "dest": 896
    },
    {
      "src": 98,
      "dest": 98
    },
    {
      "src": 688,
      "dest": 711
    },
    {
      "src": 783,
      "dest": 806
    },
    {
      "src": 736,
      "dest": 759
    },
    {
      "src": 528,
      "dest": 528
    },
    {
      "src": 50,
      "dest": 50
    },
    {
      "src": 68,
      "dest": 68
    },
    {
      "src": 269,
      "dest": 269
    },
    {
      "src": 652,
      "dest": 652
    },
    {
      "src": 235,
      "dest": 235
    },
    {
      "src": 786,
      "dest": 809
    },
    {
      "src": 416,
      "dest": 416
    },
    {
      "src": 354,
      "dest": 354
    },
    {
      "src": 527,
      "dest": 527
    },
    {
      "src": 61,
      "dest": 61
    },
    {
      "src": 183,
      "dest": 183
    },
    {
      "src": 822,
      "dest": 846
    },
    {
      "src": 689,
      "dest": 712
    },
    {
      "src": 255,
      "dest": 255
    },
    {
      "src": 425,
      "dest": 425
    },
    {
      "src": 862,
      "dest": 886
    },
    {
      "src": 42,
      "dest": 42
    },
    {
      "src": 450,
      "dest": 450
    },
    {
      "src": 0,
      "dest": 0
    },
    {
      "src": 277,
      "dest": 277
    },
    {
      "src": 681,
      "dest": 704
    },
    {
      "src": 130,
      "dest": 130
    },
    {
      "src": 785,
      "dest": 808
    },
    {
      "src": 305,
      "dest": 305
    },
    {
      "src": 143,
      "dest": 143
    },
    {
      "src": 607,
      "dest": 607
    },
    {
      "src": 395,
      "dest": 395
    },
    {
      "src": 48,
      "dest": 48
    },
    {
      "src": 358,
      "dest": 358
    },
    {
      "src": 590,
      "dest": 590
    },
    {
      "src": 199,
      "dest": 199
    },
    {
      "src": 366,
      "dest": 366
    },
    {
      "src": 260,
      "dest": 260
    },
    {
      "src": 604,
      "dest": 604
    },
    {
      "src": 52,
      "dest": 52
    },
    {
      "src": 90,
      "dest": 90
    },
    {
      "src": 104,
      "dest": 104
    },
    {
      "src": 632,
      "dest": 632
    },
    {
      "src": 442,
      "dest": 442
    },
    {
      "src": 365,
      "dest": 365
    },
    {
      "src": 478,
      "dest": 478
    },
    {
      "src": 31,
      "dest": 31
    },
    {
      "src": 462,
      "dest": 462
    },
    {
      "src": 655,
      "dest": 655
    },
    {
      "src": 550,
      "dest": 550
    },
    {
      "src": 134,
      "dest": 134
    },
    {
      "src": 834,
      "dest": 858
    },
    {
      "src": 2,
      "dest": 2
    },
    {
      "src": 712,
      "dest": 735
    },
    {
      "src": 155,
      "dest": 155
    },
    {
      "src": 505,
      "dest": 505
    },
    {
      "src": 480,
      "dest": 480
    },
    {
      "src": 536,
      "dest": 536
    },
    {
      "src": 3,
      "dest": 3
    },
    {
      "src": 748,
      "dest": 771
    },
    {
      "src": 175,
      "dest": 175
    },
    {
      "src": 654,
      "dest": 654
    },
    {
      "src": 153,
      "dest": 153
    },
    {
      "src": 759,
      "dest": 782
    },
    {
      "src": 791,
      "dest": 814
    },
    {
      "src": 423,
      "dest": 423
    },
    {
      "src": 687,
      "dest": 710
    },
    {
      "src": 127,
      "dest": 127
    },
    {
      "src": 620,
      "dest": 620
    },
    {
      "src": 40,
      "dest": 40
    },
    {
      "src": 619,
      "dest": 619
    },
    {
      "src": 73,
      "dest": 73
    },
    {
      "src": 675,
      "dest": 675
    },
    {
      "src": 793,
      "dest": 816
    },
    {
      "src": 488,
      "dest": 488
    },
    {
      "src": 145,
      "dest": 145
    },
    {
      "src": 111,
      "dest": 111
    },
    {
      "src": 122,
      "dest": 122
    },
    {
      "src": 589,
      "dest": 589
    },
    {
      "src": 403,
      "dest": 403
    },
    {
      "src": 719,
      "dest": 742
    },
    {
      "src": 384,
      "dest": 384
    },
    {
      "src": 476,
      "dest": 476
    },
    {
      "src": 778,
      "dest": 801
    },
    {
      "src": 728,
      "dest": 751
    },
    {
      "src": 623,
      "dest": 623
    },
    {
      "src": 459,
      "dest": 459
    },
    {
      "src": 662,
      "dest": 662
    },
    {
      "src": 32,
      "dest": 32
    },
    {
      "src": 859,
      "dest": 883
    },
    {
      "src": 144,
      "dest": 144
    },
    {
      "src": 192,
      "dest": 192
    },
    {
      "src": 276,
      "dest": 276
    },
    {
      "src": 519,
      "dest": 519
    },
    {
      "src": 427,
      "dest": 427
    },
    {
      "src": 737,
      "dest": 760
    },
    {
      "src": 592,
      "dest": 592
    },
    {
      "src": 622,
      "dest": 622
    },
    {
      "src": 667,
      "dest": 667
    },
    {
      "src": 773,
      "dest": 796
    },
    {
      "src": 877,
      "dest": 901
    },
    {
      "src": 470,
      "dest": 470
    },
    {
      "src": 208,
      "dest": 208
    },
    {
      "src": 642,
      "dest": 642
    },
    {
      "src": 214,
      "dest": 214
    },
    {
      "src": 595,
      "dest": 595
    },
    {
      "src": 805,
      "dest": 828
    },
    {
      "src": 769,
      "dest": 792
    },
    {
      "src": 428,
      "dest": 428
    },
    {
      "src": 724,
      "dest": 747
    },
    {
      "src": 501,
      "dest": 501
    },
    {
      "src": 106,
      "dest": 106
    },
    {
      "src": 605,
      "dest": 605
    },
    {
      "src": 345,
      "dest": 345
    },
    {
      "src": 371,
      "dest": 371
    },
    {
      "src": 407,
      "dest": 407
    },
    {
      "src": 840,
      "dest": 864
    },
    {
      "src": 405,
      "dest": 405
    },
    {
      "src": 690,
      "dest": 713
    },
    {
      "src": 468,
      "dest": 468
    },
    {
      "src": 856,
      "dest": 880
    },
    {
      "src": 317,
      "dest": 317
    },
    {
      "src": 118,
      "dest": 118
    },
    {
      "src": 567,
      "dest": 567
    },
    {
      "src": 211,
      "dest": 211
    },
    {
      "src": 377,
      "dest": 377
    },
    {
      "src": 410,
      "dest": 410
    },
    {
      "src": 849,
      "dest": 873
    },
    {
      "src": 516,
      "dest": 516
    },
    {
      "src": 563,
      "dest": 563
    },
    {
      "src": 290,
      "dest": 290
    },
    {
      "src": 195,
      "dest": 195
    },
    {
      "src": 832,
      "dest": 856
    },
    {
      "src": 289,
      "dest": 289
    },
    {
      "src": 881,
      "dest": 905
    },
    {
      "src": 672,
      "dest": 672
    },
    {
      "src": 189,
      "dest": 189
    },
    {
      "src": 318,
      "dest": 318
    },
    {
      "src": 369,
      "dest": 369
    },
    {
      "src": 316,
      "dest": 316
    },
    {
      "src": 571,
      "dest": 571
    },
    {
      "src": 868,
      "dest": 892
    },
    {
      "src": 537,
      "dest": 537
    },
    {
      "src": 120,
      "dest": 120
    },
    {
      "src": 612,
      "dest": 612
    },
    {
      "src": 764,
      "dest": 787
    },
    {
      "src": 673,
      "dest": 673
    },
    {
      "src": 722,
      "dest": 745
    },
    {
      "src": 353,
      "dest": 353
    },
    {
      "src": 140,
      "dest": 140
    },
    {
      "src": 659,
      "dest": 659
    },
    {
      "src": 517,
      "dest": 517
    },
    {
      "src": 491,
      "dest": 491
    },
    {
      "src": 406,
      "dest": 406
    },
    {
      "src": 643,
      "dest": 643
    },
    {
      "src": 763,
      "dest": 786
    },
    {
      "src": 693,
      "dest": 716
    },
    {
      "src": 227,
      "dest": 227
    },
    {
      "src": 565,
      "dest": 565
    },
    {
      "src": 596,
      "dest": 596
    },
    {
      "src": 784,
      "dest": 807
    },
    {
      "src": 515,
      "dest": 515
    },
    {
      "src": 698,
      "dest": 721
    },
    {
      "src": 16,
      "dest": 16
    },
    {
      "src": 683,
      "dest": 706
    },
    {
      "src": 844,
      "dest": 868
    },
    {
      "src": 721,
      "dest": 744
    },
    {
      "src": 422,
      "dest": 422
    },
    {
      "src": 128,
      "dest": 128
    },
    {
      "src": 387,
      "dest": 387
    },
    {
      "src": 389,
      "dest": 389
    },
    {
      "src": 558,
      "dest": 558
    },
    {
      "src": 346,
      "dest": 346
    },
    {
      "src": 203,
      "dest": 203
    },
    {
      "src": 339,
      "dest": 339
    },
    {
      "src": 575,
      "dest": 575
    },
    {
      "src": 160,
      "dest": 160
    },
    {
      "src": 562,
      "dest": 562
    },
    {
      "src": 525,
      "dest": 525
    },
    {
      "src": 146,
      "dest": 146
    },
    {
      "src": 239,
      "dest": 239
    },
    {
      "src": 4,
      "dest": 4
    },
    {
      "src": 544,
      "dest": 544
    },
    {
      "src": 733,
      "dest": 756
    },
    {
      "src": 750,
      "dest": 773
    },
    {
      "src": 631,
      "dest": 631
    },
    {
      "src": 454,
      "dest": 454
    },
    {
      "src": 668,
      "dest": 668
    },
    {
      "src": 101,
      "dest": 101
    },
    {
      "src": 331,
      "dest": 331
    },
    {
      "src": 621,
      "dest": 621
    },
    {
      "src": 220,
      "dest": 220
    },
    {
      "src": 500,
      "dest": 500
    },
    {
      "src": 302,
      "dest": 302
    },
    {
      "src": 419,
      "dest": 419
    },
    {
      "src": 554,
      "dest": 554
    },
    {
      "src": 671,
      "dest": 671
    },
    {
      "src": 864,
      "dest": 888
    },
    {
      "src": 22,
      "dest": 22
    },
    {
      "src": 141,
      "dest": 141
    },
    {
      "src": 838,
      "dest": 862
    },
    {
      "src": 506,
      "dest": 506
    },
    {
      "src": 770,
      "dest": 793
    },
    {
      "src": 697,
      "dest": 720
    },
    {
      "src": 710,
      "dest": 733
    },
    {
      "src": 848,
      "dest": 872
    },
    {
      "src": 335,
      "dest": 335
    },
    {
      "src": 499,
      "dest": 499
    },
    {
      "src": 511,
      "dest": 511
    },
    {
      "src": 548,
      "dest": 548
    },
    {
      "src": 229,
      "dest": 229
    },
    {
      "src": 20,
      "dest": 20
    },
    {
      "src": 514,
      "dest": 514
    },
    {
      "src": 739,
      "dest": 762
    },
    {
      "src": 440,
      "dest": 440
    },
    {
      "src": 245,
      "dest": 245
    },
    {
      "src": 103,
      "dest": 103
    },
    {
      "src": 830,
      "dest": 854
    },
    {
      "src": 385,
      "dest": 385
    },
    {
      "src": 113,
      "dest": 113
    },
    {
      "src": 635,
      "dest": 635
    },
    {
      "src": 173,
      "dest": 173
    },
    {
      "src": 205,
      "dest": 205
    },
    {
      "src": 233,
      "dest": 233
    },
    {
      "src": 124,
      "dest": 124
    },
    {
      "src": 207,
      "dest": 207
    },
    {
      "src": 226,
      "dest": 226
    },
    {
      "src": 349,
      "dest": 349
    },
    {
      "src": 818,
      "dest": 842
    },
    {
      "src": 167,
      "dest": 167
    },
    {
      "src": 62,
      "dest": 62
    },
    {
      "src": 469,
      "dest": 469
    },
    {
      "src": 640,
      "dest": 640
    },
    {
      "src": 833,
      "dest": 857
    },
    {
      "src": 102,
      "dest": 102
    },
    {
      "src": 218,
      "dest": 218
    },
    {
      "src": 23,
      "dest": 23
    },
    {
      "src": 393,
      "dest": 393
    },
    {
      "src": 417,
      "dest": 417
    },
    {
      "src": 206,
      "dest": 206
    },
    {
      "src": 319,
      "dest": 319
    },
    {
      "src": 767,
      "dest": 790
    },
    {
      "src": 26,
      "dest": 26
    },
    {
      "src": 636,
      "dest": 636
    },
    {
      "src": 288,
      "dest": 288
    },
    {
      "src": 359,
      "dest": 359
    },
    {
      "src": 806,
      "dest": 830
    },
    {
      "src": 707,
      "dest": 730
    },
    {
      "src": 243,
      "dest": 243
    },
    {
      "src": 274,
      "dest": 274
    },
    {
      "src": 170,
      "dest": 170
    },
    {
      "src": 666,
      "dest": 666
    },
    {
      "src": 686,
      "dest": 709
    },
    {
      "src": 172,
      "dest": 172
    },
    {
      "src": 568,
      "dest": 568
    },
    {
      "src": 411,
      "dest": 411
    },
    {
      "src": 714,
      "dest": 737
    },
    {
      "src": 431,
      "dest": 431
    },
    {
      "src": 178,
      "dest": 178
    },
    {
      "src": 373,
      "dest": 373
    },
    {
      "src": 792,
      "dest": 815
    },
    {
      "src": 479,
      "dest": 479
    },
    {
      "src": 804,
      "dest": 827
    },
    {
      "src": 578,
      "dest": 578
    },
    {
      "src": 814,
      "dest": 838
    },
    {
      "src": 414,
      "dest": 414
    },
    {
      "src": 350,
      "dest": 350
    },
    {
      "src": 398,
      "dest": 398
    },
    {
      "src": 534,
      "dest": 534
    },
    {
      "src": 415,
      "dest": 415
    },
    {
      "src": 570,
      "dest": 570
    },
    {
      "src": 669,
      "dest": 669
    },
    {
      "src": 720,
      "dest": 743
    },
    {
      "src": 402,
      "dest": 402
    },
    {
      "src": 177,
      "dest": 177
    },
    {
      "src": 766,
      "dest": 789
    }
  ],
  "actions": [
    {
      "action": "update",
      "tree": 588,
      "label": "\"git-local-pull [-c] [-t] [-a] [-l] [-s] [-n] [-v] [-d] [--recover] commit-id path\""
    },
    {
      "action": "insert",
      "tree": 660,
      "parent": 830,
      "at": 0
    },
    {
      "action": "insert",
      "tree": 829,
      "parent": 830,
      "at": 3
    },
    {
      "action": "move",
      "tree": 660,
      "parent": 829,
      "at": 0
    },
    {
      "action": "insert",
      "tree": 693,
      "parent": 829,
      "at": 1
    },
    {
      "action": "insert",
      "tree": 701,
      "parent": 829,
      "at": 2
    },
    {
      "action": "move",
      "tree": 805,
      "parent": 829,
      "at": 3
    },
    {
      "action": "insert",
      "tree": 691,
      "parent": 693,
      "at": 0
    },
    {
      "action": "insert",
      "tree": 692,
      "parent": 693,
      "at": 1
    },
    {
      "action": "insert",
      "tree": 700,
      "parent": 701,
      "at": 0
    },
    {
      "action": "insert",
      "tree": 681,
      "parent": 691,
      "at": 0
    },
    {
      "action": "insert",
      "tree": 690,
      "parent": 691,
      "at": 1
    },
    {
      "action": "insert",
      "tree": 698,
      "parent": 700,
      "at": 0
    },
    {
      "action": "insert",
      "tree": 699,
      "parent": 700,
      "at": 1
    },
    {
      "action": "insert",
      "tree": 680,
      "parent": 681,
      "at": 0
    },
    {
      "action": "insert",
      "tree": 687,
      "parent": 690,
      "at": 0
    },
    {
      "action": "insert",
      "tree": 689,
      "parent": 690,
      "at": 1
    },
    {
      "action": "insert",
      "tree": 695,
      "parent": 698,
      "at": 0
    },
    {
      "action": "insert",
      "tree": 696,
      "parent": 698,
      "at": 1
    },
    {
      "action": "insert",
      "tree": 697,
      "parent": 698,
      "at": 2
    },
    {
      "action": "insert",
      "tree": 686,
      "parent": 687,
      "at": 0
    },
    {
      "action": "insert",
      "tree": 688,
      "parent": 689,
      "at": 0
    },
    {
      "action": "insert",
      "tree": 694,
      "parent": 695,
      "at": 0
    },
    {
      "action": "insert",
      "tree": 683,
      "parent": 686,
      "at": 0
    },
    {
      "action": "insert",
      "tree": 685,
      "parent": 686,
      "at": 1
    },
    {
      "action": "insert",
      "tree": 682,
      "parent": 683,
      "at": 0
    },
    {
      "action": "insert",
      "tree": 684,
      "parent": 685,
      "at": 0
    }
  ]
}