{
	"root": {
		"type": "460000",
		"typeLabel": "Program",
		"pos": "881",
		"length": "1417",
		"children": [
			{
				"type": "450300",
				"typeLabel": "CppTop",
				"pos": "881",
				"length": "22",
				"children": [
					{
						"type": "400200",
						"typeLabel": "Include",
						"pos": "881",
						"length": "22",
						"children": [
							{
								"type": "480000",
								"label": "<sys/types.h>",
								"typeLabel": "GenericString",
								"pos": "890",
								"length": "13",
								"children": []
							}
						]
					}
				]
			},
			{
				"type": "450300",
				"typeLabel": "CppTop",
				"pos": "905",
				"length": "17",
				"children": [
					{
						"type": "400200",
						"typeLabel": "Include",
						"pos": "905",
						"length": "17",
						"children": [
							{
								"type": "480000",
								"label": "\"tmux.h\"",
								"typeLabel": "GenericString",
								"pos": "914",
								"length": "8",
								"children": []
							}
						]
					}
				]
			},
			{
				"type": "450100",
				"typeLabel": "Declaration",
				"pos": "969",
				"length": "47",
				"children": [
					{
						"type": "350100",
						"typeLabel": "DeclList",
						"pos": "969",
						"length": "47",
						"children": [
							{
								"type": "480000",
								"label": "cmd_select_layout_init",
								"typeLabel": "GenericString",
								"pos": "974",
								"length": "22",
								"children": []
							}
						]
					}
				]
			},
			{
				"type": "450100",
				"typeLabel": "Declaration",
				"pos": "1017",
				"length": "59",
				"children": [
					{
						"type": "350100",
						"typeLabel": "DeclList",
						"pos": "1017",
						"length": "59",
						"children": [
							{
								"type": "480000",
								"label": "cmd_select_layout_exec",
								"typeLabel": "GenericString",
								"pos": "1021",
								"length": "22",
								"children": []
							}
						]
					}
				]
			},
			{
				"type": "450100",
				"typeLabel": "Declaration",
				"pos": "1078",
				"length": "278",
				"children": [
					{
						"type": "350100",
						"typeLabel": "DeclList",
						"pos": "1078",
						"length": "278",
						"children": [
							{
								"type": "40000",
								"typeLabel": "FullType",
								"pos": "1078",
								"length": "22",
								"children": [
									{
										"type": "50000",
										"typeLabel": "TypeQualifier",
										"pos": "1078",
										"length": "5",
										"children": [
											{
												"type": "480000",
												"label": "const",
												"typeLabel": "GenericString",
												"pos": "1078",
												"length": "5",
												"children": []
											}
										]
									},
									{
										"type": "60900",
										"label": "cmd_entry",
										"typeLabel": "StructUnionName",
										"pos": "1078",
										"length": "22",
										"children": []
									}
								]
							},
							{
								"type": "480000",
								"label": "cmd_select_layout_entry",
								"typeLabel": "GenericString",
								"pos": "1101",
								"length": "23",
								"children": []
							},
							{
								"type": "360200",
								"typeLabel": "InitList",
								"pos": "1127",
								"length": "228",
								"children": [
									{
										"type": "360100",
										"typeLabel": "InitExpr",
										"pos": "1130",
										"length": "15",
										"children": [
											{
												"type": "240200",
												"label": "\"select-layout\"",
												"typeLabel": "Constant",
												"pos": "1130",
												"length": "15",
												"children": []
											}
										]
									},
									{
										"type": "360100",
										"typeLabel": "InitExpr",
										"pos": "1147",
										"length": "9",
										"children": [
											{
												"type": "240200",
												"label": "\"selectl\"",
												"typeLabel": "Constant",
												"pos": "1147",
												"length": "9",
												"children": []
											}
										]
									},
									{
										"type": "360100",
										"typeLabel": "InitExpr",
										"pos": "1159",
										"length": "38",
										"children": [
											{
												"type": "240200",
												"label": "CMD_TARGET_WINDOW_USAGE\" layout-name\"",
												"typeLabel": "Constant",
												"pos": "1159",
												"length": "38",
												"children": []
											}
										]
									},
									{
										"type": "360100",
										"typeLabel": "InitExpr",
										"pos": "1200",
										"length": "8",
										"children": [
											{
												"type": "240100",
												"typeLabel": "Ident",
												"pos": "1200",
												"length": "8",
												"children": [
													{
														"type": "480000",
														"label": "CMD_ARG1",
														"typeLabel": "GenericString",
														"pos": "1200",
														"length": "8",
														"children": []
													}
												]
											}
										]
									},
									{
										"type": "360100",
										"typeLabel": "InitExpr",
										"pos": "1210",
										"length": "1",
										"children": [
											{
												"type": "240200",
												"label": "0",
												"typeLabel": "Constant",
												"pos": "1210",
												"length": "1",
												"children": []
											}
										]
									},
									{
										"type": "360100",
										"typeLabel": "InitExpr",
										"pos": "1214",
										"length": "22",
										"children": [
											{
												"type": "240100",
												"typeLabel": "Ident",
												"pos": "1214",
												"length": "22",
												"children": [
													{
														"type": "480000",
														"label": "cmd_select_layout_init",
														"typeLabel": "GenericString",
														"pos": "1214",
														"length": "22",
														"children": []
													}
												]
											}
										]
									},
									{
										"type": "360100",
										"typeLabel": "InitExpr",
										"pos": "1239",
										"length": "16",
										"children": [
											{
												"type": "240100",
												"typeLabel": "Ident",
												"pos": "1239",
												"length": "16",
												"children": [
													{
														"type": "480000",
														"label": "cmd_target_parse",
														"typeLabel": "GenericString",
														"pos": "1239",
														"length": "16",
														"children": []
													}
												]
											}
										]
									},
									{
										"type": "360100",
										"typeLabel": "InitExpr",
										"pos": "1258",
										"length": "22",
										"children": [
											{
												"type": "240100",
												"typeLabel": "Ident",
												"pos": "1258",
												"length": "22",
												"children": [
													{
														"type": "480000",
														"label": "cmd_select_layout_exec",
														"typeLabel": "GenericString",
														"pos": "1258",
														"length": "22",
														"children": []
													}
												]
											}
										]
									},
									{
										"type": "360100",
										"typeLabel": "InitExpr",
										"pos": "1283",
										"length": "15",
										"children": [
											{
												"type": "240100",
												"typeLabel": "Ident",
												"pos": "1283",
												"length": "15",
												"children": [
													{
														"type": "480000",
														"label": "cmd_target_send",
														"typeLabel": "GenericString",
														"pos": "1283",
														"length": "15",
														"children": []
													}
												]
											}
										]
									},
									{
										"type": "360100",
										"typeLabel": "InitExpr",
										"pos": "1301",
										"length": "15",
										"children": [
											{
												"type": "240100",
												"typeLabel": "Ident",
												"pos": "1301",
												"length": "15",
												"children": [
													{
														"type": "480000",
														"label": "cmd_target_recv",
														"typeLabel": "GenericString",
														"pos": "1301",
														"length": "15",
														"children": []
													}
												]
											}
										]
									},
									{
										"type": "360100",
										"typeLabel": "InitExpr",
										"pos": "1319",
										"length": "15",
										"children": [
											{
												"type": "240100",
												"typeLabel": "Ident",
												"pos": "1319",
												"length": "15",
												"children": [
													{
														"type": "480000",
														"label": "cmd_target_free",
														"typeLabel": "GenericString",
														"pos": "1319",
														"length": "15",
														"children": []
													}
												]
											}
										]
									},
									{
										"type": "360100",
										"typeLabel": "InitExpr",
										"pos": "1337",
										"length": "16",
										"children": [
											{
												"type": "240100",
												"typeLabel": "Ident",
												"pos": "1337",
												"length": "16",
												"children": [
													{
														"type": "480000",
														"label": "cmd_target_print",
														"typeLabel": "GenericString",
														"pos": "1337",
														"length": "16",
														"children": []
													}
												]
											}
										]
									}
								]
							}
						]
					}
				]
			},
			{
				"type": "450200",
				"typeLabel": "Definition",
				"pos": "1358",
				"length": "453",
				"children": [
					{
						"type": "380000",
						"typeLabel": "Definition",
						"pos": "1358",
						"length": "453",
						"children": [
							{
								"type": "200000",
								"typeLabel": "ParamList",
								"pos": "1385",
								"length": "27",
								"children": [
									{
										"type": "220100",
										"typeLabel": "ParameterType",
										"pos": "1386",
										"length": "16",
										"children": [
											{
												"type": "480000",
												"label": "self",
												"typeLabel": "GenericString",
												"pos": "1398",
												"length": "4",
												"children": []
											}
										]
									},
									{
										"type": "220100",
										"typeLabel": "ParameterType",
										"pos": "1404",
										"length": "7",
										"children": [
											{
												"type": "480000",
												"label": "key",
												"typeLabel": "GenericString",
												"pos": "1408",
												"length": "3",
												"children": []
											}
										]
									}
								]
							},
							{
								"type": "480000",
								"label": "cmd_select_layout_init",
								"typeLabel": "GenericString",
								"pos": "1363",
								"length": "22",
								"children": []
							},
							{
								"type": "330000",
								"typeLabel": "Compound",
								"pos": "1413",
								"length": "398",
								"children": [
									{
										"type": "350100",
										"typeLabel": "DeclList",
										"pos": "1416",
										"length": "29",
										"children": [
											{
												"type": "480000",
												"label": "data",
												"typeLabel": "GenericString",
												"pos": "1440",
												"length": "4",
												"children": []
											}
										]
									},
									{
										"type": "260300",
										"typeLabel": "ExprStatement",
										"pos": "1448",
										"length": "27",
										"children": [
											{
												"type": "290100",
												"typeLabel": "Some",
												"pos": "1448",
												"length": "27",
												"children": [
													{
														"type": "240400",
														"typeLabel": "FunCall",
														"pos": "1448",
														"length": "26",
														"children": [
															{
																"type": "240100",
																"typeLabel": "Ident",
																"pos": "1448",
																"length": "15",
																"children": [
																	{
																		"type": "480000",
																		"label": "cmd_target_init",
																		"typeLabel": "GenericString",
																		"pos": "1448",
																		"length": "15",
																		"children": []
																	}
																]
															},
															{
																"type": "470000",
																"typeLabel": "GenericList",
																"pos": "1463",
																"length": "11",
																"children": [
																	{
																		"type": "20100",
																		"typeLabel": "Left",
																		"pos": "1464",
																		"length": "4",
																		"children": [
																			{
																				"type": "240100",
																				"typeLabel": "Ident",
																				"pos": "1464",
																				"length": "4",
																				"children": [
																					{
																						"type": "480000",
																						"label": "self",
																						"typeLabel": "GenericString",
																						"pos": "1464",
																						"length": "4",
																						"children": []
																					}
																				]
																			}
																		]
																	},
																	{
																		"type": "20100",
																		"typeLabel": "Left",
																		"pos": "1470",
																		"length": "3",
																		"children": [
																			{
																				"type": "240100",
																				"typeLabel": "Ident",
																				"pos": "1470",
																				"length": "3",
																				"children": [
																					{
																						"type": "480000",
																						"label": "key",
																						"typeLabel": "GenericString",
																						"pos": "1470",
																						"length": "3",
																						"children": []
																					}
																				]
																			}
																		]
																	}
																]
															}
														]
													},
													{
														"type": "480000",
														"label": ";",
														"typeLabel": "GenericString",
														"pos": "1474",
														"length": "1",
														"children": []
													}
												]
											}
										]
									},
									{
										"type": "260300",
										"typeLabel": "ExprStatement",
										"pos": "1477",
										"length": "18",
										"children": [
											{
												"type": "290100",
												"typeLabel": "Some",
												"pos": "1477",
												"length": "18",
												"children": [
													{
														"type": "240700",
														"typeLabel": "Assignment",
														"pos": "1477",
														"length": "17",
														"children": [
															{
																"type": "240100",
																"typeLabel": "Ident",
																"pos": "1477",
																"length": "4",
																"children": [
																	{
																		"type": "480000",
																		"label": "data",
																		"typeLabel": "GenericString",
																		"pos": "1477",
																		"length": "4",
																		"children": []
																	}
																]
															},
															{
																"type": "480000",
																"label": "=",
																"typeLabel": "GenericString",
																"pos": "1482",
																"length": "1",
																"children": []
															},
															{
																"type": "241400",
																"typeLabel": "RecordPtAccess",
																"pos": "1484",
																"length": "10",
																"children": [
																	{
																		"type": "240100",
																		"typeLabel": "Ident",
																		"pos": "1484",
																		"length": "4",
																		"children": [
																			{
																				"type": "480000",
																				"label": "self",
																				"typeLabel": "GenericString",
																				"pos": "1484",
																				"length": "4",
																				"children": []
																			}
																		]
																	},
																	{
																		"type": "480000",
																		"label": "data",
																		"typeLabel": "GenericString",
																		"pos": "1490",
																		"length": "4",
																		"children": []
																	}
																]
															}
														]
													},
													{
														"type": "480000",
														"label": ";",
														"typeLabel": "GenericString",
														"pos": "1494",
														"length": "1",
														"children": []
													}
												]
											}
										]
									},
									{
										"type": "300200",
										"typeLabel": "Switch",
										"pos": "1498",
										"length": "311",
										"children": [
											{
												"type": "240100",
												"typeLabel": "Ident",
												"pos": "1506",
												"length": "3",
												"children": [
													{
														"type": "480000",
														"label": "key",
														"typeLabel": "GenericString",
														"pos": "1506",
														"length": "3",
														"children": []
													}
												]
											},
											{
												"type": "330000",
												"typeLabel": "Compound",
												"pos": "1511",
												"length": "298",
												"children": [
													{
														"type": "270200",
														"typeLabel": "Case",
														"pos": "1514",
														"length": "64",
														"children": [
															{
																"type": "240400",
																"typeLabel": "FunCall",
																"pos": "1519",
																"length": "16",
																"children": [
																	{
																		"type": "240100",
																		"typeLabel": "Ident",
																		"pos": "1519",
																		"length": "11",
																		"children": [
																			{
																				"type": "480000",
																				"label": "KEYC_ADDESC",
																				"typeLabel": "GenericString",
																				"pos": "1519",
																				"length": "11",
																				"children": []
																			}
																		]
																	},
																	{
																		"type": "470000",
																		"typeLabel": "GenericList",
																		"pos": "1530",
																		"length": "5",
																		"children": [
																			{
																				"type": "20100",
																				"typeLabel": "Left",
																				"pos": "1531",
																				"length": "3",
																				"children": [
																					{
																						"type": "240200",
																						"label": "'0'",
																						"typeLabel": "Constant",
																						"pos": "1531",
																						"length": "3",
																						"children": []
																					}
																				]
																			}
																		]
																	}
																]
															},
															{
																"type": "260300",
																"typeLabel": "ExprStatement",
																"pos": "1539",
																"length": "39",
																"children": [
																	{
																		"type": "290100",
																		"typeLabel": "Some",
																		"pos": "1539",
																		"length": "39",
																		"children": [
																			{
																				"type": "240700",
																				"typeLabel": "Assignment",
																				"pos": "1539",
																				"length": "38",
																				"children": [
																					{
																						"type": "241400",
																						"typeLabel": "RecordPtAccess",
																						"pos": "1539",
																						"length": "9",
																						"children": [
																							{
																								"type": "240100",
																								"typeLabel": "Ident",
																								"pos": "1539",
																								"length": "4",
																								"children": [
																									{
																										"type": "480000",
																										"label": "data",
																										"typeLabel": "GenericString",
																										"pos": "1539",
																										"length": "4",
																										"children": []
																									}
																								]
																							},
																							{
																								"type": "480000",
																								"label": "arg",
																								"typeLabel": "GenericString",
																								"pos": "1545",
																								"length": "3",
																								"children": []
																							}
																						]
																					},
																					{
																						"type": "480000",
																						"label": "=",
																						"typeLabel": "GenericString",
																						"pos": "1549",
																						"length": "1",
																						"children": []
																					},
																					{
																						"type": "240400",
																						"typeLabel": "FunCall",
																						"pos": "1551",
																						"length": "26",
																						"children": [
																							{
																								"type": "240100",
																								"typeLabel": "Ident",
																								"pos": "1551",
																								"length": "7",
																								"children": [
																									{
																										"type": "480000",
																										"label": "xstrdup",
																										"typeLabel": "GenericString",
																										"pos": "1551",
																										"length": "7",
																										"children": []
																									}
																								]
																							},
																							{
																								"type": "470000",
																								"typeLabel": "GenericList",
																								"pos": "1558",
																								"length": "19",
																								"children": [
																									{
																										"type": "20100",
																										"typeLabel": "Left",
																										"pos": "1559",
																										"length": "17",
																										"children": [
																											{
																												"type": "240200",
																												"label": "\"manual-vertical\"",
																												"typeLabel": "Constant",
																												"pos": "1559",
																												"length": "17",
																												"children": []
																											}
																										]
																									}
																								]
																							}
																						]
																					}
																				]
																			},
																			{
																				"type": "480000",
																				"label": ";",
																				"typeLabel": "GenericString",
																				"pos": "1577",
																				"length": "1",
																				"children": []
																			}
																		]
																	}
																]
															}
														]
													},
													{
														"type": "280002",
														"typeLabel": "Break",
														"pos": "1581",
														"length": "6",
														"children": []
													},
													{
														"type": "270200",
														"typeLabel": "Case",
														"pos": "1589",
														"length": "64",
														"children": [
															{
																"type": "240400",
																"typeLabel": "FunCall",
																"pos": "1594",
																"length": "16",
																"children": [
																	{
																		"type": "240100",
																		"typeLabel": "Ident",
																		"pos": "1594",
																		"length": "11",
																		"children": [
																			{
																				"type": "480000",
																				"label": "KEYC_ADDESC",
																				"typeLabel": "GenericString",
																				"pos": "1594",
																				"length": "11",
																				"children": []
																			}
																		]
																	},
																	{
																		"type": "470000",
																		"typeLabel": "GenericList",
																		"pos": "1605",
																		"length": "5",
																		"children": [
																			{
																				"type": "20100",
																				"typeLabel": "Left",
																				"pos": "1606",
																				"length": "3",
																				"children": [
																					{
																						"type": "240200",
																						"label": "'1'",
																						"typeLabel": "Constant",
																						"pos": "1606",
																						"length": "3",
																						"children": []
																					}
																				]
																			}
																		]
																	}
																]
															},
															{
																"type": "260300",
																"typeLabel": "ExprStatement",
																"pos": "1614",
																"length": "39",
																"children": [
																	{
																		"type": "290100",
																		"typeLabel": "Some",
																		"pos": "1614",
																		"length": "39",
																		"children": [
																			{
																				"type": "240700",
																				"typeLabel": "Assignment",
																				"pos": "1614",
																				"length": "38",
																				"children": [
																					{
																						"type": "241400",
																						"typeLabel": "RecordPtAccess",
																						"pos": "1614",
																						"length": "9",
																						"children": [
																							{
																								"type": "240100",
																								"typeLabel": "Ident",
																								"pos": "1614",
																								"length": "4",
																								"children": [
																									{
																										"type": "480000",
																										"label": "data",
																										"typeLabel": "GenericString",
																										"pos": "1614",
																										"length": "4",
																										"children": []
																									}
																								]
																							},
																							{
																								"type": "480000",
																								"label": "arg",
																								"typeLabel": "GenericString",
																								"pos": "1620",
																								"length": "3",
																								"children": []
																							}
																						]
																					},
																					{
																						"type": "480000",
																						"label": "=",
																						"typeLabel": "GenericString",
																						"pos": "1624",
																						"length": "1",
																						"children": []
																					},
																					{
																						"type": "240400",
																						"typeLabel": "FunCall",
																						"pos": "1626",
																						"length": "26",
																						"children": [
																							{
																								"type": "240100",
																								"typeLabel": "Ident",
																								"pos": "1626",
																								"length": "7",
																								"children": [
																									{
																										"type": "480000",
																										"label": "xstrdup",
																										"typeLabel": "GenericString",
																										"pos": "1626",
																										"length": "7",
																										"children": []
																									}
																								]
																							},
																							{
																								"type": "470000",
																								"typeLabel": "GenericList",
																								"pos": "1633",
																								"length": "19",
																								"children": [
																									{
																										"type": "20100",
																										"typeLabel": "Left",
																										"pos": "1634",
																										"length": "17",
																										"children": [
																											{
																												"type": "240200",
																												"label": "\"even-horizontal\"",
																												"typeLabel": "Constant",
																												"pos": "1634",
																												"length": "17",
																												"children": []
																											}
																										]
																									}
																								]
																							}
																						]
																					}
																				]
																			},
																			{
																				"type": "480000",
																				"label": ";",
																				"typeLabel": "GenericString",
																				"pos": "1652",
																				"length": "1",
																				"children": []
																			}
																		]
																	}
																]
															}
														]
													},
													{
														"type": "280002",
														"typeLabel": "Break",
														"pos": "1656",
														"length": "6",
														"children": []
													},
													{
														"type": "270200",
														"typeLabel": "Case",
														"pos": "1664",
														"length": "62",
														"children": [
															{
																"type": "240400",
																"typeLabel": "FunCall",
																"pos": "1669",
																"length": "16",
																"children": [
																	{
																		"type": "240100",
																		"typeLabel": "Ident",
																		"pos": "1669",
																		"length": "11",
																		"children": [
																			{
																				"type": "480000",
																				"label": "KEYC_ADDESC",
																				"typeLabel": "GenericString",
																				"pos": "1669",
																				"length": "11",
																				"children": []
																			}
																		]
																	},
																	{
																		"type": "470000",
																		"typeLabel": "GenericList",
																		"pos": "1680",
																		"length": "5",
																		"children": [
																			{
																				"type": "20100",
																				"typeLabel": "Left",
																				"pos": "1681",
																				"length": "3",
																				"children": [
																					{
																						"type": "240200",
																						"label": "'2'",
																						"typeLabel": "Constant",
																						"pos": "1681",
																						"length": "3",
																						"children": []
																					}
																				]
																			}
																		]
																	}
																]
															},
															{
																"type": "260300",
																"typeLabel": "ExprStatement",
																"pos": "1689",
																"length": "37",
																"children": [
																	{
																		"type": "290100",
																		"typeLabel": "Some",
																		"pos": "1689",
																		"length": "37",
																		"children": [
																			{
																				"type": "240700",
																				"typeLabel": "Assignment",
																				"pos": "1689",
																				"length": "36",
																				"children": [
																					{
																						"type": "241400",
																						"typeLabel": "RecordPtAccess",
																						"pos": "1689",
																						"length": "9",
																						"children": [
																							{
																								"type": "240100",
																								"typeLabel": "Ident",
																								"pos": "1689",
																								"length": "4",
																								"children": [
																									{
																										"type": "480000",
																										"label": "data",
																										"typeLabel": "GenericString",
																										"pos": "1689",
																										"length": "4",
																										"children": []
																									}
																								]
																							},
																							{
																								"type": "480000",
																								"label": "arg",
																								"typeLabel": "GenericString",
																								"pos": "1695",
																								"length": "3",
																								"children": []
																							}
																						]
																					},
																					{
																						"type": "480000",
																						"label": "=",
																						"typeLabel": "GenericString",
																						"pos": "1699",
																						"length": "1",
																						"children": []
																					},
																					{
																						"type": "240400",
																						"typeLabel": "FunCall",
																						"pos": "1701",
																						"length": "24",
																						"children": [
																							{
																								"type": "240100",
																								"typeLabel": "Ident",
																								"pos": "1701",
																								"length": "7",
																								"children": [
																									{
																										"type": "480000",
																										"label": "xstrdup",
																										"typeLabel": "GenericString",
																										"pos": "1701",
																										"length": "7",
																										"children": []
																									}
																								]
																							},
																							{
																								"type": "470000",
																								"typeLabel": "GenericList",
																								"pos": "1708",
																								"length": "17",
																								"children": [
																									{
																										"type": "20100",
																										"typeLabel": "Left",
																										"pos": "1709",
																										"length": "15",
																										"children": [
																											{
																												"type": "240200",
																												"label": "\"even-vertical\"",
																												"typeLabel": "Constant",
																												"pos": "1709",
																												"length": "15",
																												"children": []
																											}
																										]
																									}
																								]
																							}
																						]
																					}
																				]
																			},
																			{
																				"type": "480000",
																				"label": ";",
																				"typeLabel": "GenericString",
																				"pos": "1725",
																				"length": "1",
																				"children": []
																			}
																		]
																	}
																]
															}
														]
													},
													{
														"type": "280002",
														"typeLabel": "Break",
														"pos": "1729",
														"length": "6",
														"children": []
													},
													{
														"type": "270200",
														"typeLabel": "Case",
														"pos": "1737",
														"length": "60",
														"children": [
															{
																"type": "240400",
																"typeLabel": "FunCall",
																"pos": "1742",
																"length": "16",
																"children": [
																	{
																		"type": "240100",
																		"typeLabel": "Ident",
																		"pos": "1742",
																		"length": "11",
																		"children": [
																			{
																				"type": "480000",
																				"label": "KEYC_ADDESC",
																				"typeLabel": "GenericString",
																				"pos": "1742",
																				"length": "11",
																				"children": []
																			}
																		]
																	},
																	{
																		"type": "470000",
																		"typeLabel": "GenericList",
																		"pos": "1753",
																		"length": "5",
																		"children": [
																			{
																				"type": "20100",
																				"typeLabel": "Left",
																				"pos": "1754",
																				"length": "3",
																				"children": [
																					{
																						"type": "240200",
																						"label": "'9'",
																						"typeLabel": "Constant",
																						"pos": "1754",
																						"length": "3",
																						"children": []
																					}
																				]
																			}
																		]
																	}
																]
															},
															{
																"type": "260300",
																"typeLabel": "ExprStatement",
																"pos": "1762",
																"length": "35",
																"children": [
																	{
																		"type": "290100",
																		"typeLabel": "Some",
																		"pos": "1762",
																		"length": "35",
																		"children": [
																			{
																				"type": "240700",
																				"typeLabel": "Assignment",
																				"pos": "1762",
																				"length": "34",
																				"children": [
																					{
																						"type": "241400",
																						"typeLabel": "RecordPtAccess",
																						"pos": "1762",
																						"length": "9",
																						"children": [
																							{
																								"type": "240100",
																								"typeLabel": "Ident",
																								"pos": "1762",
																								"length": "4",
																								"children": [
																									{
																										"type": "480000",
																										"label": "data",
																										"typeLabel": "GenericString",
																										"pos": "1762",
																										"length": "4",
																										"children": []
																									}
																								]
																							},
																							{
																								"type": "480000",
																								"label": "arg",
																								"typeLabel": "GenericString",
																								"pos": "1768",
																								"length": "3",
																								"children": []
																							}
																						]
																					},
																					{
																						"type": "480000",
																						"label": "=",
																						"typeLabel": "GenericString",
																						"pos": "1772",
																						"length": "1",
																						"children": []
																					},
																					{
																						"type": "240400",
																						"typeLabel": "FunCall",
																						"pos": "1774",
																						"length": "22",
																						"children": [
																							{
																								"type": "240100",
																								"typeLabel": "Ident",
																								"pos": "1774",
																								"length": "7",
																								"children": [
																									{
																										"type": "480000",
																										"label": "xstrdup",
																										"typeLabel": "GenericString",
																										"pos": "1774",
																										"length": "7",
																										"children": []
																									}
																								]
																							},
																							{
																								"type": "470000",
																								"typeLabel": "GenericList",
																								"pos": "1781",
																								"length": "15",
																								"children": [
																									{
																										"type": "20100",
																										"typeLabel": "Left",
																										"pos": "1782",
																										"length": "13",
																										"children": [
																											{
																												"type": "240200",
																												"label": "\"active-only\"",
																												"typeLabel": "Constant",
																												"pos": "1782",
																												"length": "13",
																												"children": []
																											}
																										]
																									}
																								]
																							}
																						]
																					}
																				]
																			},
																			{
																				"type": "480000",
																				"label": ";",
																				"typeLabel": "GenericString",
																				"pos": "1796",
																				"length": "1",
																				"children": []
																			}
																		]
																	}
																]
															}
														]
													},
													{
														"type": "280002",
														"typeLabel": "Break",
														"pos": "1800",
														"length": "6",
														"children": []
													}
												]
											}
										]
									}
								]
							}
						]
					}
				]
			},
			{
				"type": "450200",
				"typeLabel": "Definition",
				"pos": "1813",
				"length": "484",
				"children": [
					{
						"type": "380000",
						"typeLabel": "Definition",
						"pos": "1813",
						"length": "484",
						"children": [
							{
								"type": "200000",
								"typeLabel": "ParamList",
								"pos": "1839",
								"length": "39",
								"children": [
									{
										"type": "220100",
										"typeLabel": "ParameterType",
										"pos": "1840",
										"length": "16",
										"children": [
											{
												"type": "480000",
												"label": "self",
												"typeLabel": "GenericString",
												"pos": "1852",
												"length": "4",
												"children": []
											}
										]
									},
									{
										"type": "220100",
										"typeLabel": "ParameterType",
										"pos": "1858",
										"length": "19",
										"children": [
											{
												"type": "480000",
												"label": "ctx",
												"typeLabel": "GenericString",
												"pos": "1874",
												"length": "3",
												"children": []
											}
										]
									}
								]
							},
							{
								"type": "480000",
								"label": "cmd_select_layout_exec",
								"typeLabel": "GenericString",
								"pos": "1817",
								"length": "22",
								"children": []
							},
							{
								"type": "330000",
								"typeLabel": "Compound",
								"pos": "1879",
								"length": "418",
								"children": [
									{
										"type": "350100",
										"typeLabel": "DeclList",
										"pos": "1882",
										"length": "42",
										"children": [
											{
												"type": "480000",
												"label": "data",
												"typeLabel": "GenericString",
												"pos": "1906",
												"length": "4",
												"children": []
											},
											{
												"type": "360100",
												"typeLabel": "InitExpr",
												"pos": "1913",
												"length": "10",
												"children": [
													{
														"type": "241400",
														"typeLabel": "RecordPtAccess",
														"pos": "1913",
														"length": "10",
														"children": [
															{
																"type": "240100",
																"typeLabel": "Ident",
																"pos": "1913",
																"length": "4",
																"children": [
																	{
																		"type": "480000",
																		"label": "self",
																		"typeLabel": "GenericString",
																		"pos": "1913",
																		"length": "4",
																		"children": []
																	}
																]
															},
															{
																"type": "480000",
																"label": "data",
																"typeLabel": "GenericString",
																"pos": "1919",
																"length": "4",
																"children": []
															}
														]
													}
												]
											}
										]
									},
									{
										"type": "350100",
										"typeLabel": "DeclList",
										"pos": "1926",
										"length": "20",
										"children": [
											{
												"type": "480000",
												"label": "wl",
												"typeLabel": "GenericString",
												"pos": "1943",
												"length": "2",
												"children": []
											}
										]
									},
									{
										"type": "350100",
										"typeLabel": "DeclList",
										"pos": "1948",
										"length": "14",
										"children": [
											{
												"type": "480000",
												"label": "layout",
												"typeLabel": "GenericString",
												"pos": "1955",
												"length": "6",
												"children": []
											}
										]
									},
									{
										"type": "300100",
										"typeLabel": "If",
										"pos": "1965",
										"length": "75",
										"children": [
											{
												"type": "490100",
												"typeLabel": "IfToken",
												"pos": "1965",
												"length": "2",
												"children": []
											},
											{
												"type": "241100",
												"typeLabel": "Binary",
												"pos": "1969",
												"length": "55",
												"children": [
													{
														"type": "242000",
														"typeLabel": "ParenExpr",
														"pos": "1969",
														"length": "47",
														"children": [
															{
																"type": "240700",
																"typeLabel": "Assignment",
																"pos": "1970",
																"length": "45",
																"children": [
																	{
																		"type": "240100",
																		"typeLabel": "Ident",
																		"pos": "1970",
																		"length": "2",
																		"children": [
																			{
																				"type": "480000",
																				"label": "wl",
																				"typeLabel": "GenericString",
																				"pos": "1970",
																				"length": "2",
																				"children": []
																			}
																		]
																	},
																	{
																		"type": "480000",
																		"label": "=",
																		"typeLabel": "GenericString",
																		"pos": "1973",
																		"length": "1",
																		"children": []
																	},
																	{
																		"type": "240400",
																		"typeLabel": "FunCall",
																		"pos": "1975",
																		"length": "40",
																		"children": [
																			{
																				"type": "240100",
																				"typeLabel": "Ident",
																				"pos": "1975",
																				"length": "15",
																				"children": [
																					{
																						"type": "480000",
																						"label": "cmd_find_window",
																						"typeLabel": "GenericString",
																						"pos": "1975",
																						"length": "15",
																						"children": []
																					}
																				]
																			},
																			{
																				"type": "470000",
																				"typeLabel": "GenericList",
																				"pos": "1990",
																				"length": "25",
																				"children": [
																					{
																						"type": "20100",
																						"typeLabel": "Left",
																						"pos": "1991",
																						"length": "3",
																						"children": [
																							{
																								"type": "240100",
																								"typeLabel": "Ident",
																								"pos": "1991",
																								"length": "3",
																								"children": [
																									{
																										"type": "480000",
																										"label": "ctx",
																										"typeLabel": "GenericString",
																										"pos": "1991",
																										"length": "3",
																										"children": []
																									}
																								]
																							}
																						]
																					},
																					{
																						"type": "20100",
																						"typeLabel": "Left",
																						"pos": "1996",
																						"length": "12",
																						"children": [
																							{
																								"type": "241400",
																								"typeLabel": "RecordPtAccess",
																								"pos": "1996",
																								"length": "12",
																								"children": [
																									{
																										"type": "240100",
																										"typeLabel": "Ident",
																										"pos": "1996",
																										"length": "4",
																										"children": [
																											{
																												"type": "480000",
																												"label": "data",
																												"typeLabel": "GenericString",
																												"pos": "1996",
																												"length": "4",
																												"children": []
																											}
																										]
																									},
																									{
																										"type": "480000",
																										"label": "target",
																										"typeLabel": "GenericString",
																										"pos": "2002",
																										"length": "6",
																										"children": []
																									}
																								]
																							}
																						]
																					},
																					{
																						"type": "20100",
																						"typeLabel": "Left",
																						"pos": "2010",
																						"length": "4",
																						"children": [
																							{
																								"type": "240100",
																								"typeLabel": "Ident",
																								"pos": "2010",
																								"length": "4",
																								"children": [
																									{
																										"type": "480000",
																										"label": "NULL",
																										"typeLabel": "GenericString",
																										"pos": "2010",
																										"length": "4",
																										"children": []
																									}
																								]
																							}
																						]
																					}
																				]
																			}
																		]
																	}
																]
															}
														]
													},
													{
														"type": "480000",
														"label": "==",
														"typeLabel": "GenericString",
														"pos": "2017",
														"length": "2",
														"children": []
													},
													{
														"type": "240100",
														"typeLabel": "Ident",
														"pos": "2020",
														"length": "4",
														"children": [
															{
																"type": "480000",
																"label": "NULL",
																"typeLabel": "GenericString",
																"pos": "2020",
																"length": "4",
																"children": []
															}
														]
													}
												]
											},
											{
												"type": "280200",
												"typeLabel": "ReturnExpr",
												"pos": "2028",
												"length": "12",
												"children": [
													{
														"type": "242000",
														"typeLabel": "ParenExpr",
														"pos": "2035",
														"length": "4",
														"children": [
															{
																"type": "241000",
																"typeLabel": "Unary",
																"pos": "2036",
																"length": "2",
																"children": [
																	{
																		"type": "240200",
																		"label": "1",
																		"typeLabel": "Constant",
																		"pos": "2037",
																		"length": "1",
																		"children": []
																	},
																	{
																		"type": "480000",
																		"label": "-",
																		"typeLabel": "GenericString",
																		"pos": "2036",
																		"length": "1",
																		"children": []
																	}
																]
															}
														]
													}
												]
											}
										]
									},
									{
										"type": "300100",
										"typeLabel": "If",
										"pos": "2043",
										"length": "131",
										"children": [
											{
												"type": "490100",
												"typeLabel": "IfToken",
												"pos": "2043",
												"length": "2",
												"children": []
											},
											{
												"type": "241100",
												"typeLabel": "Binary",
												"pos": "2047",
												"length": "41",
												"children": [
													{
														"type": "242000",
														"typeLabel": "ParenExpr",
														"pos": "2047",
														"length": "35",
														"children": [
															{
																"type": "240700",
																"typeLabel": "Assignment",
																"pos": "2048",
																"length": "33",
																"children": [
																	{
																		"type": "240100",
																		"typeLabel": "Ident",
																		"pos": "2048",
																		"length": "6",
																		"children": [
																			{
																				"type": "480000",
																				"label": "layout",
																				"typeLabel": "GenericString",
																				"pos": "2048",
																				"length": "6",
																				"children": []
																			}
																		]
																	},
																	{
																		"type": "480000",
																		"label": "=",
																		"typeLabel": "GenericString",
																		"pos": "2055",
																		"length": "1",
																		"children": []
																	},
																	{
																		"type": "240400",
																		"typeLabel": "FunCall",
																		"pos": "2057",
																		"length": "24",
																		"children": [
																			{
																				"type": "240100",
																				"typeLabel": "Ident",
																				"pos": "2057",
																				"length": "13",
																				"children": [
																					{
																						"type": "480000",
																						"label": "layout_lookup",
																						"typeLabel": "GenericString",
																						"pos": "2057",
																						"length": "13",
																						"children": []
																					}
																				]
																			},
																			{
																				"type": "470000",
																				"typeLabel": "GenericList",
																				"pos": "2070",
																				"length": "11",
																				"children": [
																					{
																						"type": "20100",
																						"typeLabel": "Left",
																						"pos": "2071",
																						"length": "9",
																						"children": [
																							{
																								"type": "241400",
																								"typeLabel": "RecordPtAccess",
																								"pos": "2071",
																								"length": "9",
																								"children": [
																									{
																										"type": "240100",
																										"typeLabel": "Ident",
																										"pos": "2071",
																										"length": "4",
																										"children": [
																											{
																												"type": "480000",
																												"label": "data",
																												"typeLabel": "GenericString",
																												"pos": "2071",
																												"length": "4",
																												"children": []
																											}
																										]
																									},
																									{
																										"type": "480000",
																										"label": "arg",
																										"typeLabel": "GenericString",
																										"pos": "2077",
																										"length": "3",
																										"children": []
																									}
																								]
																							}
																						]
																					}
																				]
																			}
																		]
																	}
																]
															}
														]
													},
													{
														"type": "480000",
														"label": "==",
														"typeLabel": "GenericString",
														"pos": "2083",
														"length": "2",
														"children": []
													},
													{
														"type": "241000",
														"typeLabel": "Unary",
														"pos": "2086",
														"length": "2",
														"children": [
															{
																"type": "240200",
																"label": "1",
																"typeLabel": "Constant",
																"pos": "2087",
																"length": "1",
																"children": []
															},
															{
																"type": "480000",
																"label": "-",
																"typeLabel": "GenericString",
																"pos": "2086",
																"length": "1",
																"children": []
															}
														]
													}
												]
											},
											{
												"type": "330000",
												"typeLabel": "Compound",
												"pos": "2090",
												"length": "84",
												"children": [
													{
														"type": "260300",
														"typeLabel": "ExprStatement",
														"pos": "2094",
														"length": "62",
														"children": [
															{
																"type": "290100",
																"typeLabel": "Some",
																"pos": "2094",
																"length": "62",
																"children": [
																	{
																		"type": "240400",
																		"typeLabel": "FunCall",
																		"pos": "2094",
																		"length": "61",
																		"children": [
																			{
																				"type": "241400",
																				"typeLabel": "RecordPtAccess",
																				"pos": "2094",
																				"length": "10",
																				"children": [
																					{
																						"type": "240100",
																						"typeLabel": "Ident",
																						"pos": "2094",
																						"length": "3",
																						"children": [
																							{
																								"type": "480000",
																								"label": "ctx",
																								"typeLabel": "GenericString",
																								"pos": "2094",
																								"length": "3",
																								"children": []
																							}
																						]
																					},
																					{
																						"type": "480000",
																						"label": "error",
																						"typeLabel": "GenericString",
																						"pos": "2099",
																						"length": "5",
																						"children": []
																					}
																				]
																			},
																			{
																				"type": "470000",
																				"typeLabel": "GenericList",
																				"pos": "2104",
																				"length": "51",
																				"children": [
																					{
																						"type": "20100",
																						"typeLabel": "Left",
																						"pos": "2105",
																						"length": "3",
																						"children": [
																							{
																								"type": "240100",
																								"typeLabel": "Ident",
																								"pos": "2105",
																								"length": "3",
																								"children": [
																									{
																										"type": "480000",
																										"label": "ctx",
																										"typeLabel": "GenericString",
																										"pos": "2105",
																										"length": "3",
																										"children": []
																									}
																								]
																							}
																						]
																					},
																					{
																						"type": "20100",
																						"typeLabel": "Left",
																						"pos": "2110",
																						"length": "33",
																						"children": [
																							{
																								"type": "240200",
																								"label": "\"unknown or ambiguous layout: %s\"",
																								"typeLabel": "Constant",
																								"pos": "2110",
																								"length": "33",
																								"children": []
																							}
																						]
																					},
																					{
																						"type": "20100",
																						"typeLabel": "Left",
																						"pos": "2145",
																						"length": "9",
																						"children": [
																							{
																								"type": "241400",
																								"typeLabel": "RecordPtAccess",
																								"pos": "2145",
																								"length": "9",
																								"children": [
																									{
																										"type": "240100",
																										"typeLabel": "Ident",
																										"pos": "2145",
																										"length": "4",
																										"children": [
																											{
																												"type": "480000",
																												"label": "data",
																												"typeLabel": "GenericString",
																												"pos": "2145",
																												"length": "4",
																												"children": []
																											}
																										]
																									},
																									{
																										"type": "480000",
																										"label": "arg",
																										"typeLabel": "GenericString",
																										"pos": "2151",
																										"length": "3",
																										"children": []
																									}
																								]
																							}
																						]
																					}
																				]
																			}
																		]
																	},
																	{
																		"type": "480000",
																		"label": ";",
																		"typeLabel": "GenericString",
																		"pos": "2155",
																		"length": "1",
																		"children": []
																	}
																]
															}
														]
													},
													{
														"type": "280200",
														"typeLabel": "ReturnExpr",
														"pos": "2159",
														"length": "12",
														"children": [
															{
																"type": "242000",
																"typeLabel": "ParenExpr",
																"pos": "2166",
																"length": "4",
																"children": [
																	{
																		"type": "241000",
																		"typeLabel": "Unary",
																		"pos": "2167",
																		"length": "2",
																		"children": [
																			{
																				"type": "240200",
																				"label": "1",
																				"typeLabel": "Constant",
																				"pos": "2168",
																				"length": "1",
																				"children": []
																			},
																			{
																				"type": "480000",
																				"label": "-",
																				"typeLabel": "GenericString",
																				"pos": "2167",
																				"length": "1",
																				"children": []
																			}
																		]
																	}
																]
															}
														]
													}
												]
											}
										]
									},
									{
										"type": "300100",
										"typeLabel": "If",
										"pos": "2177",
										"length": "104",
										"children": [
											{
												"type": "490100",
												"typeLabel": "IfToken",
												"pos": "2177",
												"length": "2",
												"children": []
											},
											{
												"type": "241100",
												"typeLabel": "Binary",
												"pos": "2181",
												"length": "38",
												"children": [
													{
														"type": "240400",
														"typeLabel": "FunCall",
														"pos": "2181",
														"length": "33",
														"children": [
															{
																"type": "240100",
																"typeLabel": "Ident",
																"pos": "2181",
																"length": "13",
																"children": [
																	{
																		"type": "480000",
																		"label": "layout_select",
																		"typeLabel": "GenericString",
																		"pos": "2181",
																		"length": "13",
																		"children": []
																	}
																]
															},
															{
																"type": "470000",
																"typeLabel": "GenericList",
																"pos": "2194",
																"length": "20",
																"children": [
																	{
																		"type": "20100",
																		"typeLabel": "Left",
																		"pos": "2195",
																		"length": "10",
																		"children": [
																			{
																				"type": "241400",
																				"typeLabel": "RecordPtAccess",
																				"pos": "2195",
																				"length": "10",
																				"children": [
																					{
																						"type": "240100",
																						"typeLabel": "Ident",
																						"pos": "2195",
																						"length": "2",
																						"children": [
																							{
																								"type": "480000",
																								"label": "wl",
																								"typeLabel": "GenericString",
																								"pos": "2195",
																								"length": "2",
																								"children": []
																							}
																						]
																					},
																					{
																						"type": "480000",
																						"label": "window",
																						"typeLabel": "GenericString",
																						"pos": "2199",
																						"length": "6",
																						"children": []
																					}
																				]
																			}
																		]
																	},
																	{
																		"type": "20100",
																		"typeLabel": "Left",
																		"pos": "2207",
																		"length": "6",
																		"children": [
																			{
																				"type": "240100",
																				"typeLabel": "Ident",
																				"pos": "2207",
																				"length": "6",
																				"children": [
																					{
																						"type": "480000",
																						"label": "layout",
																						"typeLabel": "GenericString",
																						"pos": "2207",
																						"length": "6",
																						"children": []
																					}
																				]
																			}
																		]
																	}
																]
															}
														]
													},
													{
														"type": "480000",
														"label": "==",
														"typeLabel": "GenericString",
														"pos": "2215",
														"length": "2",
														"children": []
													},
													{
														"type": "240200",
														"label": "0",
														"typeLabel": "Constant",
														"pos": "2218",
														"length": "1",
														"children": []
													}
												]
											},
											{
												"type": "260300",
												"typeLabel": "ExprStatement",
												"pos": "2223",
												"length": "58",
												"children": [
													{
														"type": "290100",
														"typeLabel": "Some",
														"pos": "2223",
														"length": "58",
														"children": [
															{
																"type": "240400",
																"typeLabel": "FunCall",
																"pos": "2223",
																"length": "57",
																"children": [
																	{
																		"type": "241400",
																		"typeLabel": "RecordPtAccess",
																		"pos": "2223",
																		"length": "9",
																		"children": [
																			{
																				"type": "240100",
																				"typeLabel": "Ident",
																				"pos": "2223",
																				"length": "3",
																				"children": [
																					{
																						"type": "480000",
																						"label": "ctx",
																						"typeLabel": "GenericString",
																						"pos": "2223",
																						"length": "3",
																						"children": []
																					}
																				]
																			},
																			{
																				"type": "480000",
																				"label": "info",
																				"typeLabel": "GenericString",
																				"pos": "2228",
																				"length": "4",
																				"children": []
																			}
																		]
																	},
																	{
																		"type": "470000",
																		"typeLabel": "GenericList",
																		"pos": "2232",
																		"length": "48",
																		"children": [
																			{
																				"type": "20100",
																				"typeLabel": "Left",
																				"pos": "2233",
																				"length": "3",
																				"children": [
																					{
																						"type": "240100",
																						"typeLabel": "Ident",
																						"pos": "2233",
																						"length": "3",
																						"children": [
																							{
																								"type": "480000",
																								"label": "ctx",
																								"typeLabel": "GenericString",
																								"pos": "2233",
																								"length": "3",
																								"children": []
																							}
																						]
																					}
																				]
																			},
																			{
																				"type": "20100",
																				"typeLabel": "Left",
																				"pos": "2238",
																				"length": "16",
																				"children": [
																					{
																						"type": "240200",
																						"label": "\"layout now: %s\"",
																						"typeLabel": "Constant",
																						"pos": "2238",
																						"length": "16",
																						"children": []
																					}
																				]
																			},
																			{
																				"type": "20100",
																				"typeLabel": "Left",
																				"pos": "2256",
																				"length": "23",
																				"children": [
																					{
																						"type": "240400",
																						"typeLabel": "FunCall",
																						"pos": "2256",
																						"length": "23",
																						"children": [
																							{
																								"type": "240100",
																								"typeLabel": "Ident",
																								"pos": "2256",
																								"length": "11",
																								"children": [
																									{
																										"type": "480000",
																										"label": "layout_name",
																										"typeLabel": "GenericString",
																										"pos": "2256",
																										"length": "11",
																										"children": []
																									}
																								]
																							},
																							{
																								"type": "470000",
																								"typeLabel": "GenericList",
																								"pos": "2267",
																								"length": "12",
																								"children": [
																									{
																										"type": "20100",
																										"typeLabel": "Left",
																										"pos": "2268",
																										"length": "10",
																										"children": [
																											{
																												"type": "241400",
																												"typeLabel": "RecordPtAccess",
																												"pos": "2268",
																												"length": "10",
																												"children": [
																													{
																														"type": "240100",
																														"typeLabel": "Ident",
																														"pos": "2268",
																														"length": "2",
																														"children": [
																															{
																																"type": "480000",
																																"label": "wl",
																																"typeLabel": "GenericString",
																																"pos": "2268",
																																"length": "2",
																																"children": []
																															}
																														]
																													},
																													{
																														"type": "480000",
																														"label": "window",
																														"typeLabel": "GenericString",
																														"pos": "2272",
																														"length": "6",
																														"children": []
																													}
																												]
																											}
																										]
																									}
																								]
																							}
																						]
																					}
																				]
																			}
																		]
																	}
																]
															},
															{
																"type": "480000",
																"label": ";",
																"typeLabel": "GenericString",
																"pos": "2280",
																"length": "1",
																"children": []
															}
														]
													}
												]
											}
										]
									},
									{
										"type": "280200",
										"typeLabel": "ReturnExpr",
										"pos": "2284",
										"length": "11",
										"children": [
											{
												"type": "242000",
												"typeLabel": "ParenExpr",
												"pos": "2291",
												"length": "3",
												"children": [
													{
														"type": "240200",
														"label": "0",
														"typeLabel": "Constant",
														"pos": "2292",
														"length": "1",
														"children": []
													}
												]
											}
										]
									}
								]
							}
						]
					}
				]
			},
			{
				"type": "450800",
				"typeLabel": "FinalDef",
				"pos": "2298",
				"length": "0",
				"children": []
			}
		]
	}
}