{
	"root": {
		"type": "460000",
		"typeLabel": "Program",
		"pos": "880",
		"length": "983",
		"children": [
			{
				"type": "450300",
				"typeLabel": "CppTop",
				"pos": "880",
				"length": "22",
				"children": [
					{
						"type": "400200",
						"typeLabel": "Include",
						"pos": "880",
						"length": "22",
						"children": [
							{
								"type": "480000",
								"label": "<sys/types.h>",
								"typeLabel": "GenericString",
								"pos": "889",
								"length": "13",
								"children": []
							}
						]
					}
				]
			},
			{
				"type": "450300",
				"typeLabel": "CppTop",
				"pos": "904",
				"length": "17",
				"children": [
					{
						"type": "400200",
						"typeLabel": "Include",
						"pos": "904",
						"length": "17",
						"children": [
							{
								"type": "480000",
								"label": "\"tmux.h\"",
								"typeLabel": "GenericString",
								"pos": "913",
								"length": "8",
								"children": []
							}
						]
					}
				]
			},
			{
				"type": "450100",
				"typeLabel": "Declaration",
				"pos": "950",
				"length": "57",
				"children": [
					{
						"type": "350100",
						"typeLabel": "DeclList",
						"pos": "950",
						"length": "57",
						"children": [
							{
								"type": "480000",
								"label": "cmd_kill_window_exec",
								"typeLabel": "GenericString",
								"pos": "954",
								"length": "20",
								"children": []
							}
						]
					}
				]
			},
			{
				"type": "450100",
				"typeLabel": "Declaration",
				"pos": "1009",
				"length": "238",
				"children": [
					{
						"type": "350100",
						"typeLabel": "DeclList",
						"pos": "1009",
						"length": "238",
						"children": [
							{
								"type": "40000",
								"typeLabel": "FullType",
								"pos": "1009",
								"length": "22",
								"children": [
									{
										"type": "50000",
										"typeLabel": "TypeQualifier",
										"pos": "1009",
										"length": "5",
										"children": [
											{
												"type": "480000",
												"label": "const",
												"typeLabel": "GenericString",
												"pos": "1009",
												"length": "5",
												"children": []
											}
										]
									},
									{
										"type": "60900",
										"label": "cmd_entry",
										"typeLabel": "StructUnionName",
										"pos": "1009",
										"length": "22",
										"children": []
									}
								]
							},
							{
								"type": "480000",
								"label": "cmd_kill_window_entry",
								"typeLabel": "GenericString",
								"pos": "1032",
								"length": "21",
								"children": []
							},
							{
								"type": "360200",
								"typeLabel": "InitList",
								"pos": "1056",
								"length": "190",
								"children": [
									{
										"type": "360100",
										"typeLabel": "InitExpr",
										"pos": "1059",
										"length": "13",
										"children": [
											{
												"type": "240200",
												"label": "\"kill-window\"",
												"typeLabel": "Constant",
												"pos": "1059",
												"length": "13",
												"children": []
											}
										]
									},
									{
										"type": "360100",
										"typeLabel": "InitExpr",
										"pos": "1074",
										"length": "7",
										"children": [
											{
												"type": "240200",
												"label": "\"killw\"",
												"typeLabel": "Constant",
												"pos": "1074",
												"length": "7",
												"children": []
											}
										]
									},
									{
										"type": "360100",
										"typeLabel": "InitExpr",
										"pos": "1084",
										"length": "23",
										"children": [
											{
												"type": "240100",
												"typeLabel": "Ident",
												"pos": "1084",
												"length": "23",
												"children": [
													{
														"type": "480000",
														"label": "CMD_TARGET_WINDOW_USAGE",
														"typeLabel": "GenericString",
														"pos": "1084",
														"length": "23",
														"children": []
													}
												]
											}
										]
									},
									{
										"type": "360100",
										"typeLabel": "InitExpr",
										"pos": "1110",
										"length": "1",
										"children": [
											{
												"type": "240200",
												"label": "0",
												"typeLabel": "Constant",
												"pos": "1110",
												"length": "1",
												"children": []
											}
										]
									},
									{
										"type": "360100",
										"typeLabel": "InitExpr",
										"pos": "1114",
										"length": "15",
										"children": [
											{
												"type": "240100",
												"typeLabel": "Ident",
												"pos": "1114",
												"length": "15",
												"children": [
													{
														"type": "480000",
														"label": "cmd_target_init",
														"typeLabel": "GenericString",
														"pos": "1114",
														"length": "15",
														"children": []
													}
												]
											}
										]
									},
									{
										"type": "360100",
										"typeLabel": "InitExpr",
										"pos": "1132",
										"length": "16",
										"children": [
											{
												"type": "240100",
												"typeLabel": "Ident",
												"pos": "1132",
												"length": "16",
												"children": [
													{
														"type": "480000",
														"label": "cmd_target_parse",
														"typeLabel": "GenericString",
														"pos": "1132",
														"length": "16",
														"children": []
													}
												]
											}
										]
									},
									{
										"type": "360100",
										"typeLabel": "InitExpr",
										"pos": "1151",
										"length": "20",
										"children": [
											{
												"type": "240100",
												"typeLabel": "Ident",
												"pos": "1151",
												"length": "20",
												"children": [
													{
														"type": "480000",
														"label": "cmd_kill_window_exec",
														"typeLabel": "GenericString",
														"pos": "1151",
														"length": "20",
														"children": []
													}
												]
											}
										]
									},
									{
										"type": "360100",
										"typeLabel": "InitExpr",
										"pos": "1174",
										"length": "15",
										"children": [
											{
												"type": "240100",
												"typeLabel": "Ident",
												"pos": "1174",
												"length": "15",
												"children": [
													{
														"type": "480000",
														"label": "cmd_target_send",
														"typeLabel": "GenericString",
														"pos": "1174",
														"length": "15",
														"children": []
													}
												]
											}
										]
									},
									{
										"type": "360100",
										"typeLabel": "InitExpr",
										"pos": "1192",
										"length": "15",
										"children": [
											{
												"type": "240100",
												"typeLabel": "Ident",
												"pos": "1192",
												"length": "15",
												"children": [
													{
														"type": "480000",
														"label": "cmd_target_recv",
														"typeLabel": "GenericString",
														"pos": "1192",
														"length": "15",
														"children": []
													}
												]
											}
										]
									},
									{
										"type": "360100",
										"typeLabel": "InitExpr",
										"pos": "1210",
										"length": "15",
										"children": [
											{
												"type": "240100",
												"typeLabel": "Ident",
												"pos": "1210",
												"length": "15",
												"children": [
													{
														"type": "480000",
														"label": "cmd_target_free",
														"typeLabel": "GenericString",
														"pos": "1210",
														"length": "15",
														"children": []
													}
												]
											}
										]
									},
									{
										"type": "360100",
										"typeLabel": "InitExpr",
										"pos": "1228",
										"length": "16",
										"children": [
											{
												"type": "240100",
												"typeLabel": "Ident",
												"pos": "1228",
												"length": "16",
												"children": [
													{
														"type": "480000",
														"label": "cmd_target_print",
														"typeLabel": "GenericString",
														"pos": "1228",
														"length": "16",
														"children": []
													}
												]
											}
										]
									}
								]
							}
						]
					}
				]
			},
			{
				"type": "450200",
				"typeLabel": "Definition",
				"pos": "1249",
				"length": "613",
				"children": [
					{
						"type": "380000",
						"typeLabel": "Definition",
						"pos": "1249",
						"length": "613",
						"children": [
							{
								"type": "200000",
								"typeLabel": "ParamList",
								"pos": "1273",
								"length": "39",
								"children": [
									{
										"type": "220100",
										"typeLabel": "ParameterType",
										"pos": "1274",
										"length": "16",
										"children": [
											{
												"type": "480000",
												"label": "self",
												"typeLabel": "GenericString",
												"pos": "1286",
												"length": "4",
												"children": []
											}
										]
									},
									{
										"type": "220100",
										"typeLabel": "ParameterType",
										"pos": "1292",
										"length": "19",
										"children": [
											{
												"type": "480000",
												"label": "ctx",
												"typeLabel": "GenericString",
												"pos": "1308",
												"length": "3",
												"children": []
											}
										]
									}
								]
							},
							{
								"type": "480000",
								"label": "cmd_kill_window_exec",
								"typeLabel": "GenericString",
								"pos": "1253",
								"length": "20",
								"children": []
							},
							{
								"type": "330000",
								"typeLabel": "Compound",
								"pos": "1313",
								"length": "549",
								"children": [
									{
										"type": "350100",
										"typeLabel": "DeclList",
										"pos": "1316",
										"length": "42",
										"children": [
											{
												"type": "480000",
												"label": "data",
												"typeLabel": "GenericString",
												"pos": "1340",
												"length": "4",
												"children": []
											},
											{
												"type": "360100",
												"typeLabel": "InitExpr",
												"pos": "1347",
												"length": "10",
												"children": [
													{
														"type": "241400",
														"typeLabel": "RecordPtAccess",
														"pos": "1347",
														"length": "10",
														"children": [
															{
																"type": "240100",
																"typeLabel": "Ident",
																"pos": "1347",
																"length": "4",
																"children": [
																	{
																		"type": "480000",
																		"label": "self",
																		"typeLabel": "GenericString",
																		"pos": "1347",
																		"length": "4",
																		"children": []
																	}
																]
															},
															{
																"type": "480000",
																"label": "data",
																"typeLabel": "GenericString",
																"pos": "1353",
																"length": "4",
																"children": []
															}
														]
													}
												]
											}
										]
									},
									{
										"type": "350100",
										"typeLabel": "DeclList",
										"pos": "1360",
										"length": "20",
										"children": [
											{
												"type": "480000",
												"label": "wl",
												"typeLabel": "GenericString",
												"pos": "1377",
												"length": "2",
												"children": []
											}
										]
									},
									{
										"type": "350100",
										"typeLabel": "DeclList",
										"pos": "1382",
										"length": "19",
										"children": [
											{
												"type": "480000",
												"label": "s",
												"typeLabel": "GenericString",
												"pos": "1399",
												"length": "1",
												"children": []
											}
										]
									},
									{
										"type": "350100",
										"typeLabel": "DeclList",
										"pos": "1403",
										"length": "18",
										"children": [
											{
												"type": "480000",
												"label": "c",
												"typeLabel": "GenericString",
												"pos": "1419",
												"length": "1",
												"children": []
											}
										]
									},
									{
										"type": "350100",
										"typeLabel": "DeclList",
										"pos": "1423",
										"length": "12",
										"children": [
											{
												"type": "480000",
												"label": "i",
												"typeLabel": "GenericString",
												"pos": "1433",
												"length": "1",
												"children": []
											}
										]
									},
									{
										"type": "350100",
										"typeLabel": "DeclList",
										"pos": "1437",
										"length": "18",
										"children": [
											{
												"type": "480000",
												"label": "destroyed",
												"typeLabel": "GenericString",
												"pos": "1445",
												"length": "9",
												"children": []
											}
										]
									},
									{
										"type": "300100",
										"typeLabel": "If",
										"pos": "1458",
										"length": "73",
										"children": [
											{
												"type": "490100",
												"typeLabel": "IfToken",
												"pos": "1458",
												"length": "2",
												"children": []
											},
											{
												"type": "241100",
												"typeLabel": "Binary",
												"pos": "1462",
												"length": "53",
												"children": [
													{
														"type": "242000",
														"typeLabel": "ParenExpr",
														"pos": "1462",
														"length": "45",
														"children": [
															{
																"type": "240700",
																"typeLabel": "Assignment",
																"pos": "1463",
																"length": "43",
																"children": [
																	{
																		"type": "240100",
																		"typeLabel": "Ident",
																		"pos": "1463",
																		"length": "2",
																		"children": [
																			{
																				"type": "480000",
																				"label": "wl",
																				"typeLabel": "GenericString",
																				"pos": "1463",
																				"length": "2",
																				"children": []
																			}
																		]
																	},
																	{
																		"type": "480000",
																		"label": "=",
																		"typeLabel": "GenericString",
																		"pos": "1466",
																		"length": "1",
																		"children": []
																	},
																	{
																		"type": "240400",
																		"typeLabel": "FunCall",
																		"pos": "1468",
																		"length": "38",
																		"children": [
																			{
																				"type": "240100",
																				"typeLabel": "Ident",
																				"pos": "1468",
																				"length": "15",
																				"children": [
																					{
																						"type": "480000",
																						"label": "cmd_find_window",
																						"typeLabel": "GenericString",
																						"pos": "1468",
																						"length": "15",
																						"children": []
																					}
																				]
																			},
																			{
																				"type": "470000",
																				"typeLabel": "GenericList",
																				"pos": "1483",
																				"length": "23",
																				"children": [
																					{
																						"type": "20100",
																						"typeLabel": "Left",
																						"pos": "1484",
																						"length": "3",
																						"children": [
																							{
																								"type": "240100",
																								"typeLabel": "Ident",
																								"pos": "1484",
																								"length": "3",
																								"children": [
																									{
																										"type": "480000",
																										"label": "ctx",
																										"typeLabel": "GenericString",
																										"pos": "1484",
																										"length": "3",
																										"children": []
																									}
																								]
																							}
																						]
																					},
																					{
																						"type": "20100",
																						"typeLabel": "Left",
																						"pos": "1489",
																						"length": "12",
																						"children": [
																							{
																								"type": "241400",
																								"typeLabel": "RecordPtAccess",
																								"pos": "1489",
																								"length": "12",
																								"children": [
																									{
																										"type": "240100",
																										"typeLabel": "Ident",
																										"pos": "1489",
																										"length": "4",
																										"children": [
																											{
																												"type": "480000",
																												"label": "data",
																												"typeLabel": "GenericString",
																												"pos": "1489",
																												"length": "4",
																												"children": []
																											}
																										]
																									},
																									{
																										"type": "480000",
																										"label": "target",
																										"typeLabel": "GenericString",
																										"pos": "1495",
																										"length": "6",
																										"children": []
																									}
																								]
																							}
																						]
																					},
																					{
																						"type": "20100",
																						"typeLabel": "Left",
																						"pos": "1503",
																						"length": "2",
																						"children": [
																							{
																								"type": "241000",
																								"typeLabel": "Unary",
																								"pos": "1503",
																								"length": "2",
																								"children": [
																									{
																										"type": "240100",
																										"typeLabel": "Ident",
																										"pos": "1504",
																										"length": "1",
																										"children": [
																											{
																												"type": "480000",
																												"label": "s",
																												"typeLabel": "GenericString",
																												"pos": "1504",
																												"length": "1",
																												"children": []
																											}
																										]
																									},
																									{
																										"type": "480000",
																										"label": "&",
																										"typeLabel": "GenericString",
																										"pos": "1503",
																										"length": "1",
																										"children": []
																									}
																								]
																							}
																						]
																					}
																				]
																			}
																		]
																	}
																]
															}
														]
													},
													{
														"type": "480000",
														"label": "==",
														"typeLabel": "GenericString",
														"pos": "1508",
														"length": "2",
														"children": []
													},
													{
														"type": "240100",
														"typeLabel": "Ident",
														"pos": "1511",
														"length": "4",
														"children": [
															{
																"type": "480000",
																"label": "NULL",
																"typeLabel": "GenericString",
																"pos": "1511",
																"length": "4",
																"children": []
															}
														]
													}
												]
											},
											{
												"type": "280200",
												"typeLabel": "ReturnExpr",
												"pos": "1519",
												"length": "12",
												"children": [
													{
														"type": "242000",
														"typeLabel": "ParenExpr",
														"pos": "1526",
														"length": "4",
														"children": [
															{
																"type": "241000",
																"typeLabel": "Unary",
																"pos": "1527",
																"length": "2",
																"children": [
																	{
																		"type": "240200",
																		"label": "1",
																		"typeLabel": "Constant",
																		"pos": "1528",
																		"length": "1",
																		"children": []
																	},
																	{
																		"type": "480000",
																		"label": "-",
																		"typeLabel": "GenericString",
																		"pos": "1527",
																		"length": "1",
																		"children": []
																	}
																]
															}
														]
													}
												]
											}
										]
									},
									{
										"type": "260300",
										"typeLabel": "ExprStatement",
										"pos": "1535",
										"length": "34",
										"children": [
											{
												"type": "290100",
												"typeLabel": "Some",
												"pos": "1535",
												"length": "34",
												"children": [
													{
														"type": "240700",
														"typeLabel": "Assignment",
														"pos": "1535",
														"length": "33",
														"children": [
															{
																"type": "240100",
																"typeLabel": "Ident",
																"pos": "1535",
																"length": "9",
																"children": [
																	{
																		"type": "480000",
																		"label": "destroyed",
																		"typeLabel": "GenericString",
																		"pos": "1535",
																		"length": "9",
																		"children": []
																	}
																]
															},
															{
																"type": "480000",
																"label": "=",
																"typeLabel": "GenericString",
																"pos": "1545",
																"length": "1",
																"children": []
															},
															{
																"type": "240400",
																"typeLabel": "FunCall",
																"pos": "1547",
																"length": "21",
																"children": [
																	{
																		"type": "240100",
																		"typeLabel": "Ident",
																		"pos": "1547",
																		"length": "14",
																		"children": [
																			{
																				"type": "480000",
																				"label": "session_detach",
																				"typeLabel": "GenericString",
																				"pos": "1547",
																				"length": "14",
																				"children": []
																			}
																		]
																	},
																	{
																		"type": "470000",
																		"typeLabel": "GenericList",
																		"pos": "1561",
																		"length": "7",
																		"children": [
																			{
																				"type": "20100",
																				"typeLabel": "Left",
																				"pos": "1562",
																				"length": "1",
																				"children": [
																					{
																						"type": "240100",
																						"typeLabel": "Ident",
																						"pos": "1562",
																						"length": "1",
																						"children": [
																							{
																								"type": "480000",
																								"label": "s",
																								"typeLabel": "GenericString",
																								"pos": "1562",
																								"length": "1",
																								"children": []
																							}
																						]
																					}
																				]
																			},
																			{
																				"type": "20100",
																				"typeLabel": "Left",
																				"pos": "1565",
																				"length": "2",
																				"children": [
																					{
																						"type": "240100",
																						"typeLabel": "Ident",
																						"pos": "1565",
																						"length": "2",
																						"children": [
																							{
																								"type": "480000",
																								"label": "wl",
																								"typeLabel": "GenericString",
																								"pos": "1565",
																								"length": "2",
																								"children": []
																							}
																						]
																					}
																				]
																			}
																		]
																	}
																]
															}
														]
													},
													{
														"type": "480000",
														"label": ";",
														"typeLabel": "GenericString",
														"pos": "1568",
														"length": "1",
														"children": []
													}
												]
											}
										]
									},
									{
										"type": "310300",
										"typeLabel": "For",
										"pos": "1571",
										"length": "253",
										"children": [
											{
												"type": "260300",
												"typeLabel": "ExprStatement",
												"pos": "1576",
												"length": "6",
												"children": [
													{
														"type": "290100",
														"typeLabel": "Some",
														"pos": "1576",
														"length": "6",
														"children": [
															{
																"type": "240700",
																"typeLabel": "Assignment",
																"pos": "1576",
																"length": "5",
																"children": [
																	{
																		"type": "240100",
																		"typeLabel": "Ident",
																		"pos": "1576",
																		"length": "1",
																		"children": [
																			{
																				"type": "480000",
																				"label": "i",
																				"typeLabel": "GenericString",
																				"pos": "1576",
																				"length": "1",
																				"children": []
																			}
																		]
																	},
																	{
																		"type": "480000",
																		"label": "=",
																		"typeLabel": "GenericString",
																		"pos": "1578",
																		"length": "1",
																		"children": []
																	},
																	{
																		"type": "240200",
																		"label": "0",
																		"typeLabel": "Constant",
																		"pos": "1580",
																		"length": "1",
																		"children": []
																	}
																]
															},
															{
																"type": "480000",
																"label": ";",
																"typeLabel": "GenericString",
																"pos": "1581",
																"length": "1",
																"children": []
															}
														]
													}
												]
											},
											{
												"type": "260300",
												"typeLabel": "ExprStatement",
												"pos": "1583",
												"length": "27",
												"children": [
													{
														"type": "290100",
														"typeLabel": "Some",
														"pos": "1583",
														"length": "27",
														"children": [
															{
																"type": "241100",
																"typeLabel": "Binary",
																"pos": "1583",
																"length": "26",
																"children": [
																	{
																		"type": "240100",
																		"typeLabel": "Ident",
																		"pos": "1583",
																		"length": "1",
																		"children": [
																			{
																				"type": "480000",
																				"label": "i",
																				"typeLabel": "GenericString",
																				"pos": "1583",
																				"length": "1",
																				"children": []
																			}
																		]
																	},
																	{
																		"type": "480000",
																		"label": "<",
																		"typeLabel": "GenericString",
																		"pos": "1585",
																		"length": "1",
																		"children": []
																	},
																	{
																		"type": "240400",
																		"typeLabel": "FunCall",
																		"pos": "1587",
																		"length": "22",
																		"children": [
																			{
																				"type": "240100",
																				"typeLabel": "Ident",
																				"pos": "1587",
																				"length": "12",
																				"children": [
																					{
																						"type": "480000",
																						"label": "ARRAY_LENGTH",
																						"typeLabel": "GenericString",
																						"pos": "1587",
																						"length": "12",
																						"children": []
																					}
																				]
																			},
																			{
																				"type": "470000",
																				"typeLabel": "GenericList",
																				"pos": "1599",
																				"length": "10",
																				"children": [
																					{
																						"type": "20100",
																						"typeLabel": "Left",
																						"pos": "1600",
																						"length": "8",
																						"children": [
																							{
																								"type": "241000",
																								"typeLabel": "Unary",
																								"pos": "1600",
																								"length": "8",
																								"children": [
																									{
																										"type": "240100",
																										"typeLabel": "Ident",
																										"pos": "1601",
																										"length": "7",
																										"children": [
																											{
																												"type": "480000",
																												"label": "clients",
																												"typeLabel": "GenericString",
																												"pos": "1601",
																												"length": "7",
																												"children": []
																											}
																										]
																									},
																									{
																										"type": "480000",
																										"label": "&",
																										"typeLabel": "GenericString",
																										"pos": "1600",
																										"length": "1",
																										"children": []
																									}
																								]
																							}
																						]
																					}
																				]
																			}
																		]
																	}
																]
															},
															{
																"type": "480000",
																"label": ";",
																"typeLabel": "GenericString",
																"pos": "1609",
																"length": "1",
																"children": []
															}
														]
													}
												]
											},
											{
												"type": "260300",
												"typeLabel": "ExprStatement",
												"pos": "1611",
												"length": "3",
												"children": [
													{
														"type": "290100",
														"typeLabel": "Some",
														"pos": "1611",
														"length": "3",
														"children": [
															{
																"type": "240800",
																"typeLabel": "Postfix",
																"pos": "1611",
																"length": "3",
																"children": [
																	{
																		"type": "240100",
																		"typeLabel": "Ident",
																		"pos": "1611",
																		"length": "1",
																		"children": [
																			{
																				"type": "480000",
																				"label": "i",
																				"typeLabel": "GenericString",
																				"pos": "1611",
																				"length": "1",
																				"children": []
																			}
																		]
																	},
																	{
																		"type": "480000",
																		"label": "++",
																		"typeLabel": "GenericString",
																		"pos": "1612",
																		"length": "2",
																		"children": []
																	}
																]
															}
														]
													}
												]
											},
											{
												"type": "330000",
												"typeLabel": "Compound",
												"pos": "1616",
												"length": "208",
												"children": [
													{
														"type": "260300",
														"typeLabel": "ExprStatement",
														"pos": "1620",
														"length": "28",
														"children": [
															{
																"type": "290100",
																"typeLabel": "Some",
																"pos": "1620",
																"length": "28",
																"children": [
																	{
																		"type": "240700",
																		"typeLabel": "Assignment",
																		"pos": "1620",
																		"length": "27",
																		"children": [
																			{
																				"type": "240100",
																				"typeLabel": "Ident",
																				"pos": "1620",
																				"length": "1",
																				"children": [
																					{
																						"type": "480000",
																						"label": "c",
																						"typeLabel": "GenericString",
																						"pos": "1620",
																						"length": "1",
																						"children": []
																					}
																				]
																			},
																			{
																				"type": "480000",
																				"label": "=",
																				"typeLabel": "GenericString",
																				"pos": "1622",
																				"length": "1",
																				"children": []
																			},
																			{
																				"type": "240400",
																				"typeLabel": "FunCall",
																				"pos": "1624",
																				"length": "23",
																				"children": [
																					{
																						"type": "240100",
																						"typeLabel": "Ident",
																						"pos": "1624",
																						"length": "10",
																						"children": [
																							{
																								"type": "480000",
																								"label": "ARRAY_ITEM",
																								"typeLabel": "GenericString",
																								"pos": "1624",
																								"length": "10",
																								"children": []
																							}
																						]
																					},
																					{
																						"type": "470000",
																						"typeLabel": "GenericList",
																						"pos": "1634",
																						"length": "13",
																						"children": [
																							{
																								"type": "20100",
																								"typeLabel": "Left",
																								"pos": "1635",
																								"length": "8",
																								"children": [
																									{
																										"type": "241000",
																										"typeLabel": "Unary",
																										"pos": "1635",
																										"length": "8",
																										"children": [
																											{
																												"type": "240100",
																												"typeLabel": "Ident",
																												"pos": "1636",
																												"length": "7",
																												"children": [
																													{
																														"type": "480000",
																														"label": "clients",
																														"typeLabel": "GenericString",
																														"pos": "1636",
																														"length": "7",
																														"children": []
																													}
																												]
																											},
																											{
																												"type": "480000",
																												"label": "&",
																												"typeLabel": "GenericString",
																												"pos": "1635",
																												"length": "1",
																												"children": []
																											}
																										]
																									}
																								]
																							},
																							{
																								"type": "20100",
																								"typeLabel": "Left",
																								"pos": "1645",
																								"length": "1",
																								"children": [
																									{
																										"type": "240100",
																										"typeLabel": "Ident",
																										"pos": "1645",
																										"length": "1",
																										"children": [
																											{
																												"type": "480000",
																												"label": "i",
																												"typeLabel": "GenericString",
																												"pos": "1645",
																												"length": "1",
																												"children": []
																											}
																										]
																									}
																								]
																							}
																						]
																					}
																				]
																			}
																		]
																	},
																	{
																		"type": "480000",
																		"label": ";",
																		"typeLabel": "GenericString",
																		"pos": "1647",
																		"length": "1",
																		"children": []
																	}
																]
															}
														]
													},
													{
														"type": "300100",
														"typeLabel": "If",
														"pos": "1651",
														"length": "46",
														"children": [
															{
																"type": "490100",
																"typeLabel": "IfToken",
																"pos": "1651",
																"length": "2",
																"children": []
															},
															{
																"type": "241100",
																"typeLabel": "Binary",
																"pos": "1655",
																"length": "28",
																"children": [
																	{
																		"type": "241100",
																		"typeLabel": "Binary",
																		"pos": "1655",
																		"length": "9",
																		"children": [
																			{
																				"type": "240100",
																				"typeLabel": "Ident",
																				"pos": "1655",
																				"length": "1",
																				"children": [
																					{
																						"type": "480000",
																						"label": "c",
																						"typeLabel": "GenericString",
																						"pos": "1655",
																						"length": "1",
																						"children": []
																					}
																				]
																			},
																			{
																				"type": "480000",
																				"label": "==",
																				"typeLabel": "GenericString",
																				"pos": "1657",
																				"length": "2",
																				"children": []
																			},
																			{
																				"type": "240100",
																				"typeLabel": "Ident",
																				"pos": "1660",
																				"length": "4",
																				"children": [
																					{
																						"type": "480000",
																						"label": "NULL",
																						"typeLabel": "GenericString",
																						"pos": "1660",
																						"length": "4",
																						"children": []
																					}
																				]
																			}
																		]
																	},
																	{
																		"type": "480000",
																		"label": "||",
																		"typeLabel": "GenericString",
																		"pos": "1665",
																		"length": "2",
																		"children": []
																	},
																	{
																		"type": "241100",
																		"typeLabel": "Binary",
																		"pos": "1668",
																		"length": "15",
																		"children": [
																			{
																				"type": "241400",
																				"typeLabel": "RecordPtAccess",
																				"pos": "1668",
																				"length": "10",
																				"children": [
																					{
																						"type": "240100",
																						"typeLabel": "Ident",
																						"pos": "1668",
																						"length": "1",
																						"children": [
																							{
																								"type": "480000",
																								"label": "c",
																								"typeLabel": "GenericString",
																								"pos": "1668",
																								"length": "1",
																								"children": []
																							}
																						]
																					},
																					{
																						"type": "480000",
																						"label": "session",
																						"typeLabel": "GenericString",
																						"pos": "1671",
																						"length": "7",
																						"children": []
																					}
																				]
																			},
																			{
																				"type": "480000",
																				"label": "!=",
																				"typeLabel": "GenericString",
																				"pos": "1679",
																				"length": "2",
																				"children": []
																			},
																			{
																				"type": "240100",
																				"typeLabel": "Ident",
																				"pos": "1682",
																				"length": "1",
																				"children": [
																					{
																						"type": "480000",
																						"label": "s",
																						"typeLabel": "GenericString",
																						"pos": "1682",
																						"length": "1",
																						"children": []
																					}
																				]
																			}
																		]
																	}
																]
															},
															{
																"type": "280001",
																"typeLabel": "Continue",
																"pos": "1688",
																"length": "9",
																"children": []
															}
														]
													},
													{
														"type": "300100",
														"typeLabel": "If",
														"pos": "1700",
														"length": "121",
														"children": [
															{
																"type": "490100",
																"typeLabel": "IfToken",
																"pos": "1700",
																"length": "2",
																"children": []
															},
															{
																"type": "240100",
																"typeLabel": "Ident",
																"pos": "1704",
																"length": "9",
																"children": [
																	{
																		"type": "480000",
																		"label": "destroyed",
																		"typeLabel": "GenericString",
																		"pos": "1704",
																		"length": "9",
																		"children": []
																	}
																]
															},
															{
																"type": "330000",
																"typeLabel": "Compound",
																"pos": "1715",
																"length": "73",
																"children": [
																	{
																		"type": "260300",
																		"typeLabel": "ExprStatement",
																		"pos": "1720",
																		"length": "18",
																		"children": [
																			{
																				"type": "290100",
																				"typeLabel": "Some",
																				"pos": "1720",
																				"length": "18",
																				"children": [
																					{
																						"type": "240700",
																						"typeLabel": "Assignment",
																						"pos": "1720",
																						"length": "17",
																						"children": [
																							{
																								"type": "241400",
																								"typeLabel": "RecordPtAccess",
																								"pos": "1720",
																								"length": "10",
																								"children": [
																									{
																										"type": "240100",
																										"typeLabel": "Ident",
																										"pos": "1720",
																										"length": "1",
																										"children": [
																											{
																												"type": "480000",
																												"label": "c",
																												"typeLabel": "GenericString",
																												"pos": "1720",
																												"length": "1",
																												"children": []
																											}
																										]
																									},
																									{
																										"type": "480000",
																										"label": "session",
																										"typeLabel": "GenericString",
																										"pos": "1723",
																										"length": "7",
																										"children": []
																									}
																								]
																							},
																							{
																								"type": "480000",
																								"label": "=",
																								"typeLabel": "GenericString",
																								"pos": "1731",
																								"length": "1",
																								"children": []
																							},
																							{
																								"type": "240100",
																								"typeLabel": "Ident",
																								"pos": "1733",
																								"length": "4",
																								"children": [
																									{
																										"type": "480000",
																										"label": "NULL",
																										"typeLabel": "GenericString",
																										"pos": "1733",
																										"length": "4",
																										"children": []
																									}
																								]
																							}
																						]
																					},
																					{
																						"type": "480000",
																						"label": ";",
																						"typeLabel": "GenericString",
																						"pos": "1737",
																						"length": "1",
																						"children": []
																					}
																				]
																			}
																		]
																	},
																	{
																		"type": "260300",
																		"typeLabel": "ExprStatement",
																		"pos": "1742",
																		"length": "42",
																		"children": [
																			{
																				"type": "290100",
																				"typeLabel": "Some",
																				"pos": "1742",
																				"length": "42",
																				"children": [
																					{
																						"type": "240400",
																						"typeLabel": "FunCall",
																						"pos": "1742",
																						"length": "41",
																						"children": [
																							{
																								"type": "240100",
																								"typeLabel": "Ident",
																								"pos": "1742",
																								"length": "19",
																								"children": [
																									{
																										"type": "480000",
																										"label": "server_write_client",
																										"typeLabel": "GenericString",
																										"pos": "1742",
																										"length": "19",
																										"children": []
																									}
																								]
																							},
																							{
																								"type": "470000",
																								"typeLabel": "GenericList",
																								"pos": "1761",
																								"length": "22",
																								"children": [
																									{
																										"type": "20100",
																										"typeLabel": "Left",
																										"pos": "1762",
																										"length": "1",
																										"children": [
																											{
																												"type": "240100",
																												"typeLabel": "Ident",
																												"pos": "1762",
																												"length": "1",
																												"children": [
																													{
																														"type": "480000",
																														"label": "c",
																														"typeLabel": "GenericString",
																														"pos": "1762",
																														"length": "1",
																														"children": []
																													}
																												]
																											}
																										]
																									},
																									{
																										"type": "20100",
																										"typeLabel": "Left",
																										"pos": "1765",
																										"length": "8",
																										"children": [
																											{
																												"type": "240100",
																												"typeLabel": "Ident",
																												"pos": "1765",
																												"length": "8",
																												"children": [
																													{
																														"type": "480000",
																														"label": "MSG_EXIT",
																														"typeLabel": "GenericString",
																														"pos": "1765",
																														"length": "8",
																														"children": []
																													}
																												]
																											}
																										]
																									},
																									{
																										"type": "20100",
																										"typeLabel": "Left",
																										"pos": "1775",
																										"length": "4",
																										"children": [
																											{
																												"type": "240100",
																												"typeLabel": "Ident",
																												"pos": "1775",
																												"length": "4",
																												"children": [
																													{
																														"type": "480000",
																														"label": "NULL",
																														"typeLabel": "GenericString",
																														"pos": "1775",
																														"length": "4",
																														"children": []
																													}
																												]
																											}
																										]
																									},
																									{
																										"type": "20100",
																										"typeLabel": "Left",
																										"pos": "1781",
																										"length": "1",
																										"children": [
																											{
																												"type": "240200",
																												"label": "0",
																												"typeLabel": "Constant",
																												"pos": "1781",
																												"length": "1",
																												"children": []
																											}
																										]
																									}
																								]
																							}
																						]
																					},
																					{
																						"type": "480000",
																						"label": ";",
																						"typeLabel": "GenericString",
																						"pos": "1783",
																						"length": "1",
																						"children": []
																					}
																				]
																			}
																		]
																	}
																]
															},
															{
																"type": "260300",
																"typeLabel": "ExprStatement",
																"pos": "1797",
																"length": "24",
																"children": [
																	{
																		"type": "290100",
																		"typeLabel": "Some",
																		"pos": "1797",
																		"length": "24",
																		"children": [
																			{
																				"type": "240400",
																				"typeLabel": "FunCall",
																				"pos": "1797",
																				"length": "23",
																				"children": [
																					{
																						"type": "240100",
																						"typeLabel": "Ident",
																						"pos": "1797",
																						"length": "20",
																						"children": [
																							{
																								"type": "480000",
																								"label": "server_redraw_client",
																								"typeLabel": "GenericString",
																								"pos": "1797",
																								"length": "20",
																								"children": []
																							}
																						]
																					},
																					{
																						"type": "470000",
																						"typeLabel": "GenericList",
																						"pos": "1817",
																						"length": "3",
																						"children": [
																							{
																								"type": "20100",
																								"typeLabel": "Left",
																								"pos": "1818",
																								"length": "1",
																								"children": [
																									{
																										"type": "240100",
																										"typeLabel": "Ident",
																										"pos": "1818",
																										"length": "1",
																										"children": [
																											{
																												"type": "480000",
																												"label": "c",
																												"typeLabel": "GenericString",
																												"pos": "1818",
																												"length": "1",
																												"children": []
																											}
																										]
																									}
																								]
																							}
																						]
																					}
																				]
																			},
																			{
																				"type": "480000",
																				"label": ";",
																				"typeLabel": "GenericString",
																				"pos": "1820",
																				"length": "1",
																				"children": []
																			}
																		]
																	}
																]
															}
														]
													}
												]
											}
										]
									},
									{
										"type": "260300",
										"typeLabel": "ExprStatement",
										"pos": "1826",
										"length": "20",
										"children": [
											{
												"type": "290100",
												"typeLabel": "Some",
												"pos": "1826",
												"length": "20",
												"children": [
													{
														"type": "240400",
														"typeLabel": "FunCall",
														"pos": "1826",
														"length": "19",
														"children": [
															{
																"type": "240100",
																"typeLabel": "Ident",
																"pos": "1826",
																"length": "17",
																"children": [
																	{
																		"type": "480000",
																		"label": "recalculate_sizes",
																		"typeLabel": "GenericString",
																		"pos": "1826",
																		"length": "17",
																		"children": []
																	}
																]
															},
															{
																"type": "470000",
																"typeLabel": "GenericList",
																"pos": "1843",
																"length": "2",
																"children": []
															}
														]
													},
													{
														"type": "480000",
														"label": ";",
														"typeLabel": "GenericString",
														"pos": "1845",
														"length": "1",
														"children": []
													}
												]
											}
										]
									},
									{
										"type": "280200",
										"typeLabel": "ReturnExpr",
										"pos": "1849",
										"length": "11",
										"children": [
											{
												"type": "242000",
												"typeLabel": "ParenExpr",
												"pos": "1856",
												"length": "3",
												"children": [
													{
														"type": "240200",
														"label": "0",
														"typeLabel": "Constant",
														"pos": "1857",
														"length": "1",
														"children": []
													}
												]
											}
										]
									}
								]
							}
						]
					}
				]
			},
			{
				"type": "450800",
				"typeLabel": "FinalDef",
				"pos": "1863",
				"length": "0",
				"children": []
			}
		]
	}
}