{
	"root": {
		"type": "460000",
		"typeLabel": "Program",
		"pos": "881",
		"length": "810",
		"children": [
			{
				"type": "450300",
				"typeLabel": "CppTop",
				"pos": "881",
				"length": "22",
				"children": [
					{
						"type": "400200",
						"typeLabel": "Include",
						"pos": "881",
						"length": "22",
						"children": [
							{
								"type": "480000",
								"label": "<sys/types.h>",
								"typeLabel": "GenericString",
								"pos": "890",
								"length": "13",
								"children": []
							}
						]
					}
				]
			},
			{
				"type": "450300",
				"typeLabel": "CppTop",
				"pos": "905",
				"length": "19",
				"children": [
					{
						"type": "400200",
						"typeLabel": "Include",
						"pos": "905",
						"length": "19",
						"children": [
							{
								"type": "480000",
								"label": "<string.h>",
								"typeLabel": "GenericString",
								"pos": "914",
								"length": "10",
								"children": []
							}
						]
					}
				]
			},
			{
				"type": "450300",
				"typeLabel": "CppTop",
				"pos": "925",
				"length": "17",
				"children": [
					{
						"type": "400200",
						"typeLabel": "Include",
						"pos": "925",
						"length": "17",
						"children": [
							{
								"type": "480000",
								"label": "<time.h>",
								"typeLabel": "GenericString",
								"pos": "934",
								"length": "8",
								"children": []
							}
						]
					}
				]
			},
			{
				"type": "450300",
				"typeLabel": "CppTop",
				"pos": "944",
				"length": "17",
				"children": [
					{
						"type": "400200",
						"typeLabel": "Include",
						"pos": "944",
						"length": "17",
						"children": [
							{
								"type": "480000",
								"label": "\"tmux.h\"",
								"typeLabel": "GenericString",
								"pos": "953",
								"length": "8",
								"children": []
							}
						]
					}
				]
			},
			{
				"type": "450100",
				"typeLabel": "Declaration",
				"pos": "992",
				"length": "58",
				"children": [
					{
						"type": "350100",
						"typeLabel": "DeclList",
						"pos": "992",
						"length": "58",
						"children": [
							{
								"type": "480000",
								"label": "cmd_list_clients_exec",
								"typeLabel": "GenericString",
								"pos": "996",
								"length": "21",
								"children": []
							}
						]
					}
				]
			},
			{
				"type": "450100",
				"typeLabel": "Declaration",
				"pos": "1052",
				"length": "150",
				"children": [
					{
						"type": "350100",
						"typeLabel": "DeclList",
						"pos": "1052",
						"length": "150",
						"children": [
							{
								"type": "40000",
								"typeLabel": "FullType",
								"pos": "1052",
								"length": "22",
								"children": [
									{
										"type": "50000",
										"typeLabel": "TypeQualifier",
										"pos": "1052",
										"length": "5",
										"children": [
											{
												"type": "480000",
												"label": "const",
												"typeLabel": "GenericString",
												"pos": "1052",
												"length": "5",
												"children": []
											}
										]
									},
									{
										"type": "60900",
										"label": "cmd_entry",
										"typeLabel": "StructUnionName",
										"pos": "1052",
										"length": "22",
										"children": []
									}
								]
							},
							{
								"type": "480000",
								"label": "cmd_list_clients_entry",
								"typeLabel": "GenericString",
								"pos": "1075",
								"length": "22",
								"children": []
							},
							{
								"type": "360200",
								"typeLabel": "InitList",
								"pos": "1100",
								"length": "101",
								"children": [
									{
										"type": "360100",
										"typeLabel": "InitExpr",
										"pos": "1103",
										"length": "14",
										"children": [
											{
												"type": "240200",
												"label": "\"list-clients\"",
												"typeLabel": "Constant",
												"pos": "1103",
												"length": "14",
												"children": []
											}
										]
									},
									{
										"type": "360100",
										"typeLabel": "InitExpr",
										"pos": "1119",
										"length": "5",
										"children": [
											{
												"type": "240200",
												"label": "\"lsc\"",
												"typeLabel": "Constant",
												"pos": "1119",
												"length": "5",
												"children": []
											}
										]
									},
									{
										"type": "360100",
										"typeLabel": "InitExpr",
										"pos": "1127",
										"length": "2",
										"children": [
											{
												"type": "240200",
												"label": "\"\"",
												"typeLabel": "Constant",
												"pos": "1127",
												"length": "2",
												"children": []
											}
										]
									},
									{
										"type": "360100",
										"typeLabel": "InitExpr",
										"pos": "1132",
										"length": "1",
										"children": [
											{
												"type": "240200",
												"label": "0",
												"typeLabel": "Constant",
												"pos": "1132",
												"length": "1",
												"children": []
											}
										]
									},
									{
										"type": "360100",
										"typeLabel": "InitExpr",
										"pos": "1136",
										"length": "4",
										"children": [
											{
												"type": "240100",
												"typeLabel": "Ident",
												"pos": "1136",
												"length": "4",
												"children": [
													{
														"type": "480000",
														"label": "NULL",
														"typeLabel": "GenericString",
														"pos": "1136",
														"length": "4",
														"children": []
													}
												]
											}
										]
									},
									{
										"type": "360100",
										"typeLabel": "InitExpr",
										"pos": "1143",
										"length": "4",
										"children": [
											{
												"type": "240100",
												"typeLabel": "Ident",
												"pos": "1143",
												"length": "4",
												"children": [
													{
														"type": "480000",
														"label": "NULL",
														"typeLabel": "GenericString",
														"pos": "1143",
														"length": "4",
														"children": []
													}
												]
											}
										]
									},
									{
										"type": "360100",
										"typeLabel": "InitExpr",
										"pos": "1150",
										"length": "21",
										"children": [
											{
												"type": "240100",
												"typeLabel": "Ident",
												"pos": "1150",
												"length": "21",
												"children": [
													{
														"type": "480000",
														"label": "cmd_list_clients_exec",
														"typeLabel": "GenericString",
														"pos": "1150",
														"length": "21",
														"children": []
													}
												]
											}
										]
									},
									{
										"type": "360100",
										"typeLabel": "InitExpr",
										"pos": "1174",
										"length": "4",
										"children": [
											{
												"type": "240100",
												"typeLabel": "Ident",
												"pos": "1174",
												"length": "4",
												"children": [
													{
														"type": "480000",
														"label": "NULL",
														"typeLabel": "GenericString",
														"pos": "1174",
														"length": "4",
														"children": []
													}
												]
											}
										]
									},
									{
										"type": "360100",
										"typeLabel": "InitExpr",
										"pos": "1181",
										"length": "4",
										"children": [
											{
												"type": "240100",
												"typeLabel": "Ident",
												"pos": "1181",
												"length": "4",
												"children": [
													{
														"type": "480000",
														"label": "NULL",
														"typeLabel": "GenericString",
														"pos": "1181",
														"length": "4",
														"children": []
													}
												]
											}
										]
									},
									{
										"type": "360100",
										"typeLabel": "InitExpr",
										"pos": "1188",
										"length": "4",
										"children": [
											{
												"type": "240100",
												"typeLabel": "Ident",
												"pos": "1188",
												"length": "4",
												"children": [
													{
														"type": "480000",
														"label": "NULL",
														"typeLabel": "GenericString",
														"pos": "1188",
														"length": "4",
														"children": []
													}
												]
											}
										]
									},
									{
										"type": "360100",
										"typeLabel": "InitExpr",
										"pos": "1195",
										"length": "4",
										"children": [
											{
												"type": "240100",
												"typeLabel": "Ident",
												"pos": "1195",
												"length": "4",
												"children": [
													{
														"type": "480000",
														"label": "NULL",
														"typeLabel": "GenericString",
														"pos": "1195",
														"length": "4",
														"children": []
													}
												]
											}
										]
									}
								]
							}
						]
					}
				]
			},
			{
				"type": "450200",
				"typeLabel": "Definition",
				"pos": "1204",
				"length": "486",
				"children": [
					{
						"type": "380000",
						"typeLabel": "Definition",
						"pos": "1204",
						"length": "486",
						"children": [
							{
								"type": "200000",
								"typeLabel": "ParamList",
								"pos": "1229",
								"length": "46",
								"children": [
									{
										"type": "220100",
										"typeLabel": "ParameterType",
										"pos": "1237",
										"length": "16",
										"children": [
											{
												"type": "480000",
												"label": "self",
												"typeLabel": "GenericString",
												"pos": "1249",
												"length": "4",
												"children": []
											}
										]
									},
									{
										"type": "220100",
										"typeLabel": "ParameterType",
										"pos": "1255",
										"length": "19",
										"children": [
											{
												"type": "480000",
												"label": "ctx",
												"typeLabel": "GenericString",
												"pos": "1271",
												"length": "3",
												"children": []
											}
										]
									}
								]
							},
							{
								"type": "480000",
								"label": "cmd_list_clients_exec",
								"typeLabel": "GenericString",
								"pos": "1208",
								"length": "21",
								"children": []
							},
							{
								"type": "330000",
								"typeLabel": "Compound",
								"pos": "1276",
								"length": "414",
								"children": [
									{
										"type": "350100",
										"typeLabel": "DeclList",
										"pos": "1279",
										"length": "17",
										"children": [
											{
												"type": "480000",
												"label": "c",
												"typeLabel": "GenericString",
												"pos": "1294",
												"length": "1",
												"children": []
											}
										]
									},
									{
										"type": "350100",
										"typeLabel": "DeclList",
										"pos": "1298",
										"length": "10",
										"children": [
											{
												"type": "480000",
												"label": "i",
												"typeLabel": "GenericString",
												"pos": "1306",
												"length": "1",
												"children": []
											}
										]
									},
									{
										"type": "350100",
										"typeLabel": "DeclList",
										"pos": "1310",
										"length": "19",
										"children": [
											{
												"type": "480000",
												"label": "s_utf8",
												"typeLabel": "GenericString",
												"pos": "1322",
												"length": "6",
												"children": []
											}
										]
									},
									{
										"type": "310300",
										"typeLabel": "For",
										"pos": "1332",
										"length": "342",
										"children": [
											{
												"type": "260300",
												"typeLabel": "ExprStatement",
												"pos": "1337",
												"length": "6",
												"children": [
													{
														"type": "290100",
														"typeLabel": "Some",
														"pos": "1337",
														"length": "6",
														"children": [
															{
																"type": "240700",
																"typeLabel": "Assignment",
																"pos": "1337",
																"length": "5",
																"children": [
																	{
																		"type": "240100",
																		"typeLabel": "Ident",
																		"pos": "1337",
																		"length": "1",
																		"children": [
																			{
																				"type": "480000",
																				"label": "i",
																				"typeLabel": "GenericString",
																				"pos": "1337",
																				"length": "1",
																				"children": []
																			}
																		]
																	},
																	{
																		"type": "480000",
																		"label": "=",
																		"typeLabel": "GenericString",
																		"pos": "1339",
																		"length": "1",
																		"children": []
																	},
																	{
																		"type": "240200",
																		"label": "0",
																		"typeLabel": "Constant",
																		"pos": "1341",
																		"length": "1",
																		"children": []
																	}
																]
															},
															{
																"type": "480000",
																"label": ";",
																"typeLabel": "GenericString",
																"pos": "1342",
																"length": "1",
																"children": []
															}
														]
													}
												]
											},
											{
												"type": "260300",
												"typeLabel": "ExprStatement",
												"pos": "1344",
												"length": "27",
												"children": [
													{
														"type": "290100",
														"typeLabel": "Some",
														"pos": "1344",
														"length": "27",
														"children": [
															{
																"type": "241100",
																"typeLabel": "Binary",
																"pos": "1344",
																"length": "26",
																"children": [
																	{
																		"type": "240100",
																		"typeLabel": "Ident",
																		"pos": "1344",
																		"length": "1",
																		"children": [
																			{
																				"type": "480000",
																				"label": "i",
																				"typeLabel": "GenericString",
																				"pos": "1344",
																				"length": "1",
																				"children": []
																			}
																		]
																	},
																	{
																		"type": "480000",
																		"label": "<",
																		"typeLabel": "GenericString",
																		"pos": "1346",
																		"length": "1",
																		"children": []
																	},
																	{
																		"type": "240400",
																		"typeLabel": "FunCall",
																		"pos": "1348",
																		"length": "22",
																		"children": [
																			{
																				"type": "240100",
																				"typeLabel": "Ident",
																				"pos": "1348",
																				"length": "12",
																				"children": [
																					{
																						"type": "480000",
																						"label": "ARRAY_LENGTH",
																						"typeLabel": "GenericString",
																						"pos": "1348",
																						"length": "12",
																						"children": []
																					}
																				]
																			},
																			{
																				"type": "470000",
																				"typeLabel": "GenericList",
																				"pos": "1360",
																				"length": "10",
																				"children": [
																					{
																						"type": "20100",
																						"typeLabel": "Left",
																						"pos": "1361",
																						"length": "8",
																						"children": [
																							{
																								"type": "241000",
																								"typeLabel": "Unary",
																								"pos": "1361",
																								"length": "8",
																								"children": [
																									{
																										"type": "240100",
																										"typeLabel": "Ident",
																										"pos": "1362",
																										"length": "7",
																										"children": [
																											{
																												"type": "480000",
																												"label": "clients",
																												"typeLabel": "GenericString",
																												"pos": "1362",
																												"length": "7",
																												"children": []
																											}
																										]
																									},
																									{
																										"type": "480000",
																										"label": "&",
																										"typeLabel": "GenericString",
																										"pos": "1361",
																										"length": "1",
																										"children": []
																									}
																								]
																							}
																						]
																					}
																				]
																			}
																		]
																	}
																]
															},
															{
																"type": "480000",
																"label": ";",
																"typeLabel": "GenericString",
																"pos": "1370",
																"length": "1",
																"children": []
															}
														]
													}
												]
											},
											{
												"type": "260300",
												"typeLabel": "ExprStatement",
												"pos": "1372",
												"length": "3",
												"children": [
													{
														"type": "290100",
														"typeLabel": "Some",
														"pos": "1372",
														"length": "3",
														"children": [
															{
																"type": "240800",
																"typeLabel": "Postfix",
																"pos": "1372",
																"length": "3",
																"children": [
																	{
																		"type": "240100",
																		"typeLabel": "Ident",
																		"pos": "1372",
																		"length": "1",
																		"children": [
																			{
																				"type": "480000",
																				"label": "i",
																				"typeLabel": "GenericString",
																				"pos": "1372",
																				"length": "1",
																				"children": []
																			}
																		]
																	},
																	{
																		"type": "480000",
																		"label": "++",
																		"typeLabel": "GenericString",
																		"pos": "1373",
																		"length": "2",
																		"children": []
																	}
																]
															}
														]
													}
												]
											},
											{
												"type": "330000",
												"typeLabel": "Compound",
												"pos": "1377",
												"length": "297",
												"children": [
													{
														"type": "260300",
														"typeLabel": "ExprStatement",
														"pos": "1381",
														"length": "28",
														"children": [
															{
																"type": "290100",
																"typeLabel": "Some",
																"pos": "1381",
																"length": "28",
																"children": [
																	{
																		"type": "240700",
																		"typeLabel": "Assignment",
																		"pos": "1381",
																		"length": "27",
																		"children": [
																			{
																				"type": "240100",
																				"typeLabel": "Ident",
																				"pos": "1381",
																				"length": "1",
																				"children": [
																					{
																						"type": "480000",
																						"label": "c",
																						"typeLabel": "GenericString",
																						"pos": "1381",
																						"length": "1",
																						"children": []
																					}
																				]
																			},
																			{
																				"type": "480000",
																				"label": "=",
																				"typeLabel": "GenericString",
																				"pos": "1383",
																				"length": "1",
																				"children": []
																			},
																			{
																				"type": "240400",
																				"typeLabel": "FunCall",
																				"pos": "1385",
																				"length": "23",
																				"children": [
																					{
																						"type": "240100",
																						"typeLabel": "Ident",
																						"pos": "1385",
																						"length": "10",
																						"children": [
																							{
																								"type": "480000",
																								"label": "ARRAY_ITEM",
																								"typeLabel": "GenericString",
																								"pos": "1385",
																								"length": "10",
																								"children": []
																							}
																						]
																					},
																					{
																						"type": "470000",
																						"typeLabel": "GenericList",
																						"pos": "1395",
																						"length": "13",
																						"children": [
																							{
																								"type": "20100",
																								"typeLabel": "Left",
																								"pos": "1396",
																								"length": "8",
																								"children": [
																									{
																										"type": "241000",
																										"typeLabel": "Unary",
																										"pos": "1396",
																										"length": "8",
																										"children": [
																											{
																												"type": "240100",
																												"typeLabel": "Ident",
																												"pos": "1397",
																												"length": "7",
																												"children": [
																													{
																														"type": "480000",
																														"label": "clients",
																														"typeLabel": "GenericString",
																														"pos": "1397",
																														"length": "7",
																														"children": []
																													}
																												]
																											},
																											{
																												"type": "480000",
																												"label": "&",
																												"typeLabel": "GenericString",
																												"pos": "1396",
																												"length": "1",
																												"children": []
																											}
																										]
																									}
																								]
																							},
																							{
																								"type": "20100",
																								"typeLabel": "Left",
																								"pos": "1406",
																								"length": "1",
																								"children": [
																									{
																										"type": "240100",
																										"typeLabel": "Ident",
																										"pos": "1406",
																										"length": "1",
																										"children": [
																											{
																												"type": "480000",
																												"label": "i",
																												"typeLabel": "GenericString",
																												"pos": "1406",
																												"length": "1",
																												"children": []
																											}
																										]
																									}
																								]
																							}
																						]
																					}
																				]
																			}
																		]
																	},
																	{
																		"type": "480000",
																		"label": ";",
																		"typeLabel": "GenericString",
																		"pos": "1408",
																		"length": "1",
																		"children": []
																	}
																]
															}
														]
													},
													{
														"type": "300100",
														"typeLabel": "If",
														"pos": "1412",
														"length": "49",
														"children": [
															{
																"type": "490100",
																"typeLabel": "IfToken",
																"pos": "1412",
																"length": "2",
																"children": []
															},
															{
																"type": "241100",
																"typeLabel": "Binary",
																"pos": "1416",
																"length": "31",
																"children": [
																	{
																		"type": "241100",
																		"typeLabel": "Binary",
																		"pos": "1416",
																		"length": "9",
																		"children": [
																			{
																				"type": "240100",
																				"typeLabel": "Ident",
																				"pos": "1416",
																				"length": "1",
																				"children": [
																					{
																						"type": "480000",
																						"label": "c",
																						"typeLabel": "GenericString",
																						"pos": "1416",
																						"length": "1",
																						"children": []
																					}
																				]
																			},
																			{
																				"type": "480000",
																				"label": "==",
																				"typeLabel": "GenericString",
																				"pos": "1418",
																				"length": "2",
																				"children": []
																			},
																			{
																				"type": "240100",
																				"typeLabel": "Ident",
																				"pos": "1421",
																				"length": "4",
																				"children": [
																					{
																						"type": "480000",
																						"label": "NULL",
																						"typeLabel": "GenericString",
																						"pos": "1421",
																						"length": "4",
																						"children": []
																					}
																				]
																			}
																		]
																	},
																	{
																		"type": "480000",
																		"label": "||",
																		"typeLabel": "GenericString",
																		"pos": "1426",
																		"length": "2",
																		"children": []
																	},
																	{
																		"type": "241100",
																		"typeLabel": "Binary",
																		"pos": "1429",
																		"length": "18",
																		"children": [
																			{
																				"type": "241400",
																				"typeLabel": "RecordPtAccess",
																				"pos": "1429",
																				"length": "10",
																				"children": [
																					{
																						"type": "240100",
																						"typeLabel": "Ident",
																						"pos": "1429",
																						"length": "1",
																						"children": [
																							{
																								"type": "480000",
																								"label": "c",
																								"typeLabel": "GenericString",
																								"pos": "1429",
																								"length": "1",
																								"children": []
																							}
																						]
																					},
																					{
																						"type": "480000",
																						"label": "session",
																						"typeLabel": "GenericString",
																						"pos": "1432",
																						"length": "7",
																						"children": []
																					}
																				]
																			},
																			{
																				"type": "480000",
																				"label": "==",
																				"typeLabel": "GenericString",
																				"pos": "1440",
																				"length": "2",
																				"children": []
																			},
																			{
																				"type": "240100",
																				"typeLabel": "Ident",
																				"pos": "1443",
																				"length": "4",
																				"children": [
																					{
																						"type": "480000",
																						"label": "NULL",
																						"typeLabel": "GenericString",
																						"pos": "1443",
																						"length": "4",
																						"children": []
																					}
																				]
																			}
																		]
																	}
																]
															},
															{
																"type": "280001",
																"typeLabel": "Continue",
																"pos": "1452",
																"length": "9",
																"children": []
															}
														]
													},
													{
														"type": "300100",
														"typeLabel": "If",
														"pos": "1465",
														"length": "74",
														"children": [
															{
																"type": "490100",
																"typeLabel": "IfToken",
																"pos": "1465",
																"length": "2",
																"children": []
															},
															{
																"type": "241100",
																"typeLabel": "Binary",
																"pos": "1469",
																"length": "23",
																"children": [
																	{
																		"type": "241300",
																		"typeLabel": "RecordAccess",
																		"pos": "1469",
																		"length": "12",
																		"children": [
																			{
																				"type": "241400",
																				"typeLabel": "RecordPtAccess",
																				"pos": "1469",
																				"length": "6",
																				"children": [
																					{
																						"type": "240100",
																						"typeLabel": "Ident",
																						"pos": "1469",
																						"length": "1",
																						"children": [
																							{
																								"type": "480000",
																								"label": "c",
																								"typeLabel": "GenericString",
																								"pos": "1469",
																								"length": "1",
																								"children": []
																							}
																						]
																					},
																					{
																						"type": "480000",
																						"label": "tty",
																						"typeLabel": "GenericString",
																						"pos": "1472",
																						"length": "3",
																						"children": []
																					}
																				]
																			},
																			{
																				"type": "480000",
																				"label": "flags",
																				"typeLabel": "GenericString",
																				"pos": "1476",
																				"length": "5",
																				"children": []
																			}
																		]
																	},
																	{
																		"type": "480000",
																		"label": "&",
																		"typeLabel": "GenericString",
																		"pos": "1482",
																		"length": "1",
																		"children": []
																	},
																	{
																		"type": "240100",
																		"typeLabel": "Ident",
																		"pos": "1484",
																		"length": "8",
																		"children": [
																			{
																				"type": "480000",
																				"label": "TTY_UTF8",
																				"typeLabel": "GenericString",
																				"pos": "1484",
																				"length": "8",
																				"children": []
																			}
																		]
																	}
																]
															},
															{
																"type": "260300",
																"typeLabel": "ExprStatement",
																"pos": "1497",
																"length": "19",
																"children": [
																	{
																		"type": "290100",
																		"typeLabel": "Some",
																		"pos": "1497",
																		"length": "19",
																		"children": [
																			{
																				"type": "240700",
																				"typeLabel": "Assignment",
																				"pos": "1497",
																				"length": "18",
																				"children": [
																					{
																						"type": "240100",
																						"typeLabel": "Ident",
																						"pos": "1497",
																						"length": "6",
																						"children": [
																							{
																								"type": "480000",
																								"label": "s_utf8",
																								"typeLabel": "GenericString",
																								"pos": "1497",
																								"length": "6",
																								"children": []
																							}
																						]
																					},
																					{
																						"type": "480000",
																						"label": "=",
																						"typeLabel": "GenericString",
																						"pos": "1504",
																						"length": "1",
																						"children": []
																					},
																					{
																						"type": "240200",
																						"label": "\" (utf8)\"",
																						"typeLabel": "Constant",
																						"pos": "1506",
																						"length": "9",
																						"children": []
																					}
																				]
																			},
																			{
																				"type": "480000",
																				"label": ";",
																				"typeLabel": "GenericString",
																				"pos": "1515",
																				"length": "1",
																				"children": []
																			}
																		]
																	}
																]
															},
															{
																"type": "260300",
																"typeLabel": "ExprStatement",
																"pos": "1527",
																"length": "12",
																"children": [
																	{
																		"type": "290100",
																		"typeLabel": "Some",
																		"pos": "1527",
																		"length": "12",
																		"children": [
																			{
																				"type": "240700",
																				"typeLabel": "Assignment",
																				"pos": "1527",
																				"length": "11",
																				"children": [
																					{
																						"type": "240100",
																						"typeLabel": "Ident",
																						"pos": "1527",
																						"length": "6",
																						"children": [
																							{
																								"type": "480000",
																								"label": "s_utf8",
																								"typeLabel": "GenericString",
																								"pos": "1527",
																								"length": "6",
																								"children": []
																							}
																						]
																					},
																					{
																						"type": "480000",
																						"label": "=",
																						"typeLabel": "GenericString",
																						"pos": "1534",
																						"length": "1",
																						"children": []
																					},
																					{
																						"type": "240200",
																						"label": "\"\"",
																						"typeLabel": "Constant",
																						"pos": "1536",
																						"length": "2",
																						"children": []
																					}
																				]
																			},
																			{
																				"type": "480000",
																				"label": ";",
																				"typeLabel": "GenericString",
																				"pos": "1538",
																				"length": "1",
																				"children": []
																			}
																		]
																	}
																]
															}
														]
													},
													{
														"type": "260300",
														"typeLabel": "ExprStatement",
														"pos": "1542",
														"length": "129",
														"children": [
															{
																"type": "290100",
																"typeLabel": "Some",
																"pos": "1542",
																"length": "129",
																"children": [
																	{
																		"type": "240400",
																		"typeLabel": "FunCall",
																		"pos": "1542",
																		"length": "128",
																		"children": [
																			{
																				"type": "241400",
																				"typeLabel": "RecordPtAccess",
																				"pos": "1542",
																				"length": "10",
																				"children": [
																					{
																						"type": "240100",
																						"typeLabel": "Ident",
																						"pos": "1542",
																						"length": "3",
																						"children": [
																							{
																								"type": "480000",
																								"label": "ctx",
																								"typeLabel": "GenericString",
																								"pos": "1542",
																								"length": "3",
																								"children": []
																							}
																						]
																					},
																					{
																						"type": "480000",
																						"label": "print",
																						"typeLabel": "GenericString",
																						"pos": "1547",
																						"length": "5",
																						"children": []
																					}
																				]
																			},
																			{
																				"type": "470000",
																				"typeLabel": "GenericList",
																				"pos": "1552",
																				"length": "118",
																				"children": [
																					{
																						"type": "20100",
																						"typeLabel": "Left",
																						"pos": "1553",
																						"length": "3",
																						"children": [
																							{
																								"type": "240100",
																								"typeLabel": "Ident",
																								"pos": "1553",
																								"length": "3",
																								"children": [
																									{
																										"type": "480000",
																										"label": "ctx",
																										"typeLabel": "GenericString",
																										"pos": "1553",
																										"length": "3",
																										"children": []
																									}
																								]
																							}
																						]
																					},
																					{
																						"type": "20100",
																						"typeLabel": "Left",
																						"pos": "1558",
																						"length": "21",
																						"children": [
																							{
																								"type": "240200",
																								"label": "\"%s: %s [%ux%u %s]%s\"",
																								"typeLabel": "Constant",
																								"pos": "1558",
																								"length": "21",
																								"children": []
																							}
																						]
																					},
																					{
																						"type": "20100",
																						"typeLabel": "Left",
																						"pos": "1581",
																						"length": "11",
																						"children": [
																							{
																								"type": "241300",
																								"typeLabel": "RecordAccess",
																								"pos": "1581",
																								"length": "11",
																								"children": [
																									{
																										"type": "241400",
																										"typeLabel": "RecordPtAccess",
																										"pos": "1581",
																										"length": "6",
																										"children": [
																											{
																												"type": "240100",
																												"typeLabel": "Ident",
																												"pos": "1581",
																												"length": "1",
																												"children": [
																													{
																														"type": "480000",
																														"label": "c",
																														"typeLabel": "GenericString",
																														"pos": "1581",
																														"length": "1",
																														"children": []
																													}
																												]
																											},
																											{
																												"type": "480000",
																												"label": "tty",
																												"typeLabel": "GenericString",
																												"pos": "1584",
																												"length": "3",
																												"children": []
																											}
																										]
																									},
																									{
																										"type": "480000",
																										"label": "path",
																										"typeLabel": "GenericString",
																										"pos": "1588",
																										"length": "4",
																										"children": []
																									}
																								]
																							}
																						]
																					},
																					{
																						"type": "20100",
																						"typeLabel": "Left",
																						"pos": "1600",
																						"length": "16",
																						"children": [
																							{
																								"type": "241400",
																								"typeLabel": "RecordPtAccess",
																								"pos": "1600",
																								"length": "16",
																								"children": [
																									{
																										"type": "241400",
																										"typeLabel": "RecordPtAccess",
																										"pos": "1600",
																										"length": "10",
																										"children": [
																											{
																												"type": "240100",
																												"typeLabel": "Ident",
																												"pos": "1600",
																												"length": "1",
																												"children": [
																													{
																														"type": "480000",
																														"label": "c",
																														"typeLabel": "GenericString",
																														"pos": "1600",
																														"length": "1",
																														"children": []
																													}
																												]
																											},
																											{
																												"type": "480000",
																												"label": "session",
																												"typeLabel": "GenericString",
																												"pos": "1603",
																												"length": "7",
																												"children": []
																											}
																										]
																									},
																									{
																										"type": "480000",
																										"label": "name",
																										"typeLabel": "GenericString",
																										"pos": "1612",
																										"length": "4",
																										"children": []
																									}
																								]
																							}
																						]
																					},
																					{
																						"type": "20100",
																						"typeLabel": "Left",
																						"pos": "1618",
																						"length": "9",
																						"children": [
																							{
																								"type": "241300",
																								"typeLabel": "RecordAccess",
																								"pos": "1618",
																								"length": "9",
																								"children": [
																									{
																										"type": "241400",
																										"typeLabel": "RecordPtAccess",
																										"pos": "1618",
																										"length": "6",
																										"children": [
																											{
																												"type": "240100",
																												"typeLabel": "Ident",
																												"pos": "1618",
																												"length": "1",
																												"children": [
																													{
																														"type": "480000",
																														"label": "c",
																														"typeLabel": "GenericString",
																														"pos": "1618",
																														"length": "1",
																														"children": []
																													}
																												]
																											},
																											{
																												"type": "480000",
																												"label": "tty",
																												"typeLabel": "GenericString",
																												"pos": "1621",
																												"length": "3",
																												"children": []
																											}
																										]
																									},
																									{
																										"type": "480000",
																										"label": "sx",
																										"typeLabel": "GenericString",
																										"pos": "1625",
																										"length": "2",
																										"children": []
																									}
																								]
																							}
																						]
																					},
																					{
																						"type": "20100",
																						"typeLabel": "Left",
																						"pos": "1629",
																						"length": "9",
																						"children": [
																							{
																								"type": "241300",
																								"typeLabel": "RecordAccess",
																								"pos": "1629",
																								"length": "9",
																								"children": [
																									{
																										"type": "241400",
																										"typeLabel": "RecordPtAccess",
																										"pos": "1629",
																										"length": "6",
																										"children": [
																											{
																												"type": "240100",
																												"typeLabel": "Ident",
																												"pos": "1629",
																												"length": "1",
																												"children": [
																													{
																														"type": "480000",
																														"label": "c",
																														"typeLabel": "GenericString",
																														"pos": "1629",
																														"length": "1",
																														"children": []
																													}
																												]
																											},
																											{
																												"type": "480000",
																												"label": "tty",
																												"typeLabel": "GenericString",
																												"pos": "1632",
																												"length": "3",
																												"children": []
																											}
																										]
																									},
																									{
																										"type": "480000",
																										"label": "sy",
																										"typeLabel": "GenericString",
																										"pos": "1636",
																										"length": "2",
																										"children": []
																									}
																								]
																							}
																						]
																					},
																					{
																						"type": "20100",
																						"typeLabel": "Left",
																						"pos": "1646",
																						"length": "15",
																						"children": [
																							{
																								"type": "241300",
																								"typeLabel": "RecordAccess",
																								"pos": "1646",
																								"length": "15",
																								"children": [
																									{
																										"type": "241400",
																										"typeLabel": "RecordPtAccess",
																										"pos": "1646",
																										"length": "6",
																										"children": [
																											{
																												"type": "240100",
																												"typeLabel": "Ident",
																												"pos": "1646",
																												"length": "1",
																												"children": [
																													{
																														"type": "480000",
																														"label": "c",
																														"typeLabel": "GenericString",
																														"pos": "1646",
																														"length": "1",
																														"children": []
																													}
																												]
																											},
																											{
																												"type": "480000",
																												"label": "tty",
																												"typeLabel": "GenericString",
																												"pos": "1649",
																												"length": "3",
																												"children": []
																											}
																										]
																									},
																									{
																										"type": "480000",
																										"label": "termname",
																										"typeLabel": "GenericString",
																										"pos": "1653",
																										"length": "8",
																										"children": []
																									}
																								]
																							}
																						]
																					},
																					{
																						"type": "20100",
																						"typeLabel": "Left",
																						"pos": "1663",
																						"length": "6",
																						"children": [
																							{
																								"type": "240100",
																								"typeLabel": "Ident",
																								"pos": "1663",
																								"length": "6",
																								"children": [
																									{
																										"type": "480000",
																										"label": "s_utf8",
																										"typeLabel": "GenericString",
																										"pos": "1663",
																										"length": "6",
																										"children": []
																									}
																								]
																							}
																						]
																					}
																				]
																			}
																		]
																	},
																	{
																		"type": "480000",
																		"label": ";",
																		"typeLabel": "GenericString",
																		"pos": "1670",
																		"length": "1",
																		"children": []
																	}
																]
															}
														]
													}
												]
											}
										]
									},
									{
										"type": "280200",
										"typeLabel": "ReturnExpr",
										"pos": "1677",
										"length": "11",
										"children": [
											{
												"type": "242000",
												"typeLabel": "ParenExpr",
												"pos": "1684",
												"length": "3",
												"children": [
													{
														"type": "240200",
														"label": "0",
														"typeLabel": "Constant",
														"pos": "1685",
														"length": "1",
														"children": []
													}
												]
											}
										]
									}
								]
							}
						]
					}
				]
			},
			{
				"type": "450800",
				"typeLabel": "FinalDef",
				"pos": "1691",
				"length": "0",
				"children": []
			}
		]
	}
}