{
	"root": {
		"type": "460000",
		"typeLabel": "Program",
		"pos": "878",
		"length": "774",
		"children": [
			{
				"type": "450300",
				"typeLabel": "CppTop",
				"pos": "878",
				"length": "22",
				"children": [
					{
						"type": "400200",
						"typeLabel": "Include",
						"pos": "878",
						"length": "22",
						"children": [
							{
								"type": "480000",
								"label": "<sys/types.h>",
								"typeLabel": "GenericString",
								"pos": "887",
								"length": "13",
								"children": []
							}
						]
					}
				]
			},
			{
				"type": "450300",
				"typeLabel": "CppTop",
				"pos": "902",
				"length": "17",
				"children": [
					{
						"type": "400200",
						"typeLabel": "Include",
						"pos": "902",
						"length": "17",
						"children": [
							{
								"type": "480000",
								"label": "\"tmux.h\"",
								"typeLabel": "GenericString",
								"pos": "911",
								"length": "8",
								"children": []
							}
						]
					}
				]
			},
			{
				"type": "450100",
				"typeLabel": "Declaration",
				"pos": "949",
				"length": "55",
				"children": [
					{
						"type": "350100",
						"typeLabel": "DeclList",
						"pos": "949",
						"length": "55",
						"children": [
							{
								"type": "480000",
								"label": "cmd_copy_mode_exec",
								"typeLabel": "GenericString",
								"pos": "953",
								"length": "18",
								"children": []
							}
						]
					}
				]
			},
			{
				"type": "450100",
				"typeLabel": "Declaration",
				"pos": "1006",
				"length": "233",
				"children": [
					{
						"type": "350100",
						"typeLabel": "DeclList",
						"pos": "1006",
						"length": "233",
						"children": [
							{
								"type": "40000",
								"typeLabel": "FullType",
								"pos": "1006",
								"length": "22",
								"children": [
									{
										"type": "50000",
										"typeLabel": "TypeQualifier",
										"pos": "1006",
										"length": "5",
										"children": [
											{
												"type": "480000",
												"label": "const",
												"typeLabel": "GenericString",
												"pos": "1006",
												"length": "5",
												"children": []
											}
										]
									},
									{
										"type": "60900",
										"label": "cmd_entry",
										"typeLabel": "StructUnionName",
										"pos": "1006",
										"length": "22",
										"children": []
									}
								]
							},
							{
								"type": "480000",
								"label": "cmd_copy_mode_entry",
								"typeLabel": "GenericString",
								"pos": "1029",
								"length": "19",
								"children": []
							},
							{
								"type": "360200",
								"typeLabel": "InitList",
								"pos": "1051",
								"length": "187",
								"children": [
									{
										"type": "360100",
										"typeLabel": "InitExpr",
										"pos": "1054",
										"length": "11",
										"children": [
											{
												"type": "240200",
												"label": "\"copy-mode\"",
												"typeLabel": "Constant",
												"pos": "1054",
												"length": "11",
												"children": []
											}
										]
									},
									{
										"type": "360100",
										"typeLabel": "InitExpr",
										"pos": "1067",
										"length": "4",
										"children": [
											{
												"type": "240100",
												"typeLabel": "Ident",
												"pos": "1067",
												"length": "4",
												"children": [
													{
														"type": "480000",
														"label": "NULL",
														"typeLabel": "GenericString",
														"pos": "1067",
														"length": "4",
														"children": []
													}
												]
											}
										]
									},
									{
										"type": "360100",
										"typeLabel": "InitExpr",
										"pos": "1074",
										"length": "31",
										"children": [
											{
												"type": "240200",
												"label": "\"[-u] \"CMD_TARGET_WINDOW_USAGE",
												"typeLabel": "Constant",
												"pos": "1074",
												"length": "31",
												"children": []
											}
										]
									},
									{
										"type": "360100",
										"typeLabel": "InitExpr",
										"pos": "1108",
										"length": "9",
										"children": [
											{
												"type": "240100",
												"typeLabel": "Ident",
												"pos": "1108",
												"length": "9",
												"children": [
													{
														"type": "480000",
														"label": "CMD_UFLAG",
														"typeLabel": "GenericString",
														"pos": "1108",
														"length": "9",
														"children": []
													}
												]
											}
										]
									},
									{
										"type": "360100",
										"typeLabel": "InitExpr",
										"pos": "1120",
										"length": "15",
										"children": [
											{
												"type": "240100",
												"typeLabel": "Ident",
												"pos": "1120",
												"length": "15",
												"children": [
													{
														"type": "480000",
														"label": "cmd_target_init",
														"typeLabel": "GenericString",
														"pos": "1120",
														"length": "15",
														"children": []
													}
												]
											}
										]
									},
									{
										"type": "360100",
										"typeLabel": "InitExpr",
										"pos": "1138",
										"length": "16",
										"children": [
											{
												"type": "240100",
												"typeLabel": "Ident",
												"pos": "1138",
												"length": "16",
												"children": [
													{
														"type": "480000",
														"label": "cmd_target_parse",
														"typeLabel": "GenericString",
														"pos": "1138",
														"length": "16",
														"children": []
													}
												]
											}
										]
									},
									{
										"type": "360100",
										"typeLabel": "InitExpr",
										"pos": "1157",
										"length": "18",
										"children": [
											{
												"type": "240100",
												"typeLabel": "Ident",
												"pos": "1157",
												"length": "18",
												"children": [
													{
														"type": "480000",
														"label": "cmd_copy_mode_exec",
														"typeLabel": "GenericString",
														"pos": "1157",
														"length": "18",
														"children": []
													}
												]
											}
										]
									},
									{
										"type": "360100",
										"typeLabel": "InitExpr",
										"pos": "1178",
										"length": "15",
										"children": [
											{
												"type": "240100",
												"typeLabel": "Ident",
												"pos": "1178",
												"length": "15",
												"children": [
													{
														"type": "480000",
														"label": "cmd_target_send",
														"typeLabel": "GenericString",
														"pos": "1178",
														"length": "15",
														"children": []
													}
												]
											}
										]
									},
									{
										"type": "360100",
										"typeLabel": "InitExpr",
										"pos": "1196",
										"length": "15",
										"children": [
											{
												"type": "240100",
												"typeLabel": "Ident",
												"pos": "1196",
												"length": "15",
												"children": [
													{
														"type": "480000",
														"label": "cmd_target_recv",
														"typeLabel": "GenericString",
														"pos": "1196",
														"length": "15",
														"children": []
													}
												]
											}
										]
									},
									{
										"type": "360100",
										"typeLabel": "InitExpr",
										"pos": "1214",
										"length": "15",
										"children": [
											{
												"type": "240100",
												"typeLabel": "Ident",
												"pos": "1214",
												"length": "15",
												"children": [
													{
														"type": "480000",
														"label": "cmd_target_free",
														"typeLabel": "GenericString",
														"pos": "1214",
														"length": "15",
														"children": []
													}
												]
											}
										]
									},
									{
										"type": "360100",
										"typeLabel": "InitExpr",
										"pos": "1232",
										"length": "4",
										"children": [
											{
												"type": "240100",
												"typeLabel": "Ident",
												"pos": "1232",
												"length": "4",
												"children": [
													{
														"type": "480000",
														"label": "NULL",
														"typeLabel": "GenericString",
														"pos": "1232",
														"length": "4",
														"children": []
													}
												]
											}
										]
									}
								]
							}
						]
					}
				]
			},
			{
				"type": "450200",
				"typeLabel": "Definition",
				"pos": "1241",
				"length": "410",
				"children": [
					{
						"type": "380000",
						"typeLabel": "Definition",
						"pos": "1241",
						"length": "410",
						"children": [
							{
								"type": "200000",
								"typeLabel": "ParamList",
								"pos": "1263",
								"length": "39",
								"children": [
									{
										"type": "220100",
										"typeLabel": "ParameterType",
										"pos": "1264",
										"length": "16",
										"children": [
											{
												"type": "480000",
												"label": "self",
												"typeLabel": "GenericString",
												"pos": "1276",
												"length": "4",
												"children": []
											}
										]
									},
									{
										"type": "220100",
										"typeLabel": "ParameterType",
										"pos": "1282",
										"length": "19",
										"children": [
											{
												"type": "480000",
												"label": "ctx",
												"typeLabel": "GenericString",
												"pos": "1298",
												"length": "3",
												"children": []
											}
										]
									}
								]
							},
							{
								"type": "480000",
								"label": "cmd_copy_mode_exec",
								"typeLabel": "GenericString",
								"pos": "1245",
								"length": "18",
								"children": []
							},
							{
								"type": "330000",
								"typeLabel": "Compound",
								"pos": "1303",
								"length": "348",
								"children": [
									{
										"type": "350100",
										"typeLabel": "DeclList",
										"pos": "1306",
										"length": "42",
										"children": [
											{
												"type": "480000",
												"label": "data",
												"typeLabel": "GenericString",
												"pos": "1330",
												"length": "4",
												"children": []
											},
											{
												"type": "360100",
												"typeLabel": "InitExpr",
												"pos": "1337",
												"length": "10",
												"children": [
													{
														"type": "241400",
														"typeLabel": "RecordPtAccess",
														"pos": "1337",
														"length": "10",
														"children": [
															{
																"type": "240100",
																"typeLabel": "Ident",
																"pos": "1337",
																"length": "4",
																"children": [
																	{
																		"type": "480000",
																		"label": "self",
																		"typeLabel": "GenericString",
																		"pos": "1337",
																		"length": "4",
																		"children": []
																	}
																]
															},
															{
																"type": "480000",
																"label": "data",
																"typeLabel": "GenericString",
																"pos": "1343",
																"length": "4",
																"children": []
															}
														]
													}
												]
											}
										]
									},
									{
										"type": "350100",
										"typeLabel": "DeclList",
										"pos": "1350",
										"length": "20",
										"children": [
											{
												"type": "480000",
												"label": "wl",
												"typeLabel": "GenericString",
												"pos": "1367",
												"length": "2",
												"children": []
											}
										]
									},
									{
										"type": "350100",
										"typeLabel": "DeclList",
										"pos": "1372",
										"length": "23",
										"children": [
											{
												"type": "480000",
												"label": "wp",
												"typeLabel": "GenericString",
												"pos": "1392",
												"length": "2",
												"children": []
											}
										]
									},
									{
										"type": "300100",
										"typeLabel": "If",
										"pos": "1398",
										"length": "75",
										"children": [
											{
												"type": "490100",
												"typeLabel": "IfToken",
												"pos": "1398",
												"length": "2",
												"children": []
											},
											{
												"type": "241100",
												"typeLabel": "Binary",
												"pos": "1402",
												"length": "55",
												"children": [
													{
														"type": "242000",
														"typeLabel": "ParenExpr",
														"pos": "1402",
														"length": "47",
														"children": [
															{
																"type": "240700",
																"typeLabel": "Assignment",
																"pos": "1403",
																"length": "45",
																"children": [
																	{
																		"type": "240100",
																		"typeLabel": "Ident",
																		"pos": "1403",
																		"length": "2",
																		"children": [
																			{
																				"type": "480000",
																				"label": "wl",
																				"typeLabel": "GenericString",
																				"pos": "1403",
																				"length": "2",
																				"children": []
																			}
																		]
																	},
																	{
																		"type": "480000",
																		"label": "=",
																		"typeLabel": "GenericString",
																		"pos": "1406",
																		"length": "1",
																		"children": []
																	},
																	{
																		"type": "240400",
																		"typeLabel": "FunCall",
																		"pos": "1408",
																		"length": "40",
																		"children": [
																			{
																				"type": "240100",
																				"typeLabel": "Ident",
																				"pos": "1408",
																				"length": "15",
																				"children": [
																					{
																						"type": "480000",
																						"label": "cmd_find_window",
																						"typeLabel": "GenericString",
																						"pos": "1408",
																						"length": "15",
																						"children": []
																					}
																				]
																			},
																			{
																				"type": "470000",
																				"typeLabel": "GenericList",
																				"pos": "1423",
																				"length": "25",
																				"children": [
																					{
																						"type": "20100",
																						"typeLabel": "Left",
																						"pos": "1424",
																						"length": "3",
																						"children": [
																							{
																								"type": "240100",
																								"typeLabel": "Ident",
																								"pos": "1424",
																								"length": "3",
																								"children": [
																									{
																										"type": "480000",
																										"label": "ctx",
																										"typeLabel": "GenericString",
																										"pos": "1424",
																										"length": "3",
																										"children": []
																									}
																								]
																							}
																						]
																					},
																					{
																						"type": "20100",
																						"typeLabel": "Left",
																						"pos": "1429",
																						"length": "12",
																						"children": [
																							{
																								"type": "241400",
																								"typeLabel": "RecordPtAccess",
																								"pos": "1429",
																								"length": "12",
																								"children": [
																									{
																										"type": "240100",
																										"typeLabel": "Ident",
																										"pos": "1429",
																										"length": "4",
																										"children": [
																											{
																												"type": "480000",
																												"label": "data",
																												"typeLabel": "GenericString",
																												"pos": "1429",
																												"length": "4",
																												"children": []
																											}
																										]
																									},
																									{
																										"type": "480000",
																										"label": "target",
																										"typeLabel": "GenericString",
																										"pos": "1435",
																										"length": "6",
																										"children": []
																									}
																								]
																							}
																						]
																					},
																					{
																						"type": "20100",
																						"typeLabel": "Left",
																						"pos": "1443",
																						"length": "4",
																						"children": [
																							{
																								"type": "240100",
																								"typeLabel": "Ident",
																								"pos": "1443",
																								"length": "4",
																								"children": [
																									{
																										"type": "480000",
																										"label": "NULL",
																										"typeLabel": "GenericString",
																										"pos": "1443",
																										"length": "4",
																										"children": []
																									}
																								]
																							}
																						]
																					}
																				]
																			}
																		]
																	}
																]
															}
														]
													},
													{
														"type": "480000",
														"label": "==",
														"typeLabel": "GenericString",
														"pos": "1450",
														"length": "2",
														"children": []
													},
													{
														"type": "240100",
														"typeLabel": "Ident",
														"pos": "1453",
														"length": "4",
														"children": [
															{
																"type": "480000",
																"label": "NULL",
																"typeLabel": "GenericString",
																"pos": "1453",
																"length": "4",
																"children": []
															}
														]
													}
												]
											},
											{
												"type": "280200",
												"typeLabel": "ReturnExpr",
												"pos": "1461",
												"length": "12",
												"children": [
													{
														"type": "242000",
														"typeLabel": "ParenExpr",
														"pos": "1468",
														"length": "4",
														"children": [
															{
																"type": "241000",
																"typeLabel": "Unary",
																"pos": "1469",
																"length": "2",
																"children": [
																	{
																		"type": "240200",
																		"label": "1",
																		"typeLabel": "Constant",
																		"pos": "1470",
																		"length": "1",
																		"children": []
																	},
																	{
																		"type": "480000",
																		"label": "-",
																		"typeLabel": "GenericString",
																		"pos": "1469",
																		"length": "1",
																		"children": []
																	}
																]
															}
														]
													}
												]
											}
										]
									},
									{
										"type": "260300",
										"typeLabel": "ExprStatement",
										"pos": "1475",
										"length": "24",
										"children": [
											{
												"type": "290100",
												"typeLabel": "Some",
												"pos": "1475",
												"length": "24",
												"children": [
													{
														"type": "240700",
														"typeLabel": "Assignment",
														"pos": "1475",
														"length": "23",
														"children": [
															{
																"type": "240100",
																"typeLabel": "Ident",
																"pos": "1475",
																"length": "2",
																"children": [
																	{
																		"type": "480000",
																		"label": "wp",
																		"typeLabel": "GenericString",
																		"pos": "1475",
																		"length": "2",
																		"children": []
																	}
																]
															},
															{
																"type": "480000",
																"label": "=",
																"typeLabel": "GenericString",
																"pos": "1478",
																"length": "1",
																"children": []
															},
															{
																"type": "241400",
																"typeLabel": "RecordPtAccess",
																"pos": "1480",
																"length": "18",
																"children": [
																	{
																		"type": "241400",
																		"typeLabel": "RecordPtAccess",
																		"pos": "1480",
																		"length": "10",
																		"children": [
																			{
																				"type": "240100",
																				"typeLabel": "Ident",
																				"pos": "1480",
																				"length": "2",
																				"children": [
																					{
																						"type": "480000",
																						"label": "wl",
																						"typeLabel": "GenericString",
																						"pos": "1480",
																						"length": "2",
																						"children": []
																					}
																				]
																			},
																			{
																				"type": "480000",
																				"label": "window",
																				"typeLabel": "GenericString",
																				"pos": "1484",
																				"length": "6",
																				"children": []
																			}
																		]
																	},
																	{
																		"type": "480000",
																		"label": "active",
																		"typeLabel": "GenericString",
																		"pos": "1492",
																		"length": "6",
																		"children": []
																	}
																]
															}
														]
													},
													{
														"type": "480000",
														"label": ";",
														"typeLabel": "GenericString",
														"pos": "1498",
														"length": "1",
														"children": []
													}
												]
											}
										]
									},
									{
										"type": "260300",
										"typeLabel": "ExprStatement",
										"pos": "1502",
										"length": "44",
										"children": [
											{
												"type": "290100",
												"typeLabel": "Some",
												"pos": "1502",
												"length": "44",
												"children": [
													{
														"type": "240400",
														"typeLabel": "FunCall",
														"pos": "1502",
														"length": "43",
														"children": [
															{
																"type": "240100",
																"typeLabel": "Ident",
																"pos": "1502",
																"length": "20",
																"children": [
																	{
																		"type": "480000",
																		"label": "window_pane_set_mode",
																		"typeLabel": "GenericString",
																		"pos": "1502",
																		"length": "20",
																		"children": []
																	}
																]
															},
															{
																"type": "470000",
																"typeLabel": "GenericList",
																"pos": "1522",
																"length": "23",
																"children": [
																	{
																		"type": "20100",
																		"typeLabel": "Left",
																		"pos": "1523",
																		"length": "2",
																		"children": [
																			{
																				"type": "240100",
																				"typeLabel": "Ident",
																				"pos": "1523",
																				"length": "2",
																				"children": [
																					{
																						"type": "480000",
																						"label": "wp",
																						"typeLabel": "GenericString",
																						"pos": "1523",
																						"length": "2",
																						"children": []
																					}
																				]
																			}
																		]
																	},
																	{
																		"type": "20100",
																		"typeLabel": "Left",
																		"pos": "1527",
																		"length": "17",
																		"children": [
																			{
																				"type": "241000",
																				"typeLabel": "Unary",
																				"pos": "1527",
																				"length": "17",
																				"children": [
																					{
																						"type": "240100",
																						"typeLabel": "Ident",
																						"pos": "1528",
																						"length": "16",
																						"children": [
																							{
																								"type": "480000",
																								"label": "window_copy_mode",
																								"typeLabel": "GenericString",
																								"pos": "1528",
																								"length": "16",
																								"children": []
																							}
																						]
																					},
																					{
																						"type": "480000",
																						"label": "&",
																						"typeLabel": "GenericString",
																						"pos": "1527",
																						"length": "1",
																						"children": []
																					}
																				]
																			}
																		]
																	}
																]
															}
														]
													},
													{
														"type": "480000",
														"label": ";",
														"typeLabel": "GenericString",
														"pos": "1545",
														"length": "1",
														"children": []
													}
												]
											}
										]
									},
									{
										"type": "300100",
										"typeLabel": "If",
										"pos": "1548",
										"length": "87",
										"children": [
											{
												"type": "490100",
												"typeLabel": "IfToken",
												"pos": "1548",
												"length": "2",
												"children": []
											},
											{
												"type": "241100",
												"typeLabel": "Binary",
												"pos": "1552",
												"length": "56",
												"children": [
													{
														"type": "241100",
														"typeLabel": "Binary",
														"pos": "1552",
														"length": "29",
														"children": [
															{
																"type": "241400",
																"typeLabel": "RecordPtAccess",
																"pos": "1552",
																"length": "8",
																"children": [
																	{
																		"type": "240100",
																		"typeLabel": "Ident",
																		"pos": "1552",
																		"length": "2",
																		"children": [
																			{
																				"type": "480000",
																				"label": "wp",
																				"typeLabel": "GenericString",
																				"pos": "1552",
																				"length": "2",
																				"children": []
																			}
																		]
																	},
																	{
																		"type": "480000",
																		"label": "mode",
																		"typeLabel": "GenericString",
																		"pos": "1556",
																		"length": "4",
																		"children": []
																	}
																]
															},
															{
																"type": "480000",
																"label": "==",
																"typeLabel": "GenericString",
																"pos": "1561",
																"length": "2",
																"children": []
															},
															{
																"type": "241000",
																"typeLabel": "Unary",
																"pos": "1564",
																"length": "17",
																"children": [
																	{
																		"type": "240100",
																		"typeLabel": "Ident",
																		"pos": "1565",
																		"length": "16",
																		"children": [
																			{
																				"type": "480000",
																				"label": "window_copy_mode",
																				"typeLabel": "GenericString",
																				"pos": "1565",
																				"length": "16",
																				"children": []
																			}
																		]
																	},
																	{
																		"type": "480000",
																		"label": "&",
																		"typeLabel": "GenericString",
																		"pos": "1564",
																		"length": "1",
																		"children": []
																	}
																]
															}
														]
													},
													{
														"type": "480000",
														"label": "&&",
														"typeLabel": "GenericString",
														"pos": "1582",
														"length": "2",
														"children": []
													},
													{
														"type": "241100",
														"typeLabel": "Binary",
														"pos": "1585",
														"length": "23",
														"children": [
															{
																"type": "241400",
																"typeLabel": "RecordPtAccess",
																"pos": "1585",
																"length": "11",
																"children": [
																	{
																		"type": "240100",
																		"typeLabel": "Ident",
																		"pos": "1585",
																		"length": "4",
																		"children": [
																			{
																				"type": "480000",
																				"label": "data",
																				"typeLabel": "GenericString",
																				"pos": "1585",
																				"length": "4",
																				"children": []
																			}
																		]
																	},
																	{
																		"type": "480000",
																		"label": "flags",
																		"typeLabel": "GenericString",
																		"pos": "1591",
																		"length": "5",
																		"children": []
																	}
																]
															},
															{
																"type": "480000",
																"label": "&",
																"typeLabel": "GenericString",
																"pos": "1597",
																"length": "1",
																"children": []
															},
															{
																"type": "240100",
																"typeLabel": "Ident",
																"pos": "1599",
																"length": "9",
																"children": [
																	{
																		"type": "480000",
																		"label": "CMD_UFLAG",
																		"typeLabel": "GenericString",
																		"pos": "1599",
																		"length": "9",
																		"children": []
																	}
																]
															}
														]
													}
												]
											},
											{
												"type": "260300",
												"typeLabel": "ExprStatement",
												"pos": "1612",
												"length": "23",
												"children": [
													{
														"type": "290100",
														"typeLabel": "Some",
														"pos": "1612",
														"length": "23",
														"children": [
															{
																"type": "240400",
																"typeLabel": "FunCall",
																"pos": "1612",
																"length": "22",
																"children": [
																	{
																		"type": "240100",
																		"typeLabel": "Ident",
																		"pos": "1612",
																		"length": "18",
																		"children": [
																			{
																				"type": "480000",
																				"label": "window_copy_pageup",
																				"typeLabel": "GenericString",
																				"pos": "1612",
																				"length": "18",
																				"children": []
																			}
																		]
																	},
																	{
																		"type": "470000",
																		"typeLabel": "GenericList",
																		"pos": "1630",
																		"length": "4",
																		"children": [
																			{
																				"type": "20100",
																				"typeLabel": "Left",
																				"pos": "1631",
																				"length": "2",
																				"children": [
																					{
																						"type": "240100",
																						"typeLabel": "Ident",
																						"pos": "1631",
																						"length": "2",
																						"children": [
																							{
																								"type": "480000",
																								"label": "wp",
																								"typeLabel": "GenericString",
																								"pos": "1631",
																								"length": "2",
																								"children": []
																							}
																						]
																					}
																				]
																			}
																		]
																	}
																]
															},
															{
																"type": "480000",
																"label": ";",
																"typeLabel": "GenericString",
																"pos": "1634",
																"length": "1",
																"children": []
															}
														]
													}
												]
											}
										]
									},
									{
										"type": "280200",
										"typeLabel": "ReturnExpr",
										"pos": "1638",
										"length": "11",
										"children": [
											{
												"type": "242000",
												"typeLabel": "ParenExpr",
												"pos": "1645",
												"length": "3",
												"children": [
													{
														"type": "240200",
														"label": "0",
														"typeLabel": "Constant",
														"pos": "1646",
														"length": "1",
														"children": []
													}
												]
											}
										]
									}
								]
							}
						]
					}
				]
			},
			{
				"type": "450800",
				"typeLabel": "FinalDef",
				"pos": "1652",
				"length": "0",
				"children": []
			}
		]
	}
}