{
  "matches": [
    {
      "src": 69,
      "dest": 75
    },
    {
      "src": 105,
      "dest": 115
    },
    {
      "src": 89,
      "dest": 95
    },
    {
      "src": 31,
      "dest": 37
    },
    {
      "src": 53,
      "dest": 59
    },
    {
      "src": 131,
      "dest": 141
    },
    {
      "src": 73,
      "dest": 79
    },
    {
      "src": 127,
      "dest": 137
    },
    {
      "src": 79,
      "dest": 85
    },
    {
      "src": 28,
      "dest": 34
    },
    {
      "src": 235,
      "dest": 249
    },
    {
      "src": 213,
      "dest": 227
    },
    {
      "src": 108,
      "dest": 118
    },
    {
      "src": 63,
      "dest": 69
    },
    {
      "src": 17,
      "dest": 17
    },
    {
      "src": 90,
      "dest": 96
    },
    {
      "src": 51,
      "dest": 57
    },
    {
      "src": 154,
      "dest": 164
    },
    {
      "src": 231,
      "dest": 245
    },
    {
      "src": 65,
      "dest": 71
    },
    {
      "src": 1,
      "dest": 1
    },
    {
      "src": 200,
      "dest": 214
    },
    {
      "src": 212,
      "dest": 226
    },
    {
      "src": 111,
      "dest": 121
    },
    {
      "src": 35,
      "dest": 41
    },
    {
      "src": 112,
      "dest": 122
    },
    {
      "src": 58,
      "dest": 64
    },
    {
      "src": 45,
      "dest": 51
    },
    {
      "src": 195,
      "dest": 209
    },
    {
      "src": 159,
      "dest": 169
    },
    {
      "src": 140,
      "dest": 150
    },
    {
      "src": 36,
      "dest": 42
    },
    {
      "src": 47,
      "dest": 53
    },
    {
      "src": 97,
      "dest": 103
    },
    {
      "src": 88,
      "dest": 94
    },
    {
      "src": 172,
      "dest": 186
    },
    {
      "src": 3,
      "dest": 3
    },
    {
      "src": 15,
      "dest": 15
    },
    {
      "src": 98,
      "dest": 104
    },
    {
      "src": 146,
      "dest": 156
    },
    {
      "src": 152,
      "dest": 162
    },
    {
      "src": 202,
      "dest": 216
    },
    {
      "src": 197,
      "dest": 211
    },
    {
      "src": 42,
      "dest": 48
    },
    {
      "src": 59,
      "dest": 65
    },
    {
      "src": 123,
      "dest": 133
    },
    {
      "src": 77,
      "dest": 83
    },
    {
      "src": 158,
      "dest": 168
    },
    {
      "src": 216,
      "dest": 230
    },
    {
      "src": 25,
      "dest": 31
    },
    {
      "src": 48,
      "dest": 54
    },
    {
      "src": 128,
      "dest": 138
    },
    {
      "src": 148,
      "dest": 158
    },
    {
      "src": 178,
      "dest": 192
    },
    {
      "src": 19,
      "dest": 19
    },
    {
      "src": 96,
      "dest": 102
    },
    {
      "src": 162,
      "dest": 172
    },
    {
      "src": 211,
      "dest": 225
    },
    {
      "src": 227,
      "dest": 241
    },
    {
      "src": 75,
      "dest": 81
    },
    {
      "src": 223,
      "dest": 237
    },
    {
      "src": 13,
      "dest": 13
    },
    {
      "src": 194,
      "dest": 208
    },
    {
      "src": 37,
      "dest": 43
    },
    {
      "src": 0,
      "dest": 0
    },
    {
      "src": 10,
      "dest": 10
    },
    {
      "src": 32,
      "dest": 38
    },
    {
      "src": 182,
      "dest": 196
    },
    {
      "src": 26,
      "dest": 32
    },
    {
      "src": 144,
      "dest": 154
    },
    {
      "src": 87,
      "dest": 93
    },
    {
      "src": 151,
      "dest": 161
    },
    {
      "src": 221,
      "dest": 235
    },
    {
      "src": 206,
      "dest": 220
    },
    {
      "src": 232,
      "dest": 246
    },
    {
      "src": 125,
      "dest": 135
    },
    {
      "src": 74,
      "dest": 80
    },
    {
      "src": 190,
      "dest": 204
    },
    {
      "src": 236,
      "dest": 250
    },
    {
      "src": 117,
      "dest": 127
    },
    {
      "src": 71,
      "dest": 77
    },
    {
      "src": 191,
      "dest": 205
    },
    {
      "src": 166,
      "dest": 176
    },
    {
      "src": 237,
      "dest": 251
    },
    {
      "src": 22,
      "dest": 22
    },
    {
      "src": 118,
      "dest": 128
    },
    {
      "src": 67,
      "dest": 73
    },
    {
      "src": 124,
      "dest": 134
    },
    {
      "src": 34,
      "dest": 40
    },
    {
      "src": 210,
      "dest": 224
    },
    {
      "src": 198,
      "dest": 212
    },
    {
      "src": 103,
      "dest": 113
    },
    {
      "src": 55,
      "dest": 61
    },
    {
      "src": 43,
      "dest": 49
    },
    {
      "src": 217,
      "dest": 231
    },
    {
      "src": 180,
      "dest": 194
    },
    {
      "src": 102,
      "dest": 112
    },
    {
      "src": 115,
      "dest": 125
    },
    {
      "src": 66,
      "dest": 72
    },
    {
      "src": 4,
      "dest": 4
    },
    {
      "src": 129,
      "dest": 139
    },
    {
      "src": 204,
      "dest": 218
    },
    {
      "src": 120,
      "dest": 130
    },
    {
      "src": 219,
      "dest": 233
    },
    {
      "src": 6,
      "dest": 6
    },
    {
      "src": 80,
      "dest": 86
    },
    {
      "src": 60,
      "dest": 66
    },
    {
      "src": 218,
      "dest": 232
    },
    {
      "src": 12,
      "dest": 12
    },
    {
      "src": 110,
      "dest": 120
    },
    {
      "src": 126,
      "dest": 136
    },
    {
      "src": 224,
      "dest": 238
    },
    {
      "src": 14,
      "dest": 14
    },
    {
      "src": 215,
      "dest": 229
    },
    {
      "src": 119,
      "dest": 129
    },
    {
      "src": 150,
      "dest": 160
    },
    {
      "src": 113,
      "dest": 123
    },
    {
      "src": 78,
      "dest": 84
    },
    {
      "src": 201,
      "dest": 215
    },
    {
      "src": 23,
      "dest": 25
    },
    {
      "src": 160,
      "dest": 170
    },
    {
      "src": 8,
      "dest": 8
    },
    {
      "src": 133,
      "dest": 143
    },
    {
      "src": 203,
      "dest": 217
    },
    {
      "src": 220,
      "dest": 234
    },
    {
      "src": 207,
      "dest": 221
    },
    {
      "src": 171,
      "dest": 185
    },
    {
      "src": 39,
      "dest": 45
    },
    {
      "src": 136,
      "dest": 146
    },
    {
      "src": 142,
      "dest": 152
    },
    {
      "src": 183,
      "dest": 197
    },
    {
      "src": 40,
      "dest": 46
    },
    {
      "src": 130,
      "dest": 140
    },
    {
      "src": 50,
      "dest": 56
    },
    {
      "src": 41,
      "dest": 47
    },
    {
      "src": 62,
      "dest": 68
    },
    {
      "src": 27,
      "dest": 33
    },
    {
      "src": 84,
      "dest": 90
    },
    {
      "src": 57,
      "dest": 63
    },
    {
      "src": 184,
      "dest": 198
    },
    {
      "src": 7,
      "dest": 7
    },
    {
      "src": 222,
      "dest": 236
    },
    {
      "src": 49,
      "dest": 55
    },
    {
      "src": 86,
      "dest": 92
    },
    {
      "src": 165,
      "dest": 175
    },
    {
      "src": 116,
      "dest": 126
    },
    {
      "src": 107,
      "dest": 117
    },
    {
      "src": 187,
      "dest": 201
    },
    {
      "src": 169,
      "dest": 183
    },
    {
      "src": 81,
      "dest": 87
    },
    {
      "src": 141,
      "dest": 151
    },
    {
      "src": 134,
      "dest": 144
    },
    {
      "src": 167,
      "dest": 177
    },
    {
      "src": 76,
      "dest": 82
    },
    {
      "src": 46,
      "dest": 52
    },
    {
      "src": 5,
      "dest": 5
    },
    {
      "src": 16,
      "dest": 16
    },
    {
      "src": 234,
      "dest": 248
    },
    {
      "src": 208,
      "dest": 222
    },
    {
      "src": 143,
      "dest": 153
    },
    {
      "src": 164,
      "dest": 174
    },
    {
      "src": 238,
      "dest": 252
    },
    {
      "src": 101,
      "dest": 111
    },
    {
      "src": 92,
      "dest": 98
    },
    {
      "src": 230,
      "dest": 244
    },
    {
      "src": 20,
      "dest": 20
    },
    {
      "src": 225,
      "dest": 239
    },
    {
      "src": 68,
      "dest": 74
    },
    {
      "src": 18,
      "dest": 18
    },
    {
      "src": 163,
      "dest": 173
    },
    {
      "src": 199,
      "dest": 213
    },
    {
      "src": 82,
      "dest": 88
    },
    {
      "src": 114,
      "dest": 124
    },
    {
      "src": 147,
      "dest": 157
    },
    {
      "src": 189,
      "dest": 203
    },
    {
      "src": 54,
      "dest": 60
    },
    {
      "src": 121,
      "dest": 131
    },
    {
      "src": 233,
      "dest": 247
    },
    {
      "src": 70,
      "dest": 76
    },
    {
      "src": 156,
      "dest": 166
    },
    {
      "src": 138,
      "dest": 148
    },
    {
      "src": 61,
      "dest": 67
    },
    {
      "src": 188,
      "dest": 202
    },
    {
      "src": 139,
      "dest": 149
    },
    {
      "src": 11,
      "dest": 11
    },
    {
      "src": 91,
      "dest": 97
    },
    {
      "src": 52,
      "dest": 58
    },
    {
      "src": 95,
      "dest": 101
    },
    {
      "src": 174,
      "dest": 188
    },
    {
      "src": 100,
      "dest": 110
    },
    {
      "src": 179,
      "dest": 193
    },
    {
      "src": 30,
      "dest": 36
    },
    {
      "src": 209,
      "dest": 223
    },
    {
      "src": 72,
      "dest": 78
    },
    {
      "src": 135,
      "dest": 145
    },
    {
      "src": 109,
      "dest": 119
    },
    {
      "src": 205,
      "dest": 219
    },
    {
      "src": 153,
      "dest": 163
    },
    {
      "src": 64,
      "dest": 70
    },
    {
      "src": 226,
      "dest": 240
    },
    {
      "src": 93,
      "dest": 99
    },
    {
      "src": 229,
      "dest": 243
    },
    {
      "src": 38,
      "dest": 44
    },
    {
      "src": 104,
      "dest": 114
    },
    {
      "src": 2,
      "dest": 2
    },
    {
      "src": 29,
      "dest": 35
    },
    {
      "src": 214,
      "dest": 228
    },
    {
      "src": 85,
      "dest": 91
    },
    {
      "src": 173,
      "dest": 187
    },
    {
      "src": 176,
      "dest": 190
    },
    {
      "src": 186,
      "dest": 200
    },
    {
      "src": 161,
      "dest": 171
    },
    {
      "src": 181,
      "dest": 195
    },
    {
      "src": 170,
      "dest": 184
    },
    {
      "src": 228,
      "dest": 242
    },
    {
      "src": 192,
      "dest": 206
    },
    {
      "src": 9,
      "dest": 9
    },
    {
      "src": 137,
      "dest": 147
    },
    {
      "src": 175,
      "dest": 189
    },
    {
      "src": 83,
      "dest": 89
    },
    {
      "src": 196,
      "dest": 210
    },
    {
      "src": 122,
      "dest": 132
    },
    {
      "src": 21,
      "dest": 21
    },
    {
      "src": 94,
      "dest": 100
    },
    {
      "src": 155,
      "dest": 165
    },
    {
      "src": 106,
      "dest": 116
    },
    {
      "src": 185,
      "dest": 199
    },
    {
      "src": 193,
      "dest": 207
    },
    {
      "src": 157,
      "dest": 167
    },
    {
      "src": 145,
      "dest": 155
    },
    {
      "src": 33,
      "dest": 39
    },
    {
      "src": 44,
      "dest": 50
    },
    {
      "src": 177,
      "dest": 191
    },
    {
      "src": 56,
      "dest": 62
    },
    {
      "src": 132,
      "dest": 142
    },
    {
      "src": 149,
      "dest": 159
    }
  ],
  "actions": [
    {
      "action": "insert",
      "tree": 24,
      "parent": 53,
      "at": 3
    },
    {
      "action": "insert",
      "tree": 23,
      "parent": 24,
      "at": 0
    },
    {
      "action": "insert",
      "tree": 30,
      "parent": 31,
      "at": 0
    },
    {
      "action": "insert",
      "tree": 26,
      "parent": 30,
      "at": 0
    },
    {
      "action": "insert",
      "tree": 29,
      "parent": 30,
      "at": 1
    },
    {
      "action": "insert",
      "tree": 182,
      "parent": 183,
      "at": 2
    },
    {
      "action": "update",
      "tree": 23,
      "label": "CMD_CHFLAG"
    },
    {
      "action": "move",
      "tree": 23,
      "parent": 26,
      "at": 0
    },
    {
      "action": "insert",
      "tree": 28,
      "parent": 29,
      "at": 0
    },
    {
      "action": "update",
      "tree": 164,
      "label": "chflags"
    },
    {
      "action": "insert",
      "tree": 178,
      "parent": 182,
      "at": 0
    },
    {
      "action": "insert",
      "tree": 181,
      "parent": 182,
      "at": 1
    },
    {
      "action": "insert",
      "tree": 27,
      "parent": 28,
      "at": 0
    },
    {
      "action": "insert",
      "tree": 109,
      "parent": 110,
      "at": 2
    },
    {
      "action": "update",
      "tree": 167,
      "label": "CMD_CHFLAG"
    },
    {
      "action": "move",
      "tree": 167,
      "parent": 178,
      "at": 0
    },
    {
      "action": "insert",
      "tree": 180,
      "parent": 181,
      "at": 0
    },
    {
      "action": "update",
      "tree": 95,
      "label": "chflags"
    },
    {
      "action": "insert",
      "tree": 105,
      "parent": 109,
      "at": 0
    },
    {
      "action": "insert",
      "tree": 108,
      "parent": 109,
      "at": 1
    },
    {
      "action": "insert",
      "tree": 179,
      "parent": 180,
      "at": 0
    },
    {
      "action": "update",
      "tree": 98,
      "label": "CMD_CHFLAG"
    },
    {
      "action": "move",
      "tree": 98,
      "parent": 105,
      "at": 0
    },
    {
      "action": "insert",
      "tree": 107,
      "parent": 108,
      "at": 0
    },
    {
      "action": "insert",
      "tree": 106,
      "parent": 107,
      "at": 0
    },
    {
      "action": "delete",
      "tree": 24
    },
    {
      "action": "delete",
      "tree": 99
    },
    {
      "action": "delete",
      "tree": 168
    }
  ]
}