{
  "matches": [
    {
      "src": 290,
      "dest": 240
    },
    {
      "src": 593,
      "dest": 555
    },
    {
      "src": 221,
      "dest": 221
    },
    {
      "src": 17,
      "dest": 17
    },
    {
      "src": 321,
      "dest": 247
    },
    {
      "src": 183,
      "dest": 183
    },
    {
      "src": 61,
      "dest": 61
    },
    {
      "src": 222,
      "dest": 222
    },
    {
      "src": 266,
      "dest": 335
    },
    {
      "src": 461,
      "dest": 430
    },
    {
      "src": 259,
      "dest": 308
    },
    {
      "src": 641,
      "dest": 609
    },
    {
      "src": 145,
      "dest": 145
    },
    {
      "src": 633,
      "dest": 601
    },
    {
      "src": 285,
      "dest": 235
    },
    {
      "src": 422,
      "dest": 391
    },
    {
      "src": 47,
      "dest": 47
    },
    {
      "src": 391,
      "dest": 362
    },
    {
      "src": 442,
      "dest": 411
    },
    {
      "src": 582,
      "dest": 544
    },
    {
      "src": 196,
      "dest": 196
    },
    {
      "src": 13,
      "dest": 13
    },
    {
      "src": 106,
      "dest": 106
    },
    {
      "src": 101,
      "dest": 101
    },
    {
      "src": 360,
      "dest": 286
    },
    {
      "src": 220,
      "dest": 220
    },
    {
      "src": 7,
      "dest": 7
    },
    {
      "src": 338,
      "dest": 264
    },
    {
      "src": 566,
      "dest": 525
    },
    {
      "src": 557,
      "dest": 516
    },
    {
      "src": 162,
      "dest": 162
    },
    {
      "src": 643,
      "dest": 611
    },
    {
      "src": 0,
      "dest": 0
    },
    {
      "src": 399,
      "dest": 370
    },
    {
      "src": 99,
      "dest": 99
    },
    {
      "src": 677,
      "dest": 645
    },
    {
      "src": 428,
      "dest": 397
    },
    {
      "src": 451,
      "dest": 420
    },
    {
      "src": 354,
      "dest": 280
    },
    {
      "src": 128,
      "dest": 128
    },
    {
      "src": 72,
      "dest": 72
    },
    {
      "src": 669,
      "dest": 637
    },
    {
      "src": 173,
      "dest": 173
    },
    {
      "src": 235,
      "dest": 316
    },
    {
      "src": 617,
      "dest": 582
    },
    {
      "src": 642,
      "dest": 610
    },
    {
      "src": 317,
      "dest": 243
    },
    {
      "src": 425,
      "dest": 394
    },
    {
      "src": 435,
      "dest": 404
    },
    {
      "src": 578,
      "dest": 540
    },
    {
      "src": 308,
      "dest": 226
    },
    {
      "src": 146,
      "dest": 146
    },
    {
      "src": 208,
      "dest": 208
    },
    {
      "src": 410,
      "dest": 381
    },
    {
      "src": 118,
      "dest": 118
    },
    {
      "src": 620,
      "dest": 585
    },
    {
      "src": 318,
      "dest": 244
    },
    {
      "src": 184,
      "dest": 184
    },
    {
      "src": 683,
      "dest": 651
    },
    {
      "src": 168,
      "dest": 168
    },
    {
      "src": 462,
      "dest": 431
    },
    {
      "src": 344,
      "dest": 270
    },
    {
      "src": 331,
      "dest": 257
    },
    {
      "src": 441,
      "dest": 410
    },
    {
      "src": 644,
      "dest": 612
    },
    {
      "src": 287,
      "dest": 237
    },
    {
      "src": 670,
      "dest": 638
    },
    {
      "src": 139,
      "dest": 139
    },
    {
      "src": 397,
      "dest": 368
    },
    {
      "src": 394,
      "dest": 365
    },
    {
      "src": 409,
      "dest": 380
    },
    {
      "src": 265,
      "dest": 334
    },
    {
      "src": 539,
      "dest": 498
    },
    {
      "src": 526,
      "dest": 485
    },
    {
      "src": 27,
      "dest": 27
    },
    {
      "src": 185,
      "dest": 185
    },
    {
      "src": 568,
      "dest": 527
    },
    {
      "src": 203,
      "dest": 203
    },
    {
      "src": 198,
      "dest": 198
    },
    {
      "src": 207,
      "dest": 207
    },
    {
      "src": 529,
      "dest": 488
    },
    {
      "src": 103,
      "dest": 103
    },
    {
      "src": 182,
      "dest": 182
    },
    {
      "src": 78,
      "dest": 78
    },
    {
      "src": 585,
      "dest": 547
    },
    {
      "src": 444,
      "dest": 413
    },
    {
      "src": 691,
      "dest": 659
    },
    {
      "src": 618,
      "dest": 583
    },
    {
      "src": 40,
      "dest": 40
    },
    {
      "src": 324,
      "dest": 250
    },
    {
      "src": 269,
      "dest": 338
    },
    {
      "src": 37,
      "dest": 37
    },
    {
      "src": 531,
      "dest": 490
    },
    {
      "src": 330,
      "dest": 256
    },
    {
      "src": 530,
      "dest": 489
    },
    {
      "src": 152,
      "dest": 152
    },
    {
      "src": 181,
      "dest": 181
    },
    {
      "src": 650,
      "dest": 618
    },
    {
      "src": 52,
      "dest": 52
    },
    {
      "src": 523,
      "dest": 482
    },
    {
      "src": 383,
      "dest": 354
    },
    {
      "src": 348,
      "dest": 274
    },
    {
      "src": 542,
      "dest": 501
    },
    {
      "src": 241,
      "dest": 322
    },
    {
      "src": 581,
      "dest": 543
    },
    {
      "src": 440,
      "dest": 409
    },
    {
      "src": 597,
      "dest": 559
    },
    {
      "src": 408,
      "dest": 379
    },
    {
      "src": 638,
      "dest": 606
    },
    {
      "src": 238,
      "dest": 319
    },
    {
      "src": 214,
      "dest": 214
    },
    {
      "src": 242,
      "dest": 323
    },
    {
      "src": 325,
      "dest": 251
    },
    {
      "src": 635,
      "dest": 603
    },
    {
      "src": 257,
      "dest": 293
    },
    {
      "src": 368,
      "dest": 296
    },
    {
      "src": 404,
      "dest": 375
    },
    {
      "src": 545,
      "dest": 504
    },
    {
      "src": 130,
      "dest": 130
    },
    {
      "src": 327,
      "dest": 253
    },
    {
      "src": 674,
      "dest": 642
    },
    {
      "src": 339,
      "dest": 265
    },
    {
      "src": 485,
      "dest": 454
    },
    {
      "src": 87,
      "dest": 87
    },
    {
      "src": 193,
      "dest": 193
    },
    {
      "src": 372,
      "dest": 300
    },
    {
      "src": 159,
      "dest": 159
    },
    {
      "src": 575,
      "dest": 537
    },
    {
      "src": 65,
      "dest": 65
    },
    {
      "src": 369,
      "dest": 297
    },
    {
      "src": 67,
      "dest": 67
    },
    {
      "src": 414,
      "dest": 383
    },
    {
      "src": 600,
      "dest": 562
    },
    {
      "src": 676,
      "dest": 644
    },
    {
      "src": 603,
      "dest": 565
    },
    {
      "src": 470,
      "dest": 439
    },
    {
      "src": 447,
      "dest": 416
    },
    {
      "src": 232,
      "dest": 313
    },
    {
      "src": 76,
      "dest": 76
    },
    {
      "src": 125,
      "dest": 125
    },
    {
      "src": 589,
      "dest": 551
    },
    {
      "src": 11,
      "dest": 11
    },
    {
      "src": 224,
      "dest": 224
    },
    {
      "src": 577,
      "dest": 539
    },
    {
      "src": 664,
      "dest": 632
    },
    {
      "src": 376,
      "dest": 302
    },
    {
      "src": 53,
      "dest": 53
    },
    {
      "src": 127,
      "dest": 127
    },
    {
      "src": 160,
      "dest": 160
    },
    {
      "src": 169,
      "dest": 169
    },
    {
      "src": 277,
      "dest": 346
    },
    {
      "src": 498,
      "dest": 467
    },
    {
      "src": 91,
      "dest": 91
    },
    {
      "src": 645,
      "dest": 613
    },
    {
      "src": 392,
      "dest": 363
    },
    {
      "src": 9,
      "dest": 9
    },
    {
      "src": 121,
      "dest": 121
    },
    {
      "src": 209,
      "dest": 209
    },
    {
      "src": 171,
      "dest": 171
    },
    {
      "src": 656,
      "dest": 624
    },
    {
      "src": 273,
      "dest": 342
    },
    {
      "src": 180,
      "dest": 180
    },
    {
      "src": 606,
      "dest": 571
    },
    {
      "src": 551,
      "dest": 510
    },
    {
      "src": 497,
      "dest": 466
    },
    {
      "src": 482,
      "dest": 451
    },
    {
      "src": 205,
      "dest": 205
    },
    {
      "src": 463,
      "dest": 432
    },
    {
      "src": 197,
      "dest": 197
    },
    {
      "src": 314,
      "dest": 232
    },
    {
      "src": 659,
      "dest": 627
    },
    {
      "src": 679,
      "dest": 647
    },
    {
      "src": 396,
      "dest": 367
    },
    {
      "src": 51,
      "dest": 51
    },
    {
      "src": 434,
      "dest": 403
    },
    {
      "src": 382,
      "dest": 353
    },
    {
      "src": 455,
      "dest": 424
    },
    {
      "src": 313,
      "dest": 231
    },
    {
      "src": 615,
      "dest": 580
    },
    {
      "src": 231,
      "dest": 312
    },
    {
      "src": 84,
      "dest": 84
    },
    {
      "src": 204,
      "dest": 204
    },
    {
      "src": 333,
      "dest": 259
    },
    {
      "src": 245,
      "dest": 326
    },
    {
      "src": 584,
      "dest": 546
    },
    {
      "src": 21,
      "dest": 21
    },
    {
      "src": 353,
      "dest": 279
    },
    {
      "src": 97,
      "dest": 97
    },
    {
      "src": 534,
      "dest": 493
    },
    {
      "src": 488,
      "dest": 457
    },
    {
      "src": 385,
      "dest": 356
    },
    {
      "src": 200,
      "dest": 200
    },
    {
      "src": 15,
      "dest": 15
    },
    {
      "src": 625,
      "dest": 590
    },
    {
      "src": 452,
      "dest": 421
    },
    {
      "src": 652,
      "dest": 620
    },
    {
      "src": 25,
      "dest": 25
    },
    {
      "src": 349,
      "dest": 275
    },
    {
      "src": 544,
      "dest": 503
    },
    {
      "src": 411,
      "dest": 382
    },
    {
      "src": 5,
      "dest": 5
    },
    {
      "src": 430,
      "dest": 399
    },
    {
      "src": 311,
      "dest": 229
    },
    {
      "src": 26,
      "dest": 26
    },
    {
      "src": 105,
      "dest": 105
    },
    {
      "src": 588,
      "dest": 550
    },
    {
      "src": 132,
      "dest": 132
    },
    {
      "src": 164,
      "dest": 164
    },
    {
      "src": 190,
      "dest": 190
    },
    {
      "src": 149,
      "dest": 149
    },
    {
      "src": 178,
      "dest": 178
    },
    {
      "src": 94,
      "dest": 94
    },
    {
      "src": 468,
      "dest": 437
    },
    {
      "src": 98,
      "dest": 98
    },
    {
      "src": 249,
      "dest": 328
    },
    {
      "src": 628,
      "dest": 593
    },
    {
      "src": 649,
      "dest": 617
    },
    {
      "src": 244,
      "dest": 325
    },
    {
      "src": 567,
      "dest": 526
    },
    {
      "src": 48,
      "dest": 48
    },
    {
      "src": 237,
      "dest": 318
    },
    {
      "src": 536,
      "dest": 495
    },
    {
      "src": 626,
      "dest": 591
    },
    {
      "src": 42,
      "dest": 42
    },
    {
      "src": 55,
      "dest": 55
    },
    {
      "src": 219,
      "dest": 219
    },
    {
      "src": 547,
      "dest": 506
    },
    {
      "src": 174,
      "dest": 174
    },
    {
      "src": 467,
      "dest": 436
    },
    {
      "src": 607,
      "dest": 572
    },
    {
      "src": 58,
      "dest": 58
    },
    {
      "src": 133,
      "dest": 133
    },
    {
      "src": 574,
      "dest": 536
    },
    {
      "src": 598,
      "dest": 560
    },
    {
      "src": 276,
      "dest": 345
    },
    {
      "src": 236,
      "dest": 317
    },
    {
      "src": 495,
      "dest": 464
    },
    {
      "src": 332,
      "dest": 258
    },
    {
      "src": 104,
      "dest": 104
    },
    {
      "src": 499,
      "dest": 468
    },
    {
      "src": 69,
      "dest": 69
    },
    {
      "src": 427,
      "dest": 396
    },
    {
      "src": 59,
      "dest": 59
    },
    {
      "src": 262,
      "dest": 331
    },
    {
      "src": 594,
      "dest": 556
    },
    {
      "src": 472,
      "dest": 441
    },
    {
      "src": 28,
      "dest": 28
    },
    {
      "src": 438,
      "dest": 407
    },
    {
      "src": 319,
      "dest": 245
    },
    {
      "src": 687,
      "dest": 655
    },
    {
      "src": 337,
      "dest": 263
    },
    {
      "src": 150,
      "dest": 150
    },
    {
      "src": 113,
      "dest": 113
    },
    {
      "src": 576,
      "dest": 538
    },
    {
      "src": 206,
      "dest": 206
    },
    {
      "src": 474,
      "dest": 443
    },
    {
      "src": 96,
      "dest": 96
    },
    {
      "src": 111,
      "dest": 111
    },
    {
      "src": 406,
      "dest": 377
    },
    {
      "src": 112,
      "dest": 112
    },
    {
      "src": 151,
      "dest": 151
    },
    {
      "src": 215,
      "dest": 215
    },
    {
      "src": 541,
      "dest": 500
    },
    {
      "src": 43,
      "dest": 43
    },
    {
      "src": 240,
      "dest": 321
    },
    {
      "src": 484,
      "dest": 453
    },
    {
      "src": 449,
      "dest": 418
    },
    {
      "src": 66,
      "dest": 66
    },
    {
      "src": 417,
      "dest": 386
    },
    {
      "src": 570,
      "dest": 529
    },
    {
      "src": 631,
      "dest": 599
    },
    {
      "src": 478,
      "dest": 447
    },
    {
      "src": 630,
      "dest": 598
    },
    {
      "src": 629,
      "dest": 597
    },
    {
      "src": 560,
      "dest": 519
    },
    {
      "src": 651,
      "dest": 619
    },
    {
      "src": 378,
      "dest": 304
    },
    {
      "src": 322,
      "dest": 248
    },
    {
      "src": 176,
      "dest": 176
    },
    {
      "src": 351,
      "dest": 277
    },
    {
      "src": 161,
      "dest": 161
    },
    {
      "src": 352,
      "dest": 278
    },
    {
      "src": 596,
      "dest": 558
    },
    {
      "src": 685,
      "dest": 653
    },
    {
      "src": 614,
      "dest": 579
    },
    {
      "src": 665,
      "dest": 633
    },
    {
      "src": 229,
      "dest": 309
    },
    {
      "src": 3,
      "dest": 3
    },
    {
      "src": 445,
      "dest": 414
    },
    {
      "src": 350,
      "dest": 276
    },
    {
      "src": 115,
      "dest": 115
    },
    {
      "src": 147,
      "dest": 147
    },
    {
      "src": 328,
      "dest": 254
    },
    {
      "src": 286,
      "dest": 236
    },
    {
      "src": 489,
      "dest": 458
    },
    {
      "src": 535,
      "dest": 494
    },
    {
      "src": 68,
      "dest": 68
    },
    {
      "src": 264,
      "dest": 333
    },
    {
      "src": 102,
      "dest": 102
    },
    {
      "src": 375,
      "dest": 301
    },
    {
      "src": 661,
      "dest": 629
    },
    {
      "src": 165,
      "dest": 165
    },
    {
      "src": 384,
      "dest": 355
    },
    {
      "src": 572,
      "dest": 531
    },
    {
      "src": 93,
      "dest": 93
    },
    {
      "src": 663,
      "dest": 631
    },
    {
      "src": 457,
      "dest": 426
    },
    {
      "src": 431,
      "dest": 400
    },
    {
      "src": 49,
      "dest": 49
    },
    {
      "src": 401,
      "dest": 372
    },
    {
      "src": 329,
      "dest": 255
    },
    {
      "src": 140,
      "dest": 140
    },
    {
      "src": 225,
      "dest": 225
    },
    {
      "src": 345,
      "dest": 271
    },
    {
      "src": 119,
      "dest": 119
    },
    {
      "src": 586,
      "dest": 548
    },
    {
      "src": 163,
      "dest": 163
    },
    {
      "src": 465,
      "dest": 434
    },
    {
      "src": 558,
      "dest": 517
    },
    {
      "src": 682,
      "dest": 650
    },
    {
      "src": 538,
      "dest": 497
    },
    {
      "src": 108,
      "dest": 108
    },
    {
      "src": 279,
      "dest": 350
    },
    {
      "src": 657,
      "dest": 625
    },
    {
      "src": 23,
      "dest": 23
    },
    {
      "src": 275,
      "dest": 344
    },
    {
      "src": 490,
      "dest": 459
    },
    {
      "src": 255,
      "dest": 291
    },
    {
      "src": 88,
      "dest": 88
    },
    {
      "src": 82,
      "dest": 82
    },
    {
      "src": 494,
      "dest": 463
    },
    {
      "src": 12,
      "dest": 12
    },
    {
      "src": 194,
      "dest": 194
    },
    {
      "src": 521,
      "dest": 480
    },
    {
      "src": 114,
      "dest": 114
    },
    {
      "src": 158,
      "dest": 158
    },
    {
      "src": 433,
      "dest": 402
    },
    {
      "src": 684,
      "dest": 652
    },
    {
      "src": 137,
      "dest": 137
    },
    {
      "src": 616,
      "dest": 581
    },
    {
      "src": 38,
      "dest": 38
    },
    {
      "src": 263,
      "dest": 332
    },
    {
      "src": 36,
      "dest": 36
    },
    {
      "src": 555,
      "dest": 514
    },
    {
      "src": 18,
      "dest": 18
    },
    {
      "src": 120,
      "dest": 120
    },
    {
      "src": 343,
      "dest": 269
    },
    {
      "src": 213,
      "dest": 213
    },
    {
      "src": 288,
      "dest": 238
    },
    {
      "src": 70,
      "dest": 70
    },
    {
      "src": 342,
      "dest": 268
    },
    {
      "src": 218,
      "dest": 218
    },
    {
      "src": 186,
      "dest": 186
    },
    {
      "src": 73,
      "dest": 73
    },
    {
      "src": 254,
      "dest": 290
    },
    {
      "src": 658,
      "dest": 626
    },
    {
      "src": 309,
      "dest": 227
    },
    {
      "src": 136,
      "dest": 136
    },
    {
      "src": 131,
      "dest": 131
    },
    {
      "src": 386,
      "dest": 357
    },
    {
      "src": 480,
      "dest": 449
    },
    {
      "src": 402,
      "dest": 373
    },
    {
      "src": 4,
      "dest": 4
    },
    {
      "src": 654,
      "dest": 622
    },
    {
      "src": 355,
      "dest": 281
    },
    {
      "src": 141,
      "dest": 141
    },
    {
      "src": 420,
      "dest": 389
    },
    {
      "src": 272,
      "dest": 341
    },
    {
      "src": 388,
      "dest": 359
    },
    {
      "src": 689,
      "dest": 657
    },
    {
      "src": 678,
      "dest": 646
    },
    {
      "src": 501,
      "dest": 470
    },
    {
      "src": 86,
      "dest": 86
    },
    {
      "src": 481,
      "dest": 450
    },
    {
      "src": 483,
      "dest": 452
    },
    {
      "src": 448,
      "dest": 417
    },
    {
      "src": 390,
      "dest": 361
    },
    {
      "src": 8,
      "dest": 8
    },
    {
      "src": 323,
      "dest": 249
    },
    {
      "src": 211,
      "dest": 211
    },
    {
      "src": 346,
      "dest": 272
    },
    {
      "src": 592,
      "dest": 554
    },
    {
      "src": 123,
      "dest": 123
    },
    {
      "src": 637,
      "dest": 605
    },
    {
      "src": 75,
      "dest": 75
    },
    {
      "src": 289,
      "dest": 239
    },
    {
      "src": 398,
      "dest": 369
    },
    {
      "src": 310,
      "dest": 228
    },
    {
      "src": 668,
      "dest": 636
    },
    {
      "src": 347,
      "dest": 273
    },
    {
      "src": 117,
      "dest": 117
    },
    {
      "src": 553,
      "dest": 512
    },
    {
      "src": 562,
      "dest": 521
    },
    {
      "src": 426,
      "dest": 395
    },
    {
      "src": 469,
      "dest": 438
    },
    {
      "src": 156,
      "dest": 156
    },
    {
      "src": 14,
      "dest": 14
    },
    {
      "src": 623,
      "dest": 588
    },
    {
      "src": 166,
      "dest": 166
    },
    {
      "src": 16,
      "dest": 16
    },
    {
      "src": 217,
      "dest": 217
    },
    {
      "src": 672,
      "dest": 640
    },
    {
      "src": 362,
      "dest": 288
    },
    {
      "src": 591,
      "dest": 553
    },
    {
      "src": 492,
      "dest": 461
    },
    {
      "src": 419,
      "dest": 388
    },
    {
      "src": 153,
      "dest": 153
    },
    {
      "src": 405,
      "dest": 376
    },
    {
      "src": 143,
      "dest": 143
    },
    {
      "src": 44,
      "dest": 44
    },
    {
      "src": 446,
      "dest": 415
    },
    {
      "src": 634,
      "dest": 602
    },
    {
      "src": 608,
      "dest": 573
    },
    {
      "src": 554,
      "dest": 513
    },
    {
      "src": 167,
      "dest": 167
    },
    {
      "src": 381,
      "dest": 352
    },
    {
      "src": 666,
      "dest": 634
    },
    {
      "src": 436,
      "dest": 405
    },
    {
      "src": 79,
      "dest": 79
    },
    {
      "src": 239,
      "dest": 320
    },
    {
      "src": 90,
      "dest": 90
    },
    {
      "src": 210,
      "dest": 210
    },
    {
      "src": 188,
      "dest": 188
    },
    {
      "src": 89,
      "dest": 89
    },
    {
      "src": 491,
      "dest": 460
    },
    {
      "src": 573,
      "dest": 535
    },
    {
      "src": 29,
      "dest": 29
    },
    {
      "src": 326,
      "dest": 252
    },
    {
      "src": 660,
      "dest": 628
    },
    {
      "src": 473,
      "dest": 442
    },
    {
      "src": 439,
      "dest": 408
    },
    {
      "src": 609,
      "dest": 574
    },
    {
      "src": 548,
      "dest": 507
    },
    {
      "src": 85,
      "dest": 85
    },
    {
      "src": 537,
      "dest": 496
    },
    {
      "src": 80,
      "dest": 80
    },
    {
      "src": 621,
      "dest": 586
    },
    {
      "src": 454,
      "dest": 423
    },
    {
      "src": 639,
      "dest": 607
    },
    {
      "src": 416,
      "dest": 385
    },
    {
      "src": 24,
      "dest": 24
    },
    {
      "src": 496,
      "dest": 465
    },
    {
      "src": 100,
      "dest": 100
    },
    {
      "src": 126,
      "dest": 126
    },
    {
      "src": 45,
      "dest": 45
    },
    {
      "src": 92,
      "dest": 92
    },
    {
      "src": 81,
      "dest": 81
    },
    {
      "src": 271,
      "dest": 340
    },
    {
      "src": 627,
      "dest": 592
    },
    {
      "src": 148,
      "dest": 148
    },
    {
      "src": 63,
      "dest": 63
    },
    {
      "src": 479,
      "dest": 448
    },
    {
      "src": 363,
      "dest": 289
    },
    {
      "src": 565,
      "dest": 524
    },
    {
      "src": 655,
      "dest": 623
    },
    {
      "src": 31,
      "dest": 31
    },
    {
      "src": 122,
      "dest": 122
    },
    {
      "src": 124,
      "dest": 124
    },
    {
      "src": 292,
      "dest": 242
    },
    {
      "src": 519,
      "dest": 478
    },
    {
      "src": 192,
      "dest": 192
    },
    {
      "src": 243,
      "dest": 324
    },
    {
      "src": 520,
      "dest": 479
    },
    {
      "src": 177,
      "dest": 177
    },
    {
      "src": 569,
      "dest": 528
    },
    {
      "src": 77,
      "dest": 77
    },
    {
      "src": 54,
      "dest": 54
    },
    {
      "src": 681,
      "dest": 649
    },
    {
      "src": 487,
      "dest": 456
    },
    {
      "src": 647,
      "dest": 615
    },
    {
      "src": 450,
      "dest": 419
    },
    {
      "src": 403,
      "dest": 374
    },
    {
      "src": 437,
      "dest": 406
    },
    {
      "src": 415,
      "dest": 384
    },
    {
      "src": 662,
      "dest": 630
    },
    {
      "src": 543,
      "dest": 502
    },
    {
      "src": 613,
      "dest": 578
    },
    {
      "src": 458,
      "dest": 427
    },
    {
      "src": 71,
      "dest": 71
    },
    {
      "src": 107,
      "dest": 107
    },
    {
      "src": 387,
      "dest": 358
    },
    {
      "src": 291,
      "dest": 241
    },
    {
      "src": 110,
      "dest": 110
    },
    {
      "src": 610,
      "dest": 575
    },
    {
      "src": 267,
      "dest": 336
    },
    {
      "src": 579,
      "dest": 541
    },
    {
      "src": 595,
      "dest": 557
    },
    {
      "src": 464,
      "dest": 433
    },
    {
      "src": 361,
      "dest": 287
    },
    {
      "src": 671,
      "dest": 639
    },
    {
      "src": 202,
      "dest": 202
    },
    {
      "src": 201,
      "dest": 201
    },
    {
      "src": 611,
      "dest": 576
    },
    {
      "src": 359,
      "dest": 285
    },
    {
      "src": 675,
      "dest": 643
    },
    {
      "src": 109,
      "dest": 109
    },
    {
      "src": 191,
      "dest": 191
    },
    {
      "src": 571,
      "dest": 530
    },
    {
      "src": 20,
      "dest": 20
    },
    {
      "src": 680,
      "dest": 648
    },
    {
      "src": 533,
      "dest": 492
    },
    {
      "src": 356,
      "dest": 282
    },
    {
      "src": 135,
      "dest": 135
    },
    {
      "src": 370,
      "dest": 298
    },
    {
      "src": 154,
      "dest": 154
    },
    {
      "src": 60,
      "dest": 60
    },
    {
      "src": 605,
      "dest": 570
    },
    {
      "src": 502,
      "dest": 471
    },
    {
      "src": 640,
      "dest": 608
    },
    {
      "src": 443,
      "dest": 412
    },
    {
      "src": 583,
      "dest": 545
    },
    {
      "src": 624,
      "dest": 589
    },
    {
      "src": 335,
      "dest": 261
    },
    {
      "src": 57,
      "dest": 57
    },
    {
      "src": 690,
      "dest": 658
    },
    {
      "src": 540,
      "dest": 499
    },
    {
      "src": 648,
      "dest": 616
    },
    {
      "src": 459,
      "dest": 428
    },
    {
      "src": 524,
      "dest": 483
    },
    {
      "src": 357,
      "dest": 283
    },
    {
      "src": 41,
      "dest": 41
    },
    {
      "src": 493,
      "dest": 462
    },
    {
      "src": 334,
      "dest": 260
    },
    {
      "src": 460,
      "dest": 429
    },
    {
      "src": 10,
      "dest": 10
    },
    {
      "src": 2,
      "dest": 2
    },
    {
      "src": 602,
      "dest": 564
    },
    {
      "src": 30,
      "dest": 30
    },
    {
      "src": 95,
      "dest": 95
    },
    {
      "src": 522,
      "dest": 481
    },
    {
      "src": 550,
      "dest": 509
    },
    {
      "src": 601,
      "dest": 563
    },
    {
      "src": 278,
      "dest": 347
    },
    {
      "src": 477,
      "dest": 446
    },
    {
      "src": 604,
      "dest": 566
    },
    {
      "src": 39,
      "dest": 39
    },
    {
      "src": 35,
      "dest": 35
    },
    {
      "src": 320,
      "dest": 246
    },
    {
      "src": 500,
      "dest": 469
    },
    {
      "src": 32,
      "dest": 32
    },
    {
      "src": 653,
      "dest": 621
    },
    {
      "src": 476,
      "dest": 445
    },
    {
      "src": 283,
      "dest": 233
    },
    {
      "src": 62,
      "dest": 62
    },
    {
      "src": 423,
      "dest": 392
    },
    {
      "src": 559,
      "dest": 518
    },
    {
      "src": 144,
      "dest": 144
    },
    {
      "src": 587,
      "dest": 549
    },
    {
      "src": 216,
      "dest": 216
    },
    {
      "src": 619,
      "dest": 584
    },
    {
      "src": 424,
      "dest": 393
    },
    {
      "src": 129,
      "dest": 129
    },
    {
      "src": 556,
      "dest": 515
    },
    {
      "src": 418,
      "dest": 387
    },
    {
      "src": 64,
      "dest": 64
    },
    {
      "src": 636,
      "dest": 604
    },
    {
      "src": 179,
      "dest": 179
    },
    {
      "src": 471,
      "dest": 440
    },
    {
      "src": 371,
      "dest": 299
    },
    {
      "src": 407,
      "dest": 378
    },
    {
      "src": 380,
      "dest": 351
    },
    {
      "src": 270,
      "dest": 339
    },
    {
      "src": 525,
      "dest": 484
    },
    {
      "src": 377,
      "dest": 303
    },
    {
      "src": 34,
      "dest": 34
    },
    {
      "src": 453,
      "dest": 422
    },
    {
      "src": 421,
      "dest": 390
    },
    {
      "src": 564,
      "dest": 523
    },
    {
      "src": 599,
      "dest": 561
    },
    {
      "src": 284,
      "dest": 234
    },
    {
      "src": 195,
      "dest": 195
    },
    {
      "src": 256,
      "dest": 292
    },
    {
      "src": 358,
      "dest": 284
    },
    {
      "src": 688,
      "dest": 656
    },
    {
      "src": 486,
      "dest": 455
    },
    {
      "src": 189,
      "dest": 189
    },
    {
      "src": 429,
      "dest": 398
    },
    {
      "src": 50,
      "dest": 50
    },
    {
      "src": 475,
      "dest": 444
    },
    {
      "src": 632,
      "dest": 600
    },
    {
      "src": 563,
      "dest": 522
    },
    {
      "src": 340,
      "dest": 266
    },
    {
      "src": 667,
      "dest": 635
    },
    {
      "src": 268,
      "dest": 337
    },
    {
      "src": 46,
      "dest": 46
    },
    {
      "src": 532,
      "dest": 491
    },
    {
      "src": 155,
      "dest": 155
    },
    {
      "src": 646,
      "dest": 614
    },
    {
      "src": 187,
      "dest": 187
    },
    {
      "src": 175,
      "dest": 175
    },
    {
      "src": 199,
      "dest": 199
    },
    {
      "src": 142,
      "dest": 142
    },
    {
      "src": 22,
      "dest": 22
    },
    {
      "src": 456,
      "dest": 425
    },
    {
      "src": 1,
      "dest": 1
    },
    {
      "src": 580,
      "dest": 542
    },
    {
      "src": 395,
      "dest": 366
    },
    {
      "src": 212,
      "dest": 212
    },
    {
      "src": 466,
      "dest": 435
    },
    {
      "src": 673,
      "dest": 641
    },
    {
      "src": 400,
      "dest": 371
    },
    {
      "src": 274,
      "dest": 343
    },
    {
      "src": 134,
      "dest": 134
    },
    {
      "src": 622,
      "dest": 587
    },
    {
      "src": 341,
      "dest": 267
    },
    {
      "src": 172,
      "dest": 172
    },
    {
      "src": 389,
      "dest": 360
    },
    {
      "src": 233,
      "dest": 314
    },
    {
      "src": 432,
      "dest": 401
    },
    {
      "src": 170,
      "dest": 170
    },
    {
      "src": 83,
      "dest": 83
    },
    {
      "src": 590,
      "dest": 552
    },
    {
      "src": 561,
      "dest": 520
    },
    {
      "src": 393,
      "dest": 364
    },
    {
      "src": 612,
      "dest": 577
    },
    {
      "src": 336,
      "dest": 262
    },
    {
      "src": 528,
      "dest": 487
    },
    {
      "src": 74,
      "dest": 74
    },
    {
      "src": 19,
      "dest": 19
    },
    {
      "src": 234,
      "dest": 315
    },
    {
      "src": 546,
      "dest": 505
    },
    {
      "src": 552,
      "dest": 511
    },
    {
      "src": 138,
      "dest": 138
    },
    {
      "src": 686,
      "dest": 654
    },
    {
      "src": 33,
      "dest": 33
    },
    {
      "src": 223,
      "dest": 223
    },
    {
      "src": 116,
      "dest": 116
    },
    {
      "src": 6,
      "dest": 6
    },
    {
      "src": 527,
      "dest": 486
    },
    {
      "src": 312,
      "dest": 230
    },
    {
      "src": 56,
      "dest": 56
    },
    {
      "src": 157,
      "dest": 157
    },
    {
      "src": 549,
      "dest": 508
    }
  ],
  "actions": [
    {
      "action": "insert",
      "tree": 477,
      "parent": 659,
      "at": 7
    },
    {
      "action": "insert",
      "tree": 476,
      "parent": 477,
      "at": 0
    },
    {
      "action": "insert",
      "tree": 472,
      "parent": 476,
      "at": 0
    },
    {
      "action": "insert",
      "tree": 473,
      "parent": 476,
      "at": 1
    },
    {
      "action": "insert",
      "tree": 475,
      "parent": 476,
      "at": 2
    },
    {
      "action": "move",
      "tree": 502,
      "parent": 472,
      "at": 0
    },
    {
      "action": "insert",
      "tree": 474,
      "parent": 475,
      "at": 0
    },
    {
      "action": "insert",
      "tree": 307,
      "parent": 393,
      "at": 14
    },
    {
      "action": "move",
      "tree": 279,
      "parent": 393,
      "at": 17
    },
    {
      "action": "move",
      "tree": 390,
      "parent": 393,
      "at": 18
    },
    {
      "action": "move",
      "tree": 411,
      "parent": 393,
      "at": 19
    },
    {
      "action": "move",
      "tree": 254,
      "parent": 307,
      "at": 0
    },
    {
      "action": "insert",
      "tree": 305,
      "parent": 307,
      "at": 1
    },
    {
      "action": "insert",
      "tree": 306,
      "parent": 307,
      "at": 2
    },
    {
      "action": "insert",
      "tree": 330,
      "parent": 350,
      "at": 1
    },
    {
      "action": "insert",
      "tree": 349,
      "parent": 350,
      "at": 2
    },
    {
      "action": "insert",
      "tree": 294,
      "parent": 305,
      "at": 0
    },
    {
      "action": "insert",
      "tree": 295,
      "parent": 305,
      "at": 1
    },
    {
      "action": "move",
      "tree": 378,
      "parent": 305,
      "at": 2
    },
    {
      "action": "move",
      "tree": 249,
      "parent": 330,
      "at": 0
    },
    {
      "action": "insert",
      "tree": 329,
      "parent": 330,
      "at": 1
    },
    {
      "action": "move",
      "tree": 278,
      "parent": 349,
      "at": 0
    },
    {
      "action": "insert",
      "tree": 348,
      "parent": 349,
      "at": 1
    },
    {
      "action": "move",
      "tree": 256,
      "parent": 294,
      "at": 0
    },
    {
      "action": "move",
      "tree": 257,
      "parent": 294,
      "at": 1
    },
    {
      "action": "insert",
      "tree": 327,
      "parent": 328,
      "at": 0
    },
    {
      "action": "update",
      "tree": 603,
      "label": "usage"
    },
    {
      "action": "insert",
      "tree": 569,
      "parent": 570,
      "at": 0
    },
    {
      "action": "update",
      "tree": 627,
      "label": "usage"
    },
    {
      "action": "insert",
      "tree": 596,
      "parent": 597,
      "at": 0
    },
    {
      "action": "update",
      "tree": 255,
      "label": "recursive"
    },
    {
      "action": "insert",
      "tree": 310,
      "parent": 327,
      "at": 0
    },
    {
      "action": "insert",
      "tree": 311,
      "parent": 327,
      "at": 1
    },
    {
      "action": "move",
      "tree": 245,
      "parent": 327,
      "at": 2
    },
    {
      "action": "insert",
      "tree": 568,
      "parent": 569,
      "at": 0
    },
    {
      "action": "insert",
      "tree": 595,
      "parent": 596,
      "at": 0
    },
    {
      "action": "update",
      "tree": 310,
      "label": "\"%06o\\t%s\\t%s\\t\""
    },
    {
      "action": "move",
      "tree": 292,
      "parent": 243,
      "at": 0
    },
    {
      "action": "update",
      "tree": 368,
      "label": "S_ISDIR"
    },
    {
      "action": "update",
      "tree": 229,
      "label": "eltbuf"
    },
    {
      "action": "move",
      "tree": 229,
      "parent": 310,
      "at": 0
    },
    {
      "action": "insert",
      "tree": 567,
      "parent": 568,
      "at": 0
    },
    {
      "action": "insert",
      "tree": 594,
      "parent": 595,
      "at": 0
    },
    {
      "action": "update",
      "tree": 370,
      "label": "mode"
    },
    {
      "action": "update",
      "tree": 571,
      "label": "usage"
    },
    {
      "action": "insert",
      "tree": 534,
      "parent": 535,
      "at": 0
    },
    {
      "action": "insert",
      "tree": 533,
      "parent": 534,
      "at": 0
    },
    {
      "action": "insert",
      "tree": 532,
      "parent": 533,
      "at": 0
    },
    {
      "action": "delete",
      "tree": 226
    },
    {
      "action": "delete",
      "tree": 227
    },
    {
      "action": "delete",
      "tree": 228
    },
    {
      "action": "delete",
      "tree": 250
    },
    {
      "action": "delete",
      "tree": 251
    },
    {
      "action": "delete",
      "tree": 252
    },
    {
      "action": "delete",
      "tree": 253
    },
    {
      "action": "delete",
      "tree": 258
    },
    {
      "action": "delete",
      "tree": 280
    },
    {
      "action": "delete",
      "tree": 281
    },
    {
      "action": "delete",
      "tree": 282
    },
    {
      "action": "delete",
      "tree": 293
    },
    {
      "action": "delete",
      "tree": 294
    },
    {
      "action": "delete",
      "tree": 295
    },
    {
      "action": "delete",
      "tree": 296
    },
    {
      "action": "delete",
      "tree": 297
    },
    {
      "action": "delete",
      "tree": 298
    },
    {
      "action": "delete",
      "tree": 299
    },
    {
      "action": "delete",
      "tree": 300
    },
    {
      "action": "delete",
      "tree": 301
    },
    {
      "action": "delete",
      "tree": 302
    },
    {
      "action": "delete",
      "tree": 303
    },
    {
      "action": "delete",
      "tree": 304
    },
    {
      "action": "delete",
      "tree": 305
    },
    {
      "action": "delete",
      "tree": 306
    },
    {
      "action": "delete",
      "tree": 307
    },
    {
      "action": "delete",
      "tree": 315
    },
    {
      "action": "delete",
      "tree": 316
    },
    {
      "action": "delete",
      "tree": 373
    },
    {
      "action": "delete",
      "tree": 374
    },
    {
      "action": "delete",
      "tree": 230
    },
    {
      "action": "delete",
      "tree": 246
    },
    {
      "action": "delete",
      "tree": 247
    },
    {
      "action": "delete",
      "tree": 248
    },
    {
      "action": "delete",
      "tree": 260
    },
    {
      "action": "delete",
      "tree": 261
    },
    {
      "action": "delete",
      "tree": 364
    },
    {
      "action": "delete",
      "tree": 365
    },
    {
      "action": "delete",
      "tree": 366
    },
    {
      "action": "delete",
      "tree": 367
    },
    {
      "action": "delete",
      "tree": 379
    },
    {
      "action": "delete",
      "tree": 412
    },
    {
      "action": "delete",
      "tree": 413
    },
    {
      "action": "delete",
      "tree": 503
    },
    {
      "action": "delete",
      "tree": 504
    },
    {
      "action": "delete",
      "tree": 505
    },
    {
      "action": "delete",
      "tree": 506
    },
    {
      "action": "delete",
      "tree": 507
    },
    {
      "action": "delete",
      "tree": 508
    },
    {
      "action": "delete",
      "tree": 509
    },
    {
      "action": "delete",
      "tree": 510
    },
    {
      "action": "delete",
      "tree": 511
    },
    {
      "action": "delete",
      "tree": 512
    },
    {
      "action": "delete",
      "tree": 513
    },
    {
      "action": "delete",
      "tree": 514
    },
    {
      "action": "delete",
      "tree": 515
    },
    {
      "action": "delete",
      "tree": 516
    },
    {
      "action": "delete",
      "tree": 517
    },
    {
      "action": "delete",
      "tree": 518
    }
  ]
}