{
	"root": {
		"type": "460000",
		"typeLabel": "Program",
		"pos": "0",
		"length": "1144",
		"children": [
			{
				"type": "450300",
				"typeLabel": "CppTop",
				"pos": "0",
				"length": "18",
				"children": [
					{
						"type": "400200",
						"typeLabel": "Include",
						"pos": "0",
						"length": "18",
						"children": [
							{
								"type": "480000",
								"label": "\"cache.h\"",
								"typeLabel": "GenericString",
								"pos": "9",
								"length": "9",
								"children": []
							}
						]
					}
				]
			},
			{
				"type": "450200",
				"typeLabel": "Definition",
				"pos": "20",
				"length": "667",
				"children": [
					{
						"type": "380000",
						"typeLabel": "Definition",
						"pos": "20",
						"length": "667",
						"children": [
							{
								"type": "200000",
								"typeLabel": "ParamList",
								"pos": "31",
								"length": "18",
								"children": [
									{
										"type": "220100",
										"typeLabel": "ParameterType",
										"pos": "32",
										"length": "7",
										"children": [
											{
												"type": "480000",
												"label": "ifd",
												"typeLabel": "GenericString",
												"pos": "36",
												"length": "3",
												"children": []
											}
										]
									},
									{
										"type": "220100",
										"typeLabel": "ParameterType",
										"pos": "41",
										"length": "7",
										"children": [
											{
												"type": "480000",
												"label": "ofd",
												"typeLabel": "GenericString",
												"pos": "45",
												"length": "3",
												"children": []
											}
										]
									}
								]
							},
							{
								"type": "480000",
								"label": "copy_fd",
								"typeLabel": "GenericString",
								"pos": "24",
								"length": "7",
								"children": []
							},
							{
								"type": "330000",
								"typeLabel": "Compound",
								"pos": "50",
								"length": "637",
								"children": [
									{
										"type": "310100",
										"typeLabel": "While",
										"pos": "53",
										"length": "608",
										"children": [
											{
												"type": "240200",
												"label": "1",
												"typeLabel": "Constant",
												"pos": "60",
												"length": "1",
												"children": []
											},
											{
												"type": "330000",
												"typeLabel": "Compound",
												"pos": "63",
												"length": "598",
												"children": [
													{
														"type": "350100",
														"typeLabel": "DeclList",
														"pos": "67",
														"length": "18",
														"children": [
															{
																"type": "480000",
																"label": "buffer",
																"typeLabel": "GenericString",
																"pos": "72",
																"length": "6",
																"children": []
															}
														]
													},
													{
														"type": "350100",
														"typeLabel": "DeclList",
														"pos": "88",
														"length": "19",
														"children": [
															{
																"type": "480000",
																"label": "buf",
																"typeLabel": "GenericString",
																"pos": "94",
																"length": "3",
																"children": []
															},
															{
																"type": "360100",
																"typeLabel": "InitExpr",
																"pos": "100",
																"length": "6",
																"children": [
																	{
																		"type": "240100",
																		"typeLabel": "Ident",
																		"pos": "100",
																		"length": "6",
																		"children": [
																			{
																				"type": "480000",
																				"label": "buffer",
																				"typeLabel": "GenericString",
																				"pos": "100",
																				"length": "6",
																				"children": []
																			}
																		]
																	}
																]
															}
														]
													},
													{
														"type": "350100",
														"typeLabel": "DeclList",
														"pos": "110",
														"length": "49",
														"children": [
															{
																"type": "480000",
																"label": "len",
																"typeLabel": "GenericString",
																"pos": "118",
																"length": "3",
																"children": []
															},
															{
																"type": "360100",
																"typeLabel": "InitExpr",
																"pos": "124",
																"length": "34",
																"children": [
																	{
																		"type": "240400",
																		"typeLabel": "FunCall",
																		"pos": "124",
																		"length": "34",
																		"children": [
																			{
																				"type": "240100",
																				"typeLabel": "Ident",
																				"pos": "124",
																				"length": "5",
																				"children": [
																					{
																						"type": "480000",
																						"label": "xread",
																						"typeLabel": "GenericString",
																						"pos": "124",
																						"length": "5",
																						"children": []
																					}
																				]
																			},
																			{
																				"type": "470000",
																				"typeLabel": "GenericList",
																				"pos": "129",
																				"length": "29",
																				"children": [
																					{
																						"type": "20100",
																						"typeLabel": "Left",
																						"pos": "130",
																						"length": "3",
																						"children": [
																							{
																								"type": "240100",
																								"typeLabel": "Ident",
																								"pos": "130",
																								"length": "3",
																								"children": [
																									{
																										"type": "480000",
																										"label": "ifd",
																										"typeLabel": "GenericString",
																										"pos": "130",
																										"length": "3",
																										"children": []
																									}
																								]
																							}
																						]
																					},
																					{
																						"type": "20100",
																						"typeLabel": "Left",
																						"pos": "135",
																						"length": "6",
																						"children": [
																							{
																								"type": "240100",
																								"typeLabel": "Ident",
																								"pos": "135",
																								"length": "6",
																								"children": [
																									{
																										"type": "480000",
																										"label": "buffer",
																										"typeLabel": "GenericString",
																										"pos": "135",
																										"length": "6",
																										"children": []
																									}
																								]
																							}
																						]
																					},
																					{
																						"type": "20100",
																						"typeLabel": "Left",
																						"pos": "143",
																						"length": "14",
																						"children": [
																							{
																								"type": "241500",
																								"typeLabel": "SizeOfExpr",
																								"pos": "143",
																								"length": "14",
																								"children": [
																									{
																										"type": "242000",
																										"typeLabel": "ParenExpr",
																										"pos": "149",
																										"length": "8",
																										"children": [
																											{
																												"type": "240100",
																												"typeLabel": "Ident",
																												"pos": "150",
																												"length": "6",
																												"children": [
																													{
																														"type": "480000",
																														"label": "buffer",
																														"typeLabel": "GenericString",
																														"pos": "150",
																														"length": "6",
																														"children": []
																													}
																												]
																											}
																										]
																									}
																								]
																							}
																						]
																					}
																				]
																			}
																		]
																	}
																]
															}
														]
													},
													{
														"type": "300100",
														"typeLabel": "If",
														"pos": "162",
														"length": "19",
														"children": [
															{
																"type": "490100",
																"typeLabel": "IfToken",
																"pos": "162",
																"length": "2",
																"children": []
															},
															{
																"type": "241000",
																"typeLabel": "Unary",
																"pos": "166",
																"length": "4",
																"children": [
																	{
																		"type": "240100",
																		"typeLabel": "Ident",
																		"pos": "167",
																		"length": "3",
																		"children": [
																			{
																				"type": "480000",
																				"label": "len",
																				"typeLabel": "GenericString",
																				"pos": "167",
																				"length": "3",
																				"children": []
																			}
																		]
																	},
																	{
																		"type": "480000",
																		"label": "!",
																		"typeLabel": "GenericString",
																		"pos": "166",
																		"length": "1",
																		"children": []
																	}
																]
															},
															{
																"type": "280002",
																"typeLabel": "Break",
																"pos": "175",
																"length": "6",
																"children": []
															}
														]
													},
													{
														"type": "300100",
														"typeLabel": "If",
														"pos": "184",
														"length": "152",
														"children": [
															{
																"type": "490100",
																"typeLabel": "IfToken",
																"pos": "184",
																"length": "2",
																"children": []
															},
															{
																"type": "241100",
																"typeLabel": "Binary",
																"pos": "188",
																"length": "7",
																"children": [
																	{
																		"type": "240100",
																		"typeLabel": "Ident",
																		"pos": "188",
																		"length": "3",
																		"children": [
																			{
																				"type": "480000",
																				"label": "len",
																				"typeLabel": "GenericString",
																				"pos": "188",
																				"length": "3",
																				"children": []
																			}
																		]
																	},
																	{
																		"type": "480000",
																		"label": "<",
																		"typeLabel": "GenericString",
																		"pos": "192",
																		"length": "1",
																		"children": []
																	},
																	{
																		"type": "240200",
																		"label": "0",
																		"typeLabel": "Constant",
																		"pos": "194",
																		"length": "1",
																		"children": []
																	}
																]
															},
															{
																"type": "330000",
																"typeLabel": "Compound",
																"pos": "197",
																"length": "139",
																"children": [
																	{
																		"type": "350100",
																		"typeLabel": "DeclList",
																		"pos": "202",
																		"length": "15",
																		"children": [
																			{
																				"type": "480000",
																				"label": "read_error",
																				"typeLabel": "GenericString",
																				"pos": "206",
																				"length": "10",
																				"children": []
																			}
																		]
																	},
																	{
																		"type": "260300",
																		"typeLabel": "ExprStatement",
																		"pos": "221",
																		"length": "19",
																		"children": [
																			{
																				"type": "290100",
																				"typeLabel": "Some",
																				"pos": "221",
																				"length": "19",
																				"children": [
																					{
																						"type": "240700",
																						"typeLabel": "Assignment",
																						"pos": "221",
																						"length": "18",
																						"children": [
																							{
																								"type": "240100",
																								"typeLabel": "Ident",
																								"pos": "221",
																								"length": "10",
																								"children": [
																									{
																										"type": "480000",
																										"label": "read_error",
																										"typeLabel": "GenericString",
																										"pos": "221",
																										"length": "10",
																										"children": []
																									}
																								]
																							},
																							{
																								"type": "480000",
																								"label": "=",
																								"typeLabel": "GenericString",
																								"pos": "232",
																								"length": "1",
																								"children": []
																							},
																							{
																								"type": "240100",
																								"typeLabel": "Ident",
																								"pos": "234",
																								"length": "5",
																								"children": [
																									{
																										"type": "480000",
																										"label": "errno",
																										"typeLabel": "GenericString",
																										"pos": "234",
																										"length": "5",
																										"children": []
																									}
																								]
																							}
																						]
																					},
																					{
																						"type": "480000",
																						"label": ";",
																						"typeLabel": "GenericString",
																						"pos": "239",
																						"length": "1",
																						"children": []
																					}
																				]
																			}
																		]
																	},
																	{
																		"type": "260300",
																		"typeLabel": "ExprStatement",
																		"pos": "244",
																		"length": "11",
																		"children": [
																			{
																				"type": "290100",
																				"typeLabel": "Some",
																				"pos": "244",
																				"length": "11",
																				"children": [
																					{
																						"type": "240400",
																						"typeLabel": "FunCall",
																						"pos": "244",
																						"length": "10",
																						"children": [
																							{
																								"type": "240100",
																								"typeLabel": "Ident",
																								"pos": "244",
																								"length": "5",
																								"children": [
																									{
																										"type": "480000",
																										"label": "close",
																										"typeLabel": "GenericString",
																										"pos": "244",
																										"length": "5",
																										"children": []
																									}
																								]
																							},
																							{
																								"type": "470000",
																								"typeLabel": "GenericList",
																								"pos": "249",
																								"length": "5",
																								"children": [
																									{
																										"type": "20100",
																										"typeLabel": "Left",
																										"pos": "250",
																										"length": "3",
																										"children": [
																											{
																												"type": "240100",
																												"typeLabel": "Ident",
																												"pos": "250",
																												"length": "3",
																												"children": [
																													{
																														"type": "480000",
																														"label": "ifd",
																														"typeLabel": "GenericString",
																														"pos": "250",
																														"length": "3",
																														"children": []
																													}
																												]
																											}
																										]
																									}
																								]
																							}
																						]
																					},
																					{
																						"type": "480000",
																						"label": ";",
																						"typeLabel": "GenericString",
																						"pos": "254",
																						"length": "1",
																						"children": []
																					}
																				]
																			}
																		]
																	},
																	{
																		"type": "280200",
																		"typeLabel": "ReturnExpr",
																		"pos": "259",
																		"length": "73",
																		"children": [
																			{
																				"type": "240400",
																				"typeLabel": "FunCall",
																				"pos": "266",
																				"length": "65",
																				"children": [
																					{
																						"type": "240100",
																						"typeLabel": "Ident",
																						"pos": "266",
																						"length": "5",
																						"children": [
																							{
																								"type": "480000",
																								"label": "error",
																								"typeLabel": "GenericString",
																								"pos": "266",
																								"length": "5",
																								"children": []
																							}
																						]
																					},
																					{
																						"type": "470000",
																						"typeLabel": "GenericList",
																						"pos": "271",
																						"length": "60",
																						"children": [
																							{
																								"type": "20100",
																								"typeLabel": "Left",
																								"pos": "272",
																								"length": "27",
																								"children": [
																									{
																										"type": "240200",
																										"label": "\"copy-fd: read returned %s\"",
																										"typeLabel": "Constant",
																										"pos": "272",
																										"length": "27",
																										"children": []
																									}
																								]
																							},
																							{
																								"type": "20100",
																								"typeLabel": "Left",
																								"pos": "310",
																								"length": "20",
																								"children": [
																									{
																										"type": "240400",
																										"typeLabel": "FunCall",
																										"pos": "310",
																										"length": "20",
																										"children": [
																											{
																												"type": "240100",
																												"typeLabel": "Ident",
																												"pos": "310",
																												"length": "8",
																												"children": [
																													{
																														"type": "480000",
																														"label": "strerror",
																														"typeLabel": "GenericString",
																														"pos": "310",
																														"length": "8",
																														"children": []
																													}
																												]
																											},
																											{
																												"type": "470000",
																												"typeLabel": "GenericList",
																												"pos": "318",
																												"length": "12",
																												"children": [
																													{
																														"type": "20100",
																														"typeLabel": "Left",
																														"pos": "319",
																														"length": "10",
																														"children": [
																															{
																																"type": "240100",
																																"typeLabel": "Ident",
																																"pos": "319",
																																"length": "10",
																																"children": [
																																	{
																																		"type": "480000",
																																		"label": "read_error",
																																		"typeLabel": "GenericString",
																																		"pos": "319",
																																		"length": "10",
																																		"children": []
																																	}
																																]
																															}
																														]
																													}
																												]
																											}
																										]
																									}
																								]
																							}
																						]
																					}
																				]
																			}
																		]
																	}
																]
															}
														]
													},
													{
														"type": "310100",
														"typeLabel": "While",
														"pos": "339",
														"length": "319",
														"children": [
															{
																"type": "240100",
																"typeLabel": "Ident",
																"pos": "346",
																"length": "3",
																"children": [
																	{
																		"type": "480000",
																		"label": "len",
																		"typeLabel": "GenericString",
																		"pos": "346",
																		"length": "3",
																		"children": []
																	}
																]
															},
															{
																"type": "330000",
																"typeLabel": "Compound",
																"pos": "351",
																"length": "307",
																"children": [
																	{
																		"type": "350100",
																		"typeLabel": "DeclList",
																		"pos": "356",
																		"length": "36",
																		"children": [
																			{
																				"type": "480000",
																				"label": "written",
																				"typeLabel": "GenericString",
																				"pos": "360",
																				"length": "7",
																				"children": []
																			},
																			{
																				"type": "360100",
																				"typeLabel": "InitExpr",
																				"pos": "370",
																				"length": "21",
																				"children": [
																					{
																						"type": "240400",
																						"typeLabel": "FunCall",
																						"pos": "370",
																						"length": "21",
																						"children": [
																							{
																								"type": "240100",
																								"typeLabel": "Ident",
																								"pos": "370",
																								"length": "6",
																								"children": [
																									{
																										"type": "480000",
																										"label": "xwrite",
																										"typeLabel": "GenericString",
																										"pos": "370",
																										"length": "6",
																										"children": []
																									}
																								]
																							},
																							{
																								"type": "470000",
																								"typeLabel": "GenericList",
																								"pos": "376",
																								"length": "15",
																								"children": [
																									{
																										"type": "20100",
																										"typeLabel": "Left",
																										"pos": "377",
																										"length": "3",
																										"children": [
																											{
																												"type": "240100",
																												"typeLabel": "Ident",
																												"pos": "377",
																												"length": "3",
																												"children": [
																													{
																														"type": "480000",
																														"label": "ofd",
																														"typeLabel": "GenericString",
																														"pos": "377",
																														"length": "3",
																														"children": []
																													}
																												]
																											}
																										]
																									},
																									{
																										"type": "20100",
																										"typeLabel": "Left",
																										"pos": "382",
																										"length": "3",
																										"children": [
																											{
																												"type": "240100",
																												"typeLabel": "Ident",
																												"pos": "382",
																												"length": "3",
																												"children": [
																													{
																														"type": "480000",
																														"label": "buf",
																														"typeLabel": "GenericString",
																														"pos": "382",
																														"length": "3",
																														"children": []
																													}
																												]
																											}
																										]
																									},
																									{
																										"type": "20100",
																										"typeLabel": "Left",
																										"pos": "387",
																										"length": "3",
																										"children": [
																											{
																												"type": "240100",
																												"typeLabel": "Ident",
																												"pos": "387",
																												"length": "3",
																												"children": [
																													{
																														"type": "480000",
																														"label": "len",
																														"typeLabel": "GenericString",
																														"pos": "387",
																														"length": "3",
																														"children": []
																													}
																												]
																											}
																										]
																									}
																								]
																							}
																						]
																					}
																				]
																			}
																		]
																	},
																	{
																		"type": "300100",
																		"typeLabel": "If",
																		"pos": "396",
																		"length": "258",
																		"children": [
																			{
																				"type": "490100",
																				"typeLabel": "IfToken",
																				"pos": "396",
																				"length": "2",
																				"children": []
																			},
																			{
																				"type": "241100",
																				"typeLabel": "Binary",
																				"pos": "400",
																				"length": "11",
																				"children": [
																					{
																						"type": "240100",
																						"typeLabel": "Ident",
																						"pos": "400",
																						"length": "7",
																						"children": [
																							{
																								"type": "480000",
																								"label": "written",
																								"typeLabel": "GenericString",
																								"pos": "400",
																								"length": "7",
																								"children": []
																							}
																						]
																					},
																					{
																						"type": "480000",
																						"label": ">",
																						"typeLabel": "GenericString",
																						"pos": "408",
																						"length": "1",
																						"children": []
																					},
																					{
																						"type": "240200",
																						"label": "0",
																						"typeLabel": "Constant",
																						"pos": "410",
																						"length": "1",
																						"children": []
																					}
																				]
																			},
																			{
																				"type": "330000",
																				"typeLabel": "Compound",
																				"pos": "413",
																				"length": "46",
																				"children": [
																					{
																						"type": "260300",
																						"typeLabel": "ExprStatement",
																						"pos": "419",
																						"length": "15",
																						"children": [
																							{
																								"type": "290100",
																								"typeLabel": "Some",
																								"pos": "419",
																								"length": "15",
																								"children": [
																									{
																										"type": "240700",
																										"typeLabel": "Assignment",
																										"pos": "419",
																										"length": "14",
																										"children": [
																											{
																												"type": "240100",
																												"typeLabel": "Ident",
																												"pos": "419",
																												"length": "3",
																												"children": [
																													{
																														"type": "480000",
																														"label": "buf",
																														"typeLabel": "GenericString",
																														"pos": "419",
																														"length": "3",
																														"children": []
																													}
																												]
																											},
																											{
																												"type": "480000",
																												"label": "+=",
																												"typeLabel": "GenericString",
																												"pos": "423",
																												"length": "2",
																												"children": []
																											},
																											{
																												"type": "240100",
																												"typeLabel": "Ident",
																												"pos": "426",
																												"length": "7",
																												"children": [
																													{
																														"type": "480000",
																														"label": "written",
																														"typeLabel": "GenericString",
																														"pos": "426",
																														"length": "7",
																														"children": []
																													}
																												]
																											}
																										]
																									},
																									{
																										"type": "480000",
																										"label": ";",
																										"typeLabel": "GenericString",
																										"pos": "433",
																										"length": "1",
																										"children": []
																									}
																								]
																							}
																						]
																					},
																					{
																						"type": "260300",
																						"typeLabel": "ExprStatement",
																						"pos": "439",
																						"length": "15",
																						"children": [
																							{
																								"type": "290100",
																								"typeLabel": "Some",
																								"pos": "439",
																								"length": "15",
																								"children": [
																									{
																										"type": "240700",
																										"typeLabel": "Assignment",
																										"pos": "439",
																										"length": "14",
																										"children": [
																											{
																												"type": "240100",
																												"typeLabel": "Ident",
																												"pos": "439",
																												"length": "3",
																												"children": [
																													{
																														"type": "480000",
																														"label": "len",
																														"typeLabel": "GenericString",
																														"pos": "439",
																														"length": "3",
																														"children": []
																													}
																												]
																											},
																											{
																												"type": "480000",
																												"label": "-=",
																												"typeLabel": "GenericString",
																												"pos": "443",
																												"length": "2",
																												"children": []
																											},
																											{
																												"type": "240100",
																												"typeLabel": "Ident",
																												"pos": "446",
																												"length": "7",
																												"children": [
																													{
																														"type": "480000",
																														"label": "written",
																														"typeLabel": "GenericString",
																														"pos": "446",
																														"length": "7",
																														"children": []
																													}
																												]
																											}
																										]
																									},
																									{
																										"type": "480000",
																										"label": ";",
																										"typeLabel": "GenericString",
																										"pos": "453",
																										"length": "1",
																										"children": []
																									}
																								]
																							}
																						]
																					}
																				]
																			},
																			{
																				"type": "300100",
																				"typeLabel": "If",
																				"pos": "468",
																				"length": "186",
																				"children": [
																					{
																						"type": "490100",
																						"typeLabel": "IfToken",
																						"pos": "468",
																						"length": "2",
																						"children": []
																					},
																					{
																						"type": "241000",
																						"typeLabel": "Unary",
																						"pos": "472",
																						"length": "8",
																						"children": [
																							{
																								"type": "240100",
																								"typeLabel": "Ident",
																								"pos": "473",
																								"length": "7",
																								"children": [
																									{
																										"type": "480000",
																										"label": "written",
																										"typeLabel": "GenericString",
																										"pos": "473",
																										"length": "7",
																										"children": []
																									}
																								]
																							},
																							{
																								"type": "480000",
																								"label": "!",
																								"typeLabel": "GenericString",
																								"pos": "472",
																								"length": "1",
																								"children": []
																							}
																						]
																					},
																					{
																						"type": "330000",
																						"typeLabel": "Compound",
																						"pos": "482",
																						"length": "69",
																						"children": [
																							{
																								"type": "260300",
																								"typeLabel": "ExprStatement",
																								"pos": "488",
																								"length": "11",
																								"children": [
																									{
																										"type": "290100",
																										"typeLabel": "Some",
																										"pos": "488",
																										"length": "11",
																										"children": [
																											{
																												"type": "240400",
																												"typeLabel": "FunCall",
																												"pos": "488",
																												"length": "10",
																												"children": [
																													{
																														"type": "240100",
																														"typeLabel": "Ident",
																														"pos": "488",
																														"length": "5",
																														"children": [
																															{
																																"type": "480000",
																																"label": "close",
																																"typeLabel": "GenericString",
																																"pos": "488",
																																"length": "5",
																																"children": []
																															}
																														]
																													},
																													{
																														"type": "470000",
																														"typeLabel": "GenericList",
																														"pos": "493",
																														"length": "5",
																														"children": [
																															{
																																"type": "20100",
																																"typeLabel": "Left",
																																"pos": "494",
																																"length": "3",
																																"children": [
																																	{
																																		"type": "240100",
																																		"typeLabel": "Ident",
																																		"pos": "494",
																																		"length": "3",
																																		"children": [
																																			{
																																				"type": "480000",
																																				"label": "ifd",
																																				"typeLabel": "GenericString",
																																				"pos": "494",
																																				"length": "3",
																																				"children": []
																																			}
																																		]
																																	}
																																]
																															}
																														]
																													}
																												]
																											},
																											{
																												"type": "480000",
																												"label": ";",
																												"typeLabel": "GenericString",
																												"pos": "498",
																												"length": "1",
																												"children": []
																											}
																										]
																									}
																								]
																							},
																							{
																								"type": "280200",
																								"typeLabel": "ReturnExpr",
																								"pos": "504",
																								"length": "42",
																								"children": [
																									{
																										"type": "240400",
																										"typeLabel": "FunCall",
																										"pos": "511",
																										"length": "34",
																										"children": [
																											{
																												"type": "240100",
																												"typeLabel": "Ident",
																												"pos": "511",
																												"length": "5",
																												"children": [
																													{
																														"type": "480000",
																														"label": "error",
																														"typeLabel": "GenericString",
																														"pos": "511",
																														"length": "5",
																														"children": []
																													}
																												]
																											},
																											{
																												"type": "470000",
																												"typeLabel": "GenericList",
																												"pos": "516",
																												"length": "29",
																												"children": [
																													{
																														"type": "20100",
																														"typeLabel": "Left",
																														"pos": "517",
																														"length": "27",
																														"children": [
																															{
																																"type": "240200",
																																"label": "\"copy-fd: write returned 0\"",
																																"typeLabel": "Constant",
																																"pos": "517",
																																"length": "27",
																																"children": []
																															}
																														]
																													}
																												]
																											}
																										]
																									}
																								]
																							}
																						]
																					},
																					{
																						"type": "330000",
																						"typeLabel": "Compound",
																						"pos": "557",
																						"length": "97",
																						"children": [
																							{
																								"type": "260300",
																								"typeLabel": "ExprStatement",
																								"pos": "563",
																								"length": "11",
																								"children": [
																									{
																										"type": "290100",
																										"typeLabel": "Some",
																										"pos": "563",
																										"length": "11",
																										"children": [
																											{
																												"type": "240400",
																												"typeLabel": "FunCall",
																												"pos": "563",
																												"length": "10",
																												"children": [
																													{
																														"type": "240100",
																														"typeLabel": "Ident",
																														"pos": "563",
																														"length": "5",
																														"children": [
																															{
																																"type": "480000",
																																"label": "close",
																																"typeLabel": "GenericString",
																																"pos": "563",
																																"length": "5",
																																"children": []
																															}
																														]
																													},
																													{
																														"type": "470000",
																														"typeLabel": "GenericList",
																														"pos": "568",
																														"length": "5",
																														"children": [
																															{
																																"type": "20100",
																																"typeLabel": "Left",
																																"pos": "569",
																																"length": "3",
																																"children": [
																																	{
																																		"type": "240100",
																																		"typeLabel": "Ident",
																																		"pos": "569",
																																		"length": "3",
																																		"children": [
																																			{
																																				"type": "480000",
																																				"label": "ifd",
																																				"typeLabel": "GenericString",
																																				"pos": "569",
																																				"length": "3",
																																				"children": []
																																			}
																																		]
																																	}
																																]
																															}
																														]
																													}
																												]
																											},
																											{
																												"type": "480000",
																												"label": ";",
																												"typeLabel": "GenericString",
																												"pos": "573",
																												"length": "1",
																												"children": []
																											}
																										]
																									}
																								]
																							},
																							{
																								"type": "280200",
																								"typeLabel": "ReturnExpr",
																								"pos": "579",
																								"length": "70",
																								"children": [
																									{
																										"type": "240400",
																										"typeLabel": "FunCall",
																										"pos": "586",
																										"length": "62",
																										"children": [
																											{
																												"type": "240100",
																												"typeLabel": "Ident",
																												"pos": "586",
																												"length": "5",
																												"children": [
																													{
																														"type": "480000",
																														"label": "error",
																														"typeLabel": "GenericString",
																														"pos": "586",
																														"length": "5",
																														"children": []
																													}
																												]
																											},
																											{
																												"type": "470000",
																												"typeLabel": "GenericList",
																												"pos": "591",
																												"length": "57",
																												"children": [
																													{
																														"type": "20100",
																														"typeLabel": "Left",
																														"pos": "592",
																														"length": "28",
																														"children": [
																															{
																																"type": "240200",
																																"label": "\"copy-fd: write returned %s\"",
																																"typeLabel": "Constant",
																																"pos": "592",
																																"length": "28",
																																"children": []
																															}
																														]
																													},
																													{
																														"type": "20100",
																														"typeLabel": "Left",
																														"pos": "632",
																														"length": "15",
																														"children": [
																															{
																																"type": "240400",
																																"typeLabel": "FunCall",
																																"pos": "632",
																																"length": "15",
																																"children": [
																																	{
																																		"type": "240100",
																																		"typeLabel": "Ident",
																																		"pos": "632",
																																		"length": "8",
																																		"children": [
																																			{
																																				"type": "480000",
																																				"label": "strerror",
																																				"typeLabel": "GenericString",
																																				"pos": "632",
																																				"length": "8",
																																				"children": []
																																			}
																																		]
																																	},
																																	{
																																		"type": "470000",
																																		"typeLabel": "GenericList",
																																		"pos": "640",
																																		"length": "7",
																																		"children": [
																																			{
																																				"type": "20100",
																																				"typeLabel": "Left",
																																				"pos": "641",
																																				"length": "5",
																																				"children": [
																																					{
																																						"type": "240100",
																																						"typeLabel": "Ident",
																																						"pos": "641",
																																						"length": "5",
																																						"children": [
																																							{
																																								"type": "480000",
																																								"label": "errno",
																																								"typeLabel": "GenericString",
																																								"pos": "641",
																																								"length": "5",
																																								"children": []
																																							}
																																						]
																																					}
																																				]
																																			}
																																		]
																																	}
																																]
																															}
																														]
																													}
																												]
																											}
																										]
																									}
																								]
																							}
																						]
																					}
																				]
																			}
																		]
																	}
																]
															}
														]
													}
												]
											}
										]
									},
									{
										"type": "260300",
										"typeLabel": "ExprStatement",
										"pos": "663",
										"length": "11",
										"children": [
											{
												"type": "290100",
												"typeLabel": "Some",
												"pos": "663",
												"length": "11",
												"children": [
													{
														"type": "240400",
														"typeLabel": "FunCall",
														"pos": "663",
														"length": "10",
														"children": [
															{
																"type": "240100",
																"typeLabel": "Ident",
																"pos": "663",
																"length": "5",
																"children": [
																	{
																		"type": "480000",
																		"label": "close",
																		"typeLabel": "GenericString",
																		"pos": "663",
																		"length": "5",
																		"children": []
																	}
																]
															},
															{
																"type": "470000",
																"typeLabel": "GenericList",
																"pos": "668",
																"length": "5",
																"children": [
																	{
																		"type": "20100",
																		"typeLabel": "Left",
																		"pos": "669",
																		"length": "3",
																		"children": [
																			{
																				"type": "240100",
																				"typeLabel": "Ident",
																				"pos": "669",
																				"length": "3",
																				"children": [
																					{
																						"type": "480000",
																						"label": "ifd",
																						"typeLabel": "GenericString",
																						"pos": "669",
																						"length": "3",
																						"children": []
																					}
																				]
																			}
																		]
																	}
																]
															}
														]
													},
													{
														"type": "480000",
														"label": ";",
														"typeLabel": "GenericString",
														"pos": "673",
														"length": "1",
														"children": []
													}
												]
											}
										]
									},
									{
										"type": "280200",
										"typeLabel": "ReturnExpr",
										"pos": "676",
										"length": "9",
										"children": [
											{
												"type": "240200",
												"label": "0",
												"typeLabel": "Constant",
												"pos": "683",
												"length": "1",
												"children": []
											}
										]
									}
								]
							}
						]
					}
				]
			},
			{
				"type": "450200",
				"typeLabel": "Definition",
				"pos": "689",
				"length": "454",
				"children": [
					{
						"type": "380000",
						"typeLabel": "Definition",
						"pos": "689",
						"length": "454",
						"children": [
							{
								"type": "200000",
								"typeLabel": "ParamList",
								"pos": "702",
								"length": "44",
								"children": [
									{
										"type": "220100",
										"typeLabel": "ParameterType",
										"pos": "703",
										"length": "15",
										"children": [
											{
												"type": "480000",
												"label": "dst",
												"typeLabel": "GenericString",
												"pos": "715",
												"length": "3",
												"children": []
											}
										]
									},
									{
										"type": "220100",
										"typeLabel": "ParameterType",
										"pos": "720",
										"length": "15",
										"children": [
											{
												"type": "480000",
												"label": "src",
												"typeLabel": "GenericString",
												"pos": "732",
												"length": "3",
												"children": []
											}
										]
									},
									{
										"type": "220100",
										"typeLabel": "ParameterType",
										"pos": "737",
										"length": "8",
										"children": [
											{
												"type": "480000",
												"label": "mode",
												"typeLabel": "GenericString",
												"pos": "741",
												"length": "4",
												"children": []
											}
										]
									}
								]
							},
							{
								"type": "480000",
								"label": "copy_file",
								"typeLabel": "GenericString",
								"pos": "693",
								"length": "9",
								"children": []
							},
							{
								"type": "330000",
								"typeLabel": "Compound",
								"pos": "747",
								"length": "396",
								"children": [
									{
										"type": "350100",
										"typeLabel": "DeclList",
										"pos": "750",
										"length": "21",
										"children": [
											{
												"type": "480000",
												"label": "fdi",
												"typeLabel": "GenericString",
												"pos": "754",
												"length": "3",
												"children": []
											},
											{
												"type": "480000",
												"label": "fdo",
												"typeLabel": "GenericString",
												"pos": "759",
												"length": "3",
												"children": []
											},
											{
												"type": "480000",
												"label": "status",
												"typeLabel": "GenericString",
												"pos": "764",
												"length": "6",
												"children": []
											}
										]
									},
									{
										"type": "260300",
										"typeLabel": "ExprStatement",
										"pos": "774",
										"length": "35",
										"children": [
											{
												"type": "290100",
												"typeLabel": "Some",
												"pos": "774",
												"length": "35",
												"children": [
													{
														"type": "240700",
														"typeLabel": "Assignment",
														"pos": "774",
														"length": "34",
														"children": [
															{
																"type": "240100",
																"typeLabel": "Ident",
																"pos": "774",
																"length": "4",
																"children": [
																	{
																		"type": "480000",
																		"label": "mode",
																		"typeLabel": "GenericString",
																		"pos": "774",
																		"length": "4",
																		"children": []
																	}
																]
															},
															{
																"type": "480000",
																"label": "=",
																"typeLabel": "GenericString",
																"pos": "779",
																"length": "1",
																"children": []
															},
															{
																"type": "240500",
																"typeLabel": "CondExpr",
																"pos": "781",
																"length": "27",
																"children": [
																	{
																		"type": "242000",
																		"typeLabel": "ParenExpr",
																		"pos": "781",
																		"length": "13",
																		"children": [
																			{
																				"type": "241100",
																				"typeLabel": "Binary",
																				"pos": "782",
																				"length": "11",
																				"children": [
																					{
																						"type": "240100",
																						"typeLabel": "Ident",
																						"pos": "782",
																						"length": "4",
																						"children": [
																							{
																								"type": "480000",
																								"label": "mode",
																								"typeLabel": "GenericString",
																								"pos": "782",
																								"length": "4",
																								"children": []
																							}
																						]
																					},
																					{
																						"type": "480000",
																						"label": "&",
																						"typeLabel": "GenericString",
																						"pos": "787",
																						"length": "1",
																						"children": []
																					},
																					{
																						"type": "240200",
																						"label": "0111",
																						"typeLabel": "Constant",
																						"pos": "789",
																						"length": "4",
																						"children": []
																					}
																				]
																			}
																		]
																	},
																	{
																		"type": "240200",
																		"label": "0777",
																		"typeLabel": "Constant",
																		"pos": "797",
																		"length": "4",
																		"children": []
																	},
																	{
																		"type": "240200",
																		"label": "0666",
																		"typeLabel": "Constant",
																		"pos": "804",
																		"length": "4",
																		"children": []
																	}
																]
															}
														]
													},
													{
														"type": "480000",
														"label": ";",
														"typeLabel": "GenericString",
														"pos": "808",
														"length": "1",
														"children": []
													}
												]
											}
										]
									},
									{
										"type": "300100",
										"typeLabel": "If",
										"pos": "811",
										"length": "50",
										"children": [
											{
												"type": "490100",
												"typeLabel": "IfToken",
												"pos": "811",
												"length": "2",
												"children": []
											},
											{
												"type": "241100",
												"typeLabel": "Binary",
												"pos": "815",
												"length": "31",
												"children": [
													{
														"type": "242000",
														"typeLabel": "ParenExpr",
														"pos": "815",
														"length": "27",
														"children": [
															{
																"type": "240700",
																"typeLabel": "Assignment",
																"pos": "816",
																"length": "25",
																"children": [
																	{
																		"type": "240100",
																		"typeLabel": "Ident",
																		"pos": "816",
																		"length": "3",
																		"children": [
																			{
																				"type": "480000",
																				"label": "fdi",
																				"typeLabel": "GenericString",
																				"pos": "816",
																				"length": "3",
																				"children": []
																			}
																		]
																	},
																	{
																		"type": "480000",
																		"label": "=",
																		"typeLabel": "GenericString",
																		"pos": "820",
																		"length": "1",
																		"children": []
																	},
																	{
																		"type": "240400",
																		"typeLabel": "FunCall",
																		"pos": "822",
																		"length": "19",
																		"children": [
																			{
																				"type": "240100",
																				"typeLabel": "Ident",
																				"pos": "822",
																				"length": "4",
																				"children": [
																					{
																						"type": "480000",
																						"label": "open",
																						"typeLabel": "GenericString",
																						"pos": "822",
																						"length": "4",
																						"children": []
																					}
																				]
																			},
																			{
																				"type": "470000",
																				"typeLabel": "GenericList",
																				"pos": "826",
																				"length": "15",
																				"children": [
																					{
																						"type": "20100",
																						"typeLabel": "Left",
																						"pos": "827",
																						"length": "3",
																						"children": [
																							{
																								"type": "240100",
																								"typeLabel": "Ident",
																								"pos": "827",
																								"length": "3",
																								"children": [
																									{
																										"type": "480000",
																										"label": "src",
																										"typeLabel": "GenericString",
																										"pos": "827",
																										"length": "3",
																										"children": []
																									}
																								]
																							}
																						]
																					},
																					{
																						"type": "20100",
																						"typeLabel": "Left",
																						"pos": "832",
																						"length": "8",
																						"children": [
																							{
																								"type": "240100",
																								"typeLabel": "Ident",
																								"pos": "832",
																								"length": "8",
																								"children": [
																									{
																										"type": "480000",
																										"label": "O_RDONLY",
																										"typeLabel": "GenericString",
																										"pos": "832",
																										"length": "8",
																										"children": []
																									}
																								]
																							}
																						]
																					}
																				]
																			}
																		]
																	}
																]
															}
														]
													},
													{
														"type": "480000",
														"label": "<",
														"typeLabel": "GenericString",
														"pos": "843",
														"length": "1",
														"children": []
													},
													{
														"type": "240200",
														"label": "0",
														"typeLabel": "Constant",
														"pos": "845",
														"length": "1",
														"children": []
													}
												]
											},
											{
												"type": "280200",
												"typeLabel": "ReturnExpr",
												"pos": "850",
												"length": "11",
												"children": [
													{
														"type": "240100",
														"typeLabel": "Ident",
														"pos": "857",
														"length": "3",
														"children": [
															{
																"type": "480000",
																"label": "fdi",
																"typeLabel": "GenericString",
																"pos": "857",
																"length": "3",
																"children": []
															}
														]
													}
												]
											}
										]
									},
									{
										"type": "300100",
										"typeLabel": "If",
										"pos": "863",
										"length": "94",
										"children": [
											{
												"type": "490100",
												"typeLabel": "IfToken",
												"pos": "863",
												"length": "2",
												"children": []
											},
											{
												"type": "241100",
												"typeLabel": "Binary",
												"pos": "867",
												"length": "56",
												"children": [
													{
														"type": "242000",
														"typeLabel": "ParenExpr",
														"pos": "867",
														"length": "52",
														"children": [
															{
																"type": "240700",
																"typeLabel": "Assignment",
																"pos": "868",
																"length": "50",
																"children": [
																	{
																		"type": "240100",
																		"typeLabel": "Ident",
																		"pos": "868",
																		"length": "3",
																		"children": [
																			{
																				"type": "480000",
																				"label": "fdo",
																				"typeLabel": "GenericString",
																				"pos": "868",
																				"length": "3",
																				"children": []
																			}
																		]
																	},
																	{
																		"type": "480000",
																		"label": "=",
																		"typeLabel": "GenericString",
																		"pos": "872",
																		"length": "1",
																		"children": []
																	},
																	{
																		"type": "240400",
																		"typeLabel": "FunCall",
																		"pos": "874",
																		"length": "44",
																		"children": [
																			{
																				"type": "240100",
																				"typeLabel": "Ident",
																				"pos": "874",
																				"length": "4",
																				"children": [
																					{
																						"type": "480000",
																						"label": "open",
																						"typeLabel": "GenericString",
																						"pos": "874",
																						"length": "4",
																						"children": []
																					}
																				]
																			},
																			{
																				"type": "470000",
																				"typeLabel": "GenericList",
																				"pos": "878",
																				"length": "40",
																				"children": [
																					{
																						"type": "20100",
																						"typeLabel": "Left",
																						"pos": "879",
																						"length": "3",
																						"children": [
																							{
																								"type": "240100",
																								"typeLabel": "Ident",
																								"pos": "879",
																								"length": "3",
																								"children": [
																									{
																										"type": "480000",
																										"label": "dst",
																										"typeLabel": "GenericString",
																										"pos": "879",
																										"length": "3",
																										"children": []
																									}
																								]
																							}
																						]
																					},
																					{
																						"type": "20100",
																						"typeLabel": "Left",
																						"pos": "884",
																						"length": "27",
																						"children": [
																							{
																								"type": "241100",
																								"typeLabel": "Binary",
																								"pos": "884",
																								"length": "27",
																								"children": [
																									{
																										"type": "241100",
																										"typeLabel": "Binary",
																										"pos": "884",
																										"length": "18",
																										"children": [
																											{
																												"type": "240100",
																												"typeLabel": "Ident",
																												"pos": "884",
																												"length": "8",
																												"children": [
																													{
																														"type": "480000",
																														"label": "O_WRONLY",
																														"typeLabel": "GenericString",
																														"pos": "884",
																														"length": "8",
																														"children": []
																													}
																												]
																											},
																											{
																												"type": "480000",
																												"label": "|",
																												"typeLabel": "GenericString",
																												"pos": "893",
																												"length": "1",
																												"children": []
																											},
																											{
																												"type": "240100",
																												"typeLabel": "Ident",
																												"pos": "895",
																												"length": "7",
																												"children": [
																													{
																														"type": "480000",
																														"label": "O_CREAT",
																														"typeLabel": "GenericString",
																														"pos": "895",
																														"length": "7",
																														"children": []
																													}
																												]
																											}
																										]
																									},
																									{
																										"type": "480000",
																										"label": "|",
																										"typeLabel": "GenericString",
																										"pos": "903",
																										"length": "1",
																										"children": []
																									},
																									{
																										"type": "240100",
																										"typeLabel": "Ident",
																										"pos": "905",
																										"length": "6",
																										"children": [
																											{
																												"type": "480000",
																												"label": "O_EXCL",
																												"typeLabel": "GenericString",
																												"pos": "905",
																												"length": "6",
																												"children": []
																											}
																										]
																									}
																								]
																							}
																						]
																					},
																					{
																						"type": "20100",
																						"typeLabel": "Left",
																						"pos": "913",
																						"length": "4",
																						"children": [
																							{
																								"type": "240100",
																								"typeLabel": "Ident",
																								"pos": "913",
																								"length": "4",
																								"children": [
																									{
																										"type": "480000",
																										"label": "mode",
																										"typeLabel": "GenericString",
																										"pos": "913",
																										"length": "4",
																										"children": []
																									}
																								]
																							}
																						]
																					}
																				]
																			}
																		]
																	}
																]
															}
														]
													},
													{
														"type": "480000",
														"label": "<",
														"typeLabel": "GenericString",
														"pos": "920",
														"length": "1",
														"children": []
													},
													{
														"type": "240200",
														"label": "0",
														"typeLabel": "Constant",
														"pos": "922",
														"length": "1",
														"children": []
													}
												]
											},
											{
												"type": "330000",
												"typeLabel": "Compound",
												"pos": "925",
												"length": "32",
												"children": [
													{
														"type": "260300",
														"typeLabel": "ExprStatement",
														"pos": "929",
														"length": "11",
														"children": [
															{
																"type": "290100",
																"typeLabel": "Some",
																"pos": "929",
																"length": "11",
																"children": [
																	{
																		"type": "240400",
																		"typeLabel": "FunCall",
																		"pos": "929",
																		"length": "10",
																		"children": [
																			{
																				"type": "240100",
																				"typeLabel": "Ident",
																				"pos": "929",
																				"length": "5",
																				"children": [
																					{
																						"type": "480000",
																						"label": "close",
																						"typeLabel": "GenericString",
																						"pos": "929",
																						"length": "5",
																						"children": []
																					}
																				]
																			},
																			{
																				"type": "470000",
																				"typeLabel": "GenericList",
																				"pos": "934",
																				"length": "5",
																				"children": [
																					{
																						"type": "20100",
																						"typeLabel": "Left",
																						"pos": "935",
																						"length": "3",
																						"children": [
																							{
																								"type": "240100",
																								"typeLabel": "Ident",
																								"pos": "935",
																								"length": "3",
																								"children": [
																									{
																										"type": "480000",
																										"label": "fdi",
																										"typeLabel": "GenericString",
																										"pos": "935",
																										"length": "3",
																										"children": []
																									}
																								]
																							}
																						]
																					}
																				]
																			}
																		]
																	},
																	{
																		"type": "480000",
																		"label": ";",
																		"typeLabel": "GenericString",
																		"pos": "939",
																		"length": "1",
																		"children": []
																	}
																]
															}
														]
													},
													{
														"type": "280200",
														"typeLabel": "ReturnExpr",
														"pos": "943",
														"length": "11",
														"children": [
															{
																"type": "240100",
																"typeLabel": "Ident",
																"pos": "950",
																"length": "3",
																"children": [
																	{
																		"type": "480000",
																		"label": "fdo",
																		"typeLabel": "GenericString",
																		"pos": "950",
																		"length": "3",
																		"children": []
																	}
																]
															}
														]
													}
												]
											}
										]
									},
									{
										"type": "260300",
										"typeLabel": "ExprStatement",
										"pos": "959",
										"length": "27",
										"children": [
											{
												"type": "290100",
												"typeLabel": "Some",
												"pos": "959",
												"length": "27",
												"children": [
													{
														"type": "240700",
														"typeLabel": "Assignment",
														"pos": "959",
														"length": "26",
														"children": [
															{
																"type": "240100",
																"typeLabel": "Ident",
																"pos": "959",
																"length": "6",
																"children": [
																	{
																		"type": "480000",
																		"label": "status",
																		"typeLabel": "GenericString",
																		"pos": "959",
																		"length": "6",
																		"children": []
																	}
																]
															},
															{
																"type": "480000",
																"label": "=",
																"typeLabel": "GenericString",
																"pos": "966",
																"length": "1",
																"children": []
															},
															{
																"type": "240400",
																"typeLabel": "FunCall",
																"pos": "968",
																"length": "17",
																"children": [
																	{
																		"type": "240100",
																		"typeLabel": "Ident",
																		"pos": "968",
																		"length": "7",
																		"children": [
																			{
																				"type": "480000",
																				"label": "copy_fd",
																				"typeLabel": "GenericString",
																				"pos": "968",
																				"length": "7",
																				"children": []
																			}
																		]
																	},
																	{
																		"type": "470000",
																		"typeLabel": "GenericList",
																		"pos": "975",
																		"length": "10",
																		"children": [
																			{
																				"type": "20100",
																				"typeLabel": "Left",
																				"pos": "976",
																				"length": "3",
																				"children": [
																					{
																						"type": "240100",
																						"typeLabel": "Ident",
																						"pos": "976",
																						"length": "3",
																						"children": [
																							{
																								"type": "480000",
																								"label": "fdi",
																								"typeLabel": "GenericString",
																								"pos": "976",
																								"length": "3",
																								"children": []
																							}
																						]
																					}
																				]
																			},
																			{
																				"type": "20100",
																				"typeLabel": "Left",
																				"pos": "981",
																				"length": "3",
																				"children": [
																					{
																						"type": "240100",
																						"typeLabel": "Ident",
																						"pos": "981",
																						"length": "3",
																						"children": [
																							{
																								"type": "480000",
																								"label": "fdo",
																								"typeLabel": "GenericString",
																								"pos": "981",
																								"length": "3",
																								"children": []
																							}
																						]
																					}
																				]
																			}
																		]
																	}
																]
															}
														]
													},
													{
														"type": "480000",
														"label": ";",
														"typeLabel": "GenericString",
														"pos": "985",
														"length": "1",
														"children": []
													}
												]
											}
										]
									},
									{
										"type": "300100",
										"typeLabel": "If",
										"pos": "988",
										"length": "81",
										"children": [
											{
												"type": "490100",
												"typeLabel": "IfToken",
												"pos": "988",
												"length": "2",
												"children": []
											},
											{
												"type": "241100",
												"typeLabel": "Binary",
												"pos": "992",
												"length": "15",
												"children": [
													{
														"type": "240400",
														"typeLabel": "FunCall",
														"pos": "992",
														"length": "10",
														"children": [
															{
																"type": "240100",
																"typeLabel": "Ident",
																"pos": "992",
																"length": "5",
																"children": [
																	{
																		"type": "480000",
																		"label": "close",
																		"typeLabel": "GenericString",
																		"pos": "992",
																		"length": "5",
																		"children": []
																	}
																]
															},
															{
																"type": "470000",
																"typeLabel": "GenericList",
																"pos": "997",
																"length": "5",
																"children": [
																	{
																		"type": "20100",
																		"typeLabel": "Left",
																		"pos": "998",
																		"length": "3",
																		"children": [
																			{
																				"type": "240100",
																				"typeLabel": "Ident",
																				"pos": "998",
																				"length": "3",
																				"children": [
																					{
																						"type": "480000",
																						"label": "fdo",
																						"typeLabel": "GenericString",
																						"pos": "998",
																						"length": "3",
																						"children": []
																					}
																				]
																			}
																		]
																	}
																]
															}
														]
													},
													{
														"type": "480000",
														"label": "!=",
														"typeLabel": "GenericString",
														"pos": "1003",
														"length": "2",
														"children": []
													},
													{
														"type": "240200",
														"label": "0",
														"typeLabel": "Constant",
														"pos": "1006",
														"length": "1",
														"children": []
													}
												]
											},
											{
												"type": "280200",
												"typeLabel": "ReturnExpr",
												"pos": "1011",
												"length": "58",
												"children": [
													{
														"type": "240400",
														"typeLabel": "FunCall",
														"pos": "1018",
														"length": "50",
														"children": [
															{
																"type": "240100",
																"typeLabel": "Ident",
																"pos": "1018",
																"length": "5",
																"children": [
																	{
																		"type": "480000",
																		"label": "error",
																		"typeLabel": "GenericString",
																		"pos": "1018",
																		"length": "5",
																		"children": []
																	}
																]
															},
															{
																"type": "470000",
																"typeLabel": "GenericList",
																"pos": "1023",
																"length": "45",
																"children": [
																	{
																		"type": "20100",
																		"typeLabel": "Left",
																		"pos": "1024",
																		"length": "21",
																		"children": [
																			{
																				"type": "240200",
																				"label": "\"%s: write error: %s\"",
																				"typeLabel": "Constant",
																				"pos": "1024",
																				"length": "21",
																				"children": []
																			}
																		]
																	},
																	{
																		"type": "20100",
																		"typeLabel": "Left",
																		"pos": "1047",
																		"length": "3",
																		"children": [
																			{
																				"type": "240100",
																				"typeLabel": "Ident",
																				"pos": "1047",
																				"length": "3",
																				"children": [
																					{
																						"type": "480000",
																						"label": "dst",
																						"typeLabel": "GenericString",
																						"pos": "1047",
																						"length": "3",
																						"children": []
																					}
																				]
																			}
																		]
																	},
																	{
																		"type": "20100",
																		"typeLabel": "Left",
																		"pos": "1052",
																		"length": "15",
																		"children": [
																			{
																				"type": "240400",
																				"typeLabel": "FunCall",
																				"pos": "1052",
																				"length": "15",
																				"children": [
																					{
																						"type": "240100",
																						"typeLabel": "Ident",
																						"pos": "1052",
																						"length": "8",
																						"children": [
																							{
																								"type": "480000",
																								"label": "strerror",
																								"typeLabel": "GenericString",
																								"pos": "1052",
																								"length": "8",
																								"children": []
																							}
																						]
																					},
																					{
																						"type": "470000",
																						"typeLabel": "GenericList",
																						"pos": "1060",
																						"length": "7",
																						"children": [
																							{
																								"type": "20100",
																								"typeLabel": "Left",
																								"pos": "1061",
																								"length": "5",
																								"children": [
																									{
																										"type": "240100",
																										"typeLabel": "Ident",
																										"pos": "1061",
																										"length": "5",
																										"children": [
																											{
																												"type": "480000",
																												"label": "errno",
																												"typeLabel": "GenericString",
																												"pos": "1061",
																												"length": "5",
																												"children": []
																											}
																										]
																									}
																								]
																							}
																						]
																					}
																				]
																			}
																		]
																	}
																]
															}
														]
													}
												]
											}
										]
									},
									{
										"type": "300100",
										"typeLabel": "If",
										"pos": "1072",
										"length": "52",
										"children": [
											{
												"type": "490100",
												"typeLabel": "IfToken",
												"pos": "1072",
												"length": "2",
												"children": []
											},
											{
												"type": "241100",
												"typeLabel": "Binary",
												"pos": "1076",
												"length": "34",
												"children": [
													{
														"type": "241000",
														"typeLabel": "Unary",
														"pos": "1076",
														"length": "7",
														"children": [
															{
																"type": "240100",
																"typeLabel": "Ident",
																"pos": "1077",
																"length": "6",
																"children": [
																	{
																		"type": "480000",
																		"label": "status",
																		"typeLabel": "GenericString",
																		"pos": "1077",
																		"length": "6",
																		"children": []
																	}
																]
															},
															{
																"type": "480000",
																"label": "!",
																"typeLabel": "GenericString",
																"pos": "1076",
																"length": "1",
																"children": []
															}
														]
													},
													{
														"type": "480000",
														"label": "&&",
														"typeLabel": "GenericString",
														"pos": "1084",
														"length": "2",
														"children": []
													},
													{
														"type": "240400",
														"typeLabel": "FunCall",
														"pos": "1087",
														"length": "23",
														"children": [
															{
																"type": "240100",
																"typeLabel": "Ident",
																"pos": "1087",
																"length": "18",
																"children": [
																	{
																		"type": "480000",
																		"label": "adjust_shared_perm",
																		"typeLabel": "GenericString",
																		"pos": "1087",
																		"length": "18",
																		"children": []
																	}
																]
															},
															{
																"type": "470000",
																"typeLabel": "GenericList",
																"pos": "1105",
																"length": "5",
																"children": [
																	{
																		"type": "20100",
																		"typeLabel": "Left",
																		"pos": "1106",
																		"length": "3",
																		"children": [
																			{
																				"type": "240100",
																				"typeLabel": "Ident",
																				"pos": "1106",
																				"length": "3",
																				"children": [
																					{
																						"type": "480000",
																						"label": "dst",
																						"typeLabel": "GenericString",
																						"pos": "1106",
																						"length": "3",
																						"children": []
																					}
																				]
																			}
																		]
																	}
																]
															}
														]
													}
												]
											},
											{
												"type": "280200",
												"typeLabel": "ReturnExpr",
												"pos": "1114",
												"length": "10",
												"children": [
													{
														"type": "241000",
														"typeLabel": "Unary",
														"pos": "1121",
														"length": "2",
														"children": [
															{
																"type": "240200",
																"label": "1",
																"typeLabel": "Constant",
																"pos": "1122",
																"length": "1",
																"children": []
															},
															{
																"type": "480000",
																"label": "-",
																"typeLabel": "GenericString",
																"pos": "1121",
																"length": "1",
																"children": []
															}
														]
													}
												]
											}
										]
									},
									{
										"type": "280200",
										"typeLabel": "ReturnExpr",
										"pos": "1127",
										"length": "14",
										"children": [
											{
												"type": "240100",
												"typeLabel": "Ident",
												"pos": "1134",
												"length": "6",
												"children": [
													{
														"type": "480000",
														"label": "status",
														"typeLabel": "GenericString",
														"pos": "1134",
														"length": "6",
														"children": []
													}
												]
											}
										]
									}
								]
							}
						]
					}
				]
			},
			{
				"type": "450800",
				"typeLabel": "FinalDef",
				"pos": "1144",
				"length": "0",
				"children": []
			}
		]
	}
}