{
	"root": {
		"type": "460000",
		"typeLabel": "Program",
		"pos": "0",
		"length": "1262",
		"children": [
			{
				"type": "450300",
				"typeLabel": "CppTop",
				"pos": "0",
				"length": "18",
				"children": [
					{
						"type": "400200",
						"typeLabel": "Include",
						"pos": "0",
						"length": "18",
						"children": [
							{
								"type": "480000",
								"label": "\"cache.h\"",
								"typeLabel": "GenericString",
								"pos": "9",
								"length": "9",
								"children": []
							}
						]
					}
				]
			},
			{
				"type": "450300",
				"typeLabel": "CppTop",
				"pos": "19",
				"length": "23",
				"children": [
					{
						"type": "400200",
						"typeLabel": "Include",
						"pos": "19",
						"length": "23",
						"children": [
							{
								"type": "480000",
								"label": "\"sha1-array.h\"",
								"typeLabel": "GenericString",
								"pos": "28",
								"length": "14",
								"children": []
							}
						]
					}
				]
			},
			{
				"type": "450300",
				"typeLabel": "CppTop",
				"pos": "43",
				"length": "24",
				"children": [
					{
						"type": "400200",
						"typeLabel": "Include",
						"pos": "43",
						"length": "24",
						"children": [
							{
								"type": "480000",
								"label": "\"sha1-lookup.h\"",
								"typeLabel": "GenericString",
								"pos": "52",
								"length": "15",
								"children": []
							}
						]
					}
				]
			},
			{
				"type": "450200",
				"typeLabel": "Definition",
				"pos": "69",
				"length": "196",
				"children": [
					{
						"type": "380000",
						"typeLabel": "Definition",
						"pos": "69",
						"length": "196",
						"children": [
							{
								"type": "200000",
								"typeLabel": "ParamList",
								"pos": "91",
								"length": "53",
								"children": [
									{
										"type": "220100",
										"typeLabel": "ParameterType",
										"pos": "92",
										"length": "24",
										"children": [
											{
												"type": "480000",
												"label": "array",
												"typeLabel": "GenericString",
												"pos": "111",
												"length": "5",
												"children": []
											}
										]
									},
									{
										"type": "220100",
										"typeLabel": "ParameterType",
										"pos": "118",
										"length": "25",
										"children": [
											{
												"type": "480000",
												"label": "sha1",
												"typeLabel": "GenericString",
												"pos": "139",
												"length": "4",
												"children": []
											}
										]
									}
								]
							},
							{
								"type": "480000",
								"label": "sha1_array_append",
								"typeLabel": "GenericString",
								"pos": "74",
								"length": "17",
								"children": []
							},
							{
								"type": "330000",
								"typeLabel": "Compound",
								"pos": "145",
								"length": "120",
								"children": [
									{
										"type": "260300",
										"typeLabel": "ExprStatement",
										"pos": "148",
										"length": "53",
										"children": [
											{
												"type": "290100",
												"typeLabel": "Some",
												"pos": "148",
												"length": "53",
												"children": [
													{
														"type": "240400",
														"typeLabel": "FunCall",
														"pos": "148",
														"length": "52",
														"children": [
															{
																"type": "240100",
																"typeLabel": "Ident",
																"pos": "148",
																"length": "10",
																"children": [
																	{
																		"type": "480000",
																		"label": "ALLOC_GROW",
																		"typeLabel": "GenericString",
																		"pos": "148",
																		"length": "10",
																		"children": []
																	}
																]
															},
															{
																"type": "470000",
																"typeLabel": "GenericList",
																"pos": "158",
																"length": "42",
																"children": [
																	{
																		"type": "20100",
																		"typeLabel": "Left",
																		"pos": "159",
																		"length": "11",
																		"children": [
																			{
																				"type": "241400",
																				"typeLabel": "RecordPtAccess",
																				"pos": "159",
																				"length": "11",
																				"children": [
																					{
																						"type": "240100",
																						"typeLabel": "Ident",
																						"pos": "159",
																						"length": "5",
																						"children": [
																							{
																								"type": "480000",
																								"label": "array",
																								"typeLabel": "GenericString",
																								"pos": "159",
																								"length": "5",
																								"children": []
																							}
																						]
																					},
																					{
																						"type": "480000",
																						"label": "sha1",
																						"typeLabel": "GenericString",
																						"pos": "166",
																						"length": "4",
																						"children": []
																					}
																				]
																			}
																		]
																	},
																	{
																		"type": "20100",
																		"typeLabel": "Left",
																		"pos": "172",
																		"length": "13",
																		"children": [
																			{
																				"type": "241100",
																				"typeLabel": "Binary",
																				"pos": "172",
																				"length": "13",
																				"children": [
																					{
																						"type": "241400",
																						"typeLabel": "RecordPtAccess",
																						"pos": "172",
																						"length": "9",
																						"children": [
																							{
																								"type": "240100",
																								"typeLabel": "Ident",
																								"pos": "172",
																								"length": "5",
																								"children": [
																									{
																										"type": "480000",
																										"label": "array",
																										"typeLabel": "GenericString",
																										"pos": "172",
																										"length": "5",
																										"children": []
																									}
																								]
																							},
																							{
																								"type": "480000",
																								"label": "nr",
																								"typeLabel": "GenericString",
																								"pos": "179",
																								"length": "2",
																								"children": []
																							}
																						]
																					},
																					{
																						"type": "480000",
																						"label": "+",
																						"typeLabel": "GenericString",
																						"pos": "182",
																						"length": "1",
																						"children": []
																					},
																					{
																						"type": "240200",
																						"label": "1",
																						"typeLabel": "Constant",
																						"pos": "184",
																						"length": "1",
																						"children": []
																					}
																				]
																			}
																		]
																	},
																	{
																		"type": "20100",
																		"typeLabel": "Left",
																		"pos": "187",
																		"length": "12",
																		"children": [
																			{
																				"type": "241400",
																				"typeLabel": "RecordPtAccess",
																				"pos": "187",
																				"length": "12",
																				"children": [
																					{
																						"type": "240100",
																						"typeLabel": "Ident",
																						"pos": "187",
																						"length": "5",
																						"children": [
																							{
																								"type": "480000",
																								"label": "array",
																								"typeLabel": "GenericString",
																								"pos": "187",
																								"length": "5",
																								"children": []
																							}
																						]
																					},
																					{
																						"type": "480000",
																						"label": "alloc",
																						"typeLabel": "GenericString",
																						"pos": "194",
																						"length": "5",
																						"children": []
																					}
																				]
																			}
																		]
																	}
																]
															}
														]
													},
													{
														"type": "480000",
														"label": ";",
														"typeLabel": "GenericString",
														"pos": "200",
														"length": "1",
														"children": []
													}
												]
											}
										]
									},
									{
										"type": "260300",
										"typeLabel": "ExprStatement",
										"pos": "203",
										"length": "40",
										"children": [
											{
												"type": "290100",
												"typeLabel": "Some",
												"pos": "203",
												"length": "40",
												"children": [
													{
														"type": "240400",
														"typeLabel": "FunCall",
														"pos": "203",
														"length": "39",
														"children": [
															{
																"type": "240100",
																"typeLabel": "Ident",
																"pos": "203",
																"length": "7",
																"children": [
																	{
																		"type": "480000",
																		"label": "hashcpy",
																		"typeLabel": "GenericString",
																		"pos": "203",
																		"length": "7",
																		"children": []
																	}
																]
															},
															{
																"type": "470000",
																"typeLabel": "GenericList",
																"pos": "210",
																"length": "32",
																"children": [
																	{
																		"type": "20100",
																		"typeLabel": "Left",
																		"pos": "211",
																		"length": "24",
																		"children": [
																			{
																				"type": "241200",
																				"typeLabel": "ArrayAccess",
																				"pos": "211",
																				"length": "24",
																				"children": [
																					{
																						"type": "241400",
																						"typeLabel": "RecordPtAccess",
																						"pos": "211",
																						"length": "11",
																						"children": [
																							{
																								"type": "240100",
																								"typeLabel": "Ident",
																								"pos": "211",
																								"length": "5",
																								"children": [
																									{
																										"type": "480000",
																										"label": "array",
																										"typeLabel": "GenericString",
																										"pos": "211",
																										"length": "5",
																										"children": []
																									}
																								]
																							},
																							{
																								"type": "480000",
																								"label": "sha1",
																								"typeLabel": "GenericString",
																								"pos": "218",
																								"length": "4",
																								"children": []
																							}
																						]
																					},
																					{
																						"type": "240800",
																						"typeLabel": "Postfix",
																						"pos": "223",
																						"length": "11",
																						"children": [
																							{
																								"type": "241400",
																								"typeLabel": "RecordPtAccess",
																								"pos": "223",
																								"length": "9",
																								"children": [
																									{
																										"type": "240100",
																										"typeLabel": "Ident",
																										"pos": "223",
																										"length": "5",
																										"children": [
																											{
																												"type": "480000",
																												"label": "array",
																												"typeLabel": "GenericString",
																												"pos": "223",
																												"length": "5",
																												"children": []
																											}
																										]
																									},
																									{
																										"type": "480000",
																										"label": "nr",
																										"typeLabel": "GenericString",
																										"pos": "230",
																										"length": "2",
																										"children": []
																									}
																								]
																							},
																							{
																								"type": "480000",
																								"label": "++",
																								"typeLabel": "GenericString",
																								"pos": "232",
																								"length": "2",
																								"children": []
																							}
																						]
																					}
																				]
																			}
																		]
																	},
																	{
																		"type": "20100",
																		"typeLabel": "Left",
																		"pos": "237",
																		"length": "4",
																		"children": [
																			{
																				"type": "240100",
																				"typeLabel": "Ident",
																				"pos": "237",
																				"length": "4",
																				"children": [
																					{
																						"type": "480000",
																						"label": "sha1",
																						"typeLabel": "GenericString",
																						"pos": "237",
																						"length": "4",
																						"children": []
																					}
																				]
																			}
																		]
																	}
																]
															}
														]
													},
													{
														"type": "480000",
														"label": ";",
														"typeLabel": "GenericString",
														"pos": "242",
														"length": "1",
														"children": []
													}
												]
											}
										]
									},
									{
										"type": "260300",
										"typeLabel": "ExprStatement",
										"pos": "245",
										"length": "18",
										"children": [
											{
												"type": "290100",
												"typeLabel": "Some",
												"pos": "245",
												"length": "18",
												"children": [
													{
														"type": "240700",
														"typeLabel": "Assignment",
														"pos": "245",
														"length": "17",
														"children": [
															{
																"type": "241400",
																"typeLabel": "RecordPtAccess",
																"pos": "245",
																"length": "13",
																"children": [
																	{
																		"type": "240100",
																		"typeLabel": "Ident",
																		"pos": "245",
																		"length": "5",
																		"children": [
																			{
																				"type": "480000",
																				"label": "array",
																				"typeLabel": "GenericString",
																				"pos": "245",
																				"length": "5",
																				"children": []
																			}
																		]
																	},
																	{
																		"type": "480000",
																		"label": "sorted",
																		"typeLabel": "GenericString",
																		"pos": "252",
																		"length": "6",
																		"children": []
																	}
																]
															},
															{
																"type": "480000",
																"label": "=",
																"typeLabel": "GenericString",
																"pos": "259",
																"length": "1",
																"children": []
															},
															{
																"type": "240200",
																"label": "0",
																"typeLabel": "Constant",
																"pos": "261",
																"length": "1",
																"children": []
															}
														]
													},
													{
														"type": "480000",
														"label": ";",
														"typeLabel": "GenericString",
														"pos": "262",
														"length": "1",
														"children": []
													}
												]
											}
										]
									}
								]
							}
						]
					}
				]
			},
			{
				"type": "450200",
				"typeLabel": "Definition",
				"pos": "267",
				"length": "80",
				"children": [
					{
						"type": "380000",
						"typeLabel": "Definition",
						"pos": "267",
						"length": "80",
						"children": [
							{
								"type": "340000",
								"typeLabel": "Storage",
								"pos": "267",
								"length": "6",
								"children": [
									{
										"type": "480000",
										"label": "static",
										"typeLabel": "GenericString",
										"pos": "267",
										"length": "6",
										"children": []
									}
								]
							},
							{
								"type": "200000",
								"typeLabel": "ParamList",
								"pos": "290",
								"length": "30",
								"children": [
									{
										"type": "220100",
										"typeLabel": "ParameterType",
										"pos": "291",
										"length": "13",
										"children": [
											{
												"type": "480000",
												"label": "a",
												"typeLabel": "GenericString",
												"pos": "303",
												"length": "1",
												"children": []
											}
										]
									},
									{
										"type": "220100",
										"typeLabel": "ParameterType",
										"pos": "306",
										"length": "13",
										"children": [
											{
												"type": "480000",
												"label": "b",
												"typeLabel": "GenericString",
												"pos": "318",
												"length": "1",
												"children": []
											}
										]
									}
								]
							},
							{
								"type": "480000",
								"label": "void_hashcmp",
								"typeLabel": "GenericString",
								"pos": "278",
								"length": "12",
								"children": []
							},
							{
								"type": "330000",
								"typeLabel": "Compound",
								"pos": "321",
								"length": "26",
								"children": [
									{
										"type": "280200",
										"typeLabel": "ReturnExpr",
										"pos": "324",
										"length": "21",
										"children": [
											{
												"type": "240400",
												"typeLabel": "FunCall",
												"pos": "331",
												"length": "13",
												"children": [
													{
														"type": "240100",
														"typeLabel": "Ident",
														"pos": "331",
														"length": "7",
														"children": [
															{
																"type": "480000",
																"label": "hashcmp",
																"typeLabel": "GenericString",
																"pos": "331",
																"length": "7",
																"children": []
															}
														]
													},
													{
														"type": "470000",
														"typeLabel": "GenericList",
														"pos": "338",
														"length": "6",
														"children": [
															{
																"type": "20100",
																"typeLabel": "Left",
																"pos": "339",
																"length": "1",
																"children": [
																	{
																		"type": "240100",
																		"typeLabel": "Ident",
																		"pos": "339",
																		"length": "1",
																		"children": [
																			{
																				"type": "480000",
																				"label": "a",
																				"typeLabel": "GenericString",
																				"pos": "339",
																				"length": "1",
																				"children": []
																			}
																		]
																	}
																]
															},
															{
																"type": "20100",
																"typeLabel": "Left",
																"pos": "342",
																"length": "1",
																"children": [
																	{
																		"type": "240100",
																		"typeLabel": "Ident",
																		"pos": "342",
																		"length": "1",
																		"children": [
																			{
																				"type": "480000",
																				"label": "b",
																				"typeLabel": "GenericString",
																				"pos": "342",
																				"length": "1",
																				"children": []
																			}
																		]
																	}
																]
															}
														]
													}
												]
											}
										]
									}
								]
							}
						]
					}
				]
			},
			{
				"type": "450200",
				"typeLabel": "Definition",
				"pos": "349",
				"length": "145",
				"children": [
					{
						"type": "380000",
						"typeLabel": "Definition",
						"pos": "349",
						"length": "145",
						"children": [
							{
								"type": "340000",
								"typeLabel": "Storage",
								"pos": "349",
								"length": "6",
								"children": [
									{
										"type": "480000",
										"label": "static",
										"typeLabel": "GenericString",
										"pos": "349",
										"length": "6",
										"children": []
									}
								]
							},
							{
								"type": "200000",
								"typeLabel": "ParamList",
								"pos": "376",
								"length": "26",
								"children": [
									{
										"type": "220100",
										"typeLabel": "ParameterType",
										"pos": "377",
										"length": "24",
										"children": [
											{
												"type": "480000",
												"label": "array",
												"typeLabel": "GenericString",
												"pos": "396",
												"length": "5",
												"children": []
											}
										]
									}
								]
							},
							{
								"type": "480000",
								"label": "sha1_array_sort",
								"typeLabel": "GenericString",
								"pos": "361",
								"length": "15",
								"children": []
							},
							{
								"type": "330000",
								"typeLabel": "Compound",
								"pos": "403",
								"length": "91",
								"children": [
									{
										"type": "260300",
										"typeLabel": "ExprStatement",
										"pos": "406",
										"length": "66",
										"children": [
											{
												"type": "290100",
												"typeLabel": "Some",
												"pos": "406",
												"length": "66",
												"children": [
													{
														"type": "240400",
														"typeLabel": "FunCall",
														"pos": "406",
														"length": "65",
														"children": [
															{
																"type": "240100",
																"typeLabel": "Ident",
																"pos": "406",
																"length": "5",
																"children": [
																	{
																		"type": "480000",
																		"label": "qsort",
																		"typeLabel": "GenericString",
																		"pos": "406",
																		"length": "5",
																		"children": []
																	}
																]
															},
															{
																"type": "470000",
																"typeLabel": "GenericList",
																"pos": "411",
																"length": "60",
																"children": [
																	{
																		"type": "20100",
																		"typeLabel": "Left",
																		"pos": "412",
																		"length": "11",
																		"children": [
																			{
																				"type": "241400",
																				"typeLabel": "RecordPtAccess",
																				"pos": "412",
																				"length": "11",
																				"children": [
																					{
																						"type": "240100",
																						"typeLabel": "Ident",
																						"pos": "412",
																						"length": "5",
																						"children": [
																							{
																								"type": "480000",
																								"label": "array",
																								"typeLabel": "GenericString",
																								"pos": "412",
																								"length": "5",
																								"children": []
																							}
																						]
																					},
																					{
																						"type": "480000",
																						"label": "sha1",
																						"typeLabel": "GenericString",
																						"pos": "419",
																						"length": "4",
																						"children": []
																					}
																				]
																			}
																		]
																	},
																	{
																		"type": "20100",
																		"typeLabel": "Left",
																		"pos": "425",
																		"length": "9",
																		"children": [
																			{
																				"type": "241400",
																				"typeLabel": "RecordPtAccess",
																				"pos": "425",
																				"length": "9",
																				"children": [
																					{
																						"type": "240100",
																						"typeLabel": "Ident",
																						"pos": "425",
																						"length": "5",
																						"children": [
																							{
																								"type": "480000",
																								"label": "array",
																								"typeLabel": "GenericString",
																								"pos": "425",
																								"length": "5",
																								"children": []
																							}
																						]
																					},
																					{
																						"type": "480000",
																						"label": "nr",
																						"typeLabel": "GenericString",
																						"pos": "432",
																						"length": "2",
																						"children": []
																					}
																				]
																			}
																		]
																	},
																	{
																		"type": "20100",
																		"typeLabel": "Left",
																		"pos": "436",
																		"length": "20",
																		"children": [
																			{
																				"type": "241500",
																				"typeLabel": "SizeOfExpr",
																				"pos": "436",
																				"length": "20",
																				"children": [
																					{
																						"type": "242000",
																						"typeLabel": "ParenExpr",
																						"pos": "442",
																						"length": "14",
																						"children": [
																							{
																								"type": "241000",
																								"typeLabel": "Unary",
																								"pos": "443",
																								"length": "12",
																								"children": [
																									{
																										"type": "241400",
																										"typeLabel": "RecordPtAccess",
																										"pos": "444",
																										"length": "11",
																										"children": [
																											{
																												"type": "240100",
																												"typeLabel": "Ident",
																												"pos": "444",
																												"length": "5",
																												"children": [
																													{
																														"type": "480000",
																														"label": "array",
																														"typeLabel": "GenericString",
																														"pos": "444",
																														"length": "5",
																														"children": []
																													}
																												]
																											},
																											{
																												"type": "480000",
																												"label": "sha1",
																												"typeLabel": "GenericString",
																												"pos": "451",
																												"length": "4",
																												"children": []
																											}
																										]
																									},
																									{
																										"type": "480000",
																										"label": "*",
																										"typeLabel": "GenericString",
																										"pos": "443",
																										"length": "1",
																										"children": []
																									}
																								]
																							}
																						]
																					}
																				]
																			}
																		]
																	},
																	{
																		"type": "20100",
																		"typeLabel": "Left",
																		"pos": "458",
																		"length": "12",
																		"children": [
																			{
																				"type": "240100",
																				"typeLabel": "Ident",
																				"pos": "458",
																				"length": "12",
																				"children": [
																					{
																						"type": "480000",
																						"label": "void_hashcmp",
																						"typeLabel": "GenericString",
																						"pos": "458",
																						"length": "12",
																						"children": []
																					}
																				]
																			}
																		]
																	}
																]
															}
														]
													},
													{
														"type": "480000",
														"label": ";",
														"typeLabel": "GenericString",
														"pos": "471",
														"length": "1",
														"children": []
													}
												]
											}
										]
									},
									{
										"type": "260300",
										"typeLabel": "ExprStatement",
										"pos": "474",
										"length": "18",
										"children": [
											{
												"type": "290100",
												"typeLabel": "Some",
												"pos": "474",
												"length": "18",
												"children": [
													{
														"type": "240700",
														"typeLabel": "Assignment",
														"pos": "474",
														"length": "17",
														"children": [
															{
																"type": "241400",
																"typeLabel": "RecordPtAccess",
																"pos": "474",
																"length": "13",
																"children": [
																	{
																		"type": "240100",
																		"typeLabel": "Ident",
																		"pos": "474",
																		"length": "5",
																		"children": [
																			{
																				"type": "480000",
																				"label": "array",
																				"typeLabel": "GenericString",
																				"pos": "474",
																				"length": "5",
																				"children": []
																			}
																		]
																	},
																	{
																		"type": "480000",
																		"label": "sorted",
																		"typeLabel": "GenericString",
																		"pos": "481",
																		"length": "6",
																		"children": []
																	}
																]
															},
															{
																"type": "480000",
																"label": "=",
																"typeLabel": "GenericString",
																"pos": "488",
																"length": "1",
																"children": []
															},
															{
																"type": "240200",
																"label": "1",
																"typeLabel": "Constant",
																"pos": "490",
																"length": "1",
																"children": []
															}
														]
													},
													{
														"type": "480000",
														"label": ";",
														"typeLabel": "GenericString",
														"pos": "491",
														"length": "1",
														"children": []
													}
												]
											}
										]
									}
								]
							}
						]
					}
				]
			},
			{
				"type": "450200",
				"typeLabel": "Definition",
				"pos": "496",
				"length": "129",
				"children": [
					{
						"type": "380000",
						"typeLabel": "Definition",
						"pos": "496",
						"length": "129",
						"children": [
							{
								"type": "340000",
								"typeLabel": "Storage",
								"pos": "496",
								"length": "6",
								"children": [
									{
										"type": "480000",
										"label": "static",
										"typeLabel": "GenericString",
										"pos": "496",
										"length": "6",
										"children": []
									}
								]
							},
							{
								"type": "200000",
								"typeLabel": "ParamList",
								"pos": "535",
								"length": "27",
								"children": [
									{
										"type": "220100",
										"typeLabel": "ParameterType",
										"pos": "536",
										"length": "12",
										"children": [
											{
												"type": "480000",
												"label": "index",
												"typeLabel": "GenericString",
												"pos": "543",
												"length": "5",
												"children": []
											}
										]
									},
									{
										"type": "220100",
										"typeLabel": "ParameterType",
										"pos": "550",
										"length": "11",
										"children": [
											{
												"type": "480000",
												"label": "table",
												"typeLabel": "GenericString",
												"pos": "556",
												"length": "5",
												"children": []
											}
										]
									}
								]
							},
							{
								"type": "480000",
								"label": "sha1_access",
								"typeLabel": "GenericString",
								"pos": "524",
								"length": "11",
								"children": []
							},
							{
								"type": "330000",
								"typeLabel": "Compound",
								"pos": "563",
								"length": "62",
								"children": [
									{
										"type": "350100",
										"typeLabel": "DeclList",
										"pos": "566",
										"length": "35",
										"children": [
											{
												"type": "480000",
												"label": "array",
												"typeLabel": "GenericString",
												"pos": "582",
												"length": "5",
												"children": []
											},
											{
												"type": "360100",
												"typeLabel": "InitExpr",
												"pos": "595",
												"length": "5",
												"children": [
													{
														"type": "240100",
														"typeLabel": "Ident",
														"pos": "595",
														"length": "5",
														"children": [
															{
																"type": "480000",
																"label": "table",
																"typeLabel": "GenericString",
																"pos": "595",
																"length": "5",
																"children": []
															}
														]
													}
												]
											}
										]
									},
									{
										"type": "280200",
										"typeLabel": "ReturnExpr",
										"pos": "603",
										"length": "20",
										"children": [
											{
												"type": "241200",
												"typeLabel": "ArrayAccess",
												"pos": "610",
												"length": "12",
												"children": [
													{
														"type": "240100",
														"typeLabel": "Ident",
														"pos": "610",
														"length": "5",
														"children": [
															{
																"type": "480000",
																"label": "array",
																"typeLabel": "GenericString",
																"pos": "610",
																"length": "5",
																"children": []
															}
														]
													},
													{
														"type": "240100",
														"typeLabel": "Ident",
														"pos": "616",
														"length": "5",
														"children": [
															{
																"type": "480000",
																"label": "index",
																"typeLabel": "GenericString",
																"pos": "616",
																"length": "5",
																"children": []
															}
														]
													}
												]
											}
										]
									}
								]
							}
						]
					}
				]
			},
			{
				"type": "450200",
				"typeLabel": "Definition",
				"pos": "627",
				"length": "186",
				"children": [
					{
						"type": "380000",
						"typeLabel": "Definition",
						"pos": "627",
						"length": "186",
						"children": [
							{
								"type": "200000",
								"typeLabel": "ParamList",
								"pos": "648",
								"length": "53",
								"children": [
									{
										"type": "220100",
										"typeLabel": "ParameterType",
										"pos": "649",
										"length": "24",
										"children": [
											{
												"type": "480000",
												"label": "array",
												"typeLabel": "GenericString",
												"pos": "668",
												"length": "5",
												"children": []
											}
										]
									},
									{
										"type": "220100",
										"typeLabel": "ParameterType",
										"pos": "675",
										"length": "25",
										"children": [
											{
												"type": "480000",
												"label": "sha1",
												"typeLabel": "GenericString",
												"pos": "696",
												"length": "4",
												"children": []
											}
										]
									}
								]
							},
							{
								"type": "480000",
								"label": "sha1_array_lookup",
								"typeLabel": "GenericString",
								"pos": "631",
								"length": "17",
								"children": []
							},
							{
								"type": "330000",
								"typeLabel": "Compound",
								"pos": "702",
								"length": "111",
								"children": [
									{
										"type": "300100",
										"typeLabel": "If",
										"pos": "705",
										"length": "45",
										"children": [
											{
												"type": "490100",
												"typeLabel": "IfToken",
												"pos": "705",
												"length": "2",
												"children": []
											},
											{
												"type": "241000",
												"typeLabel": "Unary",
												"pos": "709",
												"length": "14",
												"children": [
													{
														"type": "241400",
														"typeLabel": "RecordPtAccess",
														"pos": "710",
														"length": "13",
														"children": [
															{
																"type": "240100",
																"typeLabel": "Ident",
																"pos": "710",
																"length": "5",
																"children": [
																	{
																		"type": "480000",
																		"label": "array",
																		"typeLabel": "GenericString",
																		"pos": "710",
																		"length": "5",
																		"children": []
																	}
																]
															},
															{
																"type": "480000",
																"label": "sorted",
																"typeLabel": "GenericString",
																"pos": "717",
																"length": "6",
																"children": []
															}
														]
													},
													{
														"type": "480000",
														"label": "!",
														"typeLabel": "GenericString",
														"pos": "709",
														"length": "1",
														"children": []
													}
												]
											},
											{
												"type": "260300",
												"typeLabel": "ExprStatement",
												"pos": "727",
												"length": "23",
												"children": [
													{
														"type": "290100",
														"typeLabel": "Some",
														"pos": "727",
														"length": "23",
														"children": [
															{
																"type": "240400",
																"typeLabel": "FunCall",
																"pos": "727",
																"length": "22",
																"children": [
																	{
																		"type": "240100",
																		"typeLabel": "Ident",
																		"pos": "727",
																		"length": "15",
																		"children": [
																			{
																				"type": "480000",
																				"label": "sha1_array_sort",
																				"typeLabel": "GenericString",
																				"pos": "727",
																				"length": "15",
																				"children": []
																			}
																		]
																	},
																	{
																		"type": "470000",
																		"typeLabel": "GenericList",
																		"pos": "742",
																		"length": "7",
																		"children": [
																			{
																				"type": "20100",
																				"typeLabel": "Left",
																				"pos": "743",
																				"length": "5",
																				"children": [
																					{
																						"type": "240100",
																						"typeLabel": "Ident",
																						"pos": "743",
																						"length": "5",
																						"children": [
																							{
																								"type": "480000",
																								"label": "array",
																								"typeLabel": "GenericString",
																								"pos": "743",
																								"length": "5",
																								"children": []
																							}
																						]
																					}
																				]
																			}
																		]
																	}
																]
															},
															{
																"type": "480000",
																"label": ";",
																"typeLabel": "GenericString",
																"pos": "749",
																"length": "1",
																"children": []
															}
														]
													}
												]
											}
										]
									},
									{
										"type": "280200",
										"typeLabel": "ReturnExpr",
										"pos": "752",
										"length": "59",
										"children": [
											{
												"type": "240400",
												"typeLabel": "FunCall",
												"pos": "759",
												"length": "51",
												"children": [
													{
														"type": "240100",
														"typeLabel": "Ident",
														"pos": "759",
														"length": "8",
														"children": [
															{
																"type": "480000",
																"label": "sha1_pos",
																"typeLabel": "GenericString",
																"pos": "759",
																"length": "8",
																"children": []
															}
														]
													},
													{
														"type": "470000",
														"typeLabel": "GenericList",
														"pos": "767",
														"length": "43",
														"children": [
															{
																"type": "20100",
																"typeLabel": "Left",
																"pos": "768",
																"length": "4",
																"children": [
																	{
																		"type": "240100",
																		"typeLabel": "Ident",
																		"pos": "768",
																		"length": "4",
																		"children": [
																			{
																				"type": "480000",
																				"label": "sha1",
																				"typeLabel": "GenericString",
																				"pos": "768",
																				"length": "4",
																				"children": []
																			}
																		]
																	}
																]
															},
															{
																"type": "20100",
																"typeLabel": "Left",
																"pos": "774",
																"length": "11",
																"children": [
																	{
																		"type": "241400",
																		"typeLabel": "RecordPtAccess",
																		"pos": "774",
																		"length": "11",
																		"children": [
																			{
																				"type": "240100",
																				"typeLabel": "Ident",
																				"pos": "774",
																				"length": "5",
																				"children": [
																					{
																						"type": "480000",
																						"label": "array",
																						"typeLabel": "GenericString",
																						"pos": "774",
																						"length": "5",
																						"children": []
																					}
																				]
																			},
																			{
																				"type": "480000",
																				"label": "sha1",
																				"typeLabel": "GenericString",
																				"pos": "781",
																				"length": "4",
																				"children": []
																			}
																		]
																	}
																]
															},
															{
																"type": "20100",
																"typeLabel": "Left",
																"pos": "787",
																"length": "9",
																"children": [
																	{
																		"type": "241400",
																		"typeLabel": "RecordPtAccess",
																		"pos": "787",
																		"length": "9",
																		"children": [
																			{
																				"type": "240100",
																				"typeLabel": "Ident",
																				"pos": "787",
																				"length": "5",
																				"children": [
																					{
																						"type": "480000",
																						"label": "array",
																						"typeLabel": "GenericString",
																						"pos": "787",
																						"length": "5",
																						"children": []
																					}
																				]
																			},
																			{
																				"type": "480000",
																				"label": "nr",
																				"typeLabel": "GenericString",
																				"pos": "794",
																				"length": "2",
																				"children": []
																			}
																		]
																	}
																]
															},
															{
																"type": "20100",
																"typeLabel": "Left",
																"pos": "798",
																"length": "11",
																"children": [
																	{
																		"type": "240100",
																		"typeLabel": "Ident",
																		"pos": "798",
																		"length": "11",
																		"children": [
																			{
																				"type": "480000",
																				"label": "sha1_access",
																				"typeLabel": "GenericString",
																				"pos": "798",
																				"length": "11",
																				"children": []
																			}
																		]
																	}
																]
															}
														]
													}
												]
											}
										]
									}
								]
							}
						]
					}
				]
			},
			{
				"type": "450200",
				"typeLabel": "Definition",
				"pos": "815",
				"length": "147",
				"children": [
					{
						"type": "380000",
						"typeLabel": "Definition",
						"pos": "815",
						"length": "147",
						"children": [
							{
								"type": "200000",
								"typeLabel": "ParamList",
								"pos": "836",
								"length": "26",
								"children": [
									{
										"type": "220100",
										"typeLabel": "ParameterType",
										"pos": "837",
										"length": "24",
										"children": [
											{
												"type": "480000",
												"label": "array",
												"typeLabel": "GenericString",
												"pos": "856",
												"length": "5",
												"children": []
											}
										]
									}
								]
							},
							{
								"type": "480000",
								"label": "sha1_array_clear",
								"typeLabel": "GenericString",
								"pos": "820",
								"length": "16",
								"children": []
							},
							{
								"type": "330000",
								"typeLabel": "Compound",
								"pos": "863",
								"length": "99",
								"children": [
									{
										"type": "260300",
										"typeLabel": "ExprStatement",
										"pos": "866",
										"length": "18",
										"children": [
											{
												"type": "290100",
												"typeLabel": "Some",
												"pos": "866",
												"length": "18",
												"children": [
													{
														"type": "240400",
														"typeLabel": "FunCall",
														"pos": "866",
														"length": "17",
														"children": [
															{
																"type": "240100",
																"typeLabel": "Ident",
																"pos": "866",
																"length": "4",
																"children": [
																	{
																		"type": "480000",
																		"label": "free",
																		"typeLabel": "GenericString",
																		"pos": "866",
																		"length": "4",
																		"children": []
																	}
																]
															},
															{
																"type": "470000",
																"typeLabel": "GenericList",
																"pos": "870",
																"length": "13",
																"children": [
																	{
																		"type": "20100",
																		"typeLabel": "Left",
																		"pos": "871",
																		"length": "11",
																		"children": [
																			{
																				"type": "241400",
																				"typeLabel": "RecordPtAccess",
																				"pos": "871",
																				"length": "11",
																				"children": [
																					{
																						"type": "240100",
																						"typeLabel": "Ident",
																						"pos": "871",
																						"length": "5",
																						"children": [
																							{
																								"type": "480000",
																								"label": "array",
																								"typeLabel": "GenericString",
																								"pos": "871",
																								"length": "5",
																								"children": []
																							}
																						]
																					},
																					{
																						"type": "480000",
																						"label": "sha1",
																						"typeLabel": "GenericString",
																						"pos": "878",
																						"length": "4",
																						"children": []
																					}
																				]
																			}
																		]
																	}
																]
															}
														]
													},
													{
														"type": "480000",
														"label": ";",
														"typeLabel": "GenericString",
														"pos": "883",
														"length": "1",
														"children": []
													}
												]
											}
										]
									},
									{
										"type": "260300",
										"typeLabel": "ExprStatement",
										"pos": "886",
										"length": "19",
										"children": [
											{
												"type": "290100",
												"typeLabel": "Some",
												"pos": "886",
												"length": "19",
												"children": [
													{
														"type": "240700",
														"typeLabel": "Assignment",
														"pos": "886",
														"length": "18",
														"children": [
															{
																"type": "241400",
																"typeLabel": "RecordPtAccess",
																"pos": "886",
																"length": "11",
																"children": [
																	{
																		"type": "240100",
																		"typeLabel": "Ident",
																		"pos": "886",
																		"length": "5",
																		"children": [
																			{
																				"type": "480000",
																				"label": "array",
																				"typeLabel": "GenericString",
																				"pos": "886",
																				"length": "5",
																				"children": []
																			}
																		]
																	},
																	{
																		"type": "480000",
																		"label": "sha1",
																		"typeLabel": "GenericString",
																		"pos": "893",
																		"length": "4",
																		"children": []
																	}
																]
															},
															{
																"type": "480000",
																"label": "=",
																"typeLabel": "GenericString",
																"pos": "898",
																"length": "1",
																"children": []
															},
															{
																"type": "240100",
																"typeLabel": "Ident",
																"pos": "900",
																"length": "4",
																"children": [
																	{
																		"type": "480000",
																		"label": "NULL",
																		"typeLabel": "GenericString",
																		"pos": "900",
																		"length": "4",
																		"children": []
																	}
																]
															}
														]
													},
													{
														"type": "480000",
														"label": ";",
														"typeLabel": "GenericString",
														"pos": "904",
														"length": "1",
														"children": []
													}
												]
											}
										]
									},
									{
										"type": "260300",
										"typeLabel": "ExprStatement",
										"pos": "907",
										"length": "14",
										"children": [
											{
												"type": "290100",
												"typeLabel": "Some",
												"pos": "907",
												"length": "14",
												"children": [
													{
														"type": "240700",
														"typeLabel": "Assignment",
														"pos": "907",
														"length": "13",
														"children": [
															{
																"type": "241400",
																"typeLabel": "RecordPtAccess",
																"pos": "907",
																"length": "9",
																"children": [
																	{
																		"type": "240100",
																		"typeLabel": "Ident",
																		"pos": "907",
																		"length": "5",
																		"children": [
																			{
																				"type": "480000",
																				"label": "array",
																				"typeLabel": "GenericString",
																				"pos": "907",
																				"length": "5",
																				"children": []
																			}
																		]
																	},
																	{
																		"type": "480000",
																		"label": "nr",
																		"typeLabel": "GenericString",
																		"pos": "914",
																		"length": "2",
																		"children": []
																	}
																]
															},
															{
																"type": "480000",
																"label": "=",
																"typeLabel": "GenericString",
																"pos": "917",
																"length": "1",
																"children": []
															},
															{
																"type": "240200",
																"label": "0",
																"typeLabel": "Constant",
																"pos": "919",
																"length": "1",
																"children": []
															}
														]
													},
													{
														"type": "480000",
														"label": ";",
														"typeLabel": "GenericString",
														"pos": "920",
														"length": "1",
														"children": []
													}
												]
											}
										]
									},
									{
										"type": "260300",
										"typeLabel": "ExprStatement",
										"pos": "923",
										"length": "17",
										"children": [
											{
												"type": "290100",
												"typeLabel": "Some",
												"pos": "923",
												"length": "17",
												"children": [
													{
														"type": "240700",
														"typeLabel": "Assignment",
														"pos": "923",
														"length": "16",
														"children": [
															{
																"type": "241400",
																"typeLabel": "RecordPtAccess",
																"pos": "923",
																"length": "12",
																"children": [
																	{
																		"type": "240100",
																		"typeLabel": "Ident",
																		"pos": "923",
																		"length": "5",
																		"children": [
																			{
																				"type": "480000",
																				"label": "array",
																				"typeLabel": "GenericString",
																				"pos": "923",
																				"length": "5",
																				"children": []
																			}
																		]
																	},
																	{
																		"type": "480000",
																		"label": "alloc",
																		"typeLabel": "GenericString",
																		"pos": "930",
																		"length": "5",
																		"children": []
																	}
																]
															},
															{
																"type": "480000",
																"label": "=",
																"typeLabel": "GenericString",
																"pos": "936",
																"length": "1",
																"children": []
															},
															{
																"type": "240200",
																"label": "0",
																"typeLabel": "Constant",
																"pos": "938",
																"length": "1",
																"children": []
															}
														]
													},
													{
														"type": "480000",
														"label": ";",
														"typeLabel": "GenericString",
														"pos": "939",
														"length": "1",
														"children": []
													}
												]
											}
										]
									},
									{
										"type": "260300",
										"typeLabel": "ExprStatement",
										"pos": "942",
										"length": "18",
										"children": [
											{
												"type": "290100",
												"typeLabel": "Some",
												"pos": "942",
												"length": "18",
												"children": [
													{
														"type": "240700",
														"typeLabel": "Assignment",
														"pos": "942",
														"length": "17",
														"children": [
															{
																"type": "241400",
																"typeLabel": "RecordPtAccess",
																"pos": "942",
																"length": "13",
																"children": [
																	{
																		"type": "240100",
																		"typeLabel": "Ident",
																		"pos": "942",
																		"length": "5",
																		"children": [
																			{
																				"type": "480000",
																				"label": "array",
																				"typeLabel": "GenericString",
																				"pos": "942",
																				"length": "5",
																				"children": []
																			}
																		]
																	},
																	{
																		"type": "480000",
																		"label": "sorted",
																		"typeLabel": "GenericString",
																		"pos": "949",
																		"length": "6",
																		"children": []
																	}
																]
															},
															{
																"type": "480000",
																"label": "=",
																"typeLabel": "GenericString",
																"pos": "956",
																"length": "1",
																"children": []
															},
															{
																"type": "240200",
																"label": "0",
																"typeLabel": "Constant",
																"pos": "958",
																"length": "1",
																"children": []
															}
														]
													},
													{
														"type": "480000",
														"label": ";",
														"typeLabel": "GenericString",
														"pos": "959",
														"length": "1",
														"children": []
													}
												]
											}
										]
									}
								]
							}
						]
					}
				]
			},
			{
				"type": "450200",
				"typeLabel": "Definition",
				"pos": "964",
				"length": "297",
				"children": [
					{
						"type": "380000",
						"typeLabel": "Definition",
						"pos": "964",
						"length": "297",
						"children": [
							{
								"type": "200000",
								"typeLabel": "ParamList",
								"pos": "995",
								"length": "67",
								"children": [
									{
										"type": "220100",
										"typeLabel": "ParameterType",
										"pos": "996",
										"length": "24",
										"children": [
											{
												"type": "480000",
												"label": "array",
												"typeLabel": "GenericString",
												"pos": "1015",
												"length": "5",
												"children": []
											}
										]
									},
									{
										"type": "220100",
										"typeLabel": "ParameterType",
										"pos": "1026",
										"length": "19",
										"children": [
											{
												"type": "480000",
												"label": "fn",
												"typeLabel": "GenericString",
												"pos": "1043",
												"length": "2",
												"children": []
											}
										]
									},
									{
										"type": "220100",
										"typeLabel": "ParameterType",
										"pos": "1051",
										"length": "10",
										"children": [
											{
												"type": "480000",
												"label": "data",
												"typeLabel": "GenericString",
												"pos": "1057",
												"length": "4",
												"children": []
											}
										]
									}
								]
							},
							{
								"type": "480000",
								"label": "sha1_array_for_each_unique",
								"typeLabel": "GenericString",
								"pos": "969",
								"length": "26",
								"children": []
							},
							{
								"type": "330000",
								"typeLabel": "Compound",
								"pos": "1063",
								"length": "198",
								"children": [
									{
										"type": "350100",
										"typeLabel": "DeclList",
										"pos": "1066",
										"length": "6",
										"children": [
											{
												"type": "480000",
												"label": "i",
												"typeLabel": "GenericString",
												"pos": "1070",
												"length": "1",
												"children": []
											}
										]
									},
									{
										"type": "300100",
										"typeLabel": "If",
										"pos": "1075",
										"length": "45",
										"children": [
											{
												"type": "490100",
												"typeLabel": "IfToken",
												"pos": "1075",
												"length": "2",
												"children": []
											},
											{
												"type": "241000",
												"typeLabel": "Unary",
												"pos": "1079",
												"length": "14",
												"children": [
													{
														"type": "241400",
														"typeLabel": "RecordPtAccess",
														"pos": "1080",
														"length": "13",
														"children": [
															{
																"type": "240100",
																"typeLabel": "Ident",
																"pos": "1080",
																"length": "5",
																"children": [
																	{
																		"type": "480000",
																		"label": "array",
																		"typeLabel": "GenericString",
																		"pos": "1080",
																		"length": "5",
																		"children": []
																	}
																]
															},
															{
																"type": "480000",
																"label": "sorted",
																"typeLabel": "GenericString",
																"pos": "1087",
																"length": "6",
																"children": []
															}
														]
													},
													{
														"type": "480000",
														"label": "!",
														"typeLabel": "GenericString",
														"pos": "1079",
														"length": "1",
														"children": []
													}
												]
											},
											{
												"type": "260300",
												"typeLabel": "ExprStatement",
												"pos": "1097",
												"length": "23",
												"children": [
													{
														"type": "290100",
														"typeLabel": "Some",
														"pos": "1097",
														"length": "23",
														"children": [
															{
																"type": "240400",
																"typeLabel": "FunCall",
																"pos": "1097",
																"length": "22",
																"children": [
																	{
																		"type": "240100",
																		"typeLabel": "Ident",
																		"pos": "1097",
																		"length": "15",
																		"children": [
																			{
																				"type": "480000",
																				"label": "sha1_array_sort",
																				"typeLabel": "GenericString",
																				"pos": "1097",
																				"length": "15",
																				"children": []
																			}
																		]
																	},
																	{
																		"type": "470000",
																		"typeLabel": "GenericList",
																		"pos": "1112",
																		"length": "7",
																		"children": [
																			{
																				"type": "20100",
																				"typeLabel": "Left",
																				"pos": "1113",
																				"length": "5",
																				"children": [
																					{
																						"type": "240100",
																						"typeLabel": "Ident",
																						"pos": "1113",
																						"length": "5",
																						"children": [
																							{
																								"type": "480000",
																								"label": "array",
																								"typeLabel": "GenericString",
																								"pos": "1113",
																								"length": "5",
																								"children": []
																							}
																						]
																					}
																				]
																			}
																		]
																	}
																]
															},
															{
																"type": "480000",
																"label": ";",
																"typeLabel": "GenericString",
																"pos": "1119",
																"length": "1",
																"children": []
															}
														]
													}
												]
											}
										]
									},
									{
										"type": "310300",
										"typeLabel": "For",
										"pos": "1123",
										"length": "136",
										"children": [
											{
												"type": "260300",
												"typeLabel": "ExprStatement",
												"pos": "1128",
												"length": "6",
												"children": [
													{
														"type": "290100",
														"typeLabel": "Some",
														"pos": "1128",
														"length": "6",
														"children": [
															{
																"type": "240700",
																"typeLabel": "Assignment",
																"pos": "1128",
																"length": "5",
																"children": [
																	{
																		"type": "240100",
																		"typeLabel": "Ident",
																		"pos": "1128",
																		"length": "1",
																		"children": [
																			{
																				"type": "480000",
																				"label": "i",
																				"typeLabel": "GenericString",
																				"pos": "1128",
																				"length": "1",
																				"children": []
																			}
																		]
																	},
																	{
																		"type": "480000",
																		"label": "=",
																		"typeLabel": "GenericString",
																		"pos": "1130",
																		"length": "1",
																		"children": []
																	},
																	{
																		"type": "240200",
																		"label": "0",
																		"typeLabel": "Constant",
																		"pos": "1132",
																		"length": "1",
																		"children": []
																	}
																]
															},
															{
																"type": "480000",
																"label": ";",
																"typeLabel": "GenericString",
																"pos": "1133",
																"length": "1",
																"children": []
															}
														]
													}
												]
											},
											{
												"type": "260300",
												"typeLabel": "ExprStatement",
												"pos": "1135",
												"length": "14",
												"children": [
													{
														"type": "290100",
														"typeLabel": "Some",
														"pos": "1135",
														"length": "14",
														"children": [
															{
																"type": "241100",
																"typeLabel": "Binary",
																"pos": "1135",
																"length": "13",
																"children": [
																	{
																		"type": "240100",
																		"typeLabel": "Ident",
																		"pos": "1135",
																		"length": "1",
																		"children": [
																			{
																				"type": "480000",
																				"label": "i",
																				"typeLabel": "GenericString",
																				"pos": "1135",
																				"length": "1",
																				"children": []
																			}
																		]
																	},
																	{
																		"type": "480000",
																		"label": "<",
																		"typeLabel": "GenericString",
																		"pos": "1137",
																		"length": "1",
																		"children": []
																	},
																	{
																		"type": "241400",
																		"typeLabel": "RecordPtAccess",
																		"pos": "1139",
																		"length": "9",
																		"children": [
																			{
																				"type": "240100",
																				"typeLabel": "Ident",
																				"pos": "1139",
																				"length": "5",
																				"children": [
																					{
																						"type": "480000",
																						"label": "array",
																						"typeLabel": "GenericString",
																						"pos": "1139",
																						"length": "5",
																						"children": []
																					}
																				]
																			},
																			{
																				"type": "480000",
																				"label": "nr",
																				"typeLabel": "GenericString",
																				"pos": "1146",
																				"length": "2",
																				"children": []
																			}
																		]
																	}
																]
															},
															{
																"type": "480000",
																"label": ";",
																"typeLabel": "GenericString",
																"pos": "1148",
																"length": "1",
																"children": []
															}
														]
													}
												]
											},
											{
												"type": "260300",
												"typeLabel": "ExprStatement",
												"pos": "1150",
												"length": "3",
												"children": [
													{
														"type": "290100",
														"typeLabel": "Some",
														"pos": "1150",
														"length": "3",
														"children": [
															{
																"type": "240800",
																"typeLabel": "Postfix",
																"pos": "1150",
																"length": "3",
																"children": [
																	{
																		"type": "240100",
																		"typeLabel": "Ident",
																		"pos": "1150",
																		"length": "1",
																		"children": [
																			{
																				"type": "480000",
																				"label": "i",
																				"typeLabel": "GenericString",
																				"pos": "1150",
																				"length": "1",
																				"children": []
																			}
																		]
																	},
																	{
																		"type": "480000",
																		"label": "++",
																		"typeLabel": "GenericString",
																		"pos": "1151",
																		"length": "2",
																		"children": []
																	}
																]
															}
														]
													}
												]
											},
											{
												"type": "330000",
												"typeLabel": "Compound",
												"pos": "1155",
												"length": "104",
												"children": [
													{
														"type": "300100",
														"typeLabel": "If",
														"pos": "1159",
														"length": "69",
														"children": [
															{
																"type": "490100",
																"typeLabel": "IfToken",
																"pos": "1159",
																"length": "2",
																"children": []
															},
															{
																"type": "241100",
																"typeLabel": "Binary",
																"pos": "1163",
																"length": "51",
																"children": [
																	{
																		"type": "241100",
																		"typeLabel": "Binary",
																		"pos": "1163",
																		"length": "5",
																		"children": [
																			{
																				"type": "240100",
																				"typeLabel": "Ident",
																				"pos": "1163",
																				"length": "1",
																				"children": [
																					{
																						"type": "480000",
																						"label": "i",
																						"typeLabel": "GenericString",
																						"pos": "1163",
																						"length": "1",
																						"children": []
																					}
																				]
																			},
																			{
																				"type": "480000",
																				"label": ">",
																				"typeLabel": "GenericString",
																				"pos": "1165",
																				"length": "1",
																				"children": []
																			},
																			{
																				"type": "240200",
																				"label": "0",
																				"typeLabel": "Constant",
																				"pos": "1167",
																				"length": "1",
																				"children": []
																			}
																		]
																	},
																	{
																		"type": "480000",
																		"label": "&&",
																		"typeLabel": "GenericString",
																		"pos": "1169",
																		"length": "2",
																		"children": []
																	},
																	{
																		"type": "241000",
																		"typeLabel": "Unary",
																		"pos": "1172",
																		"length": "42",
																		"children": [
																			{
																				"type": "240400",
																				"typeLabel": "FunCall",
																				"pos": "1173",
																				"length": "41",
																				"children": [
																					{
																						"type": "240100",
																						"typeLabel": "Ident",
																						"pos": "1173",
																						"length": "7",
																						"children": [
																							{
																								"type": "480000",
																								"label": "hashcmp",
																								"typeLabel": "GenericString",
																								"pos": "1173",
																								"length": "7",
																								"children": []
																							}
																						]
																					},
																					{
																						"type": "470000",
																						"typeLabel": "GenericList",
																						"pos": "1180",
																						"length": "34",
																						"children": [
																							{
																								"type": "20100",
																								"typeLabel": "Left",
																								"pos": "1181",
																								"length": "14",
																								"children": [
																									{
																										"type": "241200",
																										"typeLabel": "ArrayAccess",
																										"pos": "1181",
																										"length": "14",
																										"children": [
																											{
																												"type": "241400",
																												"typeLabel": "RecordPtAccess",
																												"pos": "1181",
																												"length": "11",
																												"children": [
																													{
																														"type": "240100",
																														"typeLabel": "Ident",
																														"pos": "1181",
																														"length": "5",
																														"children": [
																															{
																																"type": "480000",
																																"label": "array",
																																"typeLabel": "GenericString",
																																"pos": "1181",
																																"length": "5",
																																"children": []
																															}
																														]
																													},
																													{
																														"type": "480000",
																														"label": "sha1",
																														"typeLabel": "GenericString",
																														"pos": "1188",
																														"length": "4",
																														"children": []
																													}
																												]
																											},
																											{
																												"type": "240100",
																												"typeLabel": "Ident",
																												"pos": "1193",
																												"length": "1",
																												"children": [
																													{
																														"type": "480000",
																														"label": "i",
																														"typeLabel": "GenericString",
																														"pos": "1193",
																														"length": "1",
																														"children": []
																													}
																												]
																											}
																										]
																									}
																								]
																							},
																							{
																								"type": "20100",
																								"typeLabel": "Left",
																								"pos": "1197",
																								"length": "16",
																								"children": [
																									{
																										"type": "241200",
																										"typeLabel": "ArrayAccess",
																										"pos": "1197",
																										"length": "16",
																										"children": [
																											{
																												"type": "241400",
																												"typeLabel": "RecordPtAccess",
																												"pos": "1197",
																												"length": "11",
																												"children": [
																													{
																														"type": "240100",
																														"typeLabel": "Ident",
																														"pos": "1197",
																														"length": "5",
																														"children": [
																															{
																																"type": "480000",
																																"label": "array",
																																"typeLabel": "GenericString",
																																"pos": "1197",
																																"length": "5",
																																"children": []
																															}
																														]
																													},
																													{
																														"type": "480000",
																														"label": "sha1",
																														"typeLabel": "GenericString",
																														"pos": "1204",
																														"length": "4",
																														"children": []
																													}
																												]
																											},
																											{
																												"type": "241100",
																												"typeLabel": "Binary",
																												"pos": "1209",
																												"length": "3",
																												"children": [
																													{
																														"type": "240100",
																														"typeLabel": "Ident",
																														"pos": "1209",
																														"length": "1",
																														"children": [
																															{
																																"type": "480000",
																																"label": "i",
																																"typeLabel": "GenericString",
																																"pos": "1209",
																																"length": "1",
																																"children": []
																															}
																														]
																													},
																													{
																														"type": "480000",
																														"label": "-",
																														"typeLabel": "GenericString",
																														"pos": "1210",
																														"length": "1",
																														"children": []
																													},
																													{
																														"type": "240200",
																														"label": "1",
																														"typeLabel": "Constant",
																														"pos": "1211",
																														"length": "1",
																														"children": []
																													}
																												]
																											}
																										]
																									}
																								]
																							}
																						]
																					}
																				]
																			},
																			{
																				"type": "480000",
																				"label": "!",
																				"typeLabel": "GenericString",
																				"pos": "1172",
																				"length": "1",
																				"children": []
																			}
																		]
																	}
																]
															},
															{
																"type": "280001",
																"typeLabel": "Continue",
																"pos": "1219",
																"length": "9",
																"children": []
															}
														]
													},
													{
														"type": "260300",
														"typeLabel": "ExprStatement",
														"pos": "1231",
														"length": "25",
														"children": [
															{
																"type": "290100",
																"typeLabel": "Some",
																"pos": "1231",
																"length": "25",
																"children": [
																	{
																		"type": "240400",
																		"typeLabel": "FunCall",
																		"pos": "1231",
																		"length": "24",
																		"children": [
																			{
																				"type": "240100",
																				"typeLabel": "Ident",
																				"pos": "1231",
																				"length": "2",
																				"children": [
																					{
																						"type": "480000",
																						"label": "fn",
																						"typeLabel": "GenericString",
																						"pos": "1231",
																						"length": "2",
																						"children": []
																					}
																				]
																			},
																			{
																				"type": "470000",
																				"typeLabel": "GenericList",
																				"pos": "1233",
																				"length": "22",
																				"children": [
																					{
																						"type": "20100",
																						"typeLabel": "Left",
																						"pos": "1234",
																						"length": "14",
																						"children": [
																							{
																								"type": "241200",
																								"typeLabel": "ArrayAccess",
																								"pos": "1234",
																								"length": "14",
																								"children": [
																									{
																										"type": "241400",
																										"typeLabel": "RecordPtAccess",
																										"pos": "1234",
																										"length": "11",
																										"children": [
																											{
																												"type": "240100",
																												"typeLabel": "Ident",
																												"pos": "1234",
																												"length": "5",
																												"children": [
																													{
																														"type": "480000",
																														"label": "array",
																														"typeLabel": "GenericString",
																														"pos": "1234",
																														"length": "5",
																														"children": []
																													}
																												]
																											},
																											{
																												"type": "480000",
																												"label": "sha1",
																												"typeLabel": "GenericString",
																												"pos": "1241",
																												"length": "4",
																												"children": []
																											}
																										]
																									},
																									{
																										"type": "240100",
																										"typeLabel": "Ident",
																										"pos": "1246",
																										"length": "1",
																										"children": [
																											{
																												"type": "480000",
																												"label": "i",
																												"typeLabel": "GenericString",
																												"pos": "1246",
																												"length": "1",
																												"children": []
																											}
																										]
																									}
																								]
																							}
																						]
																					},
																					{
																						"type": "20100",
																						"typeLabel": "Left",
																						"pos": "1250",
																						"length": "4",
																						"children": [
																							{
																								"type": "240100",
																								"typeLabel": "Ident",
																								"pos": "1250",
																								"length": "4",
																								"children": [
																									{
																										"type": "480000",
																										"label": "data",
																										"typeLabel": "GenericString",
																										"pos": "1250",
																										"length": "4",
																										"children": []
																									}
																								]
																							}
																						]
																					}
																				]
																			}
																		]
																	},
																	{
																		"type": "480000",
																		"label": ";",
																		"typeLabel": "GenericString",
																		"pos": "1255",
																		"length": "1",
																		"children": []
																	}
																]
															}
														]
													}
												]
											}
										]
									}
								]
							}
						]
					}
				]
			},
			{
				"type": "450800",
				"typeLabel": "FinalDef",
				"pos": "1262",
				"length": "0",
				"children": []
			}
		]
	}
}