{
  "matches": [
    {
      "src": 184,
      "dest": 191
    },
    {
      "src": 112,
      "dest": 119
    },
    {
      "src": 154,
      "dest": 161
    },
    {
      "src": 318,
      "dest": 325
    },
    {
      "src": 144,
      "dest": 151
    },
    {
      "src": 131,
      "dest": 138
    },
    {
      "src": 294,
      "dest": 301
    },
    {
      "src": 288,
      "dest": 295
    },
    {
      "src": 313,
      "dest": 320
    },
    {
      "src": 267,
      "dest": 274
    },
    {
      "src": 111,
      "dest": 118
    },
    {
      "src": 123,
      "dest": 130
    },
    {
      "src": 306,
      "dest": 313
    },
    {
      "src": 161,
      "dest": 168
    },
    {
      "src": 3,
      "dest": 3
    },
    {
      "src": 6,
      "dest": 6
    },
    {
      "src": 45,
      "dest": 52
    },
    {
      "src": 84,
      "dest": 91
    },
    {
      "src": 96,
      "dest": 103
    },
    {
      "src": 329,
      "dest": 336
    },
    {
      "src": 83,
      "dest": 90
    },
    {
      "src": 343,
      "dest": 350
    },
    {
      "src": 210,
      "dest": 217
    },
    {
      "src": 257,
      "dest": 264
    },
    {
      "src": 212,
      "dest": 219
    },
    {
      "src": 180,
      "dest": 187
    },
    {
      "src": 95,
      "dest": 102
    },
    {
      "src": 87,
      "dest": 94
    },
    {
      "src": 4,
      "dest": 4
    },
    {
      "src": 101,
      "dest": 108
    },
    {
      "src": 13,
      "dest": 13
    },
    {
      "src": 190,
      "dest": 197
    },
    {
      "src": 139,
      "dest": 146
    },
    {
      "src": 118,
      "dest": 125
    },
    {
      "src": 261,
      "dest": 268
    },
    {
      "src": 7,
      "dest": 7
    },
    {
      "src": 308,
      "dest": 315
    },
    {
      "src": 41,
      "dest": 48
    },
    {
      "src": 259,
      "dest": 266
    },
    {
      "src": 182,
      "dest": 189
    },
    {
      "src": 189,
      "dest": 196
    },
    {
      "src": 39,
      "dest": 39
    },
    {
      "src": 49,
      "dest": 56
    },
    {
      "src": 147,
      "dest": 154
    },
    {
      "src": 99,
      "dest": 106
    },
    {
      "src": 200,
      "dest": 207
    },
    {
      "src": 298,
      "dest": 305
    },
    {
      "src": 12,
      "dest": 12
    },
    {
      "src": 333,
      "dest": 340
    },
    {
      "src": 177,
      "dest": 184
    },
    {
      "src": 32,
      "dest": 32
    },
    {
      "src": 187,
      "dest": 194
    },
    {
      "src": 345,
      "dest": 352
    },
    {
      "src": 283,
      "dest": 290
    },
    {
      "src": 232,
      "dest": 239
    },
    {
      "src": 300,
      "dest": 307
    },
    {
      "src": 68,
      "dest": 75
    },
    {
      "src": 56,
      "dest": 63
    },
    {
      "src": 252,
      "dest": 259
    },
    {
      "src": 55,
      "dest": 62
    },
    {
      "src": 25,
      "dest": 25
    },
    {
      "src": 220,
      "dest": 227
    },
    {
      "src": 85,
      "dest": 92
    },
    {
      "src": 330,
      "dest": 337
    },
    {
      "src": 286,
      "dest": 293
    },
    {
      "src": 30,
      "dest": 30
    },
    {
      "src": 158,
      "dest": 165
    },
    {
      "src": 53,
      "dest": 60
    },
    {
      "src": 250,
      "dest": 257
    },
    {
      "src": 38,
      "dest": 38
    },
    {
      "src": 243,
      "dest": 250
    },
    {
      "src": 65,
      "dest": 72
    },
    {
      "src": 133,
      "dest": 140
    },
    {
      "src": 293,
      "dest": 300
    },
    {
      "src": 156,
      "dest": 163
    },
    {
      "src": 71,
      "dest": 78
    },
    {
      "src": 307,
      "dest": 314
    },
    {
      "src": 316,
      "dest": 323
    },
    {
      "src": 193,
      "dest": 200
    },
    {
      "src": 148,
      "dest": 155
    },
    {
      "src": 75,
      "dest": 82
    },
    {
      "src": 241,
      "dest": 248
    },
    {
      "src": 169,
      "dest": 176
    },
    {
      "src": 36,
      "dest": 36
    },
    {
      "src": 152,
      "dest": 159
    },
    {
      "src": 275,
      "dest": 282
    },
    {
      "src": 119,
      "dest": 126
    },
    {
      "src": 251,
      "dest": 258
    },
    {
      "src": 213,
      "dest": 220
    },
    {
      "src": 205,
      "dest": 212
    },
    {
      "src": 219,
      "dest": 226
    },
    {
      "src": 138,
      "dest": 145
    },
    {
      "src": 149,
      "dest": 156
    },
    {
      "src": 222,
      "dest": 229
    },
    {
      "src": 33,
      "dest": 33
    },
    {
      "src": 93,
      "dest": 100
    },
    {
      "src": 305,
      "dest": 312
    },
    {
      "src": 198,
      "dest": 205
    },
    {
      "src": 335,
      "dest": 342
    },
    {
      "src": 201,
      "dest": 208
    },
    {
      "src": 309,
      "dest": 316
    },
    {
      "src": 237,
      "dest": 244
    },
    {
      "src": 28,
      "dest": 28
    },
    {
      "src": 61,
      "dest": 68
    },
    {
      "src": 183,
      "dest": 190
    },
    {
      "src": 328,
      "dest": 335
    },
    {
      "src": 272,
      "dest": 279
    },
    {
      "src": 50,
      "dest": 57
    },
    {
      "src": 218,
      "dest": 225
    },
    {
      "src": 179,
      "dest": 186
    },
    {
      "src": 271,
      "dest": 278
    },
    {
      "src": 238,
      "dest": 245
    },
    {
      "src": 290,
      "dest": 297
    },
    {
      "src": 204,
      "dest": 211
    },
    {
      "src": 208,
      "dest": 215
    },
    {
      "src": 311,
      "dest": 318
    },
    {
      "src": 135,
      "dest": 142
    },
    {
      "src": 80,
      "dest": 87
    },
    {
      "src": 168,
      "dest": 175
    },
    {
      "src": 9,
      "dest": 9
    },
    {
      "src": 203,
      "dest": 210
    },
    {
      "src": 34,
      "dest": 34
    },
    {
      "src": 88,
      "dest": 95
    },
    {
      "src": 248,
      "dest": 255
    },
    {
      "src": 260,
      "dest": 267
    },
    {
      "src": 277,
      "dest": 284
    },
    {
      "src": 314,
      "dest": 321
    },
    {
      "src": 44,
      "dest": 51
    },
    {
      "src": 127,
      "dest": 134
    },
    {
      "src": 266,
      "dest": 273
    },
    {
      "src": 284,
      "dest": 291
    },
    {
      "src": 225,
      "dest": 232
    },
    {
      "src": 245,
      "dest": 252
    },
    {
      "src": 21,
      "dest": 21
    },
    {
      "src": 159,
      "dest": 166
    },
    {
      "src": 186,
      "dest": 193
    },
    {
      "src": 221,
      "dest": 228
    },
    {
      "src": 315,
      "dest": 322
    },
    {
      "src": 155,
      "dest": 162
    },
    {
      "src": 5,
      "dest": 5
    },
    {
      "src": 57,
      "dest": 64
    },
    {
      "src": 54,
      "dest": 61
    },
    {
      "src": 207,
      "dest": 214
    },
    {
      "src": 146,
      "dest": 153
    },
    {
      "src": 191,
      "dest": 198
    },
    {
      "src": 91,
      "dest": 98
    },
    {
      "src": 229,
      "dest": 236
    },
    {
      "src": 153,
      "dest": 160
    },
    {
      "src": 325,
      "dest": 332
    },
    {
      "src": 1,
      "dest": 1
    },
    {
      "src": 151,
      "dest": 158
    },
    {
      "src": 73,
      "dest": 80
    },
    {
      "src": 63,
      "dest": 70
    },
    {
      "src": 264,
      "dest": 271
    },
    {
      "src": 100,
      "dest": 107
    },
    {
      "src": 122,
      "dest": 129
    },
    {
      "src": 86,
      "dest": 93
    },
    {
      "src": 145,
      "dest": 152
    },
    {
      "src": 214,
      "dest": 221
    },
    {
      "src": 224,
      "dest": 231
    },
    {
      "src": 132,
      "dest": 139
    },
    {
      "src": 10,
      "dest": 10
    },
    {
      "src": 140,
      "dest": 147
    },
    {
      "src": 337,
      "dest": 344
    },
    {
      "src": 332,
      "dest": 339
    },
    {
      "src": 178,
      "dest": 185
    },
    {
      "src": 206,
      "dest": 213
    },
    {
      "src": 121,
      "dest": 128
    },
    {
      "src": 344,
      "dest": 351
    },
    {
      "src": 322,
      "dest": 329
    },
    {
      "src": 324,
      "dest": 331
    },
    {
      "src": 117,
      "dest": 124
    },
    {
      "src": 74,
      "dest": 81
    },
    {
      "src": 8,
      "dest": 8
    },
    {
      "src": 26,
      "dest": 26
    },
    {
      "src": 279,
      "dest": 286
    },
    {
      "src": 103,
      "dest": 110
    },
    {
      "src": 196,
      "dest": 203
    },
    {
      "src": 64,
      "dest": 71
    },
    {
      "src": 157,
      "dest": 164
    },
    {
      "src": 239,
      "dest": 246
    },
    {
      "src": 46,
      "dest": 53
    },
    {
      "src": 173,
      "dest": 180
    },
    {
      "src": 170,
      "dest": 177
    },
    {
      "src": 327,
      "dest": 334
    },
    {
      "src": 297,
      "dest": 304
    },
    {
      "src": 171,
      "dest": 178
    },
    {
      "src": 43,
      "dest": 50
    },
    {
      "src": 185,
      "dest": 192
    },
    {
      "src": 98,
      "dest": 105
    },
    {
      "src": 197,
      "dest": 204
    },
    {
      "src": 273,
      "dest": 280
    },
    {
      "src": 240,
      "dest": 247
    },
    {
      "src": 301,
      "dest": 308
    },
    {
      "src": 302,
      "dest": 309
    },
    {
      "src": 27,
      "dest": 27
    },
    {
      "src": 22,
      "dest": 22
    },
    {
      "src": 323,
      "dest": 330
    },
    {
      "src": 92,
      "dest": 99
    },
    {
      "src": 142,
      "dest": 149
    },
    {
      "src": 51,
      "dest": 58
    },
    {
      "src": 235,
      "dest": 242
    },
    {
      "src": 89,
      "dest": 96
    },
    {
      "src": 339,
      "dest": 346
    },
    {
      "src": 59,
      "dest": 66
    },
    {
      "src": 2,
      "dest": 2
    },
    {
      "src": 256,
      "dest": 263
    },
    {
      "src": 216,
      "dest": 223
    },
    {
      "src": 162,
      "dest": 169
    },
    {
      "src": 130,
      "dest": 137
    },
    {
      "src": 42,
      "dest": 49
    },
    {
      "src": 263,
      "dest": 270
    },
    {
      "src": 23,
      "dest": 23
    },
    {
      "src": 48,
      "dest": 55
    },
    {
      "src": 326,
      "dest": 333
    },
    {
      "src": 296,
      "dest": 303
    },
    {
      "src": 97,
      "dest": 104
    },
    {
      "src": 113,
      "dest": 120
    },
    {
      "src": 108,
      "dest": 115
    },
    {
      "src": 319,
      "dest": 326
    },
    {
      "src": 334,
      "dest": 341
    },
    {
      "src": 255,
      "dest": 262
    },
    {
      "src": 109,
      "dest": 116
    },
    {
      "src": 310,
      "dest": 317
    },
    {
      "src": 14,
      "dest": 14
    },
    {
      "src": 11,
      "dest": 11
    },
    {
      "src": 167,
      "dest": 174
    },
    {
      "src": 150,
      "dest": 157
    },
    {
      "src": 215,
      "dest": 222
    },
    {
      "src": 202,
      "dest": 209
    },
    {
      "src": 114,
      "dest": 121
    },
    {
      "src": 269,
      "dest": 276
    },
    {
      "src": 166,
      "dest": 173
    },
    {
      "src": 285,
      "dest": 292
    },
    {
      "src": 295,
      "dest": 302
    },
    {
      "src": 247,
      "dest": 254
    },
    {
      "src": 143,
      "dest": 150
    },
    {
      "src": 0,
      "dest": 0
    },
    {
      "src": 280,
      "dest": 287
    },
    {
      "src": 40,
      "dest": 40
    },
    {
      "src": 341,
      "dest": 348
    },
    {
      "src": 227,
      "dest": 234
    },
    {
      "src": 82,
      "dest": 89
    },
    {
      "src": 52,
      "dest": 59
    },
    {
      "src": 31,
      "dest": 31
    },
    {
      "src": 270,
      "dest": 277
    },
    {
      "src": 175,
      "dest": 182
    },
    {
      "src": 106,
      "dest": 113
    },
    {
      "src": 35,
      "dest": 35
    },
    {
      "src": 47,
      "dest": 54
    },
    {
      "src": 78,
      "dest": 85
    },
    {
      "src": 126,
      "dest": 133
    },
    {
      "src": 72,
      "dest": 79
    },
    {
      "src": 58,
      "dest": 65
    },
    {
      "src": 137,
      "dest": 144
    },
    {
      "src": 268,
      "dest": 275
    },
    {
      "src": 192,
      "dest": 199
    },
    {
      "src": 231,
      "dest": 238
    },
    {
      "src": 164,
      "dest": 171
    },
    {
      "src": 291,
      "dest": 298
    },
    {
      "src": 340,
      "dest": 347
    },
    {
      "src": 62,
      "dest": 69
    },
    {
      "src": 110,
      "dest": 117
    },
    {
      "src": 107,
      "dest": 114
    },
    {
      "src": 258,
      "dest": 265
    },
    {
      "src": 104,
      "dest": 111
    },
    {
      "src": 292,
      "dest": 299
    },
    {
      "src": 29,
      "dest": 29
    },
    {
      "src": 15,
      "dest": 15
    },
    {
      "src": 19,
      "dest": 19
    },
    {
      "src": 129,
      "dest": 136
    },
    {
      "src": 181,
      "dest": 188
    },
    {
      "src": 67,
      "dest": 74
    },
    {
      "src": 249,
      "dest": 256
    },
    {
      "src": 116,
      "dest": 123
    },
    {
      "src": 254,
      "dest": 261
    },
    {
      "src": 304,
      "dest": 311
    },
    {
      "src": 223,
      "dest": 230
    },
    {
      "src": 77,
      "dest": 84
    },
    {
      "src": 102,
      "dest": 109
    },
    {
      "src": 303,
      "dest": 310
    },
    {
      "src": 24,
      "dest": 24
    },
    {
      "src": 115,
      "dest": 122
    },
    {
      "src": 209,
      "dest": 216
    },
    {
      "src": 338,
      "dest": 345
    },
    {
      "src": 18,
      "dest": 18
    },
    {
      "src": 172,
      "dest": 179
    },
    {
      "src": 69,
      "dest": 76
    },
    {
      "src": 188,
      "dest": 195
    },
    {
      "src": 60,
      "dest": 67
    },
    {
      "src": 217,
      "dest": 224
    },
    {
      "src": 244,
      "dest": 251
    },
    {
      "src": 331,
      "dest": 338
    },
    {
      "src": 278,
      "dest": 285
    },
    {
      "src": 211,
      "dest": 218
    },
    {
      "src": 176,
      "dest": 183
    },
    {
      "src": 317,
      "dest": 324
    },
    {
      "src": 195,
      "dest": 202
    },
    {
      "src": 94,
      "dest": 101
    },
    {
      "src": 274,
      "dest": 281
    },
    {
      "src": 282,
      "dest": 289
    },
    {
      "src": 20,
      "dest": 20
    },
    {
      "src": 125,
      "dest": 132
    },
    {
      "src": 242,
      "dest": 249
    },
    {
      "src": 276,
      "dest": 283
    },
    {
      "src": 124,
      "dest": 131
    },
    {
      "src": 76,
      "dest": 83
    },
    {
      "src": 16,
      "dest": 16
    },
    {
      "src": 90,
      "dest": 97
    },
    {
      "src": 160,
      "dest": 167
    },
    {
      "src": 287,
      "dest": 294
    },
    {
      "src": 321,
      "dest": 328
    },
    {
      "src": 289,
      "dest": 296
    },
    {
      "src": 234,
      "dest": 241
    },
    {
      "src": 105,
      "dest": 112
    },
    {
      "src": 312,
      "dest": 319
    },
    {
      "src": 226,
      "dest": 233
    },
    {
      "src": 136,
      "dest": 143
    },
    {
      "src": 233,
      "dest": 240
    },
    {
      "src": 228,
      "dest": 235
    },
    {
      "src": 79,
      "dest": 86
    },
    {
      "src": 299,
      "dest": 306
    },
    {
      "src": 174,
      "dest": 181
    },
    {
      "src": 199,
      "dest": 206
    },
    {
      "src": 120,
      "dest": 127
    },
    {
      "src": 265,
      "dest": 272
    },
    {
      "src": 246,
      "dest": 253
    },
    {
      "src": 281,
      "dest": 288
    },
    {
      "src": 81,
      "dest": 88
    },
    {
      "src": 253,
      "dest": 260
    },
    {
      "src": 320,
      "dest": 327
    },
    {
      "src": 236,
      "dest": 243
    },
    {
      "src": 194,
      "dest": 201
    },
    {
      "src": 165,
      "dest": 172
    },
    {
      "src": 230,
      "dest": 237
    },
    {
      "src": 66,
      "dest": 73
    },
    {
      "src": 262,
      "dest": 269
    },
    {
      "src": 342,
      "dest": 349
    },
    {
      "src": 141,
      "dest": 148
    },
    {
      "src": 128,
      "dest": 135
    },
    {
      "src": 17,
      "dest": 17
    },
    {
      "src": 163,
      "dest": 170
    },
    {
      "src": 37,
      "dest": 37
    },
    {
      "src": 70,
      "dest": 77
    },
    {
      "src": 336,
      "dest": 343
    },
    {
      "src": 134,
      "dest": 141
    }
  ],
  "actions": [
    {
      "action": "insert",
      "tree": 47,
      "parent": 55,
      "at": 0
    },
    {
      "action": "insert",
      "tree": 46,
      "parent": 47,
      "at": 0
    },
    {
      "action": "insert",
      "tree": 44,
      "parent": 46,
      "at": 0
    },
    {
      "action": "insert",
      "tree": 45,
      "parent": 46,
      "at": 1
    },
    {
      "action": "insert",
      "tree": 42,
      "parent": 44,
      "at": 0
    },
    {
      "action": "insert",
      "tree": 43,
      "parent": 44,
      "at": 1
    },
    {
      "action": "insert",
      "tree": 41,
      "parent": 42,
      "at": 0
    },
    {
      "action": "update",
      "tree": 249,
      "label": "omap2_map_common_io"
    }
  ]
}