{
  "matches": [
    {
      "src": 43,
      "dest": 43
    },
    {
      "src": 125,
      "dest": 474
    },
    {
      "src": 19,
      "dest": 19
    },
    {
      "src": 643,
      "dest": 1115
    },
    {
      "src": 640,
      "dest": 1112
    },
    {
      "src": 85,
      "dest": 344
    },
    {
      "src": 207,
      "dest": 569
    },
    {
      "src": 123,
      "dest": 472
    },
    {
      "src": 459,
      "dest": 876
    },
    {
      "src": 403,
      "dest": 785
    },
    {
      "src": 547,
      "dest": 964
    },
    {
      "src": 566,
      "dest": 1037
    },
    {
      "src": 477,
      "dest": 894
    },
    {
      "src": 187,
      "dest": 549
    },
    {
      "src": 202,
      "dest": 564
    },
    {
      "src": 341,
      "dest": 703
    },
    {
      "src": 630,
      "dest": 1102
    },
    {
      "src": 253,
      "dest": 615
    },
    {
      "src": 34,
      "dest": 34
    },
    {
      "src": 142,
      "dest": 491
    },
    {
      "src": 615,
      "dest": 1087
    },
    {
      "src": 515,
      "dest": 932
    },
    {
      "src": 14,
      "dest": 14
    },
    {
      "src": 310,
      "dest": 672
    },
    {
      "src": 342,
      "dest": 704
    },
    {
      "src": 406,
      "dest": 788
    },
    {
      "src": 425,
      "dest": 807
    },
    {
      "src": 470,
      "dest": 887
    },
    {
      "src": 500,
      "dest": 917
    },
    {
      "src": 478,
      "dest": 895
    },
    {
      "src": 26,
      "dest": 26
    },
    {
      "src": 102,
      "dest": 368
    },
    {
      "src": 221,
      "dest": 583
    },
    {
      "src": 300,
      "dest": 662
    },
    {
      "src": 124,
      "dest": 473
    },
    {
      "src": 555,
      "dest": 1026
    },
    {
      "src": 610,
      "dest": 1082
    },
    {
      "src": 394,
      "dest": 774
    },
    {
      "src": 562,
      "dest": 1033
    },
    {
      "src": 104,
      "dest": 370
    },
    {
      "src": 334,
      "dest": 696
    },
    {
      "src": 520,
      "dest": 937
    },
    {
      "src": 496,
      "dest": 151
    },
    {
      "src": 488,
      "dest": 905
    },
    {
      "src": 517,
      "dest": 934
    },
    {
      "src": 401,
      "dest": 783
    },
    {
      "src": 563,
      "dest": 1034
    },
    {
      "src": 285,
      "dest": 647
    },
    {
      "src": 160,
      "dest": 522
    },
    {
      "src": 35,
      "dest": 35
    },
    {
      "src": 195,
      "dest": 557
    },
    {
      "src": 75,
      "dest": 75
    },
    {
      "src": 362,
      "dest": 724
    },
    {
      "src": 272,
      "dest": 634
    },
    {
      "src": 325,
      "dest": 687
    },
    {
      "src": 81,
      "dest": 81
    },
    {
      "src": 360,
      "dest": 722
    },
    {
      "src": 250,
      "dest": 612
    },
    {
      "src": 539,
      "dest": 956
    },
    {
      "src": 469,
      "dest": 886
    },
    {
      "src": 304,
      "dest": 666
    },
    {
      "src": 92,
      "dest": 351
    },
    {
      "src": 518,
      "dest": 935
    },
    {
      "src": 215,
      "dest": 577
    },
    {
      "src": 540,
      "dest": 957
    },
    {
      "src": 356,
      "dest": 718
    },
    {
      "src": 268,
      "dest": 630
    },
    {
      "src": 379,
      "dest": 759
    },
    {
      "src": 97,
      "dest": 363
    },
    {
      "src": 234,
      "dest": 596
    },
    {
      "src": 47,
      "dest": 47
    },
    {
      "src": 580,
      "dest": 1052
    },
    {
      "src": 313,
      "dest": 675
    },
    {
      "src": 137,
      "dest": 486
    },
    {
      "src": 126,
      "dest": 475
    },
    {
      "src": 77,
      "dest": 77
    },
    {
      "src": 301,
      "dest": 663
    },
    {
      "src": 258,
      "dest": 620
    },
    {
      "src": 238,
      "dest": 600
    },
    {
      "src": 21,
      "dest": 21
    },
    {
      "src": 192,
      "dest": 554
    },
    {
      "src": 261,
      "dest": 623
    },
    {
      "src": 639,
      "dest": 1111
    },
    {
      "src": 340,
      "dest": 702
    },
    {
      "src": 435,
      "dest": 817
    },
    {
      "src": 606,
      "dest": 1078
    },
    {
      "src": 601,
      "dest": 1073
    },
    {
      "src": 541,
      "dest": 958
    },
    {
      "src": 8,
      "dest": 8
    },
    {
      "src": 587,
      "dest": 1059
    },
    {
      "src": 426,
      "dest": 808
    },
    {
      "src": 439,
      "dest": 856
    },
    {
      "src": 55,
      "dest": 55
    },
    {
      "src": 151,
      "dest": 508
    },
    {
      "src": 127,
      "dest": 476
    },
    {
      "src": 20,
      "dest": 20
    },
    {
      "src": 59,
      "dest": 59
    },
    {
      "src": 83,
      "dest": 342
    },
    {
      "src": 458,
      "dest": 875
    },
    {
      "src": 68,
      "dest": 68
    },
    {
      "src": 111,
      "dest": 377
    },
    {
      "src": 9,
      "dest": 9
    },
    {
      "src": 132,
      "dest": 481
    },
    {
      "src": 363,
      "dest": 725
    },
    {
      "src": 575,
      "dest": 1046
    },
    {
      "src": 561,
      "dest": 1032
    },
    {
      "src": 565,
      "dest": 1036
    },
    {
      "src": 618,
      "dest": 1090
    },
    {
      "src": 168,
      "dest": 530
    },
    {
      "src": 145,
      "dest": 494
    },
    {
      "src": 531,
      "dest": 948
    },
    {
      "src": 568,
      "dest": 1039
    },
    {
      "src": 595,
      "dest": 1067
    },
    {
      "src": 578,
      "dest": 1050
    },
    {
      "src": 72,
      "dest": 72
    },
    {
      "src": 455,
      "dest": 872
    },
    {
      "src": 510,
      "dest": 927
    },
    {
      "src": 219,
      "dest": 581
    },
    {
      "src": 297,
      "dest": 659
    },
    {
      "src": 210,
      "dest": 572
    },
    {
      "src": 551,
      "dest": 968
    },
    {
      "src": 370,
      "dest": 732
    },
    {
      "src": 100,
      "dest": 366
    },
    {
      "src": 225,
      "dest": 587
    },
    {
      "src": 319,
      "dest": 681
    },
    {
      "src": 262,
      "dest": 624
    },
    {
      "src": 419,
      "dest": 801
    },
    {
      "src": 433,
      "dest": 815
    },
    {
      "src": 175,
      "dest": 537
    },
    {
      "src": 444,
      "dest": 861
    },
    {
      "src": 414,
      "dest": 796
    },
    {
      "src": 18,
      "dest": 18
    },
    {
      "src": 421,
      "dest": 803
    },
    {
      "src": 276,
      "dest": 638
    },
    {
      "src": 338,
      "dest": 700
    },
    {
      "src": 186,
      "dest": 548
    },
    {
      "src": 422,
      "dest": 804
    },
    {
      "src": 339,
      "dest": 701
    },
    {
      "src": 490,
      "dest": 145
    },
    {
      "src": 569,
      "dest": 1040
    },
    {
      "src": 67,
      "dest": 67
    },
    {
      "src": 453,
      "dest": 870
    },
    {
      "src": 177,
      "dest": 539
    },
    {
      "src": 348,
      "dest": 710
    },
    {
      "src": 66,
      "dest": 66
    },
    {
      "src": 222,
      "dest": 584
    },
    {
      "src": 147,
      "dest": 504
    },
    {
      "src": 625,
      "dest": 1097
    },
    {
      "src": 190,
      "dest": 552
    },
    {
      "src": 51,
      "dest": 51
    },
    {
      "src": 388,
      "dest": 768
    },
    {
      "src": 548,
      "dest": 965
    },
    {
      "src": 415,
      "dest": 797
    },
    {
      "src": 585,
      "dest": 1057
    },
    {
      "src": 383,
      "dest": 763
    },
    {
      "src": 475,
      "dest": 892
    },
    {
      "src": 623,
      "dest": 1095
    },
    {
      "src": 260,
      "dest": 622
    },
    {
      "src": 292,
      "dest": 654
    },
    {
      "src": 172,
      "dest": 534
    },
    {
      "src": 129,
      "dest": 478
    },
    {
      "src": 369,
      "dest": 731
    },
    {
      "src": 265,
      "dest": 627
    },
    {
      "src": 438,
      "dest": 820
    },
    {
      "src": 183,
      "dest": 545
    },
    {
      "src": 632,
      "dest": 1104
    },
    {
      "src": 256,
      "dest": 618
    },
    {
      "src": 251,
      "dest": 613
    },
    {
      "src": 581,
      "dest": 1053
    },
    {
      "src": 86,
      "dest": 345
    },
    {
      "src": 62,
      "dest": 62
    },
    {
      "src": 396,
      "dest": 776
    },
    {
      "src": 63,
      "dest": 63
    },
    {
      "src": 451,
      "dest": 868
    },
    {
      "src": 237,
      "dest": 599
    },
    {
      "src": 588,
      "dest": 1060
    },
    {
      "src": 533,
      "dest": 950
    },
    {
      "src": 189,
      "dest": 551
    },
    {
      "src": 367,
      "dest": 729
    },
    {
      "src": 69,
      "dest": 69
    },
    {
      "src": 573,
      "dest": 1044
    },
    {
      "src": 609,
      "dest": 1081
    },
    {
      "src": 179,
      "dest": 541
    },
    {
      "src": 241,
      "dest": 603
    },
    {
      "src": 2,
      "dest": 2
    },
    {
      "src": 495,
      "dest": 150
    },
    {
      "src": 200,
      "dest": 562
    },
    {
      "src": 315,
      "dest": 677
    },
    {
      "src": 579,
      "dest": 1051
    },
    {
      "src": 22,
      "dest": 22
    },
    {
      "src": 157,
      "dest": 519
    },
    {
      "src": 416,
      "dest": 798
    },
    {
      "src": 321,
      "dest": 683
    },
    {
      "src": 476,
      "dest": 893
    },
    {
      "src": 295,
      "dest": 657
    },
    {
      "src": 109,
      "dest": 375
    },
    {
      "src": 128,
      "dest": 477
    },
    {
      "src": 203,
      "dest": 565
    },
    {
      "src": 41,
      "dest": 41
    },
    {
      "src": 413,
      "dest": 795
    },
    {
      "src": 0,
      "dest": 0
    },
    {
      "src": 61,
      "dest": 61
    },
    {
      "src": 516,
      "dest": 933
    },
    {
      "src": 144,
      "dest": 493
    },
    {
      "src": 50,
      "dest": 50
    },
    {
      "src": 350,
      "dest": 712
    },
    {
      "src": 64,
      "dest": 64
    },
    {
      "src": 27,
      "dest": 27
    },
    {
      "src": 303,
      "dest": 665
    },
    {
      "src": 423,
      "dest": 805
    },
    {
      "src": 199,
      "dest": 561
    },
    {
      "src": 592,
      "dest": 1064
    },
    {
      "src": 614,
      "dest": 1086
    },
    {
      "src": 391,
      "dest": 771
    },
    {
      "src": 38,
      "dest": 38
    },
    {
      "src": 224,
      "dest": 586
    },
    {
      "src": 491,
      "dest": 146
    },
    {
      "src": 343,
      "dest": 705
    },
    {
      "src": 604,
      "dest": 1076
    },
    {
      "src": 80,
      "dest": 80
    },
    {
      "src": 590,
      "dest": 1062
    },
    {
      "src": 381,
      "dest": 761
    },
    {
      "src": 599,
      "dest": 1071
    },
    {
      "src": 114,
      "dest": 463
    },
    {
      "src": 323,
      "dest": 685
    },
    {
      "src": 466,
      "dest": 883
    },
    {
      "src": 136,
      "dest": 485
    },
    {
      "src": 572,
      "dest": 1043
    },
    {
      "src": 201,
      "dest": 563
    },
    {
      "src": 106,
      "dest": 372
    },
    {
      "src": 139,
      "dest": 488
    },
    {
      "src": 146,
      "dest": 495
    },
    {
      "src": 382,
      "dest": 762
    },
    {
      "src": 567,
      "dest": 1038
    },
    {
      "src": 577,
      "dest": 1049
    },
    {
      "src": 346,
      "dest": 708
    },
    {
      "src": 627,
      "dest": 1099
    },
    {
      "src": 294,
      "dest": 656
    },
    {
      "src": 427,
      "dest": 809
    },
    {
      "src": 528,
      "dest": 945
    },
    {
      "src": 443,
      "dest": 860
    },
    {
      "src": 231,
      "dest": 593
    },
    {
      "src": 644,
      "dest": 1116
    },
    {
      "src": 229,
      "dest": 591
    },
    {
      "src": 386,
      "dest": 766
    },
    {
      "src": 165,
      "dest": 527
    },
    {
      "src": 266,
      "dest": 628
    },
    {
      "src": 560,
      "dest": 1031
    },
    {
      "src": 36,
      "dest": 36
    },
    {
      "src": 181,
      "dest": 543
    },
    {
      "src": 612,
      "dest": 1084
    },
    {
      "src": 336,
      "dest": 698
    },
    {
      "src": 479,
      "dest": 896
    },
    {
      "src": 16,
      "dest": 16
    },
    {
      "src": 28,
      "dest": 28
    },
    {
      "src": 480,
      "dest": 897
    },
    {
      "src": 473,
      "dest": 890
    },
    {
      "src": 89,
      "dest": 348
    },
    {
      "src": 308,
      "dest": 670
    },
    {
      "src": 461,
      "dest": 878
    },
    {
      "src": 460,
      "dest": 877
    },
    {
      "src": 296,
      "dest": 658
    },
    {
      "src": 628,
      "dest": 1100
    },
    {
      "src": 60,
      "dest": 60
    },
    {
      "src": 279,
      "dest": 641
    },
    {
      "src": 52,
      "dest": 52
    },
    {
      "src": 326,
      "dest": 688
    },
    {
      "src": 557,
      "dest": 1028
    },
    {
      "src": 633,
      "dest": 1105
    },
    {
      "src": 384,
      "dest": 764
    },
    {
      "src": 593,
      "dest": 1065
    },
    {
      "src": 424,
      "dest": 806
    },
    {
      "src": 536,
      "dest": 953
    },
    {
      "src": 4,
      "dest": 4
    },
    {
      "src": 45,
      "dest": 45
    },
    {
      "src": 162,
      "dest": 524
    },
    {
      "src": 108,
      "dest": 374
    },
    {
      "src": 600,
      "dest": 1072
    },
    {
      "src": 204,
      "dest": 566
    },
    {
      "src": 594,
      "dest": 1066
    },
    {
      "src": 235,
      "dest": 597
    },
    {
      "src": 271,
      "dest": 633
    },
    {
      "src": 226,
      "dest": 588
    },
    {
      "src": 389,
      "dest": 769
    },
    {
      "src": 87,
      "dest": 346
    },
    {
      "src": 140,
      "dest": 489
    },
    {
      "src": 42,
      "dest": 42
    },
    {
      "src": 472,
      "dest": 889
    },
    {
      "src": 509,
      "dest": 926
    },
    {
      "src": 605,
      "dest": 1077
    },
    {
      "src": 613,
      "dest": 1085
    },
    {
      "src": 446,
      "dest": 863
    },
    {
      "src": 589,
      "dest": 1061
    },
    {
      "src": 571,
      "dest": 1042
    },
    {
      "src": 161,
      "dest": 523
    },
    {
      "src": 121,
      "dest": 470
    },
    {
      "src": 223,
      "dest": 585
    },
    {
      "src": 270,
      "dest": 632
    },
    {
      "src": 122,
      "dest": 471
    },
    {
      "src": 507,
      "dest": 924
    },
    {
      "src": 502,
      "dest": 919
    },
    {
      "src": 46,
      "dest": 46
    },
    {
      "src": 441,
      "dest": 858
    },
    {
      "src": 378,
      "dest": 758
    },
    {
      "src": 236,
      "dest": 598
    },
    {
      "src": 373,
      "dest": 735
    },
    {
      "src": 257,
      "dest": 619
    },
    {
      "src": 349,
      "dest": 711
    },
    {
      "src": 76,
      "dest": 76
    },
    {
      "src": 170,
      "dest": 532
    },
    {
      "src": 570,
      "dest": 1041
    },
    {
      "src": 180,
      "dest": 542
    },
    {
      "src": 131,
      "dest": 480
    },
    {
      "src": 197,
      "dest": 559
    },
    {
      "src": 330,
      "dest": 692
    },
    {
      "src": 494,
      "dest": 149
    },
    {
      "src": 90,
      "dest": 349
    },
    {
      "src": 484,
      "dest": 901
    },
    {
      "src": 583,
      "dest": 1055
    },
    {
      "src": 374,
      "dest": 736
    },
    {
      "src": 282,
      "dest": 644
    },
    {
      "src": 564,
      "dest": 1035
    },
    {
      "src": 631,
      "dest": 1103
    },
    {
      "src": 13,
      "dest": 13
    },
    {
      "src": 178,
      "dest": 540
    },
    {
      "src": 166,
      "dest": 528
    },
    {
      "src": 629,
      "dest": 1101
    },
    {
      "src": 483,
      "dest": 900
    },
    {
      "src": 173,
      "dest": 535
    },
    {
      "src": 17,
      "dest": 17
    },
    {
      "src": 344,
      "dest": 706
    },
    {
      "src": 616,
      "dest": 1088
    },
    {
      "src": 611,
      "dest": 1083
    },
    {
      "src": 538,
      "dest": 955
    },
    {
      "src": 597,
      "dest": 1069
    },
    {
      "src": 409,
      "dest": 791
    },
    {
      "src": 56,
      "dest": 56
    },
    {
      "src": 206,
      "dest": 568
    },
    {
      "src": 501,
      "dest": 918
    },
    {
      "src": 244,
      "dest": 606
    },
    {
      "src": 289,
      "dest": 651
    },
    {
      "src": 249,
      "dest": 611
    },
    {
      "src": 135,
      "dest": 484
    },
    {
      "src": 335,
      "dest": 697
    },
    {
      "src": 288,
      "dest": 650
    },
    {
      "src": 98,
      "dest": 364
    },
    {
      "src": 549,
      "dest": 966
    },
    {
      "src": 48,
      "dest": 48
    },
    {
      "src": 255,
      "dest": 617
    },
    {
      "src": 355,
      "dest": 717
    },
    {
      "src": 3,
      "dest": 3
    },
    {
      "src": 333,
      "dest": 695
    },
    {
      "src": 366,
      "dest": 728
    },
    {
      "src": 535,
      "dest": 952
    },
    {
      "src": 254,
      "dest": 616
    },
    {
      "src": 647,
      "dest": 1119
    },
    {
      "src": 447,
      "dest": 864
    },
    {
      "src": 347,
      "dest": 709
    },
    {
      "src": 240,
      "dest": 602
    },
    {
      "src": 53,
      "dest": 53
    },
    {
      "src": 281,
      "dest": 643
    },
    {
      "src": 430,
      "dest": 812
    },
    {
      "src": 156,
      "dest": 518
    },
    {
      "src": 636,
      "dest": 1108
    },
    {
      "src": 634,
      "dest": 1106
    },
    {
      "src": 508,
      "dest": 925
    },
    {
      "src": 232,
      "dest": 594
    },
    {
      "src": 96,
      "dest": 362
    },
    {
      "src": 233,
      "dest": 595
    },
    {
      "src": 371,
      "dest": 733
    },
    {
      "src": 553,
      "dest": 1024
    },
    {
      "src": 252,
      "dest": 614
    },
    {
      "src": 30,
      "dest": 30
    },
    {
      "src": 607,
      "dest": 1079
    },
    {
      "src": 57,
      "dest": 57
    },
    {
      "src": 99,
      "dest": 365
    },
    {
      "src": 318,
      "dest": 680
    },
    {
      "src": 445,
      "dest": 862
    },
    {
      "src": 194,
      "dest": 556
    },
    {
      "src": 12,
      "dest": 12
    },
    {
      "src": 153,
      "dest": 515
    },
    {
      "src": 511,
      "dest": 928
    },
    {
      "src": 380,
      "dest": 760
    },
    {
      "src": 184,
      "dest": 546
    },
    {
      "src": 372,
      "dest": 734
    },
    {
      "src": 283,
      "dest": 645
    },
    {
      "src": 130,
      "dest": 479
    },
    {
      "src": 320,
      "dest": 682
    },
    {
      "src": 317,
      "dest": 679
    },
    {
      "src": 273,
      "dest": 635
    },
    {
      "src": 556,
      "dest": 1027
    },
    {
      "src": 217,
      "dest": 579
    },
    {
      "src": 598,
      "dest": 1070
    },
    {
      "src": 626,
      "dest": 1098
    },
    {
      "src": 39,
      "dest": 39
    },
    {
      "src": 638,
      "dest": 1110
    },
    {
      "src": 314,
      "dest": 676
    },
    {
      "src": 58,
      "dest": 58
    },
    {
      "src": 436,
      "dest": 818
    },
    {
      "src": 158,
      "dest": 520
    },
    {
      "src": 361,
      "dest": 723
    },
    {
      "src": 337,
      "dest": 699
    },
    {
      "src": 70,
      "dest": 70
    },
    {
      "src": 93,
      "dest": 359
    },
    {
      "src": 404,
      "dest": 786
    },
    {
      "src": 586,
      "dest": 1058
    },
    {
      "src": 505,
      "dest": 922
    },
    {
      "src": 450,
      "dest": 867
    },
    {
      "src": 198,
      "dest": 560
    },
    {
      "src": 40,
      "dest": 40
    },
    {
      "src": 617,
      "dest": 1089
    },
    {
      "src": 329,
      "dest": 691
    },
    {
      "src": 23,
      "dest": 23
    },
    {
      "src": 637,
      "dest": 1109
    },
    {
      "src": 544,
      "dest": 961
    },
    {
      "src": 365,
      "dest": 727
    },
    {
      "src": 78,
      "dest": 78
    },
    {
      "src": 37,
      "dest": 37
    },
    {
      "src": 486,
      "dest": 903
    },
    {
      "src": 322,
      "dest": 684
    },
    {
      "src": 193,
      "dest": 555
    },
    {
      "src": 503,
      "dest": 920
    },
    {
      "src": 164,
      "dest": 526
    },
    {
      "src": 10,
      "dest": 10
    },
    {
      "src": 24,
      "dest": 24
    },
    {
      "src": 543,
      "dest": 960
    },
    {
      "src": 148,
      "dest": 505
    },
    {
      "src": 523,
      "dest": 940
    },
    {
      "src": 117,
      "dest": 466
    },
    {
      "src": 311,
      "dest": 673
    },
    {
      "src": 457,
      "dest": 874
    },
    {
      "src": 519,
      "dest": 936
    },
    {
      "src": 526,
      "dest": 943
    },
    {
      "src": 376,
      "dest": 738
    },
    {
      "src": 242,
      "dest": 604
    },
    {
      "src": 456,
      "dest": 873
    },
    {
      "src": 120,
      "dest": 469
    },
    {
      "src": 358,
      "dest": 720
    },
    {
      "src": 485,
      "dest": 902
    },
    {
      "src": 138,
      "dest": 487
    },
    {
      "src": 368,
      "dest": 730
    },
    {
      "src": 11,
      "dest": 11
    },
    {
      "src": 493,
      "dest": 148
    },
    {
      "src": 65,
      "dest": 65
    },
    {
      "src": 621,
      "dest": 1093
    },
    {
      "src": 408,
      "dest": 790
    },
    {
      "src": 306,
      "dest": 668
    },
    {
      "src": 602,
      "dest": 1074
    },
    {
      "src": 546,
      "dest": 963
    },
    {
      "src": 582,
      "dest": 1054
    },
    {
      "src": 513,
      "dest": 930
    },
    {
      "src": 464,
      "dest": 881
    },
    {
      "src": 185,
      "dest": 547
    },
    {
      "src": 118,
      "dest": 467
    },
    {
      "src": 431,
      "dest": 813
    },
    {
      "src": 432,
      "dest": 814
    },
    {
      "src": 277,
      "dest": 639
    },
    {
      "src": 398,
      "dest": 778
    },
    {
      "src": 133,
      "dest": 482
    },
    {
      "src": 559,
      "dest": 1030
    },
    {
      "src": 5,
      "dest": 5
    },
    {
      "src": 405,
      "dest": 787
    },
    {
      "src": 284,
      "dest": 646
    },
    {
      "src": 550,
      "dest": 967
    },
    {
      "src": 574,
      "dest": 1045
    },
    {
      "src": 527,
      "dest": 944
    },
    {
      "src": 214,
      "dest": 576
    },
    {
      "src": 115,
      "dest": 464
    },
    {
      "src": 208,
      "dest": 570
    },
    {
      "src": 463,
      "dest": 880
    },
    {
      "src": 119,
      "dest": 468
    },
    {
      "src": 327,
      "dest": 689
    },
    {
      "src": 95,
      "dest": 361
    },
    {
      "src": 188,
      "dest": 550
    },
    {
      "src": 395,
      "dest": 775
    },
    {
      "src": 437,
      "dest": 819
    },
    {
      "src": 209,
      "dest": 571
    },
    {
      "src": 454,
      "dest": 871
    },
    {
      "src": 152,
      "dest": 514
    },
    {
      "src": 504,
      "dest": 921
    },
    {
      "src": 287,
      "dest": 649
    },
    {
      "src": 216,
      "dest": 578
    },
    {
      "src": 364,
      "dest": 726
    },
    {
      "src": 7,
      "dest": 7
    },
    {
      "src": 324,
      "dest": 686
    },
    {
      "src": 94,
      "dest": 360
    },
    {
      "src": 159,
      "dest": 521
    },
    {
      "src": 558,
      "dest": 1029
    },
    {
      "src": 155,
      "dest": 517
    },
    {
      "src": 619,
      "dest": 1091
    },
    {
      "src": 442,
      "dest": 859
    },
    {
      "src": 167,
      "dest": 529
    },
    {
      "src": 312,
      "dest": 674
    },
    {
      "src": 263,
      "dest": 625
    },
    {
      "src": 246,
      "dest": 608
    },
    {
      "src": 29,
      "dest": 29
    },
    {
      "src": 352,
      "dest": 714
    },
    {
      "src": 248,
      "dest": 610
    },
    {
      "src": 298,
      "dest": 660
    },
    {
      "src": 286,
      "dest": 648
    },
    {
      "src": 385,
      "dest": 765
    },
    {
      "src": 530,
      "dest": 947
    },
    {
      "src": 54,
      "dest": 54
    },
    {
      "src": 299,
      "dest": 661
    },
    {
      "src": 275,
      "dest": 637
    },
    {
      "src": 487,
      "dest": 904
    },
    {
      "src": 316,
      "dest": 678
    },
    {
      "src": 462,
      "dest": 879
    },
    {
      "src": 110,
      "dest": 376
    },
    {
      "src": 359,
      "dest": 721
    },
    {
      "src": 163,
      "dest": 525
    },
    {
      "src": 506,
      "dest": 923
    },
    {
      "src": 481,
      "dest": 898
    },
    {
      "src": 524,
      "dest": 941
    },
    {
      "src": 171,
      "dest": 533
    },
    {
      "src": 101,
      "dest": 367
    },
    {
      "src": 84,
      "dest": 343
    },
    {
      "src": 141,
      "dest": 490
    },
    {
      "src": 182,
      "dest": 544
    },
    {
      "src": 88,
      "dest": 347
    },
    {
      "src": 412,
      "dest": 794
    },
    {
      "src": 149,
      "dest": 506
    },
    {
      "src": 112,
      "dest": 378
    },
    {
      "src": 332,
      "dest": 694
    },
    {
      "src": 521,
      "dest": 938
    },
    {
      "src": 397,
      "dest": 777
    },
    {
      "src": 259,
      "dest": 621
    },
    {
      "src": 305,
      "dest": 667
    },
    {
      "src": 576,
      "dest": 1047
    },
    {
      "src": 603,
      "dest": 1075
    },
    {
      "src": 440,
      "dest": 857
    },
    {
      "src": 545,
      "dest": 962
    },
    {
      "src": 645,
      "dest": 1117
    },
    {
      "src": 622,
      "dest": 1094
    },
    {
      "src": 608,
      "dest": 1080
    },
    {
      "src": 91,
      "dest": 350
    },
    {
      "src": 309,
      "dest": 671
    },
    {
      "src": 353,
      "dest": 715
    },
    {
      "src": 79,
      "dest": 79
    },
    {
      "src": 74,
      "dest": 74
    },
    {
      "src": 624,
      "dest": 1096
    },
    {
      "src": 392,
      "dest": 772
    },
    {
      "src": 467,
      "dest": 884
    },
    {
      "src": 377,
      "dest": 739
    },
    {
      "src": 428,
      "dest": 810
    },
    {
      "src": 498,
      "dest": 915
    },
    {
      "src": 492,
      "dest": 147
    },
    {
      "src": 449,
      "dest": 866
    },
    {
      "src": 191,
      "dest": 553
    },
    {
      "src": 418,
      "dest": 800
    },
    {
      "src": 591,
      "dest": 1063
    },
    {
      "src": 448,
      "dest": 865
    },
    {
      "src": 351,
      "dest": 713
    },
    {
      "src": 417,
      "dest": 799
    },
    {
      "src": 174,
      "dest": 536
    },
    {
      "src": 82,
      "dest": 82
    },
    {
      "src": 357,
      "dest": 719
    },
    {
      "src": 230,
      "dest": 592
    },
    {
      "src": 280,
      "dest": 642
    },
    {
      "src": 291,
      "dest": 653
    },
    {
      "src": 429,
      "dest": 811
    },
    {
      "src": 44,
      "dest": 44
    },
    {
      "src": 407,
      "dest": 789
    },
    {
      "src": 532,
      "dest": 949
    },
    {
      "src": 452,
      "dest": 869
    },
    {
      "src": 239,
      "dest": 601
    },
    {
      "src": 635,
      "dest": 1107
    },
    {
      "src": 328,
      "dest": 690
    },
    {
      "src": 345,
      "dest": 707
    },
    {
      "src": 113,
      "dest": 379
    },
    {
      "src": 218,
      "dest": 580
    },
    {
      "src": 534,
      "dest": 951
    },
    {
      "src": 642,
      "dest": 1114
    },
    {
      "src": 542,
      "dest": 959
    },
    {
      "src": 375,
      "dest": 737
    },
    {
      "src": 482,
      "dest": 899
    },
    {
      "src": 552,
      "dest": 1023
    },
    {
      "src": 499,
      "dest": 916
    },
    {
      "src": 213,
      "dest": 575
    },
    {
      "src": 434,
      "dest": 816
    },
    {
      "src": 646,
      "dest": 1118
    },
    {
      "src": 107,
      "dest": 373
    },
    {
      "src": 402,
      "dest": 784
    },
    {
      "src": 529,
      "dest": 946
    },
    {
      "src": 537,
      "dest": 954
    },
    {
      "src": 25,
      "dest": 25
    },
    {
      "src": 227,
      "dest": 589
    },
    {
      "src": 512,
      "dest": 929
    },
    {
      "src": 497,
      "dest": 914
    },
    {
      "src": 143,
      "dest": 492
    },
    {
      "src": 245,
      "dest": 607
    },
    {
      "src": 103,
      "dest": 369
    },
    {
      "src": 596,
      "dest": 1068
    },
    {
      "src": 420,
      "dest": 802
    },
    {
      "src": 15,
      "dest": 15
    },
    {
      "src": 354,
      "dest": 716
    },
    {
      "src": 641,
      "dest": 1113
    },
    {
      "src": 474,
      "dest": 891
    },
    {
      "src": 264,
      "dest": 626
    },
    {
      "src": 514,
      "dest": 931
    },
    {
      "src": 169,
      "dest": 531
    },
    {
      "src": 554,
      "dest": 1025
    },
    {
      "src": 274,
      "dest": 636
    },
    {
      "src": 393,
      "dest": 773
    },
    {
      "src": 387,
      "dest": 767
    },
    {
      "src": 584,
      "dest": 1056
    },
    {
      "src": 489,
      "dest": 144
    },
    {
      "src": 228,
      "dest": 590
    },
    {
      "src": 150,
      "dest": 507
    },
    {
      "src": 471,
      "dest": 888
    },
    {
      "src": 267,
      "dest": 629
    },
    {
      "src": 212,
      "dest": 574
    },
    {
      "src": 134,
      "dest": 483
    },
    {
      "src": 331,
      "dest": 693
    },
    {
      "src": 293,
      "dest": 655
    },
    {
      "src": 33,
      "dest": 33
    },
    {
      "src": 31,
      "dest": 31
    },
    {
      "src": 71,
      "dest": 71
    },
    {
      "src": 269,
      "dest": 631
    },
    {
      "src": 32,
      "dest": 32
    },
    {
      "src": 205,
      "dest": 567
    },
    {
      "src": 465,
      "dest": 882
    },
    {
      "src": 176,
      "dest": 538
    },
    {
      "src": 278,
      "dest": 640
    },
    {
      "src": 411,
      "dest": 793
    },
    {
      "src": 196,
      "dest": 558
    },
    {
      "src": 399,
      "dest": 779
    },
    {
      "src": 49,
      "dest": 49
    },
    {
      "src": 522,
      "dest": 939
    },
    {
      "src": 620,
      "dest": 1092
    },
    {
      "src": 302,
      "dest": 664
    },
    {
      "src": 243,
      "dest": 605
    },
    {
      "src": 220,
      "dest": 582
    },
    {
      "src": 468,
      "dest": 885
    },
    {
      "src": 154,
      "dest": 516
    },
    {
      "src": 1,
      "dest": 1
    },
    {
      "src": 116,
      "dest": 465
    },
    {
      "src": 410,
      "dest": 792
    },
    {
      "src": 211,
      "dest": 573
    },
    {
      "src": 73,
      "dest": 73
    },
    {
      "src": 290,
      "dest": 652
    },
    {
      "src": 307,
      "dest": 669
    },
    {
      "src": 390,
      "dest": 770
    },
    {
      "src": 525,
      "dest": 942
    },
    {
      "src": 105,
      "dest": 371
    },
    {
      "src": 247,
      "dest": 609
    },
    {
      "src": 6,
      "dest": 6
    }
  ],
  "actions": [
    {
      "action": "insert",
      "tree": 87,
      "parent": 1119,
      "at": 12
    },
    {
      "action": "insert",
      "tree": 186,
      "parent": 1119,
      "at": 13
    },
    {
      "action": "insert",
      "tree": 341,
      "parent": 1119,
      "at": 14
    },
    {
      "action": "insert",
      "tree": 86,
      "parent": 87,
      "at": 0
    },
    {
      "action": "insert",
      "tree": 185,
      "parent": 186,
      "at": 0
    },
    {
      "action": "insert",
      "tree": 340,
      "parent": 341,
      "at": 0
    },
    {
      "action": "insert",
      "tree": 84,
      "parent": 86,
      "at": 0
    },
    {
      "action": "insert",
      "tree": 85,
      "parent": 86,
      "at": 1
    },
    {
      "action": "insert",
      "tree": 89,
      "parent": 185,
      "at": 0
    },
    {
      "action": "insert",
      "tree": 94,
      "parent": 185,
      "at": 1
    },
    {
      "action": "insert",
      "tree": 95,
      "parent": 185,
      "at": 2
    },
    {
      "action": "insert",
      "tree": 184,
      "parent": 185,
      "at": 3
    },
    {
      "action": "insert",
      "tree": 188,
      "parent": 340,
      "at": 0
    },
    {
      "action": "insert",
      "tree": 195,
      "parent": 340,
      "at": 1
    },
    {
      "action": "insert",
      "tree": 196,
      "parent": 340,
      "at": 2
    },
    {
      "action": "insert",
      "tree": 339,
      "parent": 340,
      "at": 3
    },
    {
      "action": "insert",
      "tree": 83,
      "parent": 84,
      "at": 0
    },
    {
      "action": "insert",
      "tree": 88,
      "parent": 89,
      "at": 0
    },
    {
      "action": "insert",
      "tree": 91,
      "parent": 94,
      "at": 0
    },
    {
      "action": "insert",
      "tree": 93,
      "parent": 94,
      "at": 1
    },
    {
      "action": "insert",
      "tree": 100,
      "parent": 184,
      "at": 0
    },
    {
      "action": "insert",
      "tree": 107,
      "parent": 184,
      "at": 1
    },
    {
      "action": "insert",
      "tree": 114,
      "parent": 184,
      "at": 2
    },
    {
      "action": "insert",
      "tree": 180,
      "parent": 184,
      "at": 3
    },
    {
      "action": "insert",
      "tree": 183,
      "parent": 184,
      "at": 4
    },
    {
      "action": "insert",
      "tree": 187,
      "parent": 188,
      "at": 0
    },
    {
      "action": "insert",
      "tree": 190,
      "parent": 195,
      "at": 0
    },
    {
      "action": "insert",
      "tree": 192,
      "parent": 195,
      "at": 1
    },
    {
      "action": "insert",
      "tree": 194,
      "parent": 195,
      "at": 2
    },
    {
      "action": "insert",
      "tree": 201,
      "parent": 339,
      "at": 0
    },
    {
      "action": "insert",
      "tree": 208,
      "parent": 339,
      "at": 1
    },
    {
      "action": "insert",
      "tree": 304,
      "parent": 339,
      "at": 2
    },
    {
      "action": "insert",
      "tree": 328,
      "parent": 339,
      "at": 3
    },
    {
      "action": "insert",
      "tree": 338,
      "parent": 339,
      "at": 4
    },
    {
      "action": "insert",
      "tree": 358,
      "parent": 463,
      "at": 0
    },
    {
      "action": "insert",
      "tree": 399,
      "parent": 463,
      "at": 3
    },
    {
      "action": "insert",
      "tree": 417,
      "parent": 463,
      "at": 4
    },
    {
      "action": "insert",
      "tree": 431,
      "parent": 463,
      "at": 5
    },
    {
      "action": "insert",
      "tree": 448,
      "parent": 463,
      "at": 6
    },
    {
      "action": "insert",
      "tree": 462,
      "parent": 463,
      "at": 7
    },
    {
      "action": "insert",
      "tree": 757,
      "parent": 803,
      "at": 6
    },
    {
      "action": "insert",
      "tree": 838,
      "parent": 882,
      "at": 1
    },
    {
      "action": "insert",
      "tree": 855,
      "parent": 882,
      "at": 2
    },
    {
      "action": "insert",
      "tree": 975,
      "parent": 1076,
      "at": 1
    },
    {
      "action": "insert",
      "tree": 1048,
      "parent": 1076,
      "at": 2
    },
    {
      "action": "insert",
      "tree": 90,
      "parent": 91,
      "at": 0
    },
    {
      "action": "insert",
      "tree": 92,
      "parent": 93,
      "at": 0
    },
    {
      "action": "insert",
      "tree": 96,
      "parent": 100,
      "at": 0
    },
    {
      "action": "insert",
      "tree": 99,
      "parent": 100,
      "at": 1
    },
    {
      "action": "insert",
      "tree": 101,
      "parent": 107,
      "at": 0
    },
    {
      "action": "insert",
      "tree": 106,
      "parent": 107,
      "at": 1
    },
    {
      "action": "insert",
      "tree": 108,
      "parent": 114,
      "at": 0
    },
    {
      "action": "insert",
      "tree": 113,
      "parent": 114,
      "at": 1
    },
    {
      "action": "insert",
      "tree": 115,
      "parent": 180,
      "at": 0
    },
    {
      "action": "insert",
      "tree": 123,
      "parent": 180,
      "at": 1
    },
    {
      "action": "insert",
      "tree": 142,
      "parent": 180,
      "at": 2
    },
    {
      "action": "insert",
      "tree": 179,
      "parent": 180,
      "at": 3
    },
    {
      "action": "insert",
      "tree": 182,
      "parent": 183,
      "at": 0
    },
    {
      "action": "insert",
      "tree": 189,
      "parent": 190,
      "at": 0
    },
    {
      "action": "insert",
      "tree": 191,
      "parent": 192,
      "at": 0
    },
    {
      "action": "insert",
      "tree": 193,
      "parent": 194,
      "at": 0
    },
    {
      "action": "insert",
      "tree": 197,
      "parent": 201,
      "at": 0
    },
    {
      "action": "insert",
      "tree": 200,
      "parent": 201,
      "at": 1
    },
    {
      "action": "insert",
      "tree": 202,
      "parent": 208,
      "at": 0
    },
    {
      "action": "insert",
      "tree": 207,
      "parent": 208,
      "at": 1
    },
    {
      "action": "insert",
      "tree": 209,
      "parent": 304,
      "at": 0
    },
    {
      "action": "insert",
      "tree": 215,
      "parent": 304,
      "at": 1
    },
    {
      "action": "insert",
      "tree": 292,
      "parent": 304,
      "at": 2
    },
    {
      "action": "insert",
      "tree": 303,
      "parent": 304,
      "at": 3
    },
    {
      "action": "insert",
      "tree": 327,
      "parent": 328,
      "at": 0
    },
    {
      "action": "insert",
      "tree": 337,
      "parent": 338,
      "at": 0
    },
    {
      "action": "insert",
      "tree": 352,
      "parent": 358,
      "at": 0
    },
    {
      "action": "insert",
      "tree": 357,
      "parent": 358,
      "at": 1
    },
    {
      "action": "insert",
      "tree": 398,
      "parent": 399,
      "at": 0
    },
    {
      "action": "insert",
      "tree": 400,
      "parent": 417,
      "at": 0
    },
    {
      "action": "insert",
      "tree": 416,
      "parent": 417,
      "at": 1
    },
    {
      "action": "insert",
      "tree": 430,
      "parent": 431,
      "at": 0
    },
    {
      "action": "insert",
      "tree": 447,
      "parent": 448,
      "at": 0
    },
    {
      "action": "insert",
      "tree": 461,
      "parent": 462,
      "at": 0
    },
    {
      "action": "update",
      "tree": 123,
      "label": "final_info"
    },
    {
      "action": "insert",
      "tree": 740,
      "parent": 757,
      "at": 0
    },
    {
      "action": "insert",
      "tree": 756,
      "parent": 757,
      "at": 1
    },
    {
      "action": "insert",
      "tree": 821,
      "parent": 838,
      "at": 0
    },
    {
      "action": "insert",
      "tree": 837,
      "parent": 838,
      "at": 1
    },
    {
      "action": "insert",
      "tree": 854,
      "parent": 855,
      "at": 0
    },
    {
      "action": "insert",
      "tree": 913,
      "parent": 941,
      "at": 1
    },
    {
      "action": "insert",
      "tree": 969,
      "parent": 975,
      "at": 0
    },
    {
      "action": "insert",
      "tree": 974,
      "parent": 975,
      "at": 1
    },
    {
      "action": "insert",
      "tree": 976,
      "parent": 1048,
      "at": 0
    },
    {
      "action": "insert",
      "tree": 980,
      "parent": 1048,
      "at": 1
    },
    {
      "action": "insert",
      "tree": 1022,
      "parent": 1048,
      "at": 2
    },
    {
      "action": "move",
      "tree": 576,
      "parent": 1048,
      "at": 3
    },
    {
      "action": "insert",
      "tree": 98,
      "parent": 99,
      "at": 0
    },
    {
      "action": "insert",
      "tree": 105,
      "parent": 106,
      "at": 0
    },
    {
      "action": "insert",
      "tree": 112,
      "parent": 113,
      "at": 0
    },
    {
      "action": "insert",
      "tree": 119,
      "parent": 123,
      "at": 0
    },
    {
      "action": "insert",
      "tree": 120,
      "parent": 123,
      "at": 1
    },
    {
      "action": "insert",
      "tree": 122,
      "parent": 123,
      "at": 2
    },
    {
      "action": "insert",
      "tree": 141,
      "parent": 142,
      "at": 0
    },
    {
      "action": "insert",
      "tree": 143,
      "parent": 179,
      "at": 0
    },
    {
      "action": "move",
      "tree": 496,
      "parent": 179,
      "at": 1
    },
    {
      "action": "insert",
      "tree": 178,
      "parent": 179,
      "at": 2
    },
    {
      "action": "insert",
      "tree": 181,
      "parent": 182,
      "at": 0
    },
    {
      "action": "insert",
      "tree": 199,
      "parent": 200,
      "at": 0
    },
    {
      "action": "insert",
      "tree": 206,
      "parent": 207,
      "at": 0
    },
    {
      "action": "insert",
      "tree": 211,
      "parent": 215,
      "at": 0
    },
    {
      "action": "insert",
      "tree": 212,
      "parent": 215,
      "at": 1
    },
    {
      "action": "insert",
      "tree": 214,
      "parent": 215,
      "at": 2
    },
    {
      "action": "insert",
      "tree": 217,
      "parent": 292,
      "at": 0
    },
    {
      "action": "insert",
      "tree": 228,
      "parent": 292,
      "at": 1
    },
    {
      "action": "insert",
      "tree": 239,
      "parent": 292,
      "at": 2
    },
    {
      "action": "insert",
      "tree": 259,
      "parent": 292,
      "at": 3
    },
    {
      "action": "insert",
      "tree": 291,
      "parent": 292,
      "at": 4
    },
    {
      "action": "insert",
      "tree": 302,
      "parent": 303,
      "at": 0
    },
    {
      "action": "insert",
      "tree": 325,
      "parent": 327,
      "at": 0
    },
    {
      "action": "insert",
      "tree": 326,
      "parent": 327,
      "at": 1
    },
    {
      "action": "insert",
      "tree": 335,
      "parent": 337,
      "at": 0
    },
    {
      "action": "insert",
      "tree": 336,
      "parent": 337,
      "at": 1
    },
    {
      "action": "insert",
      "tree": 356,
      "parent": 357,
      "at": 0
    },
    {
      "action": "insert",
      "tree": 396,
      "parent": 398,
      "at": 0
    },
    {
      "action": "insert",
      "tree": 397,
      "parent": 398,
      "at": 1
    },
    {
      "action": "insert",
      "tree": 403,
      "parent": 416,
      "at": 0
    },
    {
      "action": "insert",
      "tree": 406,
      "parent": 416,
      "at": 1
    },
    {
      "action": "insert",
      "tree": 409,
      "parent": 416,
      "at": 2
    },
    {
      "action": "insert",
      "tree": 412,
      "parent": 416,
      "at": 3
    },
    {
      "action": "insert",
      "tree": 415,
      "parent": 416,
      "at": 4
    },
    {
      "action": "insert",
      "tree": 428,
      "parent": 430,
      "at": 0
    },
    {
      "action": "insert",
      "tree": 429,
      "parent": 430,
      "at": 1
    },
    {
      "action": "insert",
      "tree": 445,
      "parent": 447,
      "at": 0
    },
    {
      "action": "insert",
      "tree": 446,
      "parent": 447,
      "at": 1
    },
    {
      "action": "insert",
      "tree": 459,
      "parent": 461,
      "at": 0
    },
    {
      "action": "insert",
      "tree": 460,
      "parent": 461,
      "at": 1
    },
    {
      "action": "insert",
      "tree": 498,
      "parent": 514,
      "at": 1
    },
    {
      "action": "insert",
      "tree": 503,
      "parent": 514,
      "at": 2
    },
    {
      "action": "insert",
      "tree": 513,
      "parent": 514,
      "at": 4
    },
    {
      "action": "insert",
      "tree": 743,
      "parent": 756,
      "at": 0
    },
    {
      "action": "insert",
      "tree": 746,
      "parent": 756,
      "at": 1
    },
    {
      "action": "insert",
      "tree": 749,
      "parent": 756,
      "at": 2
    },
    {
      "action": "insert",
      "tree": 752,
      "parent": 756,
      "at": 3
    },
    {
      "action": "insert",
      "tree": 755,
      "parent": 756,
      "at": 4
    },
    {
      "action": "insert",
      "tree": 824,
      "parent": 837,
      "at": 0
    },
    {
      "action": "insert",
      "tree": 827,
      "parent": 837,
      "at": 1
    },
    {
      "action": "insert",
      "tree": 830,
      "parent": 837,
      "at": 2
    },
    {
      "action": "insert",
      "tree": 833,
      "parent": 837,
      "at": 3
    },
    {
      "action": "insert",
      "tree": 836,
      "parent": 837,
      "at": 4
    },
    {
      "action": "insert",
      "tree": 852,
      "parent": 854,
      "at": 0
    },
    {
      "action": "insert",
      "tree": 853,
      "parent": 854,
      "at": 1
    },
    {
      "action": "insert",
      "tree": 909,
      "parent": 913,
      "at": 0
    },
    {
      "action": "insert",
      "tree": 910,
      "parent": 913,
      "at": 1
    },
    {
      "action": "insert",
      "tree": 912,
      "parent": 913,
      "at": 2
    },
    {
      "action": "insert",
      "tree": 973,
      "parent": 974,
      "at": 0
    },
    {
      "action": "insert",
      "tree": 978,
      "parent": 980,
      "at": 0
    },
    {
      "action": "insert",
      "tree": 979,
      "parent": 980,
      "at": 1
    },
    {
      "action": "insert",
      "tree": 993,
      "parent": 1022,
      "at": 0
    },
    {
      "action": "insert",
      "tree": 1006,
      "parent": 1022,
      "at": 1
    },
    {
      "action": "insert",
      "tree": 1021,
      "parent": 1022,
      "at": 2
    },
    {
      "action": "insert",
      "tree": 97,
      "parent": 98,
      "at": 0
    },
    {
      "action": "insert",
      "tree": 103,
      "parent": 105,
      "at": 0
    },
    {
      "action": "insert",
      "tree": 104,
      "parent": 105,
      "at": 1
    },
    {
      "action": "insert",
      "tree": 110,
      "parent": 112,
      "at": 0
    },
    {
      "action": "insert",
      "tree": 111,
      "parent": 112,
      "at": 1
    },
    {
      "action": "insert",
      "tree": 117,
      "parent": 119,
      "at": 0
    },
    {
      "action": "insert",
      "tree": 118,
      "parent": 119,
      "at": 1
    },
    {
      "action": "insert",
      "tree": 121,
      "parent": 122,
      "at": 0
    },
    {
      "action": "insert",
      "tree": 140,
      "parent": 141,
      "at": 0
    },
    {
      "action": "insert",
      "tree": 174,
      "parent": 178,
      "at": 0
    },
    {
      "action": "insert",
      "tree": 177,
      "parent": 178,
      "at": 1
    },
    {
      "action": "insert",
      "tree": 198,
      "parent": 199,
      "at": 0
    },
    {
      "action": "insert",
      "tree": 204,
      "parent": 206,
      "at": 0
    },
    {
      "action": "insert",
      "tree": 205,
      "parent": 206,
      "at": 1
    },
    {
      "action": "insert",
      "tree": 210,
      "parent": 211,
      "at": 0
    },
    {
      "action": "insert",
      "tree": 213,
      "parent": 214,
      "at": 0
    },
    {
      "action": "insert",
      "tree": 216,
      "parent": 217,
      "at": 0
    },
    {
      "action": "insert",
      "tree": 227,
      "parent": 228,
      "at": 0
    },
    {
      "action": "insert",
      "tree": 238,
      "parent": 239,
      "at": 0
    },
    {
      "action": "insert",
      "tree": 258,
      "parent": 259,
      "at": 0
    },
    {
      "action": "insert",
      "tree": 260,
      "parent": 291,
      "at": 0
    },
    {
      "action": "insert",
      "tree": 268,
      "parent": 291,
      "at": 1
    },
    {
      "action": "insert",
      "tree": 290,
      "parent": 291,
      "at": 2
    },
    {
      "action": "insert",
      "tree": 301,
      "parent": 302,
      "at": 0
    },
    {
      "action": "insert",
      "tree": 310,
      "parent": 325,
      "at": 0
    },
    {
      "action": "insert",
      "tree": 324,
      "parent": 325,
      "at": 1
    },
    {
      "action": "insert",
      "tree": 330,
      "parent": 335,
      "at": 0
    },
    {
      "action": "insert",
      "tree": 334,
      "parent": 335,
      "at": 1
    },
    {
      "action": "insert",
      "tree": 354,
      "parent": 356,
      "at": 0
    },
    {
      "action": "insert",
      "tree": 355,
      "parent": 356,
      "at": 1
    },
    {
      "action": "insert",
      "tree": 381,
      "parent": 396,
      "at": 0
    },
    {
      "action": "insert",
      "tree": 395,
      "parent": 396,
      "at": 1
    },
    {
      "action": "insert",
      "tree": 402,
      "parent": 403,
      "at": 0
    },
    {
      "action": "insert",
      "tree": 405,
      "parent": 406,
      "at": 0
    },
    {
      "action": "insert",
      "tree": 408,
      "parent": 409,
      "at": 0
    },
    {
      "action": "insert",
      "tree": 411,
      "parent": 412,
      "at": 0
    },
    {
      "action": "insert",
      "tree": 414,
      "parent": 415,
      "at": 0
    },
    {
      "action": "insert",
      "tree": 419,
      "parent": 428,
      "at": 0
    },
    {
      "action": "insert",
      "tree": 427,
      "parent": 428,
      "at": 1
    },
    {
      "action": "insert",
      "tree": 433,
      "parent": 445,
      "at": 0
    },
    {
      "action": "insert",
      "tree": 444,
      "parent": 445,
      "at": 1
    },
    {
      "action": "insert",
      "tree": 450,
      "parent": 459,
      "at": 0
    },
    {
      "action": "insert",
      "tree": 458,
      "parent": 459,
      "at": 1
    },
    {
      "action": "insert",
      "tree": 497,
      "parent": 498,
      "at": 0
    },
    {
      "action": "insert",
      "tree": 502,
      "parent": 503,
      "at": 0
    },
    {
      "action": "insert",
      "tree": 512,
      "parent": 513,
      "at": 0
    },
    {
      "action": "insert",
      "tree": 742,
      "parent": 743,
      "at": 0
    },
    {
      "action": "insert",
      "tree": 745,
      "parent": 746,
      "at": 0
    },
    {
      "action": "insert",
      "tree": 748,
      "parent": 749,
      "at": 0
    },
    {
      "action": "insert",
      "tree": 751,
      "parent": 752,
      "at": 0
    },
    {
      "action": "insert",
      "tree": 754,
      "parent": 755,
      "at": 0
    },
    {
      "action": "insert",
      "tree": 823,
      "parent": 824,
      "at": 0
    },
    {
      "action": "insert",
      "tree": 826,
      "parent": 827,
      "at": 0
    },
    {
      "action": "insert",
      "tree": 829,
      "parent": 830,
      "at": 0
    },
    {
      "action": "insert",
      "tree": 832,
      "parent": 833,
      "at": 0
    },
    {
      "action": "insert",
      "tree": 835,
      "parent": 836,
      "at": 0
    },
    {
      "action": "insert",
      "tree": 840,
      "parent": 852,
      "at": 0
    },
    {
      "action": "insert",
      "tree": 851,
      "parent": 852,
      "at": 1
    },
    {
      "action": "insert",
      "tree": 907,
      "parent": 909,
      "at": 0
    },
    {
      "action": "insert",
      "tree": 908,
      "parent": 909,
      "at": 1
    },
    {
      "action": "insert",
      "tree": 911,
      "parent": 912,
      "at": 0
    },
    {
      "action": "insert",
      "tree": 971,
      "parent": 973,
      "at": 0
    },
    {
      "action": "insert",
      "tree": 972,
      "parent": 973,
      "at": 1
    },
    {
      "action": "insert",
      "tree": 977,
      "parent": 978,
      "at": 0
    },
    {
      "action": "insert",
      "tree": 992,
      "parent": 993,
      "at": 0
    },
    {
      "action": "insert",
      "tree": 1005,
      "parent": 1006,
      "at": 0
    },
    {
      "action": "insert",
      "tree": 1020,
      "parent": 1021,
      "at": 0
    },
    {
      "action": "insert",
      "tree": 102,
      "parent": 103,
      "at": 0
    },
    {
      "action": "insert",
      "tree": 109,
      "parent": 110,
      "at": 0
    },
    {
      "action": "insert",
      "tree": 116,
      "parent": 117,
      "at": 0
    },
    {
      "action": "insert",
      "tree": 138,
      "parent": 140,
      "at": 0
    },
    {
      "action": "insert",
      "tree": 139,
      "parent": 140,
      "at": 1
    },
    {
      "action": "update",
      "tree": 494,
      "label": "GRPC_MDSTR_LOAD_REPORTING_INITIAL"
    },
    {
      "action": "insert",
      "tree": 173,
      "parent": 174,
      "at": 0
    },
    {
      "action": "insert",
      "tree": 176,
      "parent": 177,
      "at": 0
    },
    {
      "action": "insert",
      "tree": 203,
      "parent": 204,
      "at": 0
    },
    {
      "action": "insert",
      "tree": 225,
      "parent": 227,
      "at": 0
    },
    {
      "action": "insert",
      "tree": 226,
      "parent": 227,
      "at": 1
    },
    {
      "action": "insert",
      "tree": 236,
      "parent": 238,
      "at": 0
    },
    {
      "action": "insert",
      "tree": 237,
      "parent": 238,
      "at": 1
    },
    {
      "action": "insert",
      "tree": 256,
      "parent": 258,
      "at": 0
    },
    {
      "action": "insert",
      "tree": 257,
      "parent": 258,
      "at": 1
    },
    {
      "action": "insert",
      "tree": 264,
      "parent": 268,
      "at": 0
    },
    {
      "action": "insert",
      "tree": 265,
      "parent": 268,
      "at": 1
    },
    {
      "action": "insert",
      "tree": 267,
      "parent": 268,
      "at": 2
    },
    {
      "action": "insert",
      "tree": 289,
      "parent": 290,
      "at": 0
    },
    {
      "action": "insert",
      "tree": 299,
      "parent": 301,
      "at": 0
    },
    {
      "action": "insert",
      "tree": 300,
      "parent": 301,
      "at": 1
    },
    {
      "action": "insert",
      "tree": 308,
      "parent": 310,
      "at": 0
    },
    {
      "action": "insert",
      "tree": 309,
      "parent": 310,
      "at": 1
    },
    {
      "action": "insert",
      "tree": 313,
      "parent": 324,
      "at": 0
    },
    {
      "action": "insert",
      "tree": 320,
      "parent": 324,
      "at": 1
    },
    {
      "action": "insert",
      "tree": 323,
      "parent": 324,
      "at": 2
    },
    {
      "action": "insert",
      "tree": 329,
      "parent": 330,
      "at": 0
    },
    {
      "action": "insert",
      "tree": 333,
      "parent": 334,
      "at": 0
    },
    {
      "action": "insert",
      "tree": 353,
      "parent": 354,
      "at": 0
    },
    {
      "action": "insert",
      "tree": 380,
      "parent": 381,
      "at": 0
    },
    {
      "action": "insert",
      "tree": 388,
      "parent": 395,
      "at": 0
    },
    {
      "action": "insert",
      "tree": 391,
      "parent": 395,
      "at": 1
    },
    {
      "action": "insert",
      "tree": 394,
      "parent": 395,
      "at": 2
    },
    {
      "action": "insert",
      "tree": 401,
      "parent": 402,
      "at": 0
    },
    {
      "action": "insert",
      "tree": 404,
      "parent": 405,
      "at": 0
    },
    {
      "action": "insert",
      "tree": 407,
      "parent": 408,
      "at": 0
    },
    {
      "action": "insert",
      "tree": 410,
      "parent": 411,
      "at": 0
    },
    {
      "action": "insert",
      "tree": 413,
      "parent": 414,
      "at": 0
    },
    {
      "action": "insert",
      "tree": 418,
      "parent": 419,
      "at": 0
    },
    {
      "action": "insert",
      "tree": 426,
      "parent": 427,
      "at": 0
    },
    {
      "action": "insert",
      "tree": 432,
      "parent": 433,
      "at": 0
    },
    {
      "action": "insert",
      "tree": 438,
      "parent": 444,
      "at": 0
    },
    {
      "action": "insert",
      "tree": 443,
      "parent": 444,
      "at": 1
    },
    {
      "action": "insert",
      "tree": 449,
      "parent": 450,
      "at": 0
    },
    {
      "action": "insert",
      "tree": 457,
      "parent": 458,
      "at": 0
    },
    {
      "action": "update",
      "tree": 144,
      "label": "GRPC_LR_POINT_CALL_DESTRUCTION"
    },
    {
      "action": "insert",
      "tree": 496,
      "parent": 497,
      "at": 0
    },
    {
      "action": "insert",
      "tree": 500,
      "parent": 502,
      "at": 0
    },
    {
      "action": "insert",
      "tree": 501,
      "parent": 502,
      "at": 1
    },
    {
      "action": "insert",
      "tree": 510,
      "parent": 512,
      "at": 0
    },
    {
      "action": "insert",
      "tree": 511,
      "parent": 512,
      "at": 1
    },
    {
      "action": "insert",
      "tree": 741,
      "parent": 742,
      "at": 0
    },
    {
      "action": "insert",
      "tree": 744,
      "parent": 745,
      "at": 0
    },
    {
      "action": "insert",
      "tree": 747,
      "parent": 748,
      "at": 0
    },
    {
      "action": "insert",
      "tree": 750,
      "parent": 751,
      "at": 0
    },
    {
      "action": "insert",
      "tree": 753,
      "parent": 754,
      "at": 0
    },
    {
      "action": "insert",
      "tree": 822,
      "parent": 823,
      "at": 0
    },
    {
      "action": "insert",
      "tree": 825,
      "parent": 826,
      "at": 0
    },
    {
      "action": "insert",
      "tree": 828,
      "parent": 829,
      "at": 0
    },
    {
      "action": "insert",
      "tree": 831,
      "parent": 832,
      "at": 0
    },
    {
      "action": "insert",
      "tree": 834,
      "parent": 835,
      "at": 0
    },
    {
      "action": "insert",
      "tree": 839,
      "parent": 840,
      "at": 0
    },
    {
      "action": "insert",
      "tree": 845,
      "parent": 851,
      "at": 0
    },
    {
      "action": "insert",
      "tree": 850,
      "parent": 851,
      "at": 1
    },
    {
      "action": "insert",
      "tree": 906,
      "parent": 907,
      "at": 0
    },
    {
      "action": "insert",
      "tree": 970,
      "parent": 971,
      "at": 0
    },
    {
      "action": "insert",
      "tree": 990,
      "parent": 992,
      "at": 0
    },
    {
      "action": "insert",
      "tree": 991,
      "parent": 992,
      "at": 1
    },
    {
      "action": "insert",
      "tree": 1003,
      "parent": 1005,
      "at": 0
    },
    {
      "action": "insert",
      "tree": 1004,
      "parent": 1005,
      "at": 1
    },
    {
      "action": "insert",
      "tree": 1018,
      "parent": 1020,
      "at": 0
    },
    {
      "action": "insert",
      "tree": 1019,
      "parent": 1020,
      "at": 1
    },
    {
      "action": "insert",
      "tree": 127,
      "parent": 138,
      "at": 0
    },
    {
      "action": "insert",
      "tree": 128,
      "parent": 138,
      "at": 1
    },
    {
      "action": "insert",
      "tree": 137,
      "parent": 138,
      "at": 2
    },
    {
      "action": "insert",
      "tree": 171,
      "parent": 173,
      "at": 0
    },
    {
      "action": "insert",
      "tree": 172,
      "parent": 173,
      "at": 1
    },
    {
      "action": "insert",
      "tree": 175,
      "parent": 176,
      "at": 0
    },
    {
      "action": "insert",
      "tree": 221,
      "parent": 225,
      "at": 0
    },
    {
      "action": "insert",
      "tree": 222,
      "parent": 225,
      "at": 1
    },
    {
      "action": "insert",
      "tree": 224,
      "parent": 225,
      "at": 2
    },
    {
      "action": "insert",
      "tree": 232,
      "parent": 236,
      "at": 0
    },
    {
      "action": "insert",
      "tree": 233,
      "parent": 236,
      "at": 1
    },
    {
      "action": "insert",
      "tree": 235,
      "parent": 236,
      "at": 2
    },
    {
      "action": "insert",
      "tree": 241,
      "parent": 256,
      "at": 0
    },
    {
      "action": "insert",
      "tree": 255,
      "parent": 256,
      "at": 1
    },
    {
      "action": "insert",
      "tree": 262,
      "parent": 264,
      "at": 0
    },
    {
      "action": "insert",
      "tree": 263,
      "parent": 264,
      "at": 1
    },
    {
      "action": "insert",
      "tree": 266,
      "parent": 267,
      "at": 0
    },
    {
      "action": "insert",
      "tree": 288,
      "parent": 289,
      "at": 0
    },
    {
      "action": "insert",
      "tree": 294,
      "parent": 299,
      "at": 0
    },
    {
      "action": "insert",
      "tree": 298,
      "parent": 299,
      "at": 1
    },
    {
      "action": "insert",
      "tree": 306,
      "parent": 308,
      "at": 0
    },
    {
      "action": "insert",
      "tree": 307,
      "parent": 308,
      "at": 1
    },
    {
      "action": "insert",
      "tree": 312,
      "parent": 313,
      "at": 0
    },
    {
      "action": "insert",
      "tree": 319,
      "parent": 320,
      "at": 0
    },
    {
      "action": "insert",
      "tree": 322,
      "parent": 323,
      "at": 0
    },
    {
      "action": "insert",
      "tree": 332,
      "parent": 333,
      "at": 0
    },
    {
      "action": "insert",
      "tree": 387,
      "parent": 388,
      "at": 0
    },
    {
      "action": "insert",
      "tree": 390,
      "parent": 391,
      "at": 0
    },
    {
      "action": "insert",
      "tree": 393,
      "parent": 394,
      "at": 0
    },
    {
      "action": "insert",
      "tree": 425,
      "parent": 426,
      "at": 0
    },
    {
      "action": "insert",
      "tree": 437,
      "parent": 438,
      "at": 0
    },
    {
      "action": "insert",
      "tree": 442,
      "parent": 443,
      "at": 0
    },
    {
      "action": "insert",
      "tree": 456,
      "parent": 457,
      "at": 0
    },
    {
      "action": "insert",
      "tree": 499,
      "parent": 500,
      "at": 0
    },
    {
      "action": "insert",
      "tree": 509,
      "parent": 510,
      "at": 0
    },
    {
      "action": "insert",
      "tree": 782,
      "parent": 783,
      "at": 0
    },
    {
      "action": "insert",
      "tree": 844,
      "parent": 845,
      "at": 0
    },
    {
      "action": "insert",
      "tree": 849,
      "parent": 850,
      "at": 0
    },
    {
      "action": "insert",
      "tree": 984,
      "parent": 990,
      "at": 0
    },
    {
      "action": "insert",
      "tree": 985,
      "parent": 990,
      "at": 1
    },
    {
      "action": "insert",
      "tree": 989,
      "parent": 990,
      "at": 2
    },
    {
      "action": "insert",
      "tree": 997,
      "parent": 1003,
      "at": 0
    },
    {
      "action": "insert",
      "tree": 998,
      "parent": 1003,
      "at": 1
    },
    {
      "action": "insert",
      "tree": 1002,
      "parent": 1003,
      "at": 2
    },
    {
      "action": "insert",
      "tree": 1010,
      "parent": 1018,
      "at": 0
    },
    {
      "action": "insert",
      "tree": 1011,
      "parent": 1018,
      "at": 1
    },
    {
      "action": "insert",
      "tree": 1017,
      "parent": 1018,
      "at": 2
    },
    {
      "action": "insert",
      "tree": 125,
      "parent": 127,
      "at": 0
    },
    {
      "action": "insert",
      "tree": 126,
      "parent": 127,
      "at": 1
    },
    {
      "action": "insert",
      "tree": 130,
      "parent": 137,
      "at": 0
    },
    {
      "action": "insert",
      "tree": 136,
      "parent": 137,
      "at": 1
    },
    {
      "action": "insert",
      "tree": 155,
      "parent": 171,
      "at": 0
    },
    {
      "action": "insert",
      "tree": 156,
      "parent": 171,
      "at": 1
    },
    {
      "action": "insert",
      "tree": 170,
      "parent": 171,
      "at": 2
    },
    {
      "action": "insert",
      "tree": 219,
      "parent": 221,
      "at": 0
    },
    {
      "action": "insert",
      "tree": 220,
      "parent": 221,
      "at": 1
    },
    {
      "action": "insert",
      "tree": 223,
      "parent": 224,
      "at": 0
    },
    {
      "action": "insert",
      "tree": 230,
      "parent": 232,
      "at": 0
    },
    {
      "action": "insert",
      "tree": 231,
      "parent": 232,
      "at": 1
    },
    {
      "action": "insert",
      "tree": 234,
      "parent": 235,
      "at": 0
    },
    {
      "action": "insert",
      "tree": 240,
      "parent": 241,
      "at": 0
    },
    {
      "action": "insert",
      "tree": 246,
      "parent": 255,
      "at": 0
    },
    {
      "action": "insert",
      "tree": 249,
      "parent": 255,
      "at": 1
    },
    {
      "action": "insert",
      "tree": 254,
      "parent": 255,
      "at": 2
    },
    {
      "action": "insert",
      "tree": 261,
      "parent": 262,
      "at": 0
    },
    {
      "action": "insert",
      "tree": 286,
      "parent": 288,
      "at": 0
    },
    {
      "action": "insert",
      "tree": 287,
      "parent": 288,
      "at": 1
    },
    {
      "action": "insert",
      "tree": 293,
      "parent": 294,
      "at": 0
    },
    {
      "action": "insert",
      "tree": 297,
      "parent": 298,
      "at": 0
    },
    {
      "action": "insert",
      "tree": 305,
      "parent": 306,
      "at": 0
    },
    {
      "action": "insert",
      "tree": 311,
      "parent": 312,
      "at": 0
    },
    {
      "action": "insert",
      "tree": 317,
      "parent": 319,
      "at": 0
    },
    {
      "action": "insert",
      "tree": 318,
      "parent": 319,
      "at": 1
    },
    {
      "action": "insert",
      "tree": 321,
      "parent": 322,
      "at": 0
    },
    {
      "action": "insert",
      "tree": 331,
      "parent": 332,
      "at": 0
    },
    {
      "action": "insert",
      "tree": 385,
      "parent": 387,
      "at": 0
    },
    {
      "action": "insert",
      "tree": 386,
      "parent": 387,
      "at": 1
    },
    {
      "action": "insert",
      "tree": 389,
      "parent": 390,
      "at": 0
    },
    {
      "action": "insert",
      "tree": 392,
      "parent": 393,
      "at": 0
    },
    {
      "action": "insert",
      "tree": 423,
      "parent": 425,
      "at": 0
    },
    {
      "action": "insert",
      "tree": 424,
      "parent": 425,
      "at": 1
    },
    {
      "action": "insert",
      "tree": 435,
      "parent": 437,
      "at": 0
    },
    {
      "action": "insert",
      "tree": 436,
      "parent": 437,
      "at": 1
    },
    {
      "action": "insert",
      "tree": 440,
      "parent": 442,
      "at": 0
    },
    {
      "action": "insert",
      "tree": 441,
      "parent": 442,
      "at": 1
    },
    {
      "action": "insert",
      "tree": 454,
      "parent": 456,
      "at": 0
    },
    {
      "action": "insert",
      "tree": 455,
      "parent": 456,
      "at": 1
    },
    {
      "action": "insert",
      "tree": 780,
      "parent": 782,
      "at": 0
    },
    {
      "action": "insert",
      "tree": 781,
      "parent": 782,
      "at": 1
    },
    {
      "action": "insert",
      "tree": 842,
      "parent": 844,
      "at": 0
    },
    {
      "action": "insert",
      "tree": 843,
      "parent": 844,
      "at": 1
    },
    {
      "action": "insert",
      "tree": 847,
      "parent": 849,
      "at": 0
    },
    {
      "action": "insert",
      "tree": 848,
      "parent": 849,
      "at": 1
    },
    {
      "action": "insert",
      "tree": 982,
      "parent": 984,
      "at": 0
    },
    {
      "action": "insert",
      "tree": 983,
      "parent": 984,
      "at": 1
    },
    {
      "action": "insert",
      "tree": 987,
      "parent": 989,
      "at": 0
    },
    {
      "action": "insert",
      "tree": 988,
      "parent": 989,
      "at": 1
    },
    {
      "action": "insert",
      "tree": 995,
      "parent": 997,
      "at": 0
    },
    {
      "action": "insert",
      "tree": 996,
      "parent": 997,
      "at": 1
    },
    {
      "action": "insert",
      "tree": 1000,
      "parent": 1002,
      "at": 0
    },
    {
      "action": "insert",
      "tree": 1001,
      "parent": 1002,
      "at": 1
    },
    {
      "action": "insert",
      "tree": 1008,
      "parent": 1010,
      "at": 0
    },
    {
      "action": "insert",
      "tree": 1009,
      "parent": 1010,
      "at": 1
    },
    {
      "action": "insert",
      "tree": 1015,
      "parent": 1017,
      "at": 0
    },
    {
      "action": "insert",
      "tree": 1016,
      "parent": 1017,
      "at": 1
    },
    {
      "action": "insert",
      "tree": 124,
      "parent": 125,
      "at": 0
    },
    {
      "action": "insert",
      "tree": 129,
      "parent": 130,
      "at": 0
    },
    {
      "action": "insert",
      "tree": 135,
      "parent": 136,
      "at": 0
    },
    {
      "action": "insert",
      "tree": 153,
      "parent": 155,
      "at": 0
    },
    {
      "action": "insert",
      "tree": 154,
      "parent": 155,
      "at": 1
    },
    {
      "action": "insert",
      "tree": 158,
      "parent": 170,
      "at": 0
    },
    {
      "action": "insert",
      "tree": 169,
      "parent": 170,
      "at": 1
    },
    {
      "action": "insert",
      "tree": 218,
      "parent": 219,
      "at": 0
    },
    {
      "action": "insert",
      "tree": 229,
      "parent": 230,
      "at": 0
    },
    {
      "action": "insert",
      "tree": 245,
      "parent": 246,
      "at": 0
    },
    {
      "action": "insert",
      "tree": 248,
      "parent": 249,
      "at": 0
    },
    {
      "action": "insert",
      "tree": 253,
      "parent": 254,
      "at": 0
    },
    {
      "action": "insert",
      "tree": 270,
      "parent": 286,
      "at": 0
    },
    {
      "action": "insert",
      "tree": 271,
      "parent": 286,
      "at": 1
    },
    {
      "action": "insert",
      "tree": 285,
      "parent": 286,
      "at": 2
    },
    {
      "action": "insert",
      "tree": 296,
      "parent": 297,
      "at": 0
    },
    {
      "action": "insert",
      "tree": 315,
      "parent": 317,
      "at": 0
    },
    {
      "action": "insert",
      "tree": 316,
      "parent": 317,
      "at": 1
    },
    {
      "action": "insert",
      "tree": 383,
      "parent": 385,
      "at": 0
    },
    {
      "action": "insert",
      "tree": 384,
      "parent": 385,
      "at": 1
    },
    {
      "action": "insert",
      "tree": 421,
      "parent": 423,
      "at": 0
    },
    {
      "action": "insert",
      "tree": 422,
      "parent": 423,
      "at": 1
    },
    {
      "action": "insert",
      "tree": 434,
      "parent": 435,
      "at": 0
    },
    {
      "action": "insert",
      "tree": 439,
      "parent": 440,
      "at": 0
    },
    {
      "action": "insert",
      "tree": 452,
      "parent": 454,
      "at": 0
    },
    {
      "action": "insert",
      "tree": 453,
      "parent": 454,
      "at": 1
    },
    {
      "action": "update",
      "tree": 399,
      "label": "lr_call_data"
    },
    {
      "action": "move",
      "tree": 399,
      "parent": 780,
      "at": 0
    },
    {
      "action": "insert",
      "tree": 841,
      "parent": 842,
      "at": 0
    },
    {
      "action": "insert",
      "tree": 846,
      "parent": 847,
      "at": 0
    },
    {
      "action": "insert",
      "tree": 981,
      "parent": 982,
      "at": 0
    },
    {
      "action": "insert",
      "tree": 986,
      "parent": 987,
      "at": 0
    },
    {
      "action": "insert",
      "tree": 994,
      "parent": 995,
      "at": 0
    },
    {
      "action": "insert",
      "tree": 999,
      "parent": 1000,
      "at": 0
    },
    {
      "action": "insert",
      "tree": 1007,
      "parent": 1008,
      "at": 0
    },
    {
      "action": "insert",
      "tree": 1013,
      "parent": 1015,
      "at": 0
    },
    {
      "action": "insert",
      "tree": 1014,
      "parent": 1015,
      "at": 1
    },
    {
      "action": "insert",
      "tree": 134,
      "parent": 135,
      "at": 0
    },
    {
      "action": "insert",
      "tree": 152,
      "parent": 153,
      "at": 0
    },
    {
      "action": "insert",
      "tree": 157,
      "parent": 158,
      "at": 0
    },
    {
      "action": "insert",
      "tree": 168,
      "parent": 169,
      "at": 0
    },
    {
      "action": "insert",
      "tree": 243,
      "parent": 245,
      "at": 0
    },
    {
      "action": "insert",
      "tree": 244,
      "parent": 245,
      "at": 1
    },
    {
      "action": "insert",
      "tree": 247,
      "parent": 248,
      "at": 0
    },
    {
      "action": "insert",
      "tree": 251,
      "parent": 253,
      "at": 0
    },
    {
      "action": "insert",
      "tree": 252,
      "parent": 253,
      "at": 1
    },
    {
      "action": "insert",
      "tree": 269,
      "parent": 270,
      "at": 0
    },
    {
      "action": "insert",
      "tree": 273,
      "parent": 285,
      "at": 0
    },
    {
      "action": "insert",
      "tree": 284,
      "parent": 285,
      "at": 1
    },
    {
      "action": "insert",
      "tree": 295,
      "parent": 296,
      "at": 0
    },
    {
      "action": "insert",
      "tree": 314,
      "parent": 315,
      "at": 0
    },
    {
      "action": "insert",
      "tree": 382,
      "parent": 383,
      "at": 0
    },
    {
      "action": "insert",
      "tree": 420,
      "parent": 421,
      "at": 0
    },
    {
      "action": "insert",
      "tree": 451,
      "parent": 452,
      "at": 0
    },
    {
      "action": "insert",
      "tree": 1012,
      "parent": 1013,
      "at": 0
    },
    {
      "action": "insert",
      "tree": 132,
      "parent": 134,
      "at": 0
    },
    {
      "action": "insert",
      "tree": 133,
      "parent": 134,
      "at": 1
    },
    {
      "action": "insert",
      "tree": 167,
      "parent": 168,
      "at": 0
    },
    {
      "action": "insert",
      "tree": 242,
      "parent": 243,
      "at": 0
    },
    {
      "action": "insert",
      "tree": 250,
      "parent": 251,
      "at": 0
    },
    {
      "action": "insert",
      "tree": 272,
      "parent": 273,
      "at": 0
    },
    {
      "action": "insert",
      "tree": 276,
      "parent": 284,
      "at": 0
    },
    {
      "action": "insert",
      "tree": 283,
      "parent": 284,
      "at": 1
    },
    {
      "action": "insert",
      "tree": 131,
      "parent": 132,
      "at": 0
    },
    {
      "action": "insert",
      "tree": 160,
      "parent": 167,
      "at": 0
    },
    {
      "action": "insert",
      "tree": 166,
      "parent": 167,
      "at": 1
    },
    {
      "action": "insert",
      "tree": 275,
      "parent": 276,
      "at": 0
    },
    {
      "action": "insert",
      "tree": 282,
      "parent": 283,
      "at": 0
    },
    {
      "action": "insert",
      "tree": 159,
      "parent": 160,
      "at": 0
    },
    {
      "action": "insert",
      "tree": 165,
      "parent": 166,
      "at": 0
    },
    {
      "action": "insert",
      "tree": 274,
      "parent": 275,
      "at": 0
    },
    {
      "action": "insert",
      "tree": 278,
      "parent": 282,
      "at": 0
    },
    {
      "action": "insert",
      "tree": 281,
      "parent": 282,
      "at": 1
    },
    {
      "action": "insert",
      "tree": 164,
      "parent": 165,
      "at": 0
    },
    {
      "action": "insert",
      "tree": 277,
      "parent": 278,
      "at": 0
    },
    {
      "action": "insert",
      "tree": 280,
      "parent": 281,
      "at": 0
    },
    {
      "action": "insert",
      "tree": 162,
      "parent": 164,
      "at": 0
    },
    {
      "action": "insert",
      "tree": 163,
      "parent": 164,
      "at": 1
    },
    {
      "action": "insert",
      "tree": 279,
      "parent": 280,
      "at": 0
    },
    {
      "action": "insert",
      "tree": 161,
      "parent": 162,
      "at": 0
    },
    {
      "action": "delete",
      "tree": 400
    }
  ]
}