{
  "matches": [
    {
      "src": 21,
      "dest": 27
    },
    {
      "src": 251,
      "dest": 257
    },
    {
      "src": 14,
      "dest": 20
    },
    {
      "src": 15,
      "dest": 21
    },
    {
      "src": 123,
      "dest": 129
    },
    {
      "src": 155,
      "dest": 161
    },
    {
      "src": 79,
      "dest": 85
    },
    {
      "src": 140,
      "dest": 146
    },
    {
      "src": 195,
      "dest": 201
    },
    {
      "src": 266,
      "dest": 450
    },
    {
      "src": 236,
      "dest": 242
    },
    {
      "src": 84,
      "dest": 90
    },
    {
      "src": 191,
      "dest": 197
    },
    {
      "src": 311,
      "dest": 623
    },
    {
      "src": 91,
      "dest": 97
    },
    {
      "src": 115,
      "dest": 121
    },
    {
      "src": 245,
      "dest": 251
    },
    {
      "src": 260,
      "dest": 266
    },
    {
      "src": 137,
      "dest": 143
    },
    {
      "src": 240,
      "dest": 246
    },
    {
      "src": 50,
      "dest": 56
    },
    {
      "src": 146,
      "dest": 152
    },
    {
      "src": 24,
      "dest": 30
    },
    {
      "src": 246,
      "dest": 252
    },
    {
      "src": 80,
      "dest": 86
    },
    {
      "src": 116,
      "dest": 122
    },
    {
      "src": 139,
      "dest": 145
    },
    {
      "src": 262,
      "dest": 268
    },
    {
      "src": 22,
      "dest": 28
    },
    {
      "src": 27,
      "dest": 33
    },
    {
      "src": 213,
      "dest": 219
    },
    {
      "src": 241,
      "dest": 247
    },
    {
      "src": 30,
      "dest": 36
    },
    {
      "src": 46,
      "dest": 52
    },
    {
      "src": 54,
      "dest": 60
    },
    {
      "src": 145,
      "dest": 151
    },
    {
      "src": 118,
      "dest": 124
    },
    {
      "src": 232,
      "dest": 238
    },
    {
      "src": 133,
      "dest": 139
    },
    {
      "src": 38,
      "dest": 44
    },
    {
      "src": 96,
      "dest": 102
    },
    {
      "src": 43,
      "dest": 49
    },
    {
      "src": 177,
      "dest": 183
    },
    {
      "src": 186,
      "dest": 192
    },
    {
      "src": 233,
      "dest": 239
    },
    {
      "src": 225,
      "dest": 231
    },
    {
      "src": 82,
      "dest": 88
    },
    {
      "src": 67,
      "dest": 73
    },
    {
      "src": 273,
      "dest": 291
    },
    {
      "src": 238,
      "dest": 244
    },
    {
      "src": 134,
      "dest": 140
    },
    {
      "src": 110,
      "dest": 116
    },
    {
      "src": 228,
      "dest": 234
    },
    {
      "src": 175,
      "dest": 181
    },
    {
      "src": 205,
      "dest": 211
    },
    {
      "src": 264,
      "dest": 270
    },
    {
      "src": 221,
      "dest": 227
    },
    {
      "src": 167,
      "dest": 173
    },
    {
      "src": 272,
      "dest": 456
    },
    {
      "src": 163,
      "dest": 169
    },
    {
      "src": 288,
      "dest": 306
    },
    {
      "src": 41,
      "dest": 47
    },
    {
      "src": 130,
      "dest": 136
    },
    {
      "src": 179,
      "dest": 185
    },
    {
      "src": 226,
      "dest": 232
    },
    {
      "src": 23,
      "dest": 29
    },
    {
      "src": 261,
      "dest": 267
    },
    {
      "src": 11,
      "dest": 17
    },
    {
      "src": 269,
      "dest": 453
    },
    {
      "src": 83,
      "dest": 89
    },
    {
      "src": 183,
      "dest": 189
    },
    {
      "src": 48,
      "dest": 54
    },
    {
      "src": 173,
      "dest": 179
    },
    {
      "src": 187,
      "dest": 193
    },
    {
      "src": 12,
      "dest": 18
    },
    {
      "src": 211,
      "dest": 217
    },
    {
      "src": 55,
      "dest": 61
    },
    {
      "src": 89,
      "dest": 95
    },
    {
      "src": 40,
      "dest": 46
    },
    {
      "src": 85,
      "dest": 91
    },
    {
      "src": 9,
      "dest": 15
    },
    {
      "src": 218,
      "dest": 224
    },
    {
      "src": 281,
      "dest": 299
    },
    {
      "src": 153,
      "dest": 159
    },
    {
      "src": 73,
      "dest": 79
    },
    {
      "src": 256,
      "dest": 262
    },
    {
      "src": 35,
      "dest": 41
    },
    {
      "src": 0,
      "dest": 0
    },
    {
      "src": 31,
      "dest": 37
    },
    {
      "src": 113,
      "dest": 119
    },
    {
      "src": 289,
      "dest": 307
    },
    {
      "src": 229,
      "dest": 235
    },
    {
      "src": 170,
      "dest": 176
    },
    {
      "src": 234,
      "dest": 240
    },
    {
      "src": 78,
      "dest": 84
    },
    {
      "src": 208,
      "dest": 214
    },
    {
      "src": 168,
      "dest": 174
    },
    {
      "src": 58,
      "dest": 64
    },
    {
      "src": 220,
      "dest": 226
    },
    {
      "src": 72,
      "dest": 78
    },
    {
      "src": 39,
      "dest": 45
    },
    {
      "src": 119,
      "dest": 125
    },
    {
      "src": 206,
      "dest": 212
    },
    {
      "src": 87,
      "dest": 93
    },
    {
      "src": 284,
      "dest": 302
    },
    {
      "src": 3,
      "dest": 9
    },
    {
      "src": 86,
      "dest": 92
    },
    {
      "src": 286,
      "dest": 304
    },
    {
      "src": 111,
      "dest": 117
    },
    {
      "src": 147,
      "dest": 153
    },
    {
      "src": 20,
      "dest": 26
    },
    {
      "src": 126,
      "dest": 132
    },
    {
      "src": 312,
      "dest": 624
    },
    {
      "src": 154,
      "dest": 160
    },
    {
      "src": 124,
      "dest": 130
    },
    {
      "src": 69,
      "dest": 75
    },
    {
      "src": 42,
      "dest": 48
    },
    {
      "src": 143,
      "dest": 149
    },
    {
      "src": 300,
      "dest": 568
    },
    {
      "src": 61,
      "dest": 67
    },
    {
      "src": 279,
      "dest": 297
    },
    {
      "src": 4,
      "dest": 10
    },
    {
      "src": 162,
      "dest": 168
    },
    {
      "src": 37,
      "dest": 43
    },
    {
      "src": 100,
      "dest": 106
    },
    {
      "src": 190,
      "dest": 196
    },
    {
      "src": 71,
      "dest": 77
    },
    {
      "src": 157,
      "dest": 163
    },
    {
      "src": 224,
      "dest": 230
    },
    {
      "src": 62,
      "dest": 68
    },
    {
      "src": 184,
      "dest": 190
    },
    {
      "src": 297,
      "dest": 514
    },
    {
      "src": 101,
      "dest": 107
    },
    {
      "src": 13,
      "dest": 19
    },
    {
      "src": 29,
      "dest": 35
    },
    {
      "src": 60,
      "dest": 66
    },
    {
      "src": 258,
      "dest": 264
    },
    {
      "src": 310,
      "dest": 622
    },
    {
      "src": 277,
      "dest": 295
    },
    {
      "src": 144,
      "dest": 150
    },
    {
      "src": 230,
      "dest": 236
    },
    {
      "src": 219,
      "dest": 225
    },
    {
      "src": 270,
      "dest": 454
    },
    {
      "src": 120,
      "dest": 126
    },
    {
      "src": 308,
      "dest": 609
    },
    {
      "src": 250,
      "dest": 256
    },
    {
      "src": 189,
      "dest": 195
    },
    {
      "src": 161,
      "dest": 167
    },
    {
      "src": 93,
      "dest": 99
    },
    {
      "src": 275,
      "dest": 293
    },
    {
      "src": 47,
      "dest": 53
    },
    {
      "src": 8,
      "dest": 14
    },
    {
      "src": 313,
      "dest": 625
    },
    {
      "src": 148,
      "dest": 154
    },
    {
      "src": 17,
      "dest": 23
    },
    {
      "src": 212,
      "dest": 218
    },
    {
      "src": 117,
      "dest": 123
    },
    {
      "src": 99,
      "dest": 105
    },
    {
      "src": 287,
      "dest": 305
    },
    {
      "src": 74,
      "dest": 80
    },
    {
      "src": 156,
      "dest": 162
    },
    {
      "src": 198,
      "dest": 204
    },
    {
      "src": 305,
      "dest": 576
    },
    {
      "src": 215,
      "dest": 221
    },
    {
      "src": 70,
      "dest": 76
    },
    {
      "src": 57,
      "dest": 63
    },
    {
      "src": 53,
      "dest": 59
    },
    {
      "src": 63,
      "dest": 69
    },
    {
      "src": 242,
      "dest": 248
    },
    {
      "src": 28,
      "dest": 34
    },
    {
      "src": 200,
      "dest": 206
    },
    {
      "src": 204,
      "dest": 210
    },
    {
      "src": 291,
      "dest": 309
    },
    {
      "src": 151,
      "dest": 157
    },
    {
      "src": 129,
      "dest": 135
    },
    {
      "src": 159,
      "dest": 165
    },
    {
      "src": 160,
      "dest": 166
    },
    {
      "src": 188,
      "dest": 194
    },
    {
      "src": 138,
      "dest": 144
    },
    {
      "src": 178,
      "dest": 184
    },
    {
      "src": 36,
      "dest": 42
    },
    {
      "src": 231,
      "dest": 237
    },
    {
      "src": 104,
      "dest": 110
    },
    {
      "src": 292,
      "dest": 310
    },
    {
      "src": 182,
      "dest": 188
    },
    {
      "src": 314,
      "dest": 626
    },
    {
      "src": 45,
      "dest": 51
    },
    {
      "src": 165,
      "dest": 171
    },
    {
      "src": 306,
      "dest": 577
    },
    {
      "src": 77,
      "dest": 83
    },
    {
      "src": 303,
      "dest": 574
    },
    {
      "src": 152,
      "dest": 158
    },
    {
      "src": 309,
      "dest": 610
    },
    {
      "src": 16,
      "dest": 22
    },
    {
      "src": 217,
      "dest": 223
    },
    {
      "src": 285,
      "dest": 303
    },
    {
      "src": 169,
      "dest": 175
    },
    {
      "src": 259,
      "dest": 265
    },
    {
      "src": 222,
      "dest": 228
    },
    {
      "src": 202,
      "dest": 208
    },
    {
      "src": 131,
      "dest": 137
    },
    {
      "src": 196,
      "dest": 202
    },
    {
      "src": 98,
      "dest": 104
    },
    {
      "src": 106,
      "dest": 112
    },
    {
      "src": 18,
      "dest": 24
    },
    {
      "src": 141,
      "dest": 147
    },
    {
      "src": 5,
      "dest": 11
    },
    {
      "src": 158,
      "dest": 164
    },
    {
      "src": 216,
      "dest": 222
    },
    {
      "src": 243,
      "dest": 249
    },
    {
      "src": 267,
      "dest": 451
    },
    {
      "src": 112,
      "dest": 118
    },
    {
      "src": 174,
      "dest": 180
    },
    {
      "src": 255,
      "dest": 261
    },
    {
      "src": 122,
      "dest": 128
    },
    {
      "src": 166,
      "dest": 172
    },
    {
      "src": 51,
      "dest": 57
    },
    {
      "src": 199,
      "dest": 205
    },
    {
      "src": 268,
      "dest": 452
    },
    {
      "src": 19,
      "dest": 25
    },
    {
      "src": 10,
      "dest": 16
    },
    {
      "src": 176,
      "dest": 182
    },
    {
      "src": 94,
      "dest": 100
    },
    {
      "src": 26,
      "dest": 32
    },
    {
      "src": 249,
      "dest": 255
    },
    {
      "src": 108,
      "dest": 114
    },
    {
      "src": 290,
      "dest": 308
    },
    {
      "src": 149,
      "dest": 155
    },
    {
      "src": 209,
      "dest": 215
    },
    {
      "src": 278,
      "dest": 296
    },
    {
      "src": 135,
      "dest": 141
    },
    {
      "src": 244,
      "dest": 250
    },
    {
      "src": 132,
      "dest": 138
    },
    {
      "src": 302,
      "dest": 570
    },
    {
      "src": 105,
      "dest": 111
    },
    {
      "src": 253,
      "dest": 259
    },
    {
      "src": 185,
      "dest": 191
    },
    {
      "src": 193,
      "dest": 199
    },
    {
      "src": 34,
      "dest": 40
    },
    {
      "src": 293,
      "dest": 311
    },
    {
      "src": 109,
      "dest": 115
    },
    {
      "src": 252,
      "dest": 258
    },
    {
      "src": 201,
      "dest": 207
    },
    {
      "src": 136,
      "dest": 142
    },
    {
      "src": 75,
      "dest": 81
    },
    {
      "src": 142,
      "dest": 148
    },
    {
      "src": 223,
      "dest": 229
    },
    {
      "src": 247,
      "dest": 253
    },
    {
      "src": 64,
      "dest": 70
    },
    {
      "src": 296,
      "dest": 513
    },
    {
      "src": 274,
      "dest": 292
    },
    {
      "src": 235,
      "dest": 241
    },
    {
      "src": 103,
      "dest": 109
    },
    {
      "src": 52,
      "dest": 58
    },
    {
      "src": 214,
      "dest": 220
    },
    {
      "src": 88,
      "dest": 94
    },
    {
      "src": 194,
      "dest": 200
    },
    {
      "src": 150,
      "dest": 156
    },
    {
      "src": 121,
      "dest": 127
    },
    {
      "src": 56,
      "dest": 62
    },
    {
      "src": 207,
      "dest": 213
    },
    {
      "src": 128,
      "dest": 134
    },
    {
      "src": 227,
      "dest": 233
    },
    {
      "src": 25,
      "dest": 31
    },
    {
      "src": 92,
      "dest": 98
    },
    {
      "src": 90,
      "dest": 96
    },
    {
      "src": 125,
      "dest": 131
    },
    {
      "src": 33,
      "dest": 39
    },
    {
      "src": 2,
      "dest": 2
    },
    {
      "src": 102,
      "dest": 108
    },
    {
      "src": 254,
      "dest": 260
    },
    {
      "src": 59,
      "dest": 65
    },
    {
      "src": 76,
      "dest": 82
    },
    {
      "src": 298,
      "dest": 559
    },
    {
      "src": 66,
      "dest": 72
    },
    {
      "src": 65,
      "dest": 71
    },
    {
      "src": 107,
      "dest": 113
    },
    {
      "src": 283,
      "dest": 301
    },
    {
      "src": 280,
      "dest": 298
    },
    {
      "src": 6,
      "dest": 12
    },
    {
      "src": 68,
      "dest": 74
    },
    {
      "src": 97,
      "dest": 103
    },
    {
      "src": 276,
      "dest": 294
    },
    {
      "src": 263,
      "dest": 269
    },
    {
      "src": 239,
      "dest": 245
    },
    {
      "src": 192,
      "dest": 198
    },
    {
      "src": 127,
      "dest": 133
    },
    {
      "src": 164,
      "dest": 170
    },
    {
      "src": 1,
      "dest": 1
    },
    {
      "src": 81,
      "dest": 87
    },
    {
      "src": 44,
      "dest": 50
    },
    {
      "src": 248,
      "dest": 254
    },
    {
      "src": 172,
      "dest": 178
    },
    {
      "src": 304,
      "dest": 575
    },
    {
      "src": 295,
      "dest": 512
    },
    {
      "src": 181,
      "dest": 187
    },
    {
      "src": 301,
      "dest": 569
    },
    {
      "src": 114,
      "dest": 120
    },
    {
      "src": 271,
      "dest": 455
    },
    {
      "src": 237,
      "dest": 243
    },
    {
      "src": 282,
      "dest": 300
    },
    {
      "src": 49,
      "dest": 55
    },
    {
      "src": 180,
      "dest": 186
    },
    {
      "src": 203,
      "dest": 209
    },
    {
      "src": 32,
      "dest": 38
    },
    {
      "src": 95,
      "dest": 101
    },
    {
      "src": 265,
      "dest": 449
    },
    {
      "src": 257,
      "dest": 263
    },
    {
      "src": 307,
      "dest": 578
    },
    {
      "src": 294,
      "dest": 312
    },
    {
      "src": 171,
      "dest": 177
    },
    {
      "src": 197,
      "dest": 203
    },
    {
      "src": 210,
      "dest": 216
    },
    {
      "src": 299,
      "dest": 560
    },
    {
      "src": 7,
      "dest": 13
    }
  ],
  "actions": [
    {
      "action": "insert",
      "tree": 5,
      "parent": 626,
      "at": 1
    },
    {
      "action": "insert",
      "tree": 8,
      "parent": 626,
      "at": 2
    },
    {
      "action": "insert",
      "tree": 373,
      "parent": 626,
      "at": 12
    },
    {
      "action": "insert",
      "tree": 378,
      "parent": 626,
      "at": 13
    },
    {
      "action": "insert",
      "tree": 448,
      "parent": 626,
      "at": 14
    },
    {
      "action": "insert",
      "tree": 4,
      "parent": 5,
      "at": 0
    },
    {
      "action": "insert",
      "tree": 7,
      "parent": 8,
      "at": 0
    },
    {
      "action": "insert",
      "tree": 372,
      "parent": 373,
      "at": 0
    },
    {
      "action": "insert",
      "tree": 377,
      "parent": 378,
      "at": 0
    },
    {
      "action": "insert",
      "tree": 447,
      "parent": 448,
      "at": 0
    },
    {
      "action": "insert",
      "tree": 3,
      "parent": 4,
      "at": 0
    },
    {
      "action": "insert",
      "tree": 6,
      "parent": 7,
      "at": 0
    },
    {
      "action": "insert",
      "tree": 275,
      "parent": 372,
      "at": 0
    },
    {
      "action": "insert",
      "tree": 276,
      "parent": 372,
      "at": 1
    },
    {
      "action": "insert",
      "tree": 371,
      "parent": 372,
      "at": 2
    },
    {
      "action": "insert",
      "tree": 375,
      "parent": 377,
      "at": 0
    },
    {
      "action": "insert",
      "tree": 376,
      "parent": 377,
      "at": 1
    },
    {
      "action": "insert",
      "tree": 380,
      "parent": 447,
      "at": 0
    },
    {
      "action": "insert",
      "tree": 385,
      "parent": 447,
      "at": 1
    },
    {
      "action": "insert",
      "tree": 386,
      "parent": 447,
      "at": 2
    },
    {
      "action": "insert",
      "tree": 446,
      "parent": 447,
      "at": 3
    },
    {
      "action": "update",
      "tree": 272,
      "label": "grpc_transport_stream_op_add_close"
    },
    {
      "action": "insert",
      "tree": 272,
      "parent": 275,
      "at": 0
    },
    {
      "action": "insert",
      "tree": 274,
      "parent": 275,
      "at": 1
    },
    {
      "action": "insert",
      "tree": 290,
      "parent": 371,
      "at": 0
    },
    {
      "action": "move",
      "tree": 294,
      "parent": 371,
      "at": 1
    },
    {
      "action": "insert",
      "tree": 370,
      "parent": 371,
      "at": 2
    },
    {
      "action": "insert",
      "tree": 374,
      "parent": 375,
      "at": 0
    },
    {
      "action": "insert",
      "tree": 379,
      "parent": 380,
      "at": 0
    },
    {
      "action": "insert",
      "tree": 382,
      "parent": 385,
      "at": 0
    },
    {
      "action": "insert",
      "tree": 384,
      "parent": 385,
      "at": 1
    },
    {
      "action": "insert",
      "tree": 391,
      "parent": 446,
      "at": 0
    },
    {
      "action": "insert",
      "tree": 403,
      "parent": 446,
      "at": 1
    },
    {
      "action": "insert",
      "tree": 435,
      "parent": 446,
      "at": 2
    },
    {
      "action": "insert",
      "tree": 445,
      "parent": 446,
      "at": 3
    },
    {
      "action": "insert",
      "tree": 458,
      "parent": 622,
      "at": 0
    },
    {
      "action": "insert",
      "tree": 472,
      "parent": 622,
      "at": 1
    },
    {
      "action": "insert",
      "tree": 511,
      "parent": 622,
      "at": 2
    },
    {
      "action": "insert",
      "tree": 621,
      "parent": 622,
      "at": 4
    },
    {
      "action": "insert",
      "tree": 271,
      "parent": 272,
      "at": 0
    },
    {
      "action": "insert",
      "tree": 273,
      "parent": 274,
      "at": 0
    },
    {
      "action": "insert",
      "tree": 289,
      "parent": 290,
      "at": 0
    },
    {
      "action": "insert",
      "tree": 313,
      "parent": 370,
      "at": 0
    },
    {
      "action": "insert",
      "tree": 321,
      "parent": 370,
      "at": 1
    },
    {
      "action": "insert",
      "tree": 369,
      "parent": 370,
      "at": 2
    },
    {
      "action": "insert",
      "tree": 381,
      "parent": 382,
      "at": 0
    },
    {
      "action": "insert",
      "tree": 383,
      "parent": 384,
      "at": 0
    },
    {
      "action": "insert",
      "tree": 387,
      "parent": 391,
      "at": 0
    },
    {
      "action": "insert",
      "tree": 390,
      "parent": 391,
      "at": 1
    },
    {
      "action": "insert",
      "tree": 402,
      "parent": 403,
      "at": 0
    },
    {
      "action": "insert",
      "tree": 404,
      "parent": 435,
      "at": 0
    },
    {
      "action": "insert",
      "tree": 412,
      "parent": 435,
      "at": 1
    },
    {
      "action": "insert",
      "tree": 434,
      "parent": 435,
      "at": 2
    },
    {
      "action": "insert",
      "tree": 444,
      "parent": 445,
      "at": 0
    },
    {
      "action": "update",
      "tree": 269,
      "label": "optional_message"
    },
    {
      "action": "insert",
      "tree": 457,
      "parent": 458,
      "at": 0
    },
    {
      "action": "insert",
      "tree": 471,
      "parent": 472,
      "at": 0
    },
    {
      "action": "insert",
      "tree": 473,
      "parent": 511,
      "at": 0
    },
    {
      "action": "insert",
      "tree": 491,
      "parent": 511,
      "at": 1
    },
    {
      "action": "insert",
      "tree": 510,
      "parent": 511,
      "at": 2
    },
    {
      "action": "insert",
      "tree": 620,
      "parent": 621,
      "at": 0
    },
    {
      "action": "insert",
      "tree": 287,
      "parent": 289,
      "at": 0
    },
    {
      "action": "insert",
      "tree": 288,
      "parent": 289,
      "at": 1
    },
    {
      "action": "insert",
      "tree": 317,
      "parent": 321,
      "at": 0
    },
    {
      "action": "insert",
      "tree": 318,
      "parent": 321,
      "at": 1
    },
    {
      "action": "insert",
      "tree": 320,
      "parent": 321,
      "at": 2
    },
    {
      "action": "insert",
      "tree": 332,
      "parent": 369,
      "at": 0
    },
    {
      "action": "insert",
      "tree": 368,
      "parent": 369,
      "at": 1
    },
    {
      "action": "insert",
      "tree": 389,
      "parent": 390,
      "at": 0
    },
    {
      "action": "insert",
      "tree": 400,
      "parent": 402,
      "at": 0
    },
    {
      "action": "insert",
      "tree": 401,
      "parent": 402,
      "at": 1
    },
    {
      "action": "insert",
      "tree": 408,
      "parent": 412,
      "at": 0
    },
    {
      "action": "insert",
      "tree": 409,
      "parent": 412,
      "at": 1
    },
    {
      "action": "insert",
      "tree": 411,
      "parent": 412,
      "at": 2
    },
    {
      "action": "insert",
      "tree": 433,
      "parent": 434,
      "at": 0
    },
    {
      "action": "insert",
      "tree": 442,
      "parent": 444,
      "at": 0
    },
    {
      "action": "insert",
      "tree": 443,
      "parent": 444,
      "at": 1
    },
    {
      "action": "insert",
      "tree": 469,
      "parent": 471,
      "at": 0
    },
    {
      "action": "insert",
      "tree": 470,
      "parent": 471,
      "at": 1
    },
    {
      "action": "insert",
      "tree": 481,
      "parent": 491,
      "at": 0
    },
    {
      "action": "insert",
      "tree": 482,
      "parent": 491,
      "at": 1
    },
    {
      "action": "insert",
      "tree": 490,
      "parent": 491,
      "at": 2
    },
    {
      "action": "insert",
      "tree": 508,
      "parent": 510,
      "at": 0
    },
    {
      "action": "insert",
      "tree": 509,
      "parent": 510,
      "at": 1
    },
    {
      "action": "update",
      "tree": 296,
      "label": "optional_message"
    },
    {
      "action": "insert",
      "tree": 532,
      "parent": 609,
      "at": 0
    },
    {
      "action": "insert",
      "tree": 545,
      "parent": 609,
      "at": 1
    },
    {
      "action": "insert",
      "tree": 558,
      "parent": 609,
      "at": 2
    },
    {
      "action": "insert",
      "tree": 593,
      "parent": 609,
      "at": 4
    },
    {
      "action": "insert",
      "tree": 608,
      "parent": 609,
      "at": 5
    },
    {
      "action": "insert",
      "tree": 618,
      "parent": 620,
      "at": 0
    },
    {
      "action": "insert",
      "tree": 619,
      "parent": 620,
      "at": 1
    },
    {
      "action": "insert",
      "tree": 278,
      "parent": 287,
      "at": 0
    },
    {
      "action": "insert",
      "tree": 286,
      "parent": 287,
      "at": 1
    },
    {
      "action": "insert",
      "tree": 315,
      "parent": 317,
      "at": 0
    },
    {
      "action": "insert",
      "tree": 316,
      "parent": 317,
      "at": 1
    },
    {
      "action": "insert",
      "tree": 319,
      "parent": 320,
      "at": 0
    },
    {
      "action": "insert",
      "tree": 331,
      "parent": 332,
      "at": 0
    },
    {
      "action": "insert",
      "tree": 333,
      "parent": 368,
      "at": 0
    },
    {
      "action": "insert",
      "tree": 341,
      "parent": 368,
      "at": 1
    },
    {
      "action": "insert",
      "tree": 367,
      "parent": 368,
      "at": 2
    },
    {
      "action": "insert",
      "tree": 388,
      "parent": 389,
      "at": 0
    },
    {
      "action": "insert",
      "tree": 393,
      "parent": 400,
      "at": 0
    },
    {
      "action": "insert",
      "tree": 399,
      "parent": 400,
      "at": 1
    },
    {
      "action": "insert",
      "tree": 406,
      "parent": 408,
      "at": 0
    },
    {
      "action": "insert",
      "tree": 407,
      "parent": 408,
      "at": 1
    },
    {
      "action": "insert",
      "tree": 410,
      "parent": 411,
      "at": 0
    },
    {
      "action": "insert",
      "tree": 432,
      "parent": 433,
      "at": 0
    },
    {
      "action": "insert",
      "tree": 437,
      "parent": 442,
      "at": 0
    },
    {
      "action": "insert",
      "tree": 441,
      "parent": 442,
      "at": 1
    },
    {
      "action": "insert",
      "tree": 460,
      "parent": 469,
      "at": 0
    },
    {
      "action": "insert",
      "tree": 468,
      "parent": 469,
      "at": 1
    },
    {
      "action": "insert",
      "tree": 477,
      "parent": 481,
      "at": 0
    },
    {
      "action": "insert",
      "tree": 478,
      "parent": 481,
      "at": 1
    },
    {
      "action": "insert",
      "tree": 480,
      "parent": 481,
      "at": 2
    },
    {
      "action": "insert",
      "tree": 486,
      "parent": 490,
      "at": 0
    },
    {
      "action": "insert",
      "tree": 487,
      "parent": 490,
      "at": 1
    },
    {
      "action": "insert",
      "tree": 489,
      "parent": 490,
      "at": 2
    },
    {
      "action": "insert",
      "tree": 492,
      "parent": 508,
      "at": 0
    },
    {
      "action": "insert",
      "tree": 494,
      "parent": 508,
      "at": 1
    },
    {
      "action": "insert",
      "tree": 507,
      "parent": 508,
      "at": 2
    },
    {
      "action": "insert",
      "tree": 531,
      "parent": 532,
      "at": 0
    },
    {
      "action": "insert",
      "tree": 544,
      "parent": 545,
      "at": 0
    },
    {
      "action": "insert",
      "tree": 557,
      "parent": 558,
      "at": 0
    },
    {
      "action": "insert",
      "tree": 592,
      "parent": 593,
      "at": 0
    },
    {
      "action": "insert",
      "tree": 607,
      "parent": 608,
      "at": 0
    },
    {
      "action": "insert",
      "tree": 614,
      "parent": 618,
      "at": 0
    },
    {
      "action": "insert",
      "tree": 615,
      "parent": 618,
      "at": 1
    },
    {
      "action": "insert",
      "tree": 617,
      "parent": 618,
      "at": 2
    },
    {
      "action": "insert",
      "tree": 277,
      "parent": 278,
      "at": 0
    },
    {
      "action": "insert",
      "tree": 285,
      "parent": 286,
      "at": 0
    },
    {
      "action": "insert",
      "tree": 314,
      "parent": 315,
      "at": 0
    },
    {
      "action": "insert",
      "tree": 329,
      "parent": 331,
      "at": 0
    },
    {
      "action": "insert",
      "tree": 330,
      "parent": 331,
      "at": 1
    },
    {
      "action": "insert",
      "tree": 337,
      "parent": 341,
      "at": 0
    },
    {
      "action": "insert",
      "tree": 338,
      "parent": 341,
      "at": 1
    },
    {
      "action": "insert",
      "tree": 340,
      "parent": 341,
      "at": 2
    },
    {
      "action": "insert",
      "tree": 355,
      "parent": 367,
      "at": 0
    },
    {
      "action": "insert",
      "tree": 366,
      "parent": 367,
      "at": 1
    },
    {
      "action": "insert",
      "tree": 392,
      "parent": 393,
      "at": 0
    },
    {
      "action": "insert",
      "tree": 398,
      "parent": 399,
      "at": 0
    },
    {
      "action": "insert",
      "tree": 405,
      "parent": 406,
      "at": 0
    },
    {
      "action": "insert",
      "tree": 430,
      "parent": 432,
      "at": 0
    },
    {
      "action": "insert",
      "tree": 431,
      "parent": 432,
      "at": 1
    },
    {
      "action": "insert",
      "tree": 436,
      "parent": 437,
      "at": 0
    },
    {
      "action": "insert",
      "tree": 440,
      "parent": 441,
      "at": 0
    },
    {
      "action": "insert",
      "tree": 459,
      "parent": 460,
      "at": 0
    },
    {
      "action": "insert",
      "tree": 467,
      "parent": 468,
      "at": 0
    },
    {
      "action": "insert",
      "tree": 475,
      "parent": 477,
      "at": 0
    },
    {
      "action": "insert",
      "tree": 476,
      "parent": 477,
      "at": 1
    },
    {
      "action": "insert",
      "tree": 479,
      "parent": 480,
      "at": 0
    },
    {
      "action": "insert",
      "tree": 484,
      "parent": 486,
      "at": 0
    },
    {
      "action": "insert",
      "tree": 485,
      "parent": 486,
      "at": 1
    },
    {
      "action": "insert",
      "tree": 488,
      "parent": 489,
      "at": 0
    },
    {
      "action": "insert",
      "tree": 493,
      "parent": 494,
      "at": 0
    },
    {
      "action": "insert",
      "tree": 506,
      "parent": 507,
      "at": 0
    },
    {
      "action": "insert",
      "tree": 529,
      "parent": 531,
      "at": 0
    },
    {
      "action": "insert",
      "tree": 530,
      "parent": 531,
      "at": 1
    },
    {
      "action": "insert",
      "tree": 542,
      "parent": 544,
      "at": 0
    },
    {
      "action": "insert",
      "tree": 543,
      "parent": 544,
      "at": 1
    },
    {
      "action": "insert",
      "tree": 555,
      "parent": 557,
      "at": 0
    },
    {
      "action": "insert",
      "tree": 556,
      "parent": 557,
      "at": 1
    },
    {
      "action": "insert",
      "tree": 590,
      "parent": 592,
      "at": 0
    },
    {
      "action": "insert",
      "tree": 591,
      "parent": 592,
      "at": 1
    },
    {
      "action": "insert",
      "tree": 605,
      "parent": 607,
      "at": 0
    },
    {
      "action": "insert",
      "tree": 606,
      "parent": 607,
      "at": 1
    },
    {
      "action": "insert",
      "tree": 612,
      "parent": 614,
      "at": 0
    },
    {
      "action": "insert",
      "tree": 613,
      "parent": 614,
      "at": 1
    },
    {
      "action": "insert",
      "tree": 616,
      "parent": 617,
      "at": 0
    },
    {
      "action": "insert",
      "tree": 284,
      "parent": 285,
      "at": 0
    },
    {
      "action": "insert",
      "tree": 325,
      "parent": 329,
      "at": 0
    },
    {
      "action": "insert",
      "tree": 326,
      "parent": 329,
      "at": 1
    },
    {
      "action": "insert",
      "tree": 328,
      "parent": 329,
      "at": 2
    },
    {
      "action": "insert",
      "tree": 335,
      "parent": 337,
      "at": 0
    },
    {
      "action": "insert",
      "tree": 336,
      "parent": 337,
      "at": 1
    },
    {
      "action": "insert",
      "tree": 339,
      "parent": 340,
      "at": 0
    },
    {
      "action": "insert",
      "tree": 354,
      "parent": 355,
      "at": 0
    },
    {
      "action": "insert",
      "tree": 365,
      "parent": 366,
      "at": 0
    },
    {
      "action": "insert",
      "tree": 397,
      "parent": 398,
      "at": 0
    },
    {
      "action": "insert",
      "tree": 418,
      "parent": 430,
      "at": 0
    },
    {
      "action": "insert",
      "tree": 429,
      "parent": 430,
      "at": 1
    },
    {
      "action": "insert",
      "tree": 439,
      "parent": 440,
      "at": 0
    },
    {
      "action": "insert",
      "tree": 466,
      "parent": 467,
      "at": 0
    },
    {
      "action": "insert",
      "tree": 474,
      "parent": 475,
      "at": 0
    },
    {
      "action": "insert",
      "tree": 483,
      "parent": 484,
      "at": 0
    },
    {
      "action": "insert",
      "tree": 505,
      "parent": 506,
      "at": 0
    },
    {
      "action": "insert",
      "tree": 516,
      "parent": 529,
      "at": 0
    },
    {
      "action": "insert",
      "tree": 517,
      "parent": 529,
      "at": 1
    },
    {
      "action": "insert",
      "tree": 528,
      "parent": 529,
      "at": 2
    },
    {
      "action": "insert",
      "tree": 536,
      "parent": 542,
      "at": 0
    },
    {
      "action": "insert",
      "tree": 537,
      "parent": 542,
      "at": 1
    },
    {
      "action": "insert",
      "tree": 541,
      "parent": 542,
      "at": 2
    },
    {
      "action": "insert",
      "tree": 549,
      "parent": 555,
      "at": 0
    },
    {
      "action": "insert",
      "tree": 550,
      "parent": 555,
      "at": 1
    },
    {
      "action": "insert",
      "tree": 554,
      "parent": 555,
      "at": 2
    },
    {
      "action": "insert",
      "tree": 582,
      "parent": 590,
      "at": 0
    },
    {
      "action": "insert",
      "tree": 583,
      "parent": 590,
      "at": 1
    },
    {
      "action": "insert",
      "tree": 589,
      "parent": 590,
      "at": 2
    },
    {
      "action": "insert",
      "tree": 597,
      "parent": 605,
      "at": 0
    },
    {
      "action": "insert",
      "tree": 598,
      "parent": 605,
      "at": 1
    },
    {
      "action": "insert",
      "tree": 604,
      "parent": 605,
      "at": 2
    },
    {
      "action": "insert",
      "tree": 611,
      "parent": 612,
      "at": 0
    },
    {
      "action": "insert",
      "tree": 280,
      "parent": 284,
      "at": 0
    },
    {
      "action": "insert",
      "tree": 281,
      "parent": 284,
      "at": 1
    },
    {
      "action": "insert",
      "tree": 283,
      "parent": 284,
      "at": 2
    },
    {
      "action": "insert",
      "tree": 323,
      "parent": 325,
      "at": 0
    },
    {
      "action": "insert",
      "tree": 324,
      "parent": 325,
      "at": 1
    },
    {
      "action": "insert",
      "tree": 327,
      "parent": 328,
      "at": 0
    },
    {
      "action": "insert",
      "tree": 334,
      "parent": 335,
      "at": 0
    },
    {
      "action": "insert",
      "tree": 352,
      "parent": 354,
      "at": 0
    },
    {
      "action": "insert",
      "tree": 353,
      "parent": 354,
      "at": 1
    },
    {
      "action": "insert",
      "tree": 363,
      "parent": 365,
      "at": 0
    },
    {
      "action": "insert",
      "tree": 364,
      "parent": 365,
      "at": 1
    },
    {
      "action": "insert",
      "tree": 395,
      "parent": 397,
      "at": 0
    },
    {
      "action": "insert",
      "tree": 396,
      "parent": 397,
      "at": 1
    },
    {
      "action": "insert",
      "tree": 416,
      "parent": 418,
      "at": 0
    },
    {
      "action": "insert",
      "tree": 417,
      "parent": 418,
      "at": 1
    },
    {
      "action": "insert",
      "tree": 425,
      "parent": 429,
      "at": 0
    },
    {
      "action": "insert",
      "tree": 428,
      "parent": 429,
      "at": 1
    },
    {
      "action": "insert",
      "tree": 438,
      "parent": 439,
      "at": 0
    },
    {
      "action": "insert",
      "tree": 462,
      "parent": 466,
      "at": 0
    },
    {
      "action": "insert",
      "tree": 463,
      "parent": 466,
      "at": 1
    },
    {
      "action": "insert",
      "tree": 465,
      "parent": 466,
      "at": 2
    },
    {
      "action": "insert",
      "tree": 503,
      "parent": 505,
      "at": 0
    },
    {
      "action": "insert",
      "tree": 504,
      "parent": 505,
      "at": 1
    },
    {
      "action": "insert",
      "tree": 515,
      "parent": 516,
      "at": 0
    },
    {
      "action": "insert",
      "tree": 519,
      "parent": 528,
      "at": 0
    },
    {
      "action": "insert",
      "tree": 527,
      "parent": 528,
      "at": 1
    },
    {
      "action": "insert",
      "tree": 534,
      "parent": 536,
      "at": 0
    },
    {
      "action": "insert",
      "tree": 535,
      "parent": 536,
      "at": 1
    },
    {
      "action": "insert",
      "tree": 539,
      "parent": 541,
      "at": 0
    },
    {
      "action": "insert",
      "tree": 540,
      "parent": 541,
      "at": 1
    },
    {
      "action": "insert",
      "tree": 547,
      "parent": 549,
      "at": 0
    },
    {
      "action": "insert",
      "tree": 548,
      "parent": 549,
      "at": 1
    },
    {
      "action": "insert",
      "tree": 552,
      "parent": 554,
      "at": 0
    },
    {
      "action": "insert",
      "tree": 553,
      "parent": 554,
      "at": 1
    },
    {
      "action": "update",
      "tree": 298,
      "label": "grpc_iomgr_closure_init"
    },
    {
      "action": "insert",
      "tree": 567,
      "parent": 574,
      "at": 0
    },
    {
      "action": "insert",
      "tree": 573,
      "parent": 574,
      "at": 2
    },
    {
      "action": "insert",
      "tree": 580,
      "parent": 582,
      "at": 0
    },
    {
      "action": "insert",
      "tree": 581,
      "parent": 582,
      "at": 1
    },
    {
      "action": "insert",
      "tree": 587,
      "parent": 589,
      "at": 0
    },
    {
      "action": "insert",
      "tree": 588,
      "parent": 589,
      "at": 1
    },
    {
      "action": "insert",
      "tree": 595,
      "parent": 597,
      "at": 0
    },
    {
      "action": "insert",
      "tree": 596,
      "parent": 597,
      "at": 1
    },
    {
      "action": "insert",
      "tree": 602,
      "parent": 604,
      "at": 0
    },
    {
      "action": "insert",
      "tree": 603,
      "parent": 604,
      "at": 1
    },
    {
      "action": "insert",
      "tree": 279,
      "parent": 280,
      "at": 0
    },
    {
      "action": "insert",
      "tree": 282,
      "parent": 283,
      "at": 0
    },
    {
      "action": "insert",
      "tree": 322,
      "parent": 323,
      "at": 0
    },
    {
      "action": "insert",
      "tree": 343,
      "parent": 352,
      "at": 0
    },
    {
      "action": "insert",
      "tree": 351,
      "parent": 352,
      "at": 1
    },
    {
      "action": "insert",
      "tree": 359,
      "parent": 363,
      "at": 0
    },
    {
      "action": "insert",
      "tree": 360,
      "parent": 363,
      "at": 1
    },
    {
      "action": "insert",
      "tree": 362,
      "parent": 363,
      "at": 2
    },
    {
      "action": "insert",
      "tree": 394,
      "parent": 395,
      "at": 0
    },
    {
      "action": "insert",
      "tree": 414,
      "parent": 416,
      "at": 0
    },
    {
      "action": "insert",
      "tree": 415,
      "parent": 416,
      "at": 1
    },
    {
      "action": "insert",
      "tree": 424,
      "parent": 425,
      "at": 0
    },
    {
      "action": "insert",
      "tree": 427,
      "parent": 428,
      "at": 0
    },
    {
      "action": "insert",
      "tree": 461,
      "parent": 462,
      "at": 0
    },
    {
      "action": "insert",
      "tree": 464,
      "parent": 465,
      "at": 0
    },
    {
      "action": "insert",
      "tree": 496,
      "parent": 503,
      "at": 0
    },
    {
      "action": "insert",
      "tree": 502,
      "parent": 503,
      "at": 1
    },
    {
      "action": "insert",
      "tree": 518,
      "parent": 519,
      "at": 0
    },
    {
      "action": "insert",
      "tree": 526,
      "parent": 527,
      "at": 0
    },
    {
      "action": "insert",
      "tree": 533,
      "parent": 534,
      "at": 0
    },
    {
      "action": "insert",
      "tree": 538,
      "parent": 539,
      "at": 0
    },
    {
      "action": "insert",
      "tree": 546,
      "parent": 547,
      "at": 0
    },
    {
      "action": "insert",
      "tree": 551,
      "parent": 552,
      "at": 0
    },
    {
      "action": "insert",
      "tree": 566,
      "parent": 567,
      "at": 0
    },
    {
      "action": "insert",
      "tree": 572,
      "parent": 573,
      "at": 0
    },
    {
      "action": "insert",
      "tree": 579,
      "parent": 580,
      "at": 0
    },
    {
      "action": "insert",
      "tree": 585,
      "parent": 587,
      "at": 0
    },
    {
      "action": "insert",
      "tree": 586,
      "parent": 587,
      "at": 1
    },
    {
      "action": "insert",
      "tree": 594,
      "parent": 595,
      "at": 0
    },
    {
      "action": "insert",
      "tree": 600,
      "parent": 602,
      "at": 0
    },
    {
      "action": "insert",
      "tree": 601,
      "parent": 602,
      "at": 1
    },
    {
      "action": "insert",
      "tree": 342,
      "parent": 343,
      "at": 0
    },
    {
      "action": "insert",
      "tree": 350,
      "parent": 351,
      "at": 0
    },
    {
      "action": "insert",
      "tree": 357,
      "parent": 359,
      "at": 0
    },
    {
      "action": "insert",
      "tree": 358,
      "parent": 359,
      "at": 1
    },
    {
      "action": "insert",
      "tree": 361,
      "parent": 362,
      "at": 0
    },
    {
      "action": "insert",
      "tree": 413,
      "parent": 414,
      "at": 0
    },
    {
      "action": "insert",
      "tree": 422,
      "parent": 424,
      "at": 0
    },
    {
      "action": "insert",
      "tree": 423,
      "parent": 424,
      "at": 1
    },
    {
      "action": "insert",
      "tree": 426,
      "parent": 427,
      "at": 0
    },
    {
      "action": "insert",
      "tree": 495,
      "parent": 496,
      "at": 0
    },
    {
      "action": "insert",
      "tree": 501,
      "parent": 502,
      "at": 0
    },
    {
      "action": "insert",
      "tree": 525,
      "parent": 526,
      "at": 0
    },
    {
      "action": "insert",
      "tree": 564,
      "parent": 566,
      "at": 0
    },
    {
      "action": "insert",
      "tree": 565,
      "parent": 566,
      "at": 1
    },
    {
      "action": "update",
      "tree": 300,
      "label": "free_message"
    },
    {
      "action": "insert",
      "tree": 571,
      "parent": 572,
      "at": 0
    },
    {
      "action": "insert",
      "tree": 584,
      "parent": 585,
      "at": 0
    },
    {
      "action": "insert",
      "tree": 599,
      "parent": 600,
      "at": 0
    },
    {
      "action": "insert",
      "tree": 349,
      "parent": 350,
      "at": 0
    },
    {
      "action": "insert",
      "tree": 356,
      "parent": 357,
      "at": 0
    },
    {
      "action": "insert",
      "tree": 420,
      "parent": 422,
      "at": 0
    },
    {
      "action": "insert",
      "tree": 421,
      "parent": 422,
      "at": 1
    },
    {
      "action": "insert",
      "tree": 500,
      "parent": 501,
      "at": 0
    },
    {
      "action": "insert",
      "tree": 524,
      "parent": 525,
      "at": 0
    },
    {
      "action": "insert",
      "tree": 562,
      "parent": 564,
      "at": 0
    },
    {
      "action": "insert",
      "tree": 563,
      "parent": 564,
      "at": 1
    },
    {
      "action": "insert",
      "tree": 347,
      "parent": 349,
      "at": 0
    },
    {
      "action": "insert",
      "tree": 348,
      "parent": 349,
      "at": 1
    },
    {
      "action": "insert",
      "tree": 419,
      "parent": 420,
      "at": 0
    },
    {
      "action": "insert",
      "tree": 498,
      "parent": 500,
      "at": 0
    },
    {
      "action": "insert",
      "tree": 499,
      "parent": 500,
      "at": 1
    },
    {
      "action": "insert",
      "tree": 523,
      "parent": 524,
      "at": 0
    },
    {
      "action": "insert",
      "tree": 561,
      "parent": 562,
      "at": 0
    },
    {
      "action": "insert",
      "tree": 345,
      "parent": 347,
      "at": 0
    },
    {
      "action": "insert",
      "tree": 346,
      "parent": 347,
      "at": 1
    },
    {
      "action": "insert",
      "tree": 497,
      "parent": 498,
      "at": 0
    },
    {
      "action": "insert",
      "tree": 521,
      "parent": 523,
      "at": 0
    },
    {
      "action": "insert",
      "tree": 522,
      "parent": 523,
      "at": 1
    },
    {
      "action": "insert",
      "tree": 344,
      "parent": 345,
      "at": 0
    },
    {
      "action": "insert",
      "tree": 520,
      "parent": 521,
      "at": 0
    }
  ]
}