{
	"root": {
		"type": "460000",
		"typeLabel": "Program",
		"pos": "424",
		"length": "2268",
		"children": [
			{
				"type": "450300",
				"typeLabel": "CppTop",
				"pos": "424",
				"length": "25",
				"children": [
					{
						"type": "400200",
						"typeLabel": "Include",
						"pos": "424",
						"length": "25",
						"children": [
							{
								"type": "480000",
								"label": "<linux/config.h>",
								"typeLabel": "GenericString",
								"pos": "433",
								"length": "16",
								"children": []
							}
						]
					}
				]
			},
			{
				"type": "450300",
				"typeLabel": "CppTop",
				"pos": "450",
				"length": "25",
				"children": [
					{
						"type": "400200",
						"typeLabel": "Include",
						"pos": "450",
						"length": "25",
						"children": [
							{
								"type": "480000",
								"label": "<linux/kernel.h>",
								"typeLabel": "GenericString",
								"pos": "459",
								"length": "16",
								"children": []
							}
						]
					}
				]
			},
			{
				"type": "450300",
				"typeLabel": "CppTop",
				"pos": "476",
				"length": "25",
				"children": [
					{
						"type": "400200",
						"typeLabel": "Include",
						"pos": "476",
						"length": "25",
						"children": [
							{
								"type": "480000",
								"label": "<linux/module.h>",
								"typeLabel": "GenericString",
								"pos": "485",
								"length": "16",
								"children": []
							}
						]
					}
				]
			},
			{
				"type": "450300",
				"typeLabel": "CppTop",
				"pos": "502",
				"length": "22",
				"children": [
					{
						"type": "400200",
						"typeLabel": "Include",
						"pos": "502",
						"length": "22",
						"children": [
							{
								"type": "480000",
								"label": "<linux/mii.h>",
								"typeLabel": "GenericString",
								"pos": "511",
								"length": "13",
								"children": []
							}
						]
					}
				]
			},
			{
				"type": "450300",
				"typeLabel": "CppTop",
				"pos": "525",
				"length": "26",
				"children": [
					{
						"type": "400200",
						"typeLabel": "Include",
						"pos": "525",
						"length": "26",
						"children": [
							{
								"type": "480000",
								"label": "<linux/ethtool.h>",
								"typeLabel": "GenericString",
								"pos": "534",
								"length": "17",
								"children": []
							}
						]
					}
				]
			},
			{
				"type": "450300",
				"typeLabel": "CppTop",
				"pos": "552",
				"length": "22",
				"children": [
					{
						"type": "400200",
						"typeLabel": "Include",
						"pos": "552",
						"length": "22",
						"children": [
							{
								"type": "480000",
								"label": "<linux/phy.h>",
								"typeLabel": "GenericString",
								"pos": "561",
								"length": "13",
								"children": []
							}
						]
					}
				]
			},
			{
				"type": "450300",
				"typeLabel": "CppTop",
				"pos": "575",
				"length": "28",
				"children": [
					{
						"type": "400200",
						"typeLabel": "Include",
						"pos": "575",
						"length": "28",
						"children": [
							{
								"type": "480000",
								"label": "<linux/netdevice.h>",
								"typeLabel": "GenericString",
								"pos": "584",
								"length": "19",
								"children": []
							}
						]
					}
				]
			},
			{
				"type": "450300",
				"typeLabel": "CppTop",
				"pos": "605",
				"length": "58",
				"children": [
					{
						"type": "400100",
						"typeLabel": "Define",
						"pos": "605",
						"length": "58",
						"children": [
							{
								"type": "410001",
								"typeLabel": "DefineVar",
								"pos": "605",
								"length": "58",
								"children": []
							},
							{
								"type": "420100",
								"typeLabel": "DefineExpr",
								"pos": "631",
								"length": "2",
								"children": [
									{
										"type": "240200",
										"label": "29",
										"typeLabel": "Constant",
										"pos": "631",
										"length": "2",
										"children": []
									}
								]
							}
						]
					}
				]
			},
			{
				"type": "450300",
				"typeLabel": "CppTop",
				"pos": "663",
				"length": "50",
				"children": [
					{
						"type": "400100",
						"typeLabel": "Define",
						"pos": "663",
						"length": "50",
						"children": [
							{
								"type": "410001",
								"typeLabel": "DefineVar",
								"pos": "663",
								"length": "50",
								"children": []
							},
							{
								"type": "420100",
								"typeLabel": "DefineExpr",
								"pos": "689",
								"length": "2",
								"children": [
									{
										"type": "240200",
										"label": "30",
										"typeLabel": "Constant",
										"pos": "689",
										"length": "2",
										"children": []
									}
								]
							}
						]
					}
				]
			},
			{
				"type": "450300",
				"typeLabel": "CppTop",
				"pos": "714",
				"length": "75",
				"children": [
					{
						"type": "400100",
						"typeLabel": "Define",
						"pos": "714",
						"length": "75",
						"children": [
							{
								"type": "410001",
								"typeLabel": "DefineVar",
								"pos": "714",
								"length": "75",
								"children": []
							},
							{
								"type": "420100",
								"typeLabel": "DefineExpr",
								"pos": "745",
								"length": "6",
								"children": [
									{
										"type": "242000",
										"typeLabel": "ParenExpr",
										"pos": "745",
										"length": "6",
										"children": [
											{
												"type": "241100",
												"typeLabel": "Binary",
												"pos": "746",
												"length": "4",
												"children": [
													{
														"type": "240200",
														"label": "1",
														"typeLabel": "Constant",
														"pos": "746",
														"length": "1",
														"children": []
													},
													{
														"type": "480000",
														"label": "<<",
														"typeLabel": "GenericString",
														"pos": "747",
														"length": "2",
														"children": []
													},
													{
														"type": "240200",
														"label": "1",
														"typeLabel": "Constant",
														"pos": "749",
														"length": "1",
														"children": []
													}
												]
											}
										]
									}
								]
							}
						]
					}
				]
			},
			{
				"type": "450300",
				"typeLabel": "CppTop",
				"pos": "789",
				"length": "69",
				"children": [
					{
						"type": "400100",
						"typeLabel": "Define",
						"pos": "789",
						"length": "69",
						"children": [
							{
								"type": "410001",
								"typeLabel": "DefineVar",
								"pos": "789",
								"length": "69",
								"children": []
							},
							{
								"type": "420100",
								"typeLabel": "DefineExpr",
								"pos": "820",
								"length": "6",
								"children": [
									{
										"type": "242000",
										"typeLabel": "ParenExpr",
										"pos": "820",
										"length": "6",
										"children": [
											{
												"type": "241100",
												"typeLabel": "Binary",
												"pos": "821",
												"length": "4",
												"children": [
													{
														"type": "240200",
														"label": "1",
														"typeLabel": "Constant",
														"pos": "821",
														"length": "1",
														"children": []
													},
													{
														"type": "480000",
														"label": "<<",
														"typeLabel": "GenericString",
														"pos": "822",
														"length": "2",
														"children": []
													},
													{
														"type": "240200",
														"label": "2",
														"typeLabel": "Constant",
														"pos": "824",
														"length": "1",
														"children": []
													}
												]
											}
										]
									}
								]
							}
						]
					}
				]
			},
			{
				"type": "450300",
				"typeLabel": "CppTop",
				"pos": "858",
				"length": "68",
				"children": [
					{
						"type": "400100",
						"typeLabel": "Define",
						"pos": "858",
						"length": "68",
						"children": [
							{
								"type": "410001",
								"typeLabel": "DefineVar",
								"pos": "858",
								"length": "68",
								"children": []
							},
							{
								"type": "420100",
								"typeLabel": "DefineExpr",
								"pos": "889",
								"length": "6",
								"children": [
									{
										"type": "242000",
										"typeLabel": "ParenExpr",
										"pos": "889",
										"length": "6",
										"children": [
											{
												"type": "241100",
												"typeLabel": "Binary",
												"pos": "890",
												"length": "4",
												"children": [
													{
														"type": "240200",
														"label": "1",
														"typeLabel": "Constant",
														"pos": "890",
														"length": "1",
														"children": []
													},
													{
														"type": "480000",
														"label": "<<",
														"typeLabel": "GenericString",
														"pos": "891",
														"length": "2",
														"children": []
													},
													{
														"type": "240200",
														"label": "3",
														"typeLabel": "Constant",
														"pos": "893",
														"length": "1",
														"children": []
													}
												]
											}
										]
									}
								]
							}
						]
					}
				]
			},
			{
				"type": "450300",
				"typeLabel": "CppTop",
				"pos": "926",
				"length": "54",
				"children": [
					{
						"type": "400100",
						"typeLabel": "Define",
						"pos": "926",
						"length": "54",
						"children": [
							{
								"type": "410001",
								"typeLabel": "DefineVar",
								"pos": "926",
								"length": "54",
								"children": []
							},
							{
								"type": "420100",
								"typeLabel": "DefineExpr",
								"pos": "957",
								"length": "6",
								"children": [
									{
										"type": "242000",
										"typeLabel": "ParenExpr",
										"pos": "957",
										"length": "6",
										"children": [
											{
												"type": "241100",
												"typeLabel": "Binary",
												"pos": "958",
												"length": "4",
												"children": [
													{
														"type": "240200",
														"label": "1",
														"typeLabel": "Constant",
														"pos": "958",
														"length": "1",
														"children": []
													},
													{
														"type": "480000",
														"label": "<<",
														"typeLabel": "GenericString",
														"pos": "959",
														"length": "2",
														"children": []
													},
													{
														"type": "240200",
														"label": "4",
														"typeLabel": "Constant",
														"pos": "961",
														"length": "1",
														"children": []
													}
												]
											}
										]
									}
								]
							}
						]
					}
				]
			},
			{
				"type": "450300",
				"typeLabel": "CppTop",
				"pos": "980",
				"length": "66",
				"children": [
					{
						"type": "400100",
						"typeLabel": "Define",
						"pos": "980",
						"length": "66",
						"children": [
							{
								"type": "410001",
								"typeLabel": "DefineVar",
								"pos": "980",
								"length": "66",
								"children": []
							},
							{
								"type": "420100",
								"typeLabel": "DefineExpr",
								"pos": "1011",
								"length": "6",
								"children": [
									{
										"type": "242000",
										"typeLabel": "ParenExpr",
										"pos": "1011",
										"length": "6",
										"children": [
											{
												"type": "241100",
												"typeLabel": "Binary",
												"pos": "1012",
												"length": "4",
												"children": [
													{
														"type": "240200",
														"label": "1",
														"typeLabel": "Constant",
														"pos": "1012",
														"length": "1",
														"children": []
													},
													{
														"type": "480000",
														"label": "<<",
														"typeLabel": "GenericString",
														"pos": "1013",
														"length": "2",
														"children": []
													},
													{
														"type": "240200",
														"label": "5",
														"typeLabel": "Constant",
														"pos": "1015",
														"length": "1",
														"children": []
													}
												]
											}
										]
									}
								]
							}
						]
					}
				]
			},
			{
				"type": "450300",
				"typeLabel": "CppTop",
				"pos": "1046",
				"length": "70",
				"children": [
					{
						"type": "400100",
						"typeLabel": "Define",
						"pos": "1046",
						"length": "70",
						"children": [
							{
								"type": "410001",
								"typeLabel": "DefineVar",
								"pos": "1046",
								"length": "70",
								"children": []
							},
							{
								"type": "420100",
								"typeLabel": "DefineExpr",
								"pos": "1077",
								"length": "6",
								"children": [
									{
										"type": "242000",
										"typeLabel": "ParenExpr",
										"pos": "1077",
										"length": "6",
										"children": [
											{
												"type": "241100",
												"typeLabel": "Binary",
												"pos": "1078",
												"length": "4",
												"children": [
													{
														"type": "240200",
														"label": "1",
														"typeLabel": "Constant",
														"pos": "1078",
														"length": "1",
														"children": []
													},
													{
														"type": "480000",
														"label": "<<",
														"typeLabel": "GenericString",
														"pos": "1079",
														"length": "2",
														"children": []
													},
													{
														"type": "240200",
														"label": "6",
														"typeLabel": "Constant",
														"pos": "1081",
														"length": "1",
														"children": []
													}
												]
											}
										]
									}
								]
							}
						]
					}
				]
			},
			{
				"type": "450300",
				"typeLabel": "CppTop",
				"pos": "1116",
				"length": "53",
				"children": [
					{
						"type": "400100",
						"typeLabel": "Define",
						"pos": "1116",
						"length": "53",
						"children": [
							{
								"type": "410001",
								"typeLabel": "DefineVar",
								"pos": "1116",
								"length": "53",
								"children": []
							},
							{
								"type": "420100",
								"typeLabel": "DefineExpr",
								"pos": "1147",
								"length": "6",
								"children": [
									{
										"type": "242000",
										"typeLabel": "ParenExpr",
										"pos": "1147",
										"length": "6",
										"children": [
											{
												"type": "241100",
												"typeLabel": "Binary",
												"pos": "1148",
												"length": "4",
												"children": [
													{
														"type": "240200",
														"label": "1",
														"typeLabel": "Constant",
														"pos": "1148",
														"length": "1",
														"children": []
													},
													{
														"type": "480000",
														"label": "<<",
														"typeLabel": "GenericString",
														"pos": "1149",
														"length": "2",
														"children": []
													},
													{
														"type": "240200",
														"label": "7",
														"typeLabel": "Constant",
														"pos": "1151",
														"length": "1",
														"children": []
													}
												]
											}
										]
									}
								]
							}
						]
					}
				]
			},
			{
				"type": "450300",
				"typeLabel": "CppTop",
				"pos": "1170",
				"length": "41",
				"children": [
					{
						"type": "400100",
						"typeLabel": "Define",
						"pos": "1170",
						"length": "41",
						"children": [
							{
								"type": "410001",
								"typeLabel": "DefineVar",
								"pos": "1170",
								"length": "41",
								"children": []
							},
							{
								"type": "420100",
								"typeLabel": "DefineExpr",
								"pos": "1204",
								"length": "6",
								"children": [
									{
										"type": "242000",
										"typeLabel": "ParenExpr",
										"pos": "1204",
										"length": "6",
										"children": [
											{
												"type": "240200",
												"label": "0x0e",
												"typeLabel": "Constant",
												"pos": "1205",
												"length": "4",
												"children": []
											}
										]
									}
								]
							}
						]
					}
				]
			},
			{
				"type": "450300",
				"typeLabel": "CppTop",
				"pos": "1212",
				"length": "97",
				"children": [
					{
						"type": "400100",
						"typeLabel": "Define",
						"pos": "1212",
						"length": "97",
						"children": [
							{
								"type": "410001",
								"typeLabel": "DefineVar",
								"pos": "1212",
								"length": "97",
								"children": []
							},
							{
								"type": "420100",
								"typeLabel": "DefineExpr",
								"pos": "1259",
								"length": "49",
								"children": [
									{
										"type": "242000",
										"typeLabel": "ParenExpr",
										"pos": "1259",
										"length": "49",
										"children": [
											{
												"type": "241100",
												"typeLabel": "Binary",
												"pos": "1260",
												"length": "47",
												"children": [
													{
														"type": "240100",
														"typeLabel": "Ident",
														"pos": "1260",
														"length": "22",
														"children": [
															{
																"type": "480000",
																"label": "MII_LAN83C185_ISF_INT6",
																"typeLabel": "GenericString",
																"pos": "1260",
																"length": "22",
																"children": []
															}
														]
													},
													{
														"type": "480000",
														"label": "|",
														"typeLabel": "GenericString",
														"pos": "1283",
														"length": "1",
														"children": []
													},
													{
														"type": "240100",
														"typeLabel": "Ident",
														"pos": "1285",
														"length": "22",
														"children": [
															{
																"type": "480000",
																"label": "MII_LAN83C185_ISF_INT4",
																"typeLabel": "GenericString",
																"pos": "1285",
																"length": "22",
																"children": []
															}
														]
													}
												]
											}
										]
									}
								]
							}
						]
					}
				]
			},
			{
				"type": "450200",
				"typeLabel": "Definition",
				"pos": "1311",
				"length": "237",
				"children": [
					{
						"type": "380000",
						"typeLabel": "Definition",
						"pos": "1311",
						"length": "237",
						"children": [
							{
								"type": "340000",
								"typeLabel": "Storage",
								"pos": "1311",
								"length": "6",
								"children": [
									{
										"type": "480000",
										"label": "static",
										"typeLabel": "GenericString",
										"pos": "1311",
										"length": "6",
										"children": []
									}
								]
							},
							{
								"type": "200000",
								"typeLabel": "ParamList",
								"pos": "1343",
								"length": "27",
								"children": [
									{
										"type": "220100",
										"typeLabel": "ParameterType",
										"pos": "1344",
										"length": "25",
										"children": [
											{
												"type": "480000",
												"label": "phydev",
												"typeLabel": "GenericString",
												"pos": "1363",
												"length": "6",
												"children": []
											}
										]
									}
								]
							},
							{
								"type": "480000",
								"label": "lan83c185_config_intr",
								"typeLabel": "GenericString",
								"pos": "1322",
								"length": "21",
								"children": []
							},
							{
								"type": "330000",
								"typeLabel": "Compound",
								"pos": "1371",
								"length": "177",
								"children": [
									{
										"type": "350100",
										"typeLabel": "DeclList",
										"pos": "1374",
										"length": "146",
										"children": [
											{
												"type": "480000",
												"label": "rc",
												"typeLabel": "GenericString",
												"pos": "1378",
												"length": "2",
												"children": []
											},
											{
												"type": "360100",
												"typeLabel": "InitExpr",
												"pos": "1383",
												"length": "136",
												"children": [
													{
														"type": "240400",
														"typeLabel": "FunCall",
														"pos": "1383",
														"length": "136",
														"children": [
															{
																"type": "240100",
																"typeLabel": "Ident",
																"pos": "1383",
																"length": "9",
																"children": [
																	{
																		"type": "480000",
																		"label": "phy_write",
																		"typeLabel": "GenericString",
																		"pos": "1383",
																		"length": "9",
																		"children": []
																	}
																]
															},
															{
																"type": "470000",
																"typeLabel": "GenericList",
																"pos": "1393",
																"length": "126",
																"children": [
																	{
																		"type": "20100",
																		"typeLabel": "Left",
																		"pos": "1394",
																		"length": "6",
																		"children": [
																			{
																				"type": "240100",
																				"typeLabel": "Ident",
																				"pos": "1394",
																				"length": "6",
																				"children": [
																					{
																						"type": "480000",
																						"label": "phydev",
																						"typeLabel": "GenericString",
																						"pos": "1394",
																						"length": "6",
																						"children": []
																					}
																				]
																			}
																		]
																	},
																	{
																		"type": "20100",
																		"typeLabel": "Left",
																		"pos": "1402",
																		"length": "16",
																		"children": [
																			{
																				"type": "240100",
																				"typeLabel": "Ident",
																				"pos": "1402",
																				"length": "16",
																				"children": [
																					{
																						"type": "480000",
																						"label": "MII_LAN83C185_IM",
																						"typeLabel": "GenericString",
																						"pos": "1402",
																						"length": "16",
																						"children": []
																					}
																				]
																			}
																		]
																	},
																	{
																		"type": "20100",
																		"typeLabel": "Left",
																		"pos": "1423",
																		"length": "95",
																		"children": [
																			{
																				"type": "242000",
																				"typeLabel": "ParenExpr",
																				"pos": "1423",
																				"length": "95",
																				"children": [
																					{
																						"type": "240500",
																						"typeLabel": "CondExpr",
																						"pos": "1424",
																						"length": "93",
																						"children": [
																							{
																								"type": "242000",
																								"typeLabel": "ParenExpr",
																								"pos": "1424",
																								"length": "45",
																								"children": [
																									{
																										"type": "241100",
																										"typeLabel": "Binary",
																										"pos": "1425",
																										"length": "43",
																										"children": [
																											{
																												"type": "240100",
																												"typeLabel": "Ident",
																												"pos": "1425",
																												"length": "21",
																												"children": [
																													{
																														"type": "480000",
																														"label": "PHY_INTERRUPT_ENABLED",
																														"typeLabel": "GenericString",
																														"pos": "1425",
																														"length": "21",
																														"children": []
																													}
																												]
																											},
																											{
																												"type": "480000",
																												"label": "==",
																												"typeLabel": "GenericString",
																												"pos": "1447",
																												"length": "2",
																												"children": []
																											},
																											{
																												"type": "241400",
																												"typeLabel": "RecordPtAccess",
																												"pos": "1450",
																												"length": "18",
																												"children": [
																													{
																														"type": "240100",
																														"typeLabel": "Ident",
																														"pos": "1450",
																														"length": "6",
																														"children": [
																															{
																																"type": "480000",
																																"label": "phydev",
																																"typeLabel": "GenericString",
																																"pos": "1450",
																																"length": "6",
																																"children": []
																															}
																														]
																													},
																													{
																														"type": "480000",
																														"label": "interrupts",
																														"typeLabel": "GenericString",
																														"pos": "1458",
																														"length": "10",
																														"children": []
																													}
																												]
																											}
																										]
																									}
																								]
																							},
																							{
																								"type": "240100",
																								"typeLabel": "Ident",
																								"pos": "1475",
																								"length": "35",
																								"children": [
																									{
																										"type": "480000",
																										"label": "MII_LAN83C185_ISF_INT_PHYLIB_EVENTS",
																										"typeLabel": "GenericString",
																										"pos": "1475",
																										"length": "35",
																										"children": []
																									}
																								]
																							},
																							{
																								"type": "240200",
																								"label": "0",
																								"typeLabel": "Constant",
																								"pos": "1516",
																								"length": "1",
																								"children": []
																							}
																						]
																					}
																				]
																			}
																		]
																	}
																]
															}
														]
													}
												]
											}
										]
									},
									{
										"type": "280200",
										"typeLabel": "ReturnExpr",
										"pos": "1523",
										"length": "23",
										"children": [
											{
												"type": "240500",
												"typeLabel": "CondExpr",
												"pos": "1530",
												"length": "15",
												"children": [
													{
														"type": "241100",
														"typeLabel": "Binary",
														"pos": "1530",
														"length": "6",
														"children": [
															{
																"type": "240100",
																"typeLabel": "Ident",
																"pos": "1530",
																"length": "2",
																"children": [
																	{
																		"type": "480000",
																		"label": "rc",
																		"typeLabel": "GenericString",
																		"pos": "1530",
																		"length": "2",
																		"children": []
																	}
																]
															},
															{
																"type": "480000",
																"label": "<",
																"typeLabel": "GenericString",
																"pos": "1533",
																"length": "1",
																"children": []
															},
															{
																"type": "240200",
																"label": "0",
																"typeLabel": "Constant",
																"pos": "1535",
																"length": "1",
																"children": []
															}
														]
													},
													{
														"type": "240100",
														"typeLabel": "Ident",
														"pos": "1539",
														"length": "2",
														"children": [
															{
																"type": "480000",
																"label": "rc",
																"typeLabel": "GenericString",
																"pos": "1539",
																"length": "2",
																"children": []
															}
														]
													},
													{
														"type": "240200",
														"label": "0",
														"typeLabel": "Constant",
														"pos": "1544",
														"length": "1",
														"children": []
													}
												]
											}
										]
									}
								]
							}
						]
					}
				]
			},
			{
				"type": "450200",
				"typeLabel": "Definition",
				"pos": "1550",
				"length": "139",
				"children": [
					{
						"type": "380000",
						"typeLabel": "Definition",
						"pos": "1550",
						"length": "139",
						"children": [
							{
								"type": "340000",
								"typeLabel": "Storage",
								"pos": "1550",
								"length": "6",
								"children": [
									{
										"type": "480000",
										"label": "static",
										"typeLabel": "GenericString",
										"pos": "1550",
										"length": "6",
										"children": []
									}
								]
							},
							{
								"type": "200000",
								"typeLabel": "ParamList",
								"pos": "1584",
								"length": "27",
								"children": [
									{
										"type": "220100",
										"typeLabel": "ParameterType",
										"pos": "1585",
										"length": "25",
										"children": [
											{
												"type": "480000",
												"label": "phydev",
												"typeLabel": "GenericString",
												"pos": "1604",
												"length": "6",
												"children": []
											}
										]
									}
								]
							},
							{
								"type": "480000",
								"label": "lan83c185_ack_interrupt",
								"typeLabel": "GenericString",
								"pos": "1561",
								"length": "23",
								"children": []
							},
							{
								"type": "330000",
								"typeLabel": "Compound",
								"pos": "1612",
								"length": "77",
								"children": [
									{
										"type": "350100",
										"typeLabel": "DeclList",
										"pos": "1615",
										"length": "46",
										"children": [
											{
												"type": "480000",
												"label": "rc",
												"typeLabel": "GenericString",
												"pos": "1619",
												"length": "2",
												"children": []
											},
											{
												"type": "360100",
												"typeLabel": "InitExpr",
												"pos": "1624",
												"length": "36",
												"children": [
													{
														"type": "240400",
														"typeLabel": "FunCall",
														"pos": "1624",
														"length": "36",
														"children": [
															{
																"type": "240100",
																"typeLabel": "Ident",
																"pos": "1624",
																"length": "8",
																"children": [
																	{
																		"type": "480000",
																		"label": "phy_read",
																		"typeLabel": "GenericString",
																		"pos": "1624",
																		"length": "8",
																		"children": []
																	}
																]
															},
															{
																"type": "470000",
																"typeLabel": "GenericList",
																"pos": "1633",
																"length": "27",
																"children": [
																	{
																		"type": "20100",
																		"typeLabel": "Left",
																		"pos": "1634",
																		"length": "6",
																		"children": [
																			{
																				"type": "240100",
																				"typeLabel": "Ident",
																				"pos": "1634",
																				"length": "6",
																				"children": [
																					{
																						"type": "480000",
																						"label": "phydev",
																						"typeLabel": "GenericString",
																						"pos": "1634",
																						"length": "6",
																						"children": []
																					}
																				]
																			}
																		]
																	},
																	{
																		"type": "20100",
																		"typeLabel": "Left",
																		"pos": "1642",
																		"length": "17",
																		"children": [
																			{
																				"type": "240100",
																				"typeLabel": "Ident",
																				"pos": "1642",
																				"length": "17",
																				"children": [
																					{
																						"type": "480000",
																						"label": "MII_LAN83C185_ISF",
																						"typeLabel": "GenericString",
																						"pos": "1642",
																						"length": "17",
																						"children": []
																					}
																				]
																			}
																		]
																	}
																]
															}
														]
													}
												]
											}
										]
									},
									{
										"type": "280200",
										"typeLabel": "ReturnExpr",
										"pos": "1664",
										"length": "23",
										"children": [
											{
												"type": "240500",
												"typeLabel": "CondExpr",
												"pos": "1671",
												"length": "15",
												"children": [
													{
														"type": "241100",
														"typeLabel": "Binary",
														"pos": "1671",
														"length": "6",
														"children": [
															{
																"type": "240100",
																"typeLabel": "Ident",
																"pos": "1671",
																"length": "2",
																"children": [
																	{
																		"type": "480000",
																		"label": "rc",
																		"typeLabel": "GenericString",
																		"pos": "1671",
																		"length": "2",
																		"children": []
																	}
																]
															},
															{
																"type": "480000",
																"label": "<",
																"typeLabel": "GenericString",
																"pos": "1674",
																"length": "1",
																"children": []
															},
															{
																"type": "240200",
																"label": "0",
																"typeLabel": "Constant",
																"pos": "1676",
																"length": "1",
																"children": []
															}
														]
													},
													{
														"type": "240100",
														"typeLabel": "Ident",
														"pos": "1680",
														"length": "2",
														"children": [
															{
																"type": "480000",
																"label": "rc",
																"typeLabel": "GenericString",
																"pos": "1680",
																"length": "2",
																"children": []
															}
														]
													},
													{
														"type": "240200",
														"label": "0",
														"typeLabel": "Constant",
														"pos": "1685",
														"length": "1",
														"children": []
													}
												]
											}
										]
									}
								]
							}
						]
					}
				]
			},
			{
				"type": "450200",
				"typeLabel": "Definition",
				"pos": "1691",
				"length": "105",
				"children": [
					{
						"type": "380000",
						"typeLabel": "Definition",
						"pos": "1691",
						"length": "105",
						"children": [
							{
								"type": "340000",
								"typeLabel": "Storage",
								"pos": "1691",
								"length": "6",
								"children": [
									{
										"type": "480000",
										"label": "static",
										"typeLabel": "GenericString",
										"pos": "1691",
										"length": "6",
										"children": []
									}
								]
							},
							{
								"type": "200000",
								"typeLabel": "ParamList",
								"pos": "1723",
								"length": "27",
								"children": [
									{
										"type": "220100",
										"typeLabel": "ParameterType",
										"pos": "1724",
										"length": "25",
										"children": [
											{
												"type": "480000",
												"label": "phydev",
												"typeLabel": "GenericString",
												"pos": "1743",
												"length": "6",
												"children": []
											}
										]
									}
								]
							},
							{
								"type": "480000",
								"label": "lan83c185_config_init",
								"typeLabel": "GenericString",
								"pos": "1702",
								"length": "21",
								"children": []
							},
							{
								"type": "330000",
								"typeLabel": "Compound",
								"pos": "1751",
								"length": "45",
								"children": [
									{
										"type": "280200",
										"typeLabel": "ReturnExpr",
										"pos": "1754",
										"length": "40",
										"children": [
											{
												"type": "240400",
												"typeLabel": "FunCall",
												"pos": "1761",
												"length": "32",
												"children": [
													{
														"type": "240100",
														"typeLabel": "Ident",
														"pos": "1761",
														"length": "23",
														"children": [
															{
																"type": "480000",
																"label": "lan83c185_ack_interrupt",
																"typeLabel": "GenericString",
																"pos": "1761",
																"length": "23",
																"children": []
															}
														]
													},
													{
														"type": "470000",
														"typeLabel": "GenericList",
														"pos": "1785",
														"length": "8",
														"children": [
															{
																"type": "20100",
																"typeLabel": "Left",
																"pos": "1786",
																"length": "6",
																"children": [
																	{
																		"type": "240100",
																		"typeLabel": "Ident",
																		"pos": "1786",
																		"length": "6",
																		"children": [
																			{
																				"type": "480000",
																				"label": "phydev",
																				"typeLabel": "GenericString",
																				"pos": "1786",
																				"length": "6",
																				"children": []
																			}
																		]
																	}
																]
															}
														]
													}
												]
											}
										]
									}
								]
							}
						]
					}
				]
			},
			{
				"type": "450100",
				"typeLabel": "Declaration",
				"pos": "1799",
				"length": "567",
				"children": [
					{
						"type": "350100",
						"typeLabel": "DeclList",
						"pos": "1799",
						"length": "567",
						"children": [
							{
								"type": "340000",
								"typeLabel": "Storage",
								"pos": "1799",
								"length": "6",
								"children": [
									{
										"type": "480000",
										"label": "static",
										"typeLabel": "GenericString",
										"pos": "1799",
										"length": "6",
										"children": []
									}
								]
							},
							{
								"type": "480000",
								"label": "lan83c185_driver",
								"typeLabel": "GenericString",
								"pos": "1824",
								"length": "16",
								"children": []
							},
							{
								"type": "360200",
								"typeLabel": "InitList",
								"pos": "1843",
								"length": "522",
								"children": [
									{
										"type": "360300",
										"typeLabel": "InitDesignators",
										"pos": "1846",
										"length": "21",
										"children": [
											{
												"type": "370100",
												"label": "phy_id",
												"typeLabel": "DesignatorField",
												"pos": "1846",
												"length": "7",
												"children": []
											},
											{
												"type": "360100",
												"typeLabel": "InitExpr",
												"pos": "1857",
												"length": "10",
												"children": [
													{
														"type": "240200",
														"label": "0x0007c0a0",
														"typeLabel": "Constant",
														"pos": "1857",
														"length": "10",
														"children": []
													}
												]
											}
										]
									},
									{
										"type": "360300",
										"typeLabel": "InitDesignators",
										"pos": "1902",
										"length": "25",
										"children": [
											{
												"type": "370100",
												"label": "phy_id_mask",
												"typeLabel": "DesignatorField",
												"pos": "1902",
												"length": "12",
												"children": []
											},
											{
												"type": "360100",
												"typeLabel": "InitExpr",
												"pos": "1917",
												"length": "10",
												"children": [
													{
														"type": "240200",
														"label": "0xfffffff0",
														"typeLabel": "Constant",
														"pos": "1917",
														"length": "10",
														"children": []
													}
												]
											}
										]
									},
									{
										"type": "360300",
										"typeLabel": "InitDesignators",
										"pos": "1930",
										"length": "25",
										"children": [
											{
												"type": "370100",
												"label": "name",
												"typeLabel": "DesignatorField",
												"pos": "1930",
												"length": "5",
												"children": []
											},
											{
												"type": "360100",
												"typeLabel": "InitExpr",
												"pos": "1939",
												"length": "16",
												"children": [
													{
														"type": "240200",
														"label": "\"SMSC LAN83C185\"",
														"typeLabel": "Constant",
														"pos": "1939",
														"length": "16",
														"children": []
													}
												]
											}
										]
									},
									{
										"type": "360300",
										"typeLabel": "InitDesignators",
										"pos": "1959",
										"length": "77",
										"children": [
											{
												"type": "370100",
												"label": "features",
												"typeLabel": "DesignatorField",
												"pos": "1959",
												"length": "9",
												"children": []
											},
											{
												"type": "360100",
												"typeLabel": "InitExpr",
												"pos": "1971",
												"length": "65",
												"children": [
													{
														"type": "242000",
														"typeLabel": "ParenExpr",
														"pos": "1971",
														"length": "65",
														"children": [
															{
																"type": "241100",
																"typeLabel": "Binary",
																"pos": "1972",
																"length": "63",
																"children": [
																	{
																		"type": "241100",
																		"typeLabel": "Binary",
																		"pos": "1972",
																		"length": "36",
																		"children": [
																			{
																				"type": "240100",
																				"typeLabel": "Ident",
																				"pos": "1972",
																				"length": "18",
																				"children": [
																					{
																						"type": "480000",
																						"label": "PHY_BASIC_FEATURES",
																						"typeLabel": "GenericString",
																						"pos": "1972",
																						"length": "18",
																						"children": []
																					}
																				]
																			},
																			{
																				"type": "480000",
																				"label": "|",
																				"typeLabel": "GenericString",
																				"pos": "1991",
																				"length": "1",
																				"children": []
																			},
																			{
																				"type": "240100",
																				"typeLabel": "Ident",
																				"pos": "1993",
																				"length": "15",
																				"children": [
																					{
																						"type": "480000",
																						"label": "SUPPORTED_Pause",
																						"typeLabel": "GenericString",
																						"pos": "1993",
																						"length": "15",
																						"children": []
																					}
																				]
																			}
																		]
																	},
																	{
																		"type": "480000",
																		"label": "|",
																		"typeLabel": "GenericString",
																		"pos": "2013",
																		"length": "1",
																		"children": []
																	},
																	{
																		"type": "240100",
																		"typeLabel": "Ident",
																		"pos": "2015",
																		"length": "20",
																		"children": [
																			{
																				"type": "480000",
																				"label": "SUPPORTED_Asym_Pause",
																				"typeLabel": "GenericString",
																				"pos": "2015",
																				"length": "20",
																				"children": []
																			}
																		]
																	}
																]
															}
														]
													}
												]
											}
										]
									},
									{
										"type": "360300",
										"typeLabel": "InitDesignators",
										"pos": "2039",
										"length": "47",
										"children": [
											{
												"type": "370100",
												"label": "flags",
												"typeLabel": "DesignatorField",
												"pos": "2039",
												"length": "6",
												"children": []
											},
											{
												"type": "360100",
												"typeLabel": "InitExpr",
												"pos": "2049",
												"length": "37",
												"children": [
													{
														"type": "241100",
														"typeLabel": "Binary",
														"pos": "2049",
														"length": "37",
														"children": [
															{
																"type": "240100",
																"typeLabel": "Ident",
																"pos": "2049",
																"length": "17",
																"children": [
																	{
																		"type": "480000",
																		"label": "PHY_HAS_INTERRUPT",
																		"typeLabel": "GenericString",
																		"pos": "2049",
																		"length": "17",
																		"children": []
																	}
																]
															},
															{
																"type": "480000",
																"label": "|",
																"typeLabel": "GenericString",
																"pos": "2067",
																"length": "1",
																"children": []
															},
															{
																"type": "240100",
																"typeLabel": "Ident",
																"pos": "2069",
																"length": "17",
																"children": [
																	{
																		"type": "480000",
																		"label": "PHY_HAS_MAGICANEG",
																		"typeLabel": "GenericString",
																		"pos": "2069",
																		"length": "17",
																		"children": []
																	}
																]
															}
														]
													}
												]
											}
										]
									},
									{
										"type": "360300",
										"typeLabel": "InitDesignators",
										"pos": "2113",
										"length": "33",
										"children": [
											{
												"type": "370100",
												"label": "config_aneg",
												"typeLabel": "DesignatorField",
												"pos": "2113",
												"length": "12",
												"children": []
											},
											{
												"type": "360100",
												"typeLabel": "InitExpr",
												"pos": "2128",
												"length": "18",
												"children": [
													{
														"type": "240100",
														"typeLabel": "Ident",
														"pos": "2128",
														"length": "18",
														"children": [
															{
																"type": "480000",
																"label": "genphy_config_aneg",
																"typeLabel": "GenericString",
																"pos": "2128",
																"length": "18",
																"children": []
															}
														]
													}
												]
											}
										]
									},
									{
										"type": "360300",
										"typeLabel": "InitDesignators",
										"pos": "2149",
										"length": "33",
										"children": [
											{
												"type": "370100",
												"label": "read_status",
												"typeLabel": "DesignatorField",
												"pos": "2149",
												"length": "12",
												"children": []
											},
											{
												"type": "360100",
												"typeLabel": "InitExpr",
												"pos": "2164",
												"length": "18",
												"children": [
													{
														"type": "240100",
														"typeLabel": "Ident",
														"pos": "2164",
														"length": "18",
														"children": [
															{
																"type": "480000",
																"label": "genphy_read_status",
																"typeLabel": "GenericString",
																"pos": "2164",
																"length": "18",
																"children": []
															}
														]
													}
												]
											}
										]
									},
									{
										"type": "360300",
										"typeLabel": "InitDesignators",
										"pos": "2185",
										"length": "36",
										"children": [
											{
												"type": "370100",
												"label": "config_init",
												"typeLabel": "DesignatorField",
												"pos": "2185",
												"length": "12",
												"children": []
											},
											{
												"type": "360100",
												"typeLabel": "InitExpr",
												"pos": "2200",
												"length": "21",
												"children": [
													{
														"type": "240100",
														"typeLabel": "Ident",
														"pos": "2200",
														"length": "21",
														"children": [
															{
																"type": "480000",
																"label": "lan83c185_config_init",
																"typeLabel": "GenericString",
																"pos": "2200",
																"length": "21",
																"children": []
															}
														]
													}
												]
											}
										]
									},
									{
										"type": "360300",
										"typeLabel": "InitDesignators",
										"pos": "2244",
										"length": "40",
										"children": [
											{
												"type": "370100",
												"label": "ack_interrupt",
												"typeLabel": "DesignatorField",
												"pos": "2244",
												"length": "14",
												"children": []
											},
											{
												"type": "360100",
												"typeLabel": "InitExpr",
												"pos": "2261",
												"length": "23",
												"children": [
													{
														"type": "240100",
														"typeLabel": "Ident",
														"pos": "2261",
														"length": "23",
														"children": [
															{
																"type": "480000",
																"label": "lan83c185_ack_interrupt",
																"typeLabel": "GenericString",
																"pos": "2261",
																"length": "23",
																"children": []
															}
														]
													}
												]
											}
										]
									},
									{
										"type": "360300",
										"typeLabel": "InitDesignators",
										"pos": "2287",
										"length": "36",
										"children": [
											{
												"type": "370100",
												"label": "config_intr",
												"typeLabel": "DesignatorField",
												"pos": "2287",
												"length": "12",
												"children": []
											},
											{
												"type": "360100",
												"typeLabel": "InitExpr",
												"pos": "2302",
												"length": "21",
												"children": [
													{
														"type": "240100",
														"typeLabel": "Ident",
														"pos": "2302",
														"length": "21",
														"children": [
															{
																"type": "480000",
																"label": "lan83c185_config_intr",
																"typeLabel": "GenericString",
																"pos": "2302",
																"length": "21",
																"children": []
															}
														]
													}
												]
											}
										]
									},
									{
										"type": "360300",
										"typeLabel": "InitDesignators",
										"pos": "2327",
										"length": "36",
										"children": [
											{
												"type": "370100",
												"label": "driver",
												"typeLabel": "DesignatorField",
												"pos": "2327",
												"length": "7",
												"children": []
											},
											{
												"type": "360200",
												"typeLabel": "InitList",
												"pos": "2338",
												"length": "25",
												"children": [
													{
														"type": "360300",
														"typeLabel": "InitDesignators",
														"pos": "2340",
														"length": "20",
														"children": [
															{
																"type": "370100",
																"label": "owner",
																"typeLabel": "DesignatorField",
																"pos": "2340",
																"length": "6",
																"children": []
															},
															{
																"type": "360100",
																"typeLabel": "InitExpr",
																"pos": "2349",
																"length": "11",
																"children": [
																	{
																		"type": "240100",
																		"typeLabel": "Ident",
																		"pos": "2349",
																		"length": "11",
																		"children": [
																			{
																				"type": "480000",
																				"label": "THIS_MODULE",
																				"typeLabel": "GenericString",
																				"pos": "2349",
																				"length": "11",
																				"children": []
																			}
																		]
																	}
																]
															}
														]
													}
												]
											}
										]
									}
								]
							}
						]
					}
				]
			},
			{
				"type": "450200",
				"typeLabel": "Definition",
				"pos": "2368",
				"length": "86",
				"children": [
					{
						"type": "380000",
						"typeLabel": "Definition",
						"pos": "2368",
						"length": "86",
						"children": [
							{
								"type": "340000",
								"typeLabel": "Storage",
								"pos": "2368",
								"length": "6",
								"children": [
									{
										"type": "480000",
										"label": "static",
										"typeLabel": "GenericString",
										"pos": "2368",
										"length": "6",
										"children": []
									}
								]
							},
							{
								"type": "200000",
								"typeLabel": "ParamList",
								"pos": "2395",
								"length": "6",
								"children": [
									{
										"type": "220100",
										"typeLabel": "ParameterType",
										"pos": "2396",
										"length": "4",
										"children": []
									}
								]
							},
							{
								"type": "480000",
								"label": "smsc_init",
								"typeLabel": "GenericString",
								"pos": "2386",
								"length": "9",
								"children": []
							},
							{
								"type": "330000",
								"typeLabel": "Compound",
								"pos": "2402",
								"length": "52",
								"children": [
									{
										"type": "280200",
										"typeLabel": "ReturnExpr",
										"pos": "2405",
										"length": "47",
										"children": [
											{
												"type": "240400",
												"typeLabel": "FunCall",
												"pos": "2412",
												"length": "39",
												"children": [
													{
														"type": "240100",
														"typeLabel": "Ident",
														"pos": "2412",
														"length": "19",
														"children": [
															{
																"type": "480000",
																"label": "phy_driver_register",
																"typeLabel": "GenericString",
																"pos": "2412",
																"length": "19",
																"children": []
															}
														]
													},
													{
														"type": "470000",
														"typeLabel": "GenericList",
														"pos": "2432",
														"length": "19",
														"children": [
															{
																"type": "20100",
																"typeLabel": "Left",
																"pos": "2433",
																"length": "17",
																"children": [
																	{
																		"type": "241000",
																		"typeLabel": "Unary",
																		"pos": "2433",
																		"length": "17",
																		"children": [
																			{
																				"type": "240100",
																				"typeLabel": "Ident",
																				"pos": "2434",
																				"length": "16",
																				"children": [
																					{
																						"type": "480000",
																						"label": "lan83c185_driver",
																						"typeLabel": "GenericString",
																						"pos": "2434",
																						"length": "16",
																						"children": []
																					}
																				]
																			},
																			{
																				"type": "480000",
																				"label": "&",
																				"typeLabel": "GenericString",
																				"pos": "2433",
																				"length": "1",
																				"children": []
																			}
																		]
																	}
																]
															}
														]
													}
												]
											}
										]
									}
								]
							}
						]
					}
				]
			},
			{
				"type": "450200",
				"typeLabel": "Definition",
				"pos": "2456",
				"length": "82",
				"children": [
					{
						"type": "380000",
						"typeLabel": "Definition",
						"pos": "2456",
						"length": "82",
						"children": [
							{
								"type": "340000",
								"typeLabel": "Storage",
								"pos": "2456",
								"length": "6",
								"children": [
									{
										"type": "480000",
										"label": "static",
										"typeLabel": "GenericString",
										"pos": "2456",
										"length": "6",
										"children": []
									}
								]
							},
							{
								"type": "200000",
								"typeLabel": "ParamList",
								"pos": "2484",
								"length": "6",
								"children": [
									{
										"type": "220100",
										"typeLabel": "ParameterType",
										"pos": "2485",
										"length": "4",
										"children": []
									}
								]
							},
							{
								"type": "480000",
								"label": "smsc_exit",
								"typeLabel": "GenericString",
								"pos": "2475",
								"length": "9",
								"children": []
							},
							{
								"type": "330000",
								"typeLabel": "Compound",
								"pos": "2491",
								"length": "47",
								"children": [
									{
										"type": "260300",
										"typeLabel": "ExprStatement",
										"pos": "2494",
										"length": "42",
										"children": [
											{
												"type": "290100",
												"typeLabel": "Some",
												"pos": "2494",
												"length": "42",
												"children": [
													{
														"type": "240400",
														"typeLabel": "FunCall",
														"pos": "2494",
														"length": "41",
														"children": [
															{
																"type": "240100",
																"typeLabel": "Ident",
																"pos": "2494",
																"length": "21",
																"children": [
																	{
																		"type": "480000",
																		"label": "phy_driver_unregister",
																		"typeLabel": "GenericString",
																		"pos": "2494",
																		"length": "21",
																		"children": []
																	}
																]
															},
															{
																"type": "470000",
																"typeLabel": "GenericList",
																"pos": "2516",
																"length": "19",
																"children": [
																	{
																		"type": "20100",
																		"typeLabel": "Left",
																		"pos": "2517",
																		"length": "17",
																		"children": [
																			{
																				"type": "241000",
																				"typeLabel": "Unary",
																				"pos": "2517",
																				"length": "17",
																				"children": [
																					{
																						"type": "240100",
																						"typeLabel": "Ident",
																						"pos": "2518",
																						"length": "16",
																						"children": [
																							{
																								"type": "480000",
																								"label": "lan83c185_driver",
																								"typeLabel": "GenericString",
																								"pos": "2518",
																								"length": "16",
																								"children": []
																							}
																						]
																					},
																					{
																						"type": "480000",
																						"label": "&",
																						"typeLabel": "GenericString",
																						"pos": "2517",
																						"length": "1",
																						"children": []
																					}
																				]
																			}
																		]
																	}
																]
															}
														]
													},
													{
														"type": "480000",
														"label": ";",
														"typeLabel": "GenericString",
														"pos": "2535",
														"length": "1",
														"children": []
													}
												]
											}
										]
									}
								]
							}
						]
					}
				]
			},
			{
				"type": "450100",
				"typeLabel": "Declaration",
				"pos": "2540",
				"length": "38",
				"children": [
					{
						"type": "350200",
						"typeLabel": "MacroDecl",
						"pos": "2540",
						"length": "38",
						"children": [
							{
								"type": "480000",
								"label": "MODULE_DESCRIPTION",
								"typeLabel": "GenericString",
								"pos": "2540",
								"length": "18",
								"children": []
							},
							{
								"type": "470000",
								"typeLabel": "GenericList",
								"pos": "2558",
								"length": "19",
								"children": [
									{
										"type": "20100",
										"typeLabel": "Left",
										"pos": "2559",
										"length": "17",
										"children": [
											{
												"type": "240200",
												"label": "\"SMSC PHY driver\"",
												"typeLabel": "Constant",
												"pos": "2559",
												"length": "17",
												"children": []
											}
										]
									}
								]
							}
						]
					}
				]
			},
			{
				"type": "450100",
				"typeLabel": "Declaration",
				"pos": "2579",
				"length": "40",
				"children": [
					{
						"type": "350200",
						"typeLabel": "MacroDecl",
						"pos": "2579",
						"length": "40",
						"children": [
							{
								"type": "480000",
								"label": "MODULE_AUTHOR",
								"typeLabel": "GenericString",
								"pos": "2579",
								"length": "13",
								"children": []
							},
							{
								"type": "470000",
								"typeLabel": "GenericList",
								"pos": "2592",
								"length": "26",
								"children": [
									{
										"type": "20100",
										"typeLabel": "Left",
										"pos": "2593",
										"length": "24",
										"children": [
											{
												"type": "240200",
												"label": "\"Herbert Valerio Riedel\"",
												"typeLabel": "Constant",
												"pos": "2593",
												"length": "24",
												"children": []
											}
										]
									}
								]
							}
						]
					}
				]
			},
			{
				"type": "450100",
				"typeLabel": "Declaration",
				"pos": "2620",
				"length": "22",
				"children": [
					{
						"type": "350200",
						"typeLabel": "MacroDecl",
						"pos": "2620",
						"length": "22",
						"children": [
							{
								"type": "480000",
								"label": "MODULE_LICENSE",
								"typeLabel": "GenericString",
								"pos": "2620",
								"length": "14",
								"children": []
							},
							{
								"type": "470000",
								"typeLabel": "GenericList",
								"pos": "2634",
								"length": "7",
								"children": [
									{
										"type": "20100",
										"typeLabel": "Left",
										"pos": "2635",
										"length": "5",
										"children": [
											{
												"type": "240200",
												"label": "\"GPL\"",
												"typeLabel": "Constant",
												"pos": "2635",
												"length": "5",
												"children": []
											}
										]
									}
								]
							}
						]
					}
				]
			},
			{
				"type": "450100",
				"typeLabel": "Declaration",
				"pos": "2644",
				"length": "23",
				"children": [
					{
						"type": "350200",
						"typeLabel": "MacroDecl",
						"pos": "2644",
						"length": "23",
						"children": [
							{
								"type": "480000",
								"label": "module_init",
								"typeLabel": "GenericString",
								"pos": "2644",
								"length": "11",
								"children": []
							},
							{
								"type": "470000",
								"typeLabel": "GenericList",
								"pos": "2655",
								"length": "11",
								"children": [
									{
										"type": "20100",
										"typeLabel": "Left",
										"pos": "2656",
										"length": "9",
										"children": [
											{
												"type": "240100",
												"typeLabel": "Ident",
												"pos": "2656",
												"length": "9",
												"children": [
													{
														"type": "480000",
														"label": "smsc_init",
														"typeLabel": "GenericString",
														"pos": "2656",
														"length": "9",
														"children": []
													}
												]
											}
										]
									}
								]
							}
						]
					}
				]
			},
			{
				"type": "450100",
				"typeLabel": "Declaration",
				"pos": "2668",
				"length": "23",
				"children": [
					{
						"type": "350200",
						"typeLabel": "MacroDecl",
						"pos": "2668",
						"length": "23",
						"children": [
							{
								"type": "480000",
								"label": "module_exit",
								"typeLabel": "GenericString",
								"pos": "2668",
								"length": "11",
								"children": []
							},
							{
								"type": "470000",
								"typeLabel": "GenericList",
								"pos": "2679",
								"length": "11",
								"children": [
									{
										"type": "20100",
										"typeLabel": "Left",
										"pos": "2680",
										"length": "9",
										"children": [
											{
												"type": "240100",
												"typeLabel": "Ident",
												"pos": "2680",
												"length": "9",
												"children": [
													{
														"type": "480000",
														"label": "smsc_exit",
														"typeLabel": "GenericString",
														"pos": "2680",
														"length": "9",
														"children": []
													}
												]
											}
										]
									}
								]
							}
						]
					}
				]
			},
			{
				"type": "450800",
				"typeLabel": "FinalDef",
				"pos": "2692",
				"length": "0",
				"children": []
			}
		]
	}
}