{
	"root": {
		"type": "460000",
		"typeLabel": "Program",
		"pos": "91",
		"length": "1367",
		"children": [
			{
				"type": "450300",
				"typeLabel": "CppTop",
				"pos": "91",
				"length": "18",
				"children": [
					{
						"type": "400200",
						"typeLabel": "Include",
						"pos": "91",
						"length": "18",
						"children": [
							{
								"type": "480000",
								"label": "\"cache.h\"",
								"typeLabel": "GenericString",
								"pos": "100",
								"length": "9",
								"children": []
							}
						]
					}
				]
			},
			{
				"type": "450300",
				"typeLabel": "CppTop",
				"pos": "110",
				"length": "17",
				"children": [
					{
						"type": "400200",
						"typeLabel": "Include",
						"pos": "110",
						"length": "17",
						"children": [
							{
								"type": "480000",
								"label": "\"diff.h\"",
								"typeLabel": "GenericString",
								"pos": "119",
								"length": "8",
								"children": []
							}
						]
					}
				]
			},
			{
				"type": "450300",
				"typeLabel": "CppTop",
				"pos": "128",
				"length": "19",
				"children": [
					{
						"type": "400200",
						"typeLabel": "Include",
						"pos": "128",
						"length": "19",
						"children": [
							{
								"type": "480000",
								"label": "\"commit.h\"",
								"typeLabel": "GenericString",
								"pos": "137",
								"length": "10",
								"children": []
							}
						]
					}
				]
			},
			{
				"type": "450300",
				"typeLabel": "CppTop",
				"pos": "148",
				"length": "21",
				"children": [
					{
						"type": "400200",
						"typeLabel": "Include",
						"pos": "148",
						"length": "21",
						"children": [
							{
								"type": "480000",
								"label": "\"revision.h\"",
								"typeLabel": "GenericString",
								"pos": "157",
								"length": "12",
								"children": []
							}
						]
					}
				]
			},
			{
				"type": "450300",
				"typeLabel": "CppTop",
				"pos": "170",
				"length": "20",
				"children": [
					{
						"type": "400200",
						"typeLabel": "Include",
						"pos": "170",
						"length": "20",
						"children": [
							{
								"type": "480000",
								"label": "\"builtin.h\"",
								"typeLabel": "GenericString",
								"pos": "179",
								"length": "11",
								"children": []
							}
						]
					}
				]
			},
			{
				"type": "450100",
				"typeLabel": "Declaration",
				"pos": "192",
				"length": "143",
				"children": [
					{
						"type": "350100",
						"typeLabel": "DeclList",
						"pos": "192",
						"length": "143",
						"children": [
							{
								"type": "340000",
								"typeLabel": "Storage",
								"pos": "192",
								"length": "6",
								"children": [
									{
										"type": "480000",
										"label": "static",
										"typeLabel": "GenericString",
										"pos": "192",
										"length": "6",
										"children": []
									}
								]
							},
							{
								"type": "480000",
								"label": "diff_files_usage",
								"typeLabel": "GenericString",
								"pos": "210",
								"length": "16",
								"children": []
							},
							{
								"type": "360100",
								"typeLabel": "InitExpr",
								"pos": "231",
								"length": "103",
								"children": [
									{
										"type": "240200",
										"label": "\"git-diff-files [-q] [-0/-1/2/3 |-c|--cc] [<common diff options>] [<path>...]\"COMMON_DIFF_OPTIONS_HELP",
										"typeLabel": "Constant",
										"pos": "231",
										"length": "103",
										"children": []
									}
								]
							}
						]
					}
				]
			},
			{
				"type": "450200",
				"typeLabel": "Definition",
				"pos": "337",
				"length": "1120",
				"children": [
					{
						"type": "380000",
						"typeLabel": "Definition",
						"pos": "337",
						"length": "1120",
						"children": [
							{
								"type": "200000",
								"typeLabel": "ParamList",
								"pos": "355",
								"length": "42",
								"children": [
									{
										"type": "220100",
										"typeLabel": "ParameterType",
										"pos": "356",
										"length": "8",
										"children": [
											{
												"type": "480000",
												"label": "argc",
												"typeLabel": "GenericString",
												"pos": "360",
												"length": "4",
												"children": []
											}
										]
									},
									{
										"type": "220100",
										"typeLabel": "ParameterType",
										"pos": "366",
										"length": "17",
										"children": [
											{
												"type": "480000",
												"label": "argv",
												"typeLabel": "GenericString",
												"pos": "379",
												"length": "4",
												"children": []
											}
										]
									},
									{
										"type": "220100",
										"typeLabel": "ParameterType",
										"pos": "385",
										"length": "11",
										"children": [
											{
												"type": "480000",
												"label": "envp",
												"typeLabel": "GenericString",
												"pos": "392",
												"length": "4",
												"children": []
											}
										]
									}
								]
							},
							{
								"type": "480000",
								"label": "cmd_diff_files",
								"typeLabel": "GenericString",
								"pos": "341",
								"length": "14",
								"children": []
							},
							{
								"type": "330000",
								"typeLabel": "Compound",
								"pos": "398",
								"length": "1059",
								"children": [
									{
										"type": "350100",
										"typeLabel": "DeclList",
										"pos": "401",
										"length": "20",
										"children": [
											{
												"type": "480000",
												"label": "rev",
												"typeLabel": "GenericString",
												"pos": "417",
												"length": "3",
												"children": []
											}
										]
									},
									{
										"type": "350100",
										"typeLabel": "DeclList",
										"pos": "423",
										"length": "15",
										"children": [
											{
												"type": "480000",
												"label": "silent",
												"typeLabel": "GenericString",
												"pos": "427",
												"length": "6",
												"children": []
											},
											{
												"type": "360100",
												"typeLabel": "InitExpr",
												"pos": "436",
												"length": "1",
												"children": [
													{
														"type": "240200",
														"label": "0",
														"typeLabel": "Constant",
														"pos": "436",
														"length": "1",
														"children": []
													}
												]
											}
										]
									},
									{
										"type": "260300",
										"typeLabel": "ExprStatement",
										"pos": "441",
										"length": "28",
										"children": [
											{
												"type": "290100",
												"typeLabel": "Some",
												"pos": "441",
												"length": "28",
												"children": [
													{
														"type": "240400",
														"typeLabel": "FunCall",
														"pos": "441",
														"length": "27",
														"children": [
															{
																"type": "240100",
																"typeLabel": "Ident",
																"pos": "441",
																"length": "10",
																"children": [
																	{
																		"type": "480000",
																		"label": "git_config",
																		"typeLabel": "GenericString",
																		"pos": "441",
																		"length": "10",
																		"children": []
																	}
																]
															},
															{
																"type": "470000",
																"typeLabel": "GenericList",
																"pos": "451",
																"length": "17",
																"children": [
																	{
																		"type": "20100",
																		"typeLabel": "Left",
																		"pos": "452",
																		"length": "15",
																		"children": [
																			{
																				"type": "240100",
																				"typeLabel": "Ident",
																				"pos": "452",
																				"length": "15",
																				"children": [
																					{
																						"type": "480000",
																						"label": "git_diff_config",
																						"typeLabel": "GenericString",
																						"pos": "452",
																						"length": "15",
																						"children": []
																					}
																				]
																			}
																		]
																	}
																]
															}
														]
													},
													{
														"type": "480000",
														"label": ";",
														"typeLabel": "GenericString",
														"pos": "468",
														"length": "1",
														"children": []
													}
												]
											}
										]
									},
									{
										"type": "260300",
										"typeLabel": "ExprStatement",
										"pos": "471",
										"length": "21",
										"children": [
											{
												"type": "290100",
												"typeLabel": "Some",
												"pos": "471",
												"length": "21",
												"children": [
													{
														"type": "240400",
														"typeLabel": "FunCall",
														"pos": "471",
														"length": "20",
														"children": [
															{
																"type": "240100",
																"typeLabel": "Ident",
																"pos": "471",
																"length": "14",
																"children": [
																	{
																		"type": "480000",
																		"label": "init_revisions",
																		"typeLabel": "GenericString",
																		"pos": "471",
																		"length": "14",
																		"children": []
																	}
																]
															},
															{
																"type": "470000",
																"typeLabel": "GenericList",
																"pos": "485",
																"length": "6",
																"children": [
																	{
																		"type": "20100",
																		"typeLabel": "Left",
																		"pos": "486",
																		"length": "4",
																		"children": [
																			{
																				"type": "241000",
																				"typeLabel": "Unary",
																				"pos": "486",
																				"length": "4",
																				"children": [
																					{
																						"type": "240100",
																						"typeLabel": "Ident",
																						"pos": "487",
																						"length": "3",
																						"children": [
																							{
																								"type": "480000",
																								"label": "rev",
																								"typeLabel": "GenericString",
																								"pos": "487",
																								"length": "3",
																								"children": []
																							}
																						]
																					},
																					{
																						"type": "480000",
																						"label": "&",
																						"typeLabel": "GenericString",
																						"pos": "486",
																						"length": "1",
																						"children": []
																					}
																				]
																			}
																		]
																	}
																]
															}
														]
													},
													{
														"type": "480000",
														"label": ";",
														"typeLabel": "GenericString",
														"pos": "491",
														"length": "1",
														"children": []
													}
												]
											}
										]
									},
									{
										"type": "260300",
										"typeLabel": "ExprStatement",
										"pos": "494",
										"length": "15",
										"children": [
											{
												"type": "290100",
												"typeLabel": "Some",
												"pos": "494",
												"length": "15",
												"children": [
													{
														"type": "240700",
														"typeLabel": "Assignment",
														"pos": "494",
														"length": "14",
														"children": [
															{
																"type": "241300",
																"typeLabel": "RecordAccess",
																"pos": "494",
																"length": "10",
																"children": [
																	{
																		"type": "240100",
																		"typeLabel": "Ident",
																		"pos": "494",
																		"length": "3",
																		"children": [
																			{
																				"type": "480000",
																				"label": "rev",
																				"typeLabel": "GenericString",
																				"pos": "494",
																				"length": "3",
																				"children": []
																			}
																		]
																	},
																	{
																		"type": "480000",
																		"label": "abbrev",
																		"typeLabel": "GenericString",
																		"pos": "498",
																		"length": "6",
																		"children": []
																	}
																]
															},
															{
																"type": "480000",
																"label": "=",
																"typeLabel": "GenericString",
																"pos": "505",
																"length": "1",
																"children": []
															},
															{
																"type": "240200",
																"label": "0",
																"typeLabel": "Constant",
																"pos": "507",
																"length": "1",
																"children": []
															}
														]
													},
													{
														"type": "480000",
														"label": ";",
														"typeLabel": "GenericString",
														"pos": "508",
														"length": "1",
														"children": []
													}
												]
											}
										]
									},
									{
										"type": "260300",
										"typeLabel": "ExprStatement",
										"pos": "512",
										"length": "47",
										"children": [
											{
												"type": "290100",
												"typeLabel": "Some",
												"pos": "512",
												"length": "47",
												"children": [
													{
														"type": "240700",
														"typeLabel": "Assignment",
														"pos": "512",
														"length": "46",
														"children": [
															{
																"type": "240100",
																"typeLabel": "Ident",
																"pos": "512",
																"length": "4",
																"children": [
																	{
																		"type": "480000",
																		"label": "argc",
																		"typeLabel": "GenericString",
																		"pos": "512",
																		"length": "4",
																		"children": []
																	}
																]
															},
															{
																"type": "480000",
																"label": "=",
																"typeLabel": "GenericString",
																"pos": "517",
																"length": "1",
																"children": []
															},
															{
																"type": "240400",
																"typeLabel": "FunCall",
																"pos": "519",
																"length": "39",
																"children": [
																	{
																		"type": "240100",
																		"typeLabel": "Ident",
																		"pos": "519",
																		"length": "15",
																		"children": [
																			{
																				"type": "480000",
																				"label": "setup_revisions",
																				"typeLabel": "GenericString",
																				"pos": "519",
																				"length": "15",
																				"children": []
																			}
																		]
																	},
																	{
																		"type": "470000",
																		"typeLabel": "GenericList",
																		"pos": "534",
																		"length": "24",
																		"children": [
																			{
																				"type": "20100",
																				"typeLabel": "Left",
																				"pos": "535",
																				"length": "4",
																				"children": [
																					{
																						"type": "240100",
																						"typeLabel": "Ident",
																						"pos": "535",
																						"length": "4",
																						"children": [
																							{
																								"type": "480000",
																								"label": "argc",
																								"typeLabel": "GenericString",
																								"pos": "535",
																								"length": "4",
																								"children": []
																							}
																						]
																					}
																				]
																			},
																			{
																				"type": "20100",
																				"typeLabel": "Left",
																				"pos": "541",
																				"length": "4",
																				"children": [
																					{
																						"type": "240100",
																						"typeLabel": "Ident",
																						"pos": "541",
																						"length": "4",
																						"children": [
																							{
																								"type": "480000",
																								"label": "argv",
																								"typeLabel": "GenericString",
																								"pos": "541",
																								"length": "4",
																								"children": []
																							}
																						]
																					}
																				]
																			},
																			{
																				"type": "20100",
																				"typeLabel": "Left",
																				"pos": "547",
																				"length": "4",
																				"children": [
																					{
																						"type": "241000",
																						"typeLabel": "Unary",
																						"pos": "547",
																						"length": "4",
																						"children": [
																							{
																								"type": "240100",
																								"typeLabel": "Ident",
																								"pos": "548",
																								"length": "3",
																								"children": [
																									{
																										"type": "480000",
																										"label": "rev",
																										"typeLabel": "GenericString",
																										"pos": "548",
																										"length": "3",
																										"children": []
																									}
																								]
																							},
																							{
																								"type": "480000",
																								"label": "&",
																								"typeLabel": "GenericString",
																								"pos": "547",
																								"length": "1",
																								"children": []
																							}
																						]
																					}
																				]
																			},
																			{
																				"type": "20100",
																				"typeLabel": "Left",
																				"pos": "553",
																				"length": "4",
																				"children": [
																					{
																						"type": "240100",
																						"typeLabel": "Ident",
																						"pos": "553",
																						"length": "4",
																						"children": [
																							{
																								"type": "480000",
																								"label": "NULL",
																								"typeLabel": "GenericString",
																								"pos": "553",
																								"length": "4",
																								"children": []
																							}
																						]
																					}
																				]
																			}
																		]
																	}
																]
															}
														]
													},
													{
														"type": "480000",
														"label": ";",
														"typeLabel": "GenericString",
														"pos": "558",
														"length": "1",
														"children": []
													}
												]
											}
										]
									},
									{
										"type": "310100",
										"typeLabel": "While",
										"pos": "561",
										"length": "325",
										"children": [
											{
												"type": "241100",
												"typeLabel": "Binary",
												"pos": "568",
												"length": "29",
												"children": [
													{
														"type": "241100",
														"typeLabel": "Binary",
														"pos": "568",
														"length": "8",
														"children": [
															{
																"type": "240200",
																"label": "1",
																"typeLabel": "Constant",
																"pos": "568",
																"length": "1",
																"children": []
															},
															{
																"type": "480000",
																"label": "<",
																"typeLabel": "GenericString",
																"pos": "570",
																"length": "1",
																"children": []
															},
															{
																"type": "240100",
																"typeLabel": "Ident",
																"pos": "572",
																"length": "4",
																"children": [
																	{
																		"type": "480000",
																		"label": "argc",
																		"typeLabel": "GenericString",
																		"pos": "572",
																		"length": "4",
																		"children": []
																	}
																]
															}
														]
													},
													{
														"type": "480000",
														"label": "&&",
														"typeLabel": "GenericString",
														"pos": "577",
														"length": "2",
														"children": []
													},
													{
														"type": "241100",
														"typeLabel": "Binary",
														"pos": "580",
														"length": "17",
														"children": [
															{
																"type": "241200",
																"typeLabel": "ArrayAccess",
																"pos": "580",
																"length": "10",
																"children": [
																	{
																		"type": "241200",
																		"typeLabel": "ArrayAccess",
																		"pos": "580",
																		"length": "7",
																		"children": [
																			{
																				"type": "240100",
																				"typeLabel": "Ident",
																				"pos": "580",
																				"length": "4",
																				"children": [
																					{
																						"type": "480000",
																						"label": "argv",
																						"typeLabel": "GenericString",
																						"pos": "580",
																						"length": "4",
																						"children": []
																					}
																				]
																			},
																			{
																				"type": "240200",
																				"label": "1",
																				"typeLabel": "Constant",
																				"pos": "585",
																				"length": "1",
																				"children": []
																			}
																		]
																	},
																	{
																		"type": "240200",
																		"label": "0",
																		"typeLabel": "Constant",
																		"pos": "588",
																		"length": "1",
																		"children": []
																	}
																]
															},
															{
																"type": "480000",
																"label": "==",
																"typeLabel": "GenericString",
																"pos": "591",
																"length": "2",
																"children": []
															},
															{
																"type": "240200",
																"label": "'-'",
																"typeLabel": "Constant",
																"pos": "594",
																"length": "3",
																"children": []
															}
														]
													}
												]
											},
											{
												"type": "330000",
												"typeLabel": "Compound",
												"pos": "599",
												"length": "287",
												"children": [
													{
														"type": "300100",
														"typeLabel": "If",
														"pos": "603",
														"length": "262",
														"children": [
															{
																"type": "490100",
																"typeLabel": "IfToken",
																"pos": "603",
																"length": "2",
																"children": []
															},
															{
																"type": "241000",
																"typeLabel": "Unary",
																"pos": "607",
																"length": "26",
																"children": [
																	{
																		"type": "240400",
																		"typeLabel": "FunCall",
																		"pos": "608",
																		"length": "25",
																		"children": [
																			{
																				"type": "240100",
																				"typeLabel": "Ident",
																				"pos": "608",
																				"length": "6",
																				"children": [
																					{
																						"type": "480000",
																						"label": "strcmp",
																						"typeLabel": "GenericString",
																						"pos": "608",
																						"length": "6",
																						"children": []
																					}
																				]
																			},
																			{
																				"type": "470000",
																				"typeLabel": "GenericList",
																				"pos": "614",
																				"length": "19",
																				"children": [
																					{
																						"type": "20100",
																						"typeLabel": "Left",
																						"pos": "615",
																						"length": "7",
																						"children": [
																							{
																								"type": "241200",
																								"typeLabel": "ArrayAccess",
																								"pos": "615",
																								"length": "7",
																								"children": [
																									{
																										"type": "240100",
																										"typeLabel": "Ident",
																										"pos": "615",
																										"length": "4",
																										"children": [
																											{
																												"type": "480000",
																												"label": "argv",
																												"typeLabel": "GenericString",
																												"pos": "615",
																												"length": "4",
																												"children": []
																											}
																										]
																									},
																									{
																										"type": "240200",
																										"label": "1",
																										"typeLabel": "Constant",
																										"pos": "620",
																										"length": "1",
																										"children": []
																									}
																								]
																							}
																						]
																					},
																					{
																						"type": "20100",
																						"typeLabel": "Left",
																						"pos": "624",
																						"length": "8",
																						"children": [
																							{
																								"type": "240200",
																								"label": "\"--base\"",
																								"typeLabel": "Constant",
																								"pos": "624",
																								"length": "8",
																								"children": []
																							}
																						]
																					}
																				]
																			}
																		]
																	},
																	{
																		"type": "480000",
																		"label": "!",
																		"typeLabel": "GenericString",
																		"pos": "607",
																		"length": "1",
																		"children": []
																	}
																]
															},
															{
																"type": "260300",
																"typeLabel": "ExprStatement",
																"pos": "638",
																"length": "18",
																"children": [
																	{
																		"type": "290100",
																		"typeLabel": "Some",
																		"pos": "638",
																		"length": "18",
																		"children": [
																			{
																				"type": "240700",
																				"typeLabel": "Assignment",
																				"pos": "638",
																				"length": "17",
																				"children": [
																					{
																						"type": "241300",
																						"typeLabel": "RecordAccess",
																						"pos": "638",
																						"length": "13",
																						"children": [
																							{
																								"type": "240100",
																								"typeLabel": "Ident",
																								"pos": "638",
																								"length": "3",
																								"children": [
																									{
																										"type": "480000",
																										"label": "rev",
																										"typeLabel": "GenericString",
																										"pos": "638",
																										"length": "3",
																										"children": []
																									}
																								]
																							},
																							{
																								"type": "480000",
																								"label": "max_count",
																								"typeLabel": "GenericString",
																								"pos": "642",
																								"length": "9",
																								"children": []
																							}
																						]
																					},
																					{
																						"type": "480000",
																						"label": "=",
																						"typeLabel": "GenericString",
																						"pos": "652",
																						"length": "1",
																						"children": []
																					},
																					{
																						"type": "240200",
																						"label": "1",
																						"typeLabel": "Constant",
																						"pos": "654",
																						"length": "1",
																						"children": []
																					}
																				]
																			},
																			{
																				"type": "480000",
																				"label": ";",
																				"typeLabel": "GenericString",
																				"pos": "655",
																				"length": "1",
																				"children": []
																			}
																		]
																	}
																]
															},
															{
																"type": "300100",
																"typeLabel": "If",
																"pos": "664",
																"length": "201",
																"children": [
																	{
																		"type": "490100",
																		"typeLabel": "IfToken",
																		"pos": "664",
																		"length": "2",
																		"children": []
																	},
																	{
																		"type": "241000",
																		"typeLabel": "Unary",
																		"pos": "668",
																		"length": "26",
																		"children": [
																			{
																				"type": "240400",
																				"typeLabel": "FunCall",
																				"pos": "669",
																				"length": "25",
																				"children": [
																					{
																						"type": "240100",
																						"typeLabel": "Ident",
																						"pos": "669",
																						"length": "6",
																						"children": [
																							{
																								"type": "480000",
																								"label": "strcmp",
																								"typeLabel": "GenericString",
																								"pos": "669",
																								"length": "6",
																								"children": []
																							}
																						]
																					},
																					{
																						"type": "470000",
																						"typeLabel": "GenericList",
																						"pos": "675",
																						"length": "19",
																						"children": [
																							{
																								"type": "20100",
																								"typeLabel": "Left",
																								"pos": "676",
																								"length": "7",
																								"children": [
																									{
																										"type": "241200",
																										"typeLabel": "ArrayAccess",
																										"pos": "676",
																										"length": "7",
																										"children": [
																											{
																												"type": "240100",
																												"typeLabel": "Ident",
																												"pos": "676",
																												"length": "4",
																												"children": [
																													{
																														"type": "480000",
																														"label": "argv",
																														"typeLabel": "GenericString",
																														"pos": "676",
																														"length": "4",
																														"children": []
																													}
																												]
																											},
																											{
																												"type": "240200",
																												"label": "1",
																												"typeLabel": "Constant",
																												"pos": "681",
																												"length": "1",
																												"children": []
																											}
																										]
																									}
																								]
																							},
																							{
																								"type": "20100",
																								"typeLabel": "Left",
																								"pos": "685",
																								"length": "8",
																								"children": [
																									{
																										"type": "240200",
																										"label": "\"--ours\"",
																										"typeLabel": "Constant",
																										"pos": "685",
																										"length": "8",
																										"children": []
																									}
																								]
																							}
																						]
																					}
																				]
																			},
																			{
																				"type": "480000",
																				"label": "!",
																				"typeLabel": "GenericString",
																				"pos": "668",
																				"length": "1",
																				"children": []
																			}
																		]
																	},
																	{
																		"type": "260300",
																		"typeLabel": "ExprStatement",
																		"pos": "699",
																		"length": "18",
																		"children": [
																			{
																				"type": "290100",
																				"typeLabel": "Some",
																				"pos": "699",
																				"length": "18",
																				"children": [
																					{
																						"type": "240700",
																						"typeLabel": "Assignment",
																						"pos": "699",
																						"length": "17",
																						"children": [
																							{
																								"type": "241300",
																								"typeLabel": "RecordAccess",
																								"pos": "699",
																								"length": "13",
																								"children": [
																									{
																										"type": "240100",
																										"typeLabel": "Ident",
																										"pos": "699",
																										"length": "3",
																										"children": [
																											{
																												"type": "480000",
																												"label": "rev",
																												"typeLabel": "GenericString",
																												"pos": "699",
																												"length": "3",
																												"children": []
																											}
																										]
																									},
																									{
																										"type": "480000",
																										"label": "max_count",
																										"typeLabel": "GenericString",
																										"pos": "703",
																										"length": "9",
																										"children": []
																									}
																								]
																							},
																							{
																								"type": "480000",
																								"label": "=",
																								"typeLabel": "GenericString",
																								"pos": "713",
																								"length": "1",
																								"children": []
																							},
																							{
																								"type": "240200",
																								"label": "2",
																								"typeLabel": "Constant",
																								"pos": "715",
																								"length": "1",
																								"children": []
																							}
																						]
																					},
																					{
																						"type": "480000",
																						"label": ";",
																						"typeLabel": "GenericString",
																						"pos": "716",
																						"length": "1",
																						"children": []
																					}
																				]
																			}
																		]
																	},
																	{
																		"type": "300100",
																		"typeLabel": "If",
																		"pos": "725",
																		"length": "140",
																		"children": [
																			{
																				"type": "490100",
																				"typeLabel": "IfToken",
																				"pos": "725",
																				"length": "2",
																				"children": []
																			},
																			{
																				"type": "241000",
																				"typeLabel": "Unary",
																				"pos": "729",
																				"length": "28",
																				"children": [
																					{
																						"type": "240400",
																						"typeLabel": "FunCall",
																						"pos": "730",
																						"length": "27",
																						"children": [
																							{
																								"type": "240100",
																								"typeLabel": "Ident",
																								"pos": "730",
																								"length": "6",
																								"children": [
																									{
																										"type": "480000",
																										"label": "strcmp",
																										"typeLabel": "GenericString",
																										"pos": "730",
																										"length": "6",
																										"children": []
																									}
																								]
																							},
																							{
																								"type": "470000",
																								"typeLabel": "GenericList",
																								"pos": "736",
																								"length": "21",
																								"children": [
																									{
																										"type": "20100",
																										"typeLabel": "Left",
																										"pos": "737",
																										"length": "7",
																										"children": [
																											{
																												"type": "241200",
																												"typeLabel": "ArrayAccess",
																												"pos": "737",
																												"length": "7",
																												"children": [
																													{
																														"type": "240100",
																														"typeLabel": "Ident",
																														"pos": "737",
																														"length": "4",
																														"children": [
																															{
																																"type": "480000",
																																"label": "argv",
																																"typeLabel": "GenericString",
																																"pos": "737",
																																"length": "4",
																																"children": []
																															}
																														]
																													},
																													{
																														"type": "240200",
																														"label": "1",
																														"typeLabel": "Constant",
																														"pos": "742",
																														"length": "1",
																														"children": []
																													}
																												]
																											}
																										]
																									},
																									{
																										"type": "20100",
																										"typeLabel": "Left",
																										"pos": "746",
																										"length": "10",
																										"children": [
																											{
																												"type": "240200",
																												"label": "\"--theirs\"",
																												"typeLabel": "Constant",
																												"pos": "746",
																												"length": "10",
																												"children": []
																											}
																										]
																									}
																								]
																							}
																						]
																					},
																					{
																						"type": "480000",
																						"label": "!",
																						"typeLabel": "GenericString",
																						"pos": "729",
																						"length": "1",
																						"children": []
																					}
																				]
																			},
																			{
																				"type": "260300",
																				"typeLabel": "ExprStatement",
																				"pos": "762",
																				"length": "18",
																				"children": [
																					{
																						"type": "290100",
																						"typeLabel": "Some",
																						"pos": "762",
																						"length": "18",
																						"children": [
																							{
																								"type": "240700",
																								"typeLabel": "Assignment",
																								"pos": "762",
																								"length": "17",
																								"children": [
																									{
																										"type": "241300",
																										"typeLabel": "RecordAccess",
																										"pos": "762",
																										"length": "13",
																										"children": [
																											{
																												"type": "240100",
																												"typeLabel": "Ident",
																												"pos": "762",
																												"length": "3",
																												"children": [
																													{
																														"type": "480000",
																														"label": "rev",
																														"typeLabel": "GenericString",
																														"pos": "762",
																														"length": "3",
																														"children": []
																													}
																												]
																											},
																											{
																												"type": "480000",
																												"label": "max_count",
																												"typeLabel": "GenericString",
																												"pos": "766",
																												"length": "9",
																												"children": []
																											}
																										]
																									},
																									{
																										"type": "480000",
																										"label": "=",
																										"typeLabel": "GenericString",
																										"pos": "776",
																										"length": "1",
																										"children": []
																									},
																									{
																										"type": "240200",
																										"label": "3",
																										"typeLabel": "Constant",
																										"pos": "778",
																										"length": "1",
																										"children": []
																									}
																								]
																							},
																							{
																								"type": "480000",
																								"label": ";",
																								"typeLabel": "GenericString",
																								"pos": "779",
																								"length": "1",
																								"children": []
																							}
																						]
																					}
																				]
																			},
																			{
																				"type": "300100",
																				"typeLabel": "If",
																				"pos": "788",
																				"length": "77",
																				"children": [
																					{
																						"type": "490100",
																						"typeLabel": "IfToken",
																						"pos": "788",
																						"length": "2",
																						"children": []
																					},
																					{
																						"type": "241000",
																						"typeLabel": "Unary",
																						"pos": "792",
																						"length": "22",
																						"children": [
																							{
																								"type": "240400",
																								"typeLabel": "FunCall",
																								"pos": "793",
																								"length": "21",
																								"children": [
																									{
																										"type": "240100",
																										"typeLabel": "Ident",
																										"pos": "793",
																										"length": "6",
																										"children": [
																											{
																												"type": "480000",
																												"label": "strcmp",
																												"typeLabel": "GenericString",
																												"pos": "793",
																												"length": "6",
																												"children": []
																											}
																										]
																									},
																									{
																										"type": "470000",
																										"typeLabel": "GenericList",
																										"pos": "799",
																										"length": "15",
																										"children": [
																											{
																												"type": "20100",
																												"typeLabel": "Left",
																												"pos": "800",
																												"length": "7",
																												"children": [
																													{
																														"type": "241200",
																														"typeLabel": "ArrayAccess",
																														"pos": "800",
																														"length": "7",
																														"children": [
																															{
																																"type": "240100",
																																"typeLabel": "Ident",
																																"pos": "800",
																																"length": "4",
																																"children": [
																																	{
																																		"type": "480000",
																																		"label": "argv",
																																		"typeLabel": "GenericString",
																																		"pos": "800",
																																		"length": "4",
																																		"children": []
																																	}
																																]
																															},
																															{
																																"type": "240200",
																																"label": "1",
																																"typeLabel": "Constant",
																																"pos": "805",
																																"length": "1",
																																"children": []
																															}
																														]
																													}
																												]
																											},
																											{
																												"type": "20100",
																												"typeLabel": "Left",
																												"pos": "809",
																												"length": "4",
																												"children": [
																													{
																														"type": "240200",
																														"label": "\"-q\"",
																														"typeLabel": "Constant",
																														"pos": "809",
																														"length": "4",
																														"children": []
																													}
																												]
																											}
																										]
																									}
																								]
																							},
																							{
																								"type": "480000",
																								"label": "!",
																								"typeLabel": "GenericString",
																								"pos": "792",
																								"length": "1",
																								"children": []
																							}
																						]
																					},
																					{
																						"type": "260300",
																						"typeLabel": "ExprStatement",
																						"pos": "819",
																						"length": "11",
																						"children": [
																							{
																								"type": "290100",
																								"typeLabel": "Some",
																								"pos": "819",
																								"length": "11",
																								"children": [
																									{
																										"type": "240700",
																										"typeLabel": "Assignment",
																										"pos": "819",
																										"length": "10",
																										"children": [
																											{
																												"type": "240100",
																												"typeLabel": "Ident",
																												"pos": "819",
																												"length": "6",
																												"children": [
																													{
																														"type": "480000",
																														"label": "silent",
																														"typeLabel": "GenericString",
																														"pos": "819",
																														"length": "6",
																														"children": []
																													}
																												]
																											},
																											{
																												"type": "480000",
																												"label": "=",
																												"typeLabel": "GenericString",
																												"pos": "826",
																												"length": "1",
																												"children": []
																											},
																											{
																												"type": "240200",
																												"label": "1",
																												"typeLabel": "Constant",
																												"pos": "828",
																												"length": "1",
																												"children": []
																											}
																										]
																									},
																									{
																										"type": "480000",
																										"label": ";",
																										"typeLabel": "GenericString",
																										"pos": "829",
																										"length": "1",
																										"children": []
																									}
																								]
																							}
																						]
																					},
																					{
																						"type": "260300",
																						"typeLabel": "ExprStatement",
																						"pos": "841",
																						"length": "24",
																						"children": [
																							{
																								"type": "290100",
																								"typeLabel": "Some",
																								"pos": "841",
																								"length": "24",
																								"children": [
																									{
																										"type": "240400",
																										"typeLabel": "FunCall",
																										"pos": "841",
																										"length": "23",
																										"children": [
																											{
																												"type": "240100",
																												"typeLabel": "Ident",
																												"pos": "841",
																												"length": "5",
																												"children": [
																													{
																														"type": "480000",
																														"label": "usage",
																														"typeLabel": "GenericString",
																														"pos": "841",
																														"length": "5",
																														"children": []
																													}
																												]
																											},
																											{
																												"type": "470000",
																												"typeLabel": "GenericList",
																												"pos": "846",
																												"length": "18",
																												"children": [
																													{
																														"type": "20100",
																														"typeLabel": "Left",
																														"pos": "847",
																														"length": "16",
																														"children": [
																															{
																																"type": "240100",
																																"typeLabel": "Ident",
																																"pos": "847",
																																"length": "16",
																																"children": [
																																	{
																																		"type": "480000",
																																		"label": "diff_files_usage",
																																		"typeLabel": "GenericString",
																																		"pos": "847",
																																		"length": "16",
																																		"children": []
																																	}
																																]
																															}
																														]
																													}
																												]
																											}
																										]
																									},
																									{
																										"type": "480000",
																										"label": ";",
																										"typeLabel": "GenericString",
																										"pos": "864",
																										"length": "1",
																										"children": []
																									}
																								]
																							}
																						]
																					}
																				]
																			}
																		]
																	}
																]
															}
														]
													},
													{
														"type": "260300",
														"typeLabel": "ExprStatement",
														"pos": "868",
														"length": "7",
														"children": [
															{
																"type": "290100",
																"typeLabel": "Some",
																"pos": "868",
																"length": "7",
																"children": [
																	{
																		"type": "240800",
																		"typeLabel": "Postfix",
																		"pos": "868",
																		"length": "6",
																		"children": [
																			{
																				"type": "240100",
																				"typeLabel": "Ident",
																				"pos": "868",
																				"length": "4",
																				"children": [
																					{
																						"type": "480000",
																						"label": "argv",
																						"typeLabel": "GenericString",
																						"pos": "868",
																						"length": "4",
																						"children": []
																					}
																				]
																			},
																			{
																				"type": "480000",
																				"label": "++",
																				"typeLabel": "GenericString",
																				"pos": "872",
																				"length": "2",
																				"children": []
																			}
																		]
																	},
																	{
																		"type": "480000",
																		"label": ";",
																		"typeLabel": "GenericString",
																		"pos": "874",
																		"length": "1",
																		"children": []
																	}
																]
															}
														]
													},
													{
														"type": "260300",
														"typeLabel": "ExprStatement",
														"pos": "876",
														"length": "7",
														"children": [
															{
																"type": "290100",
																"typeLabel": "Some",
																"pos": "876",
																"length": "7",
																"children": [
																	{
																		"type": "240800",
																		"typeLabel": "Postfix",
																		"pos": "876",
																		"length": "6",
																		"children": [
																			{
																				"type": "240100",
																				"typeLabel": "Ident",
																				"pos": "876",
																				"length": "4",
																				"children": [
																					{
																						"type": "480000",
																						"label": "argc",
																						"typeLabel": "GenericString",
																						"pos": "876",
																						"length": "4",
																						"children": []
																					}
																				]
																			},
																			{
																				"type": "480000",
																				"label": "--",
																				"typeLabel": "GenericString",
																				"pos": "880",
																				"length": "2",
																				"children": []
																			}
																		]
																	},
																	{
																		"type": "480000",
																		"label": ";",
																		"typeLabel": "GenericString",
																		"pos": "882",
																		"length": "1",
																		"children": []
																	}
																]
															}
														]
													}
												]
											}
										]
									},
									{
										"type": "300100",
										"typeLabel": "If",
										"pos": "1066",
										"length": "98",
										"children": [
											{
												"type": "490100",
												"typeLabel": "IfToken",
												"pos": "1066",
												"length": "2",
												"children": []
											},
											{
												"type": "241100",
												"typeLabel": "Binary",
												"pos": "1070",
												"length": "66",
												"children": [
													{
														"type": "241100",
														"typeLabel": "Binary",
														"pos": "1070",
														"length": "45",
														"children": [
															{
																"type": "241300",
																"typeLabel": "RecordAccess",
																"pos": "1070",
																"length": "19",
																"children": [
																	{
																		"type": "240100",
																		"typeLabel": "Ident",
																		"pos": "1070",
																		"length": "3",
																		"children": [
																			{
																				"type": "480000",
																				"label": "rev",
																				"typeLabel": "GenericString",
																				"pos": "1070",
																				"length": "3",
																				"children": []
																			}
																		]
																	},
																	{
																		"type": "480000",
																		"label": "pending_objects",
																		"typeLabel": "GenericString",
																		"pos": "1074",
																		"length": "15",
																		"children": []
																	}
																]
															},
															{
																"type": "480000",
																"label": "||",
																"typeLabel": "GenericString",
																"pos": "1090",
																"length": "2",
																"children": []
															},
															{
																"type": "241100",
																"typeLabel": "Binary",
																"pos": "1098",
																"length": "17",
																"children": [
																	{
																		"type": "241300",
																		"typeLabel": "RecordAccess",
																		"pos": "1098",
																		"length": "11",
																		"children": [
																			{
																				"type": "240100",
																				"typeLabel": "Ident",
																				"pos": "1098",
																				"length": "3",
																				"children": [
																					{
																						"type": "480000",
																						"label": "rev",
																						"typeLabel": "GenericString",
																						"pos": "1098",
																						"length": "3",
																						"children": []
																					}
																				]
																			},
																			{
																				"type": "480000",
																				"label": "min_age",
																				"typeLabel": "GenericString",
																				"pos": "1102",
																				"length": "7",
																				"children": []
																			}
																		]
																	},
																	{
																		"type": "480000",
																		"label": "!=",
																		"typeLabel": "GenericString",
																		"pos": "1110",
																		"length": "2",
																		"children": []
																	},
																	{
																		"type": "241000",
																		"typeLabel": "Unary",
																		"pos": "1113",
																		"length": "2",
																		"children": [
																			{
																				"type": "240200",
																				"label": "1",
																				"typeLabel": "Constant",
																				"pos": "1114",
																				"length": "1",
																				"children": []
																			},
																			{
																				"type": "480000",
																				"label": "-",
																				"typeLabel": "GenericString",
																				"pos": "1113",
																				"length": "1",
																				"children": []
																			}
																		]
																	}
																]
															}
														]
													},
													{
														"type": "480000",
														"label": "||",
														"typeLabel": "GenericString",
														"pos": "1116",
														"length": "2",
														"children": []
													},
													{
														"type": "241100",
														"typeLabel": "Binary",
														"pos": "1119",
														"length": "17",
														"children": [
															{
																"type": "241300",
																"typeLabel": "RecordAccess",
																"pos": "1119",
																"length": "11",
																"children": [
																	{
																		"type": "240100",
																		"typeLabel": "Ident",
																		"pos": "1119",
																		"length": "3",
																		"children": [
																			{
																				"type": "480000",
																				"label": "rev",
																				"typeLabel": "GenericString",
																				"pos": "1119",
																				"length": "3",
																				"children": []
																			}
																		]
																	},
																	{
																		"type": "480000",
																		"label": "max_age",
																		"typeLabel": "GenericString",
																		"pos": "1123",
																		"length": "7",
																		"children": []
																	}
																]
															},
															{
																"type": "480000",
																"label": "!=",
																"typeLabel": "GenericString",
																"pos": "1131",
																"length": "2",
																"children": []
															},
															{
																"type": "241000",
																"typeLabel": "Unary",
																"pos": "1134",
																"length": "2",
																"children": [
																	{
																		"type": "240200",
																		"label": "1",
																		"typeLabel": "Constant",
																		"pos": "1135",
																		"length": "1",
																		"children": []
																	},
																	{
																		"type": "480000",
																		"label": "-",
																		"typeLabel": "GenericString",
																		"pos": "1134",
																		"length": "1",
																		"children": []
																	}
																]
															}
														]
													}
												]
											},
											{
												"type": "260300",
												"typeLabel": "ExprStatement",
												"pos": "1140",
												"length": "24",
												"children": [
													{
														"type": "290100",
														"typeLabel": "Some",
														"pos": "1140",
														"length": "24",
														"children": [
															{
																"type": "240400",
																"typeLabel": "FunCall",
																"pos": "1140",
																"length": "23",
																"children": [
																	{
																		"type": "240100",
																		"typeLabel": "Ident",
																		"pos": "1140",
																		"length": "5",
																		"children": [
																			{
																				"type": "480000",
																				"label": "usage",
																				"typeLabel": "GenericString",
																				"pos": "1140",
																				"length": "5",
																				"children": []
																			}
																		]
																	},
																	{
																		"type": "470000",
																		"typeLabel": "GenericList",
																		"pos": "1145",
																		"length": "18",
																		"children": [
																			{
																				"type": "20100",
																				"typeLabel": "Left",
																				"pos": "1146",
																				"length": "16",
																				"children": [
																					{
																						"type": "240100",
																						"typeLabel": "Ident",
																						"pos": "1146",
																						"length": "16",
																						"children": [
																							{
																								"type": "480000",
																								"label": "diff_files_usage",
																								"typeLabel": "GenericString",
																								"pos": "1146",
																								"length": "16",
																								"children": []
																							}
																						]
																					}
																				]
																			}
																		]
																	}
																]
															},
															{
																"type": "480000",
																"label": ";",
																"typeLabel": "GenericString",
																"pos": "1163",
																"length": "1",
																"children": []
															}
														]
													}
												]
											}
										]
									},
									{
										"type": "300100",
										"typeLabel": "If",
										"pos": "1315",
										"length": "102",
										"children": [
											{
												"type": "490100",
												"typeLabel": "IfToken",
												"pos": "1315",
												"length": "2",
												"children": []
											},
											{
												"type": "241100",
												"typeLabel": "Binary",
												"pos": "1319",
												"length": "50",
												"children": [
													{
														"type": "241300",
														"typeLabel": "RecordAccess",
														"pos": "1319",
														"length": "25",
														"children": [
															{
																"type": "241300",
																"typeLabel": "RecordAccess",
																"pos": "1319",
																"length": "11",
																"children": [
																	{
																		"type": "240100",
																		"typeLabel": "Ident",
																		"pos": "1319",
																		"length": "3",
																		"children": [
																			{
																				"type": "480000",
																				"label": "rev",
																				"typeLabel": "GenericString",
																				"pos": "1319",
																				"length": "3",
																				"children": []
																			}
																		]
																	},
																	{
																		"type": "480000",
																		"label": "diffopt",
																		"typeLabel": "GenericString",
																		"pos": "1323",
																		"length": "7",
																		"children": []
																	}
																]
															},
															{
																"type": "480000",
																"label": "output_format",
																"typeLabel": "GenericString",
																"pos": "1331",
																"length": "13",
																"children": []
															}
														]
													},
													{
														"type": "480000",
														"label": "==",
														"typeLabel": "GenericString",
														"pos": "1345",
														"length": "2",
														"children": []
													},
													{
														"type": "240100",
														"typeLabel": "Ident",
														"pos": "1348",
														"length": "21",
														"children": [
															{
																"type": "480000",
																"label": "DIFF_FORMAT_NO_OUTPUT",
																"typeLabel": "GenericString",
																"pos": "1348",
																"length": "21",
																"children": []
															}
														]
													}
												]
											},
											{
												"type": "260300",
												"typeLabel": "ExprStatement",
												"pos": "1373",
												"length": "44",
												"children": [
													{
														"type": "290100",
														"typeLabel": "Some",
														"pos": "1373",
														"length": "44",
														"children": [
															{
																"type": "240700",
																"typeLabel": "Assignment",
																"pos": "1373",
																"length": "43",
																"children": [
																	{
																		"type": "241300",
																		"typeLabel": "RecordAccess",
																		"pos": "1373",
																		"length": "25",
																		"children": [
																			{
																				"type": "241300",
																				"typeLabel": "RecordAccess",
																				"pos": "1373",
																				"length": "11",
																				"children": [
																					{
																						"type": "240100",
																						"typeLabel": "Ident",
																						"pos": "1373",
																						"length": "3",
																						"children": [
																							{
																								"type": "480000",
																								"label": "rev",
																								"typeLabel": "GenericString",
																								"pos": "1373",
																								"length": "3",
																								"children": []
																							}
																						]
																					},
																					{
																						"type": "480000",
																						"label": "diffopt",
																						"typeLabel": "GenericString",
																						"pos": "1377",
																						"length": "7",
																						"children": []
																					}
																				]
																			},
																			{
																				"type": "480000",
																				"label": "output_format",
																				"typeLabel": "GenericString",
																				"pos": "1385",
																				"length": "13",
																				"children": []
																			}
																		]
																	},
																	{
																		"type": "480000",
																		"label": "=",
																		"typeLabel": "GenericString",
																		"pos": "1399",
																		"length": "1",
																		"children": []
																	},
																	{
																		"type": "240100",
																		"typeLabel": "Ident",
																		"pos": "1401",
																		"length": "15",
																		"children": [
																			{
																				"type": "480000",
																				"label": "DIFF_FORMAT_RAW",
																				"typeLabel": "GenericString",
																				"pos": "1401",
																				"length": "15",
																				"children": []
																			}
																		]
																	}
																]
															},
															{
																"type": "480000",
																"label": ";",
																"typeLabel": "GenericString",
																"pos": "1416",
																"length": "1",
																"children": []
															}
														]
													}
												]
											}
										]
									},
									{
										"type": "280200",
										"typeLabel": "ReturnExpr",
										"pos": "1419",
										"length": "36",
										"children": [
											{
												"type": "240400",
												"typeLabel": "FunCall",
												"pos": "1426",
												"length": "28",
												"children": [
													{
														"type": "240100",
														"typeLabel": "Ident",
														"pos": "1426",
														"length": "14",
														"children": [
															{
																"type": "480000",
																"label": "run_diff_files",
																"typeLabel": "GenericString",
																"pos": "1426",
																"length": "14",
																"children": []
															}
														]
													},
													{
														"type": "470000",
														"typeLabel": "GenericList",
														"pos": "1440",
														"length": "14",
														"children": [
															{
																"type": "20100",
																"typeLabel": "Left",
																"pos": "1441",
																"length": "4",
																"children": [
																	{
																		"type": "241000",
																		"typeLabel": "Unary",
																		"pos": "1441",
																		"length": "4",
																		"children": [
																			{
																				"type": "240100",
																				"typeLabel": "Ident",
																				"pos": "1442",
																				"length": "3",
																				"children": [
																					{
																						"type": "480000",
																						"label": "rev",
																						"typeLabel": "GenericString",
																						"pos": "1442",
																						"length": "3",
																						"children": []
																					}
																				]
																			},
																			{
																				"type": "480000",
																				"label": "&",
																				"typeLabel": "GenericString",
																				"pos": "1441",
																				"length": "1",
																				"children": []
																			}
																		]
																	}
																]
															},
															{
																"type": "20100",
																"typeLabel": "Left",
																"pos": "1447",
																"length": "6",
																"children": [
																	{
																		"type": "240100",
																		"typeLabel": "Ident",
																		"pos": "1447",
																		"length": "6",
																		"children": [
																			{
																				"type": "480000",
																				"label": "silent",
																				"typeLabel": "GenericString",
																				"pos": "1447",
																				"length": "6",
																				"children": []
																			}
																		]
																	}
																]
															}
														]
													}
												]
											}
										]
									}
								]
							}
						]
					}
				]
			},
			{
				"type": "450800",
				"typeLabel": "FinalDef",
				"pos": "1458",
				"length": "0",
				"children": []
			}
		]
	}
}