{
  "matches": [
    {
      "src": 637,
      "dest": 511
    },
    {
      "src": 167,
      "dest": 153
    },
    {
      "src": 312,
      "dest": 248
    },
    {
      "src": 556,
      "dest": 465
    },
    {
      "src": 141,
      "dest": 127
    },
    {
      "src": 213,
      "dest": 174
    },
    {
      "src": 413,
      "dest": 326
    },
    {
      "src": 249,
      "dest": 210
    },
    {
      "src": 265,
      "dest": 226
    },
    {
      "src": 532,
      "dest": 441
    },
    {
      "src": 115,
      "dest": 101
    },
    {
      "src": 456,
      "dest": 365
    },
    {
      "src": 140,
      "dest": 126
    },
    {
      "src": 341,
      "dest": 277
    },
    {
      "src": 396,
      "dest": 309
    },
    {
      "src": 477,
      "dest": 386
    },
    {
      "src": 32,
      "dest": 32
    },
    {
      "src": 0,
      "dest": 0
    },
    {
      "src": 555,
      "dest": 464
    },
    {
      "src": 53,
      "dest": 53
    },
    {
      "src": 430,
      "dest": 339
    },
    {
      "src": 647,
      "dest": 521
    },
    {
      "src": 15,
      "dest": 15
    },
    {
      "src": 454,
      "dest": 363
    },
    {
      "src": 431,
      "dest": 340
    },
    {
      "src": 54,
      "dest": 54
    },
    {
      "src": 397,
      "dest": 310
    },
    {
      "src": 481,
      "dest": 390
    },
    {
      "src": 602,
      "dest": 476
    },
    {
      "src": 3,
      "dest": 3
    },
    {
      "src": 96,
      "dest": 82
    },
    {
      "src": 492,
      "dest": 401
    },
    {
      "src": 563,
      "dest": 472
    },
    {
      "src": 530,
      "dest": 439
    },
    {
      "src": 601,
      "dest": 475
    },
    {
      "src": 261,
      "dest": 222
    },
    {
      "src": 460,
      "dest": 369
    },
    {
      "src": 466,
      "dest": 375
    },
    {
      "src": 627,
      "dest": 501
    },
    {
      "src": 493,
      "dest": 402
    },
    {
      "src": 313,
      "dest": 249
    },
    {
      "src": 110,
      "dest": 96
    },
    {
      "src": 610,
      "dest": 484
    },
    {
      "src": 394,
      "dest": 307
    },
    {
      "src": 521,
      "dest": 430
    },
    {
      "src": 356,
      "dest": 292
    },
    {
      "src": 79,
      "dest": 65
    },
    {
      "src": 30,
      "dest": 30
    },
    {
      "src": 90,
      "dest": 76
    },
    {
      "src": 89,
      "dest": 75
    },
    {
      "src": 168,
      "dest": 154
    },
    {
      "src": 116,
      "dest": 102
    },
    {
      "src": 320,
      "dest": 256
    },
    {
      "src": 336,
      "dest": 272
    },
    {
      "src": 93,
      "dest": 79
    },
    {
      "src": 311,
      "dest": 247
    },
    {
      "src": 56,
      "dest": 56
    },
    {
      "src": 400,
      "dest": 313
    },
    {
      "src": 208,
      "dest": 169
    },
    {
      "src": 453,
      "dest": 362
    },
    {
      "src": 433,
      "dest": 342
    },
    {
      "src": 75,
      "dest": 61
    },
    {
      "src": 252,
      "dest": 213
    },
    {
      "src": 498,
      "dest": 407
    },
    {
      "src": 40,
      "dest": 40
    },
    {
      "src": 14,
      "dest": 14
    },
    {
      "src": 526,
      "dest": 435
    },
    {
      "src": 657,
      "dest": 531
    },
    {
      "src": 345,
      "dest": 281
    },
    {
      "src": 259,
      "dest": 220
    },
    {
      "src": 232,
      "dest": 193
    },
    {
      "src": 408,
      "dest": 321
    },
    {
      "src": 143,
      "dest": 129
    },
    {
      "src": 27,
      "dest": 27
    },
    {
      "src": 548,
      "dest": 457
    },
    {
      "src": 263,
      "dest": 224
    },
    {
      "src": 12,
      "dest": 12
    },
    {
      "src": 39,
      "dest": 39
    },
    {
      "src": 238,
      "dest": 199
    },
    {
      "src": 464,
      "dest": 373
    },
    {
      "src": 643,
      "dest": 517
    },
    {
      "src": 442,
      "dest": 351
    },
    {
      "src": 472,
      "dest": 381
    },
    {
      "src": 507,
      "dest": 416
    },
    {
      "src": 248,
      "dest": 209
    },
    {
      "src": 504,
      "dest": 413
    },
    {
      "src": 611,
      "dest": 485
    },
    {
      "src": 412,
      "dest": 325
    },
    {
      "src": 366,
      "dest": 302
    },
    {
      "src": 488,
      "dest": 397
    },
    {
      "src": 534,
      "dest": 443
    },
    {
      "src": 531,
      "dest": 440
    },
    {
      "src": 558,
      "dest": 467
    },
    {
      "src": 467,
      "dest": 376
    },
    {
      "src": 537,
      "dest": 446
    },
    {
      "src": 542,
      "dest": 451
    },
    {
      "src": 34,
      "dest": 34
    },
    {
      "src": 520,
      "dest": 429
    },
    {
      "src": 234,
      "dest": 195
    },
    {
      "src": 618,
      "dest": 492
    },
    {
      "src": 479,
      "dest": 388
    },
    {
      "src": 405,
      "dest": 318
    },
    {
      "src": 108,
      "dest": 94
    },
    {
      "src": 436,
      "dest": 345
    },
    {
      "src": 360,
      "dest": 296
    },
    {
      "src": 225,
      "dest": 186
    },
    {
      "src": 606,
      "dest": 480
    },
    {
      "src": 275,
      "dest": 236
    },
    {
      "src": 10,
      "dest": 10
    },
    {
      "src": 409,
      "dest": 322
    },
    {
      "src": 325,
      "dest": 261
    },
    {
      "src": 166,
      "dest": 152
    },
    {
      "src": 207,
      "dest": 168
    },
    {
      "src": 307,
      "dest": 243
    },
    {
      "src": 451,
      "dest": 360
    },
    {
      "src": 25,
      "dest": 25
    },
    {
      "src": 305,
      "dest": 241
    },
    {
      "src": 535,
      "dest": 444
    },
    {
      "src": 518,
      "dest": 427
    },
    {
      "src": 231,
      "dest": 192
    },
    {
      "src": 302,
      "dest": 238
    },
    {
      "src": 176,
      "dest": 162
    },
    {
      "src": 87,
      "dest": 73
    },
    {
      "src": 510,
      "dest": 419
    },
    {
      "src": 448,
      "dest": 357
    },
    {
      "src": 171,
      "dest": 157
    },
    {
      "src": 152,
      "dest": 138
    },
    {
      "src": 206,
      "dest": 167
    },
    {
      "src": 497,
      "dest": 406
    },
    {
      "src": 640,
      "dest": 514
    },
    {
      "src": 266,
      "dest": 227
    },
    {
      "src": 369,
      "dest": 305
    },
    {
      "src": 130,
      "dest": 116
    },
    {
      "src": 347,
      "dest": 283
    },
    {
      "src": 315,
      "dest": 251
    },
    {
      "src": 105,
      "dest": 91
    },
    {
      "src": 358,
      "dest": 294
    },
    {
      "src": 308,
      "dest": 244
    },
    {
      "src": 251,
      "dest": 212
    },
    {
      "src": 147,
      "dest": 133
    },
    {
      "src": 339,
      "dest": 275
    },
    {
      "src": 342,
      "dest": 278
    },
    {
      "src": 41,
      "dest": 41
    },
    {
      "src": 513,
      "dest": 422
    },
    {
      "src": 515,
      "dest": 424
    },
    {
      "src": 465,
      "dest": 374
    },
    {
      "src": 255,
      "dest": 216
    },
    {
      "src": 42,
      "dest": 42
    },
    {
      "src": 236,
      "dest": 197
    },
    {
      "src": 350,
      "dest": 286
    },
    {
      "src": 525,
      "dest": 434
    },
    {
      "src": 485,
      "dest": 394
    },
    {
      "src": 562,
      "dest": 471
    },
    {
      "src": 258,
      "dest": 219
    },
    {
      "src": 204,
      "dest": 165
    },
    {
      "src": 120,
      "dest": 106
    },
    {
      "src": 18,
      "dest": 18
    },
    {
      "src": 38,
      "dest": 38
    },
    {
      "src": 226,
      "dest": 187
    },
    {
      "src": 216,
      "dest": 177
    },
    {
      "src": 23,
      "dest": 23
    },
    {
      "src": 100,
      "dest": 86
    },
    {
      "src": 603,
      "dest": 477
    },
    {
      "src": 634,
      "dest": 508
    },
    {
      "src": 173,
      "dest": 159
    },
    {
      "src": 494,
      "dest": 403
    },
    {
      "src": 564,
      "dest": 473
    },
    {
      "src": 511,
      "dest": 420
    },
    {
      "src": 55,
      "dest": 55
    },
    {
      "src": 500,
      "dest": 409
    },
    {
      "src": 160,
      "dest": 146
    },
    {
      "src": 509,
      "dest": 418
    },
    {
      "src": 127,
      "dest": 113
    },
    {
      "src": 365,
      "dest": 301
    },
    {
      "src": 101,
      "dest": 87
    },
    {
      "src": 557,
      "dest": 466
    },
    {
      "src": 46,
      "dest": 46
    },
    {
      "src": 170,
      "dest": 156
    },
    {
      "src": 446,
      "dest": 355
    },
    {
      "src": 221,
      "dest": 182
    },
    {
      "src": 157,
      "dest": 143
    },
    {
      "src": 644,
      "dest": 518
    },
    {
      "src": 367,
      "dest": 303
    },
    {
      "src": 659,
      "dest": 533
    },
    {
      "src": 222,
      "dest": 183
    },
    {
      "src": 544,
      "dest": 453
    },
    {
      "src": 215,
      "dest": 176
    },
    {
      "src": 651,
      "dest": 525
    },
    {
      "src": 539,
      "dest": 448
    },
    {
      "src": 220,
      "dest": 181
    },
    {
      "src": 461,
      "dest": 370
    },
    {
      "src": 605,
      "dest": 479
    },
    {
      "src": 536,
      "dest": 445
    },
    {
      "src": 33,
      "dest": 33
    },
    {
      "src": 156,
      "dest": 142
    },
    {
      "src": 136,
      "dest": 122
    },
    {
      "src": 107,
      "dest": 93
    },
    {
      "src": 239,
      "dest": 200
    },
    {
      "src": 332,
      "dest": 268
    },
    {
      "src": 546,
      "dest": 455
    },
    {
      "src": 9,
      "dest": 9
    },
    {
      "src": 113,
      "dest": 99
    },
    {
      "src": 309,
      "dest": 245
    },
    {
      "src": 554,
      "dest": 463
    },
    {
      "src": 560,
      "dest": 469
    },
    {
      "src": 439,
      "dest": 348
    },
    {
      "src": 260,
      "dest": 221
    },
    {
      "src": 361,
      "dest": 297
    },
    {
      "src": 16,
      "dest": 16
    },
    {
      "src": 227,
      "dest": 188
    },
    {
      "src": 230,
      "dest": 191
    },
    {
      "src": 102,
      "dest": 88
    },
    {
      "src": 137,
      "dest": 123
    },
    {
      "src": 639,
      "dest": 513
    },
    {
      "src": 7,
      "dest": 7
    },
    {
      "src": 508,
      "dest": 417
    },
    {
      "src": 470,
      "dest": 379
    },
    {
      "src": 519,
      "dest": 428
    },
    {
      "src": 31,
      "dest": 31
    },
    {
      "src": 491,
      "dest": 400
    },
    {
      "src": 138,
      "dest": 124
    },
    {
      "src": 552,
      "dest": 461
    },
    {
      "src": 235,
      "dest": 196
    },
    {
      "src": 419,
      "dest": 332
    },
    {
      "src": 499,
      "dest": 408
    },
    {
      "src": 224,
      "dest": 185
    },
    {
      "src": 607,
      "dest": 481
    },
    {
      "src": 541,
      "dest": 450
    },
    {
      "src": 540,
      "dest": 449
    },
    {
      "src": 125,
      "dest": 111
    },
    {
      "src": 415,
      "dest": 328
    },
    {
      "src": 273,
      "dest": 234
    },
    {
      "src": 78,
      "dest": 64
    },
    {
      "src": 632,
      "dest": 506
    },
    {
      "src": 621,
      "dest": 495
    },
    {
      "src": 559,
      "dest": 468
    },
    {
      "src": 124,
      "dest": 110
    },
    {
      "src": 326,
      "dest": 262
    },
    {
      "src": 43,
      "dest": 43
    },
    {
      "src": 487,
      "dest": 396
    },
    {
      "src": 404,
      "dest": 317
    },
    {
      "src": 77,
      "dest": 63
    },
    {
      "src": 620,
      "dest": 494
    },
    {
      "src": 427,
      "dest": 336
    },
    {
      "src": 630,
      "dest": 504
    },
    {
      "src": 503,
      "dest": 412
    },
    {
      "src": 333,
      "dest": 269
    },
    {
      "src": 660,
      "dest": 534
    },
    {
      "src": 274,
      "dest": 235
    },
    {
      "src": 355,
      "dest": 291
    },
    {
      "src": 329,
      "dest": 265
    },
    {
      "src": 177,
      "dest": 163
    },
    {
      "src": 528,
      "dest": 437
    },
    {
      "src": 490,
      "dest": 399
    },
    {
      "src": 440,
      "dest": 349
    },
    {
      "src": 223,
      "dest": 184
    },
    {
      "src": 35,
      "dest": 35
    },
    {
      "src": 348,
      "dest": 284
    },
    {
      "src": 83,
      "dest": 69
    },
    {
      "src": 533,
      "dest": 442
    },
    {
      "src": 148,
      "dest": 134
    },
    {
      "src": 57,
      "dest": 57
    },
    {
      "src": 60,
      "dest": 60
    },
    {
      "src": 149,
      "dest": 135
    },
    {
      "src": 155,
      "dest": 141
    },
    {
      "src": 129,
      "dest": 115
    },
    {
      "src": 545,
      "dest": 454
    },
    {
      "src": 243,
      "dest": 204
    },
    {
      "src": 550,
      "dest": 459
    },
    {
      "src": 517,
      "dest": 426
    },
    {
      "src": 51,
      "dest": 51
    },
    {
      "src": 262,
      "dest": 223
    },
    {
      "src": 318,
      "dest": 254
    },
    {
      "src": 97,
      "dest": 83
    },
    {
      "src": 338,
      "dest": 274
    },
    {
      "src": 126,
      "dest": 112
    },
    {
      "src": 119,
      "dest": 105
    },
    {
      "src": 441,
      "dest": 350
    },
    {
      "src": 95,
      "dest": 81
    },
    {
      "src": 444,
      "dest": 353
    },
    {
      "src": 496,
      "dest": 405
    },
    {
      "src": 337,
      "dest": 273
    },
    {
      "src": 457,
      "dest": 366
    },
    {
      "src": 417,
      "dest": 330
    },
    {
      "src": 458,
      "dest": 367
    },
    {
      "src": 658,
      "dest": 532
    },
    {
      "src": 363,
      "dest": 299
    },
    {
      "src": 244,
      "dest": 205
    },
    {
      "src": 335,
      "dest": 271
    },
    {
      "src": 344,
      "dest": 280
    },
    {
      "src": 158,
      "dest": 144
    },
    {
      "src": 270,
      "dest": 231
    },
    {
      "src": 501,
      "dest": 410
    },
    {
      "src": 638,
      "dest": 512
    },
    {
      "src": 468,
      "dest": 377
    },
    {
      "src": 144,
      "dest": 130
    },
    {
      "src": 139,
      "dest": 125
    },
    {
      "src": 475,
      "dest": 384
    },
    {
      "src": 625,
      "dest": 499
    },
    {
      "src": 254,
      "dest": 215
    },
    {
      "src": 351,
      "dest": 287
    },
    {
      "src": 484,
      "dest": 393
    },
    {
      "src": 334,
      "dest": 270
    },
    {
      "src": 359,
      "dest": 295
    },
    {
      "src": 549,
      "dest": 458
    },
    {
      "src": 314,
      "dest": 250
    },
    {
      "src": 505,
      "dest": 414
    },
    {
      "src": 2,
      "dest": 2
    },
    {
      "src": 655,
      "dest": 529
    },
    {
      "src": 330,
      "dest": 266
    },
    {
      "src": 48,
      "dest": 48
    },
    {
      "src": 483,
      "dest": 392
    },
    {
      "src": 616,
      "dest": 490
    },
    {
      "src": 8,
      "dest": 8
    },
    {
      "src": 353,
      "dest": 289
    },
    {
      "src": 80,
      "dest": 66
    },
    {
      "src": 656,
      "dest": 530
    },
    {
      "src": 11,
      "dest": 11
    },
    {
      "src": 82,
      "dest": 68
    },
    {
      "src": 429,
      "dest": 338
    },
    {
      "src": 402,
      "dest": 315
    },
    {
      "src": 551,
      "dest": 460
    },
    {
      "src": 133,
      "dest": 119
    },
    {
      "src": 85,
      "dest": 71
    },
    {
      "src": 633,
      "dest": 507
    },
    {
      "src": 145,
      "dest": 131
    },
    {
      "src": 17,
      "dest": 17
    },
    {
      "src": 516,
      "dest": 425
    },
    {
      "src": 111,
      "dest": 97
    },
    {
      "src": 24,
      "dest": 24
    },
    {
      "src": 527,
      "dest": 436
    },
    {
      "src": 44,
      "dest": 44
    },
    {
      "src": 619,
      "dest": 493
    },
    {
      "src": 328,
      "dest": 264
    },
    {
      "src": 635,
      "dest": 509
    },
    {
      "src": 561,
      "dest": 470
    },
    {
      "src": 482,
      "dest": 391
    },
    {
      "src": 29,
      "dest": 29
    },
    {
      "src": 146,
      "dest": 132
    },
    {
      "src": 267,
      "dest": 228
    },
    {
      "src": 352,
      "dest": 288
    },
    {
      "src": 514,
      "dest": 423
    },
    {
      "src": 398,
      "dest": 311
    },
    {
      "src": 175,
      "dest": 161
    },
    {
      "src": 653,
      "dest": 527
    },
    {
      "src": 58,
      "dest": 58
    },
    {
      "src": 368,
      "dest": 304
    },
    {
      "src": 445,
      "dest": 354
    },
    {
      "src": 122,
      "dest": 108
    },
    {
      "src": 272,
      "dest": 233
    },
    {
      "src": 172,
      "dest": 158
    },
    {
      "src": 153,
      "dest": 139
    },
    {
      "src": 21,
      "dest": 21
    },
    {
      "src": 233,
      "dest": 194
    },
    {
      "src": 47,
      "dest": 47
    },
    {
      "src": 212,
      "dest": 173
    },
    {
      "src": 349,
      "dest": 285
    },
    {
      "src": 128,
      "dest": 114
    },
    {
      "src": 256,
      "dest": 217
    },
    {
      "src": 246,
      "dest": 207
    },
    {
      "src": 112,
      "dest": 98
    },
    {
      "src": 650,
      "dest": 524
    },
    {
      "src": 362,
      "dest": 298
    },
    {
      "src": 471,
      "dest": 380
    },
    {
      "src": 506,
      "dest": 415
    },
    {
      "src": 134,
      "dest": 120
    },
    {
      "src": 322,
      "dest": 258
    },
    {
      "src": 553,
      "dest": 462
    },
    {
      "src": 449,
      "dest": 358
    },
    {
      "src": 37,
      "dest": 37
    },
    {
      "src": 648,
      "dest": 522
    },
    {
      "src": 395,
      "dest": 308
    },
    {
      "src": 624,
      "dest": 498
    },
    {
      "src": 219,
      "dest": 180
    },
    {
      "src": 411,
      "dest": 324
    },
    {
      "src": 538,
      "dest": 447
    },
    {
      "src": 88,
      "dest": 74
    },
    {
      "src": 123,
      "dest": 109
    },
    {
      "src": 323,
      "dest": 259
    },
    {
      "src": 268,
      "dest": 229
    },
    {
      "src": 304,
      "dest": 240
    },
    {
      "src": 486,
      "dest": 395
    },
    {
      "src": 473,
      "dest": 382
    },
    {
      "src": 211,
      "dest": 172
    },
    {
      "src": 399,
      "dest": 312
    },
    {
      "src": 310,
      "dest": 246
    },
    {
      "src": 228,
      "dest": 189
    },
    {
      "src": 28,
      "dest": 28
    },
    {
      "src": 121,
      "dest": 107
    },
    {
      "src": 229,
      "dest": 190
    },
    {
      "src": 617,
      "dest": 491
    },
    {
      "src": 94,
      "dest": 80
    },
    {
      "src": 401,
      "dest": 314
    },
    {
      "src": 354,
      "dest": 290
    },
    {
      "src": 165,
      "dest": 151
    },
    {
      "src": 645,
      "dest": 519
    },
    {
      "src": 649,
      "dest": 523
    },
    {
      "src": 416,
      "dest": 329
    },
    {
      "src": 489,
      "dest": 398
    },
    {
      "src": 131,
      "dest": 117
    },
    {
      "src": 343,
      "dest": 279
    },
    {
      "src": 615,
      "dest": 489
    },
    {
      "src": 19,
      "dest": 19
    },
    {
      "src": 86,
      "dest": 72
    },
    {
      "src": 407,
      "dest": 320
    },
    {
      "src": 364,
      "dest": 300
    },
    {
      "src": 459,
      "dest": 368
    },
    {
      "src": 331,
      "dest": 267
    },
    {
      "src": 99,
      "dest": 85
    },
    {
      "src": 92,
      "dest": 78
    },
    {
      "src": 317,
      "dest": 253
    },
    {
      "src": 450,
      "dest": 359
    },
    {
      "src": 495,
      "dest": 404
    },
    {
      "src": 109,
      "dest": 95
    },
    {
      "src": 406,
      "dest": 319
    },
    {
      "src": 81,
      "dest": 67
    },
    {
      "src": 476,
      "dest": 385
    },
    {
      "src": 654,
      "dest": 528
    },
    {
      "src": 245,
      "dest": 206
    },
    {
      "src": 612,
      "dest": 486
    },
    {
      "src": 321,
      "dest": 257
    },
    {
      "src": 623,
      "dest": 497
    },
    {
      "src": 210,
      "dest": 171
    },
    {
      "src": 608,
      "dest": 482
    },
    {
      "src": 169,
      "dest": 155
    },
    {
      "src": 614,
      "dest": 488
    },
    {
      "src": 205,
      "dest": 166
    },
    {
      "src": 452,
      "dest": 361
    },
    {
      "src": 629,
      "dest": 503
    },
    {
      "src": 437,
      "dest": 346
    },
    {
      "src": 327,
      "dest": 263
    },
    {
      "src": 91,
      "dest": 77
    },
    {
      "src": 250,
      "dest": 211
    },
    {
      "src": 462,
      "dest": 371
    },
    {
      "src": 447,
      "dest": 356
    },
    {
      "src": 132,
      "dest": 118
    },
    {
      "src": 547,
      "dest": 456
    },
    {
      "src": 20,
      "dest": 20
    },
    {
      "src": 455,
      "dest": 364
    },
    {
      "src": 434,
      "dest": 343
    },
    {
      "src": 117,
      "dest": 103
    },
    {
      "src": 512,
      "dest": 421
    },
    {
      "src": 524,
      "dest": 433
    },
    {
      "src": 151,
      "dest": 137
    },
    {
      "src": 118,
      "dest": 104
    },
    {
      "src": 370,
      "dest": 306
    },
    {
      "src": 242,
      "dest": 203
    },
    {
      "src": 52,
      "dest": 52
    },
    {
      "src": 480,
      "dest": 389
    },
    {
      "src": 463,
      "dest": 372
    },
    {
      "src": 214,
      "dest": 175
    },
    {
      "src": 324,
      "dest": 260
    },
    {
      "src": 217,
      "dest": 178
    },
    {
      "src": 45,
      "dest": 45
    },
    {
      "src": 22,
      "dest": 22
    },
    {
      "src": 346,
      "dest": 282
    },
    {
      "src": 154,
      "dest": 140
    },
    {
      "src": 178,
      "dest": 164
    },
    {
      "src": 162,
      "dest": 148
    },
    {
      "src": 319,
      "dest": 255
    },
    {
      "src": 316,
      "dest": 252
    },
    {
      "src": 104,
      "dest": 90
    },
    {
      "src": 240,
      "dest": 201
    },
    {
      "src": 474,
      "dest": 383
    },
    {
      "src": 636,
      "dest": 510
    },
    {
      "src": 631,
      "dest": 505
    },
    {
      "src": 271,
      "dest": 232
    },
    {
      "src": 142,
      "dest": 128
    },
    {
      "src": 420,
      "dest": 333
    },
    {
      "src": 26,
      "dest": 26
    },
    {
      "src": 159,
      "dest": 145
    },
    {
      "src": 303,
      "dest": 239
    },
    {
      "src": 403,
      "dest": 316
    },
    {
      "src": 642,
      "dest": 516
    },
    {
      "src": 237,
      "dest": 198
    },
    {
      "src": 150,
      "dest": 136
    },
    {
      "src": 264,
      "dest": 225
    },
    {
      "src": 357,
      "dest": 293
    },
    {
      "src": 478,
      "dest": 387
    },
    {
      "src": 247,
      "dest": 208
    },
    {
      "src": 49,
      "dest": 49
    },
    {
      "src": 6,
      "dest": 6
    },
    {
      "src": 609,
      "dest": 483
    },
    {
      "src": 241,
      "dest": 202
    },
    {
      "src": 443,
      "dest": 352
    },
    {
      "src": 432,
      "dest": 341
    },
    {
      "src": 622,
      "dest": 496
    },
    {
      "src": 50,
      "dest": 50
    },
    {
      "src": 257,
      "dest": 218
    },
    {
      "src": 218,
      "dest": 179
    },
    {
      "src": 600,
      "dest": 474
    },
    {
      "src": 543,
      "dest": 452
    },
    {
      "src": 529,
      "dest": 438
    },
    {
      "src": 269,
      "dest": 230
    },
    {
      "src": 174,
      "dest": 160
    },
    {
      "src": 59,
      "dest": 59
    },
    {
      "src": 410,
      "dest": 323
    },
    {
      "src": 628,
      "dest": 502
    },
    {
      "src": 428,
      "dest": 337
    },
    {
      "src": 306,
      "dest": 242
    },
    {
      "src": 36,
      "dest": 36
    },
    {
      "src": 163,
      "dest": 149
    },
    {
      "src": 84,
      "dest": 70
    },
    {
      "src": 4,
      "dest": 4
    },
    {
      "src": 209,
      "dest": 170
    },
    {
      "src": 438,
      "dest": 347
    },
    {
      "src": 103,
      "dest": 89
    },
    {
      "src": 641,
      "dest": 515
    },
    {
      "src": 613,
      "dest": 487
    },
    {
      "src": 522,
      "dest": 431
    },
    {
      "src": 76,
      "dest": 62
    },
    {
      "src": 1,
      "dest": 1
    },
    {
      "src": 414,
      "dest": 327
    },
    {
      "src": 421,
      "dest": 334
    },
    {
      "src": 646,
      "dest": 520
    },
    {
      "src": 469,
      "dest": 378
    },
    {
      "src": 418,
      "dest": 331
    },
    {
      "src": 502,
      "dest": 411
    },
    {
      "src": 626,
      "dest": 500
    },
    {
      "src": 135,
      "dest": 121
    },
    {
      "src": 106,
      "dest": 92
    },
    {
      "src": 253,
      "dest": 214
    },
    {
      "src": 5,
      "dest": 5
    },
    {
      "src": 13,
      "dest": 13
    },
    {
      "src": 114,
      "dest": 100
    },
    {
      "src": 301,
      "dest": 237
    },
    {
      "src": 161,
      "dest": 147
    },
    {
      "src": 523,
      "dest": 432
    },
    {
      "src": 98,
      "dest": 84
    },
    {
      "src": 652,
      "dest": 526
    },
    {
      "src": 604,
      "dest": 478
    },
    {
      "src": 340,
      "dest": 276
    },
    {
      "src": 435,
      "dest": 344
    },
    {
      "src": 164,
      "dest": 150
    }
  ],
  "actions": [
    {
      "action": "insert",
      "tree": 335,
      "parent": 336,
      "at": 0
    },
    {
      "action": "update",
      "tree": 421,
      "label": "NULL"
    },
    {
      "action": "move",
      "tree": 421,
      "parent": 335,
      "at": 0
    },
    {
      "action": "delete",
      "tree": 61
    },
    {
      "action": "delete",
      "tree": 62
    },
    {
      "action": "delete",
      "tree": 63
    },
    {
      "action": "delete",
      "tree": 64
    },
    {
      "action": "delete",
      "tree": 65
    },
    {
      "action": "delete",
      "tree": 66
    },
    {
      "action": "delete",
      "tree": 67
    },
    {
      "action": "delete",
      "tree": 68
    },
    {
      "action": "delete",
      "tree": 69
    },
    {
      "action": "delete",
      "tree": 70
    },
    {
      "action": "delete",
      "tree": 71
    },
    {
      "action": "delete",
      "tree": 72
    },
    {
      "action": "delete",
      "tree": 73
    },
    {
      "action": "delete",
      "tree": 74
    },
    {
      "action": "delete",
      "tree": 179
    },
    {
      "action": "delete",
      "tree": 180
    },
    {
      "action": "delete",
      "tree": 181
    },
    {
      "action": "delete",
      "tree": 182
    },
    {
      "action": "delete",
      "tree": 183
    },
    {
      "action": "delete",
      "tree": 184
    },
    {
      "action": "delete",
      "tree": 185
    },
    {
      "action": "delete",
      "tree": 186
    },
    {
      "action": "delete",
      "tree": 187
    },
    {
      "action": "delete",
      "tree": 188
    },
    {
      "action": "delete",
      "tree": 189
    },
    {
      "action": "delete",
      "tree": 190
    },
    {
      "action": "delete",
      "tree": 191
    },
    {
      "action": "delete",
      "tree": 192
    },
    {
      "action": "delete",
      "tree": 193
    },
    {
      "action": "delete",
      "tree": 194
    },
    {
      "action": "delete",
      "tree": 195
    },
    {
      "action": "delete",
      "tree": 196
    },
    {
      "action": "delete",
      "tree": 197
    },
    {
      "action": "delete",
      "tree": 198
    },
    {
      "action": "delete",
      "tree": 199
    },
    {
      "action": "delete",
      "tree": 200
    },
    {
      "action": "delete",
      "tree": 201
    },
    {
      "action": "delete",
      "tree": 202
    },
    {
      "action": "delete",
      "tree": 203
    },
    {
      "action": "delete",
      "tree": 276
    },
    {
      "action": "delete",
      "tree": 277
    },
    {
      "action": "delete",
      "tree": 278
    },
    {
      "action": "delete",
      "tree": 279
    },
    {
      "action": "delete",
      "tree": 280
    },
    {
      "action": "delete",
      "tree": 281
    },
    {
      "action": "delete",
      "tree": 282
    },
    {
      "action": "delete",
      "tree": 283
    },
    {
      "action": "delete",
      "tree": 284
    },
    {
      "action": "delete",
      "tree": 285
    },
    {
      "action": "delete",
      "tree": 286
    },
    {
      "action": "delete",
      "tree": 287
    },
    {
      "action": "delete",
      "tree": 288
    },
    {
      "action": "delete",
      "tree": 289
    },
    {
      "action": "delete",
      "tree": 290
    },
    {
      "action": "delete",
      "tree": 291
    },
    {
      "action": "delete",
      "tree": 292
    },
    {
      "action": "delete",
      "tree": 293
    },
    {
      "action": "delete",
      "tree": 294
    },
    {
      "action": "delete",
      "tree": 295
    },
    {
      "action": "delete",
      "tree": 296
    },
    {
      "action": "delete",
      "tree": 297
    },
    {
      "action": "delete",
      "tree": 298
    },
    {
      "action": "delete",
      "tree": 299
    },
    {
      "action": "delete",
      "tree": 300
    },
    {
      "action": "delete",
      "tree": 371
    },
    {
      "action": "delete",
      "tree": 372
    },
    {
      "action": "delete",
      "tree": 373
    },
    {
      "action": "delete",
      "tree": 374
    },
    {
      "action": "delete",
      "tree": 375
    },
    {
      "action": "delete",
      "tree": 376
    },
    {
      "action": "delete",
      "tree": 377
    },
    {
      "action": "delete",
      "tree": 378
    },
    {
      "action": "delete",
      "tree": 379
    },
    {
      "action": "delete",
      "tree": 380
    },
    {
      "action": "delete",
      "tree": 381
    },
    {
      "action": "delete",
      "tree": 382
    },
    {
      "action": "delete",
      "tree": 383
    },
    {
      "action": "delete",
      "tree": 384
    },
    {
      "action": "delete",
      "tree": 385
    },
    {
      "action": "delete",
      "tree": 386
    },
    {
      "action": "delete",
      "tree": 387
    },
    {
      "action": "delete",
      "tree": 388
    },
    {
      "action": "delete",
      "tree": 389
    },
    {
      "action": "delete",
      "tree": 390
    },
    {
      "action": "delete",
      "tree": 391
    },
    {
      "action": "delete",
      "tree": 392
    },
    {
      "action": "delete",
      "tree": 393
    },
    {
      "action": "delete",
      "tree": 422
    },
    {
      "action": "delete",
      "tree": 423
    },
    {
      "action": "delete",
      "tree": 424
    },
    {
      "action": "delete",
      "tree": 425
    },
    {
      "action": "delete",
      "tree": 426
    },
    {
      "action": "delete",
      "tree": 565
    },
    {
      "action": "delete",
      "tree": 566
    },
    {
      "action": "delete",
      "tree": 567
    },
    {
      "action": "delete",
      "tree": 568
    },
    {
      "action": "delete",
      "tree": 569
    },
    {
      "action": "delete",
      "tree": 570
    },
    {
      "action": "delete",
      "tree": 571
    },
    {
      "action": "delete",
      "tree": 572
    },
    {
      "action": "delete",
      "tree": 573
    },
    {
      "action": "delete",
      "tree": 574
    },
    {
      "action": "delete",
      "tree": 575
    },
    {
      "action": "delete",
      "tree": 576
    },
    {
      "action": "delete",
      "tree": 577
    },
    {
      "action": "delete",
      "tree": 578
    },
    {
      "action": "delete",
      "tree": 579
    },
    {
      "action": "delete",
      "tree": 580
    },
    {
      "action": "delete",
      "tree": 581
    },
    {
      "action": "delete",
      "tree": 582
    },
    {
      "action": "delete",
      "tree": 583
    },
    {
      "action": "delete",
      "tree": 584
    },
    {
      "action": "delete",
      "tree": 585
    },
    {
      "action": "delete",
      "tree": 586
    },
    {
      "action": "delete",
      "tree": 587
    },
    {
      "action": "delete",
      "tree": 588
    },
    {
      "action": "delete",
      "tree": 589
    },
    {
      "action": "delete",
      "tree": 590
    },
    {
      "action": "delete",
      "tree": 591
    },
    {
      "action": "delete",
      "tree": 592
    },
    {
      "action": "delete",
      "tree": 593
    },
    {
      "action": "delete",
      "tree": 594
    },
    {
      "action": "delete",
      "tree": 595
    },
    {
      "action": "delete",
      "tree": 596
    },
    {
      "action": "delete",
      "tree": 597
    },
    {
      "action": "delete",
      "tree": 598
    },
    {
      "action": "delete",
      "tree": 599
    }
  ]
}