{
	"root": {
		"type": "460000",
		"typeLabel": "Program",
		"pos": "1570",
		"length": "910",
		"children": [
			{
				"type": "450300",
				"typeLabel": "CppTop",
				"pos": "1570",
				"length": "19",
				"children": [
					{
						"type": "400200",
						"typeLabel": "Include",
						"pos": "1570",
						"length": "19",
						"children": [
							{
								"type": "480000",
								"label": "<stdlib.h>",
								"typeLabel": "GenericString",
								"pos": "1579",
								"length": "10",
								"children": []
							}
						]
					}
				]
			},
			{
				"type": "450300",
				"typeLabel": "CppTop",
				"pos": "1590",
				"length": "29",
				"children": [
					{
						"type": "400200",
						"typeLabel": "Include",
						"pos": "1590",
						"length": "29",
						"children": [
							{
								"type": "480000",
								"label": "<grpc/compression.h>",
								"typeLabel": "GenericString",
								"pos": "1599",
								"length": "20",
								"children": []
							}
						]
					}
				]
			},
			{
				"type": "450200",
				"typeLabel": "Definition",
				"pos": "1621",
				"length": "354",
				"children": [
					{
						"type": "380000",
						"typeLabel": "Definition",
						"pos": "1621",
						"length": "354",
						"children": [
							{
								"type": "200000",
								"typeLabel": "ParamList",
								"pos": "1664",
								"length": "43",
								"children": [
									{
										"type": "220100",
										"typeLabel": "ParameterType",
										"pos": "1670",
										"length": "36",
										"children": [
											{
												"type": "480000",
												"label": "algorithm",
												"typeLabel": "GenericString",
												"pos": "1697",
												"length": "9",
												"children": []
											}
										]
									}
								]
							},
							{
								"type": "480000",
								"label": "grpc_compression_algorithm_name",
								"typeLabel": "GenericString",
								"pos": "1633",
								"length": "31",
								"children": []
							},
							{
								"type": "330000",
								"typeLabel": "Compound",
								"pos": "1708",
								"length": "267",
								"children": [
									{
										"type": "300200",
										"typeLabel": "Switch",
										"pos": "1712",
										"length": "243",
										"children": [
											{
												"type": "240100",
												"typeLabel": "Ident",
												"pos": "1720",
												"length": "9",
												"children": [
													{
														"type": "480000",
														"label": "algorithm",
														"typeLabel": "GenericString",
														"pos": "1720",
														"length": "9",
														"children": []
													}
												]
											},
											{
												"type": "330000",
												"typeLabel": "Compound",
												"pos": "1731",
												"length": "224",
												"children": [
													{
														"type": "270200",
														"typeLabel": "Case",
														"pos": "1737",
														"length": "45",
														"children": [
															{
																"type": "240100",
																"typeLabel": "Ident",
																"pos": "1742",
																"length": "18",
																"children": [
																	{
																		"type": "480000",
																		"label": "GRPC_COMPRESS_NONE",
																		"typeLabel": "GenericString",
																		"pos": "1742",
																		"length": "18",
																		"children": []
																	}
																]
															},
															{
																"type": "280200",
																"typeLabel": "ReturnExpr",
																"pos": "1768",
																"length": "14",
																"children": [
																	{
																		"type": "240200",
																		"label": "\"none\"",
																		"typeLabel": "Constant",
																		"pos": "1775",
																		"length": "6",
																		"children": []
																	}
																]
															}
														]
													},
													{
														"type": "270200",
														"typeLabel": "Case",
														"pos": "1787",
														"length": "51",
														"children": [
															{
																"type": "240100",
																"typeLabel": "Ident",
																"pos": "1792",
																"length": "21",
																"children": [
																	{
																		"type": "480000",
																		"label": "GRPC_COMPRESS_DEFLATE",
																		"typeLabel": "GenericString",
																		"pos": "1792",
																		"length": "21",
																		"children": []
																	}
																]
															},
															{
																"type": "280200",
																"typeLabel": "ReturnExpr",
																"pos": "1821",
																"length": "17",
																"children": [
																	{
																		"type": "240200",
																		"label": "\"deflate\"",
																		"typeLabel": "Constant",
																		"pos": "1828",
																		"length": "9",
																		"children": []
																	}
																]
															}
														]
													},
													{
														"type": "270200",
														"typeLabel": "Case",
														"pos": "1843",
														"length": "45",
														"children": [
															{
																"type": "240100",
																"typeLabel": "Ident",
																"pos": "1848",
																"length": "18",
																"children": [
																	{
																		"type": "480000",
																		"label": "GRPC_COMPRESS_GZIP",
																		"typeLabel": "GenericString",
																		"pos": "1848",
																		"length": "18",
																		"children": []
																	}
																]
															},
															{
																"type": "280200",
																"typeLabel": "ReturnExpr",
																"pos": "1874",
																"length": "14",
																"children": [
																	{
																		"type": "240200",
																		"label": "\"gzip\"",
																		"typeLabel": "Constant",
																		"pos": "1881",
																		"length": "6",
																		"children": []
																	}
																]
															}
														]
													},
													{
														"type": "270200",
														"typeLabel": "Case",
														"pos": "1893",
														"length": "58",
														"children": [
															{
																"type": "240100",
																"typeLabel": "Ident",
																"pos": "1898",
																"length": "30",
																"children": [
																	{
																		"type": "480000",
																		"label": "GRPC_COMPRESS_ALGORITHMS_COUNT",
																		"typeLabel": "GenericString",
																		"pos": "1898",
																		"length": "30",
																		"children": []
																	}
																]
															},
															{
																"type": "280200",
																"typeLabel": "ReturnExpr",
																"pos": "1936",
																"length": "15",
																"children": [
																	{
																		"type": "240200",
																		"label": "\"error\"",
																		"typeLabel": "Constant",
																		"pos": "1943",
																		"length": "7",
																		"children": []
																	}
																]
															}
														]
													}
												]
											}
										]
									},
									{
										"type": "280200",
										"typeLabel": "ReturnExpr",
										"pos": "1958",
										"length": "15",
										"children": [
											{
												"type": "240200",
												"label": "\"error\"",
												"typeLabel": "Constant",
												"pos": "1965",
												"length": "7",
												"children": []
											}
										]
									}
								]
							}
						]
					}
				]
			},
			{
				"type": "450200",
				"typeLabel": "Definition",
				"pos": "2076",
				"length": "403",
				"children": [
					{
						"type": "380000",
						"typeLabel": "Definition",
						"pos": "2076",
						"length": "403",
						"children": [
							{
								"type": "200000",
								"typeLabel": "ParamList",
								"pos": "2139",
								"length": "35",
								"children": [
									{
										"type": "220100",
										"typeLabel": "ParameterType",
										"pos": "2145",
										"length": "28",
										"children": [
											{
												"type": "480000",
												"label": "level",
												"typeLabel": "GenericString",
												"pos": "2168",
												"length": "5",
												"children": []
											}
										]
									}
								]
							},
							{
								"type": "480000",
								"label": "grpc_compression_algorithm_for_level",
								"typeLabel": "GenericString",
								"pos": "2103",
								"length": "36",
								"children": []
							},
							{
								"type": "330000",
								"typeLabel": "Compound",
								"pos": "2175",
								"length": "304",
								"children": [
									{
										"type": "300200",
										"typeLabel": "Switch",
										"pos": "2179",
										"length": "298",
										"children": [
											{
												"type": "240100",
												"typeLabel": "Ident",
												"pos": "2187",
												"length": "5",
												"children": [
													{
														"type": "480000",
														"label": "level",
														"typeLabel": "GenericString",
														"pos": "2187",
														"length": "5",
														"children": []
													}
												]
											},
											{
												"type": "330000",
												"typeLabel": "Compound",
												"pos": "2194",
												"length": "283",
												"children": [
													{
														"type": "270200",
														"typeLabel": "Case",
														"pos": "2200",
														"length": "63",
														"children": [
															{
																"type": "240100",
																"typeLabel": "Ident",
																"pos": "2205",
																"length": "24",
																"children": [
																	{
																		"type": "480000",
																		"label": "GRPC_COMPRESS_LEVEL_NONE",
																		"typeLabel": "GenericString",
																		"pos": "2205",
																		"length": "24",
																		"children": []
																	}
																]
															},
															{
																"type": "280200",
																"typeLabel": "ReturnExpr",
																"pos": "2237",
																"length": "26",
																"children": [
																	{
																		"type": "240100",
																		"typeLabel": "Ident",
																		"pos": "2244",
																		"length": "18",
																		"children": [
																			{
																				"type": "480000",
																				"label": "GRPC_COMPRESS_NONE",
																				"typeLabel": "GenericString",
																				"pos": "2244",
																				"length": "18",
																				"children": []
																			}
																		]
																	}
																]
															}
														]
													},
													{
														"type": "270200",
														"typeLabel": "Case",
														"pos": "2268",
														"length": "134",
														"children": [
															{
																"type": "240100",
																"typeLabel": "Ident",
																"pos": "2273",
																"length": "23",
																"children": [
																	{
																		"type": "480000",
																		"label": "GRPC_COMPRESS_LEVEL_LOW",
																		"typeLabel": "GenericString",
																		"pos": "2273",
																		"length": "23",
																		"children": []
																	}
																]
															},
															{
																"type": "270200",
																"typeLabel": "Case",
																"pos": "2302",
																"length": "100",
																"children": [
																	{
																		"type": "240100",
																		"typeLabel": "Ident",
																		"pos": "2307",
																		"length": "23",
																		"children": [
																			{
																				"type": "480000",
																				"label": "GRPC_COMPRESS_LEVEL_MED",
																				"typeLabel": "GenericString",
																				"pos": "2307",
																				"length": "23",
																				"children": []
																			}
																		]
																	},
																	{
																		"type": "270200",
																		"typeLabel": "Case",
																		"pos": "2336",
																		"length": "66",
																		"children": [
																			{
																				"type": "240100",
																				"typeLabel": "Ident",
																				"pos": "2341",
																				"length": "24",
																				"children": [
																					{
																						"type": "480000",
																						"label": "GRPC_COMPRESS_LEVEL_HIGH",
																						"typeLabel": "GenericString",
																						"pos": "2341",
																						"length": "24",
																						"children": []
																					}
																				]
																			},
																			{
																				"type": "280200",
																				"typeLabel": "ReturnExpr",
																				"pos": "2373",
																				"length": "29",
																				"children": [
																					{
																						"type": "240100",
																						"typeLabel": "Ident",
																						"pos": "2380",
																						"length": "21",
																						"children": [
																							{
																								"type": "480000",
																								"label": "GRPC_COMPRESS_DEFLATE",
																								"typeLabel": "GenericString",
																								"pos": "2380",
																								"length": "21",
																								"children": []
																							}
																						]
																					}
																				]
																			}
																		]
																	}
																]
															}
														]
													},
													{
														"type": "270400",
														"typeLabel": "Default",
														"pos": "2407",
														"length": "66",
														"children": [
															{
																"type": "260300",
																"typeLabel": "ExprStatement",
																"pos": "2465",
																"length": "8",
																"children": [
																	{
																		"type": "290100",
																		"typeLabel": "Some",
																		"pos": "2465",
																		"length": "8",
																		"children": [
																			{
																				"type": "240400",
																				"typeLabel": "FunCall",
																				"pos": "2465",
																				"length": "7",
																				"children": [
																					{
																						"type": "240100",
																						"typeLabel": "Ident",
																						"pos": "2465",
																						"length": "5",
																						"children": [
																							{
																								"type": "480000",
																								"label": "abort",
																								"typeLabel": "GenericString",
																								"pos": "2465",
																								"length": "5",
																								"children": []
																							}
																						]
																					},
																					{
																						"type": "470000",
																						"typeLabel": "GenericList",
																						"pos": "2470",
																						"length": "2",
																						"children": []
																					}
																				]
																			},
																			{
																				"type": "480000",
																				"label": ";",
																				"typeLabel": "GenericString",
																				"pos": "2472",
																				"length": "1",
																				"children": []
																			}
																		]
																	}
																]
															}
														]
													}
												]
											}
										]
									}
								]
							}
						]
					}
				]
			},
			{
				"type": "450800",
				"typeLabel": "FinalDef",
				"pos": "2480",
				"length": "0",
				"children": []
			}
		]
	}
}