{
	"root": {
		"type": "460000",
		"typeLabel": "Program",
		"pos": "1570",
		"length": "1730",
		"children": [
			{
				"type": "450300",
				"typeLabel": "CppTop",
				"pos": "1570",
				"length": "19",
				"children": [
					{
						"type": "400200",
						"typeLabel": "Include",
						"pos": "1570",
						"length": "19",
						"children": [
							{
								"type": "480000",
								"label": "<stdlib.h>",
								"typeLabel": "GenericString",
								"pos": "1579",
								"length": "10",
								"children": []
							}
						]
					}
				]
			},
			{
				"type": "450300",
				"typeLabel": "CppTop",
				"pos": "1590",
				"length": "19",
				"children": [
					{
						"type": "400200",
						"typeLabel": "Include",
						"pos": "1590",
						"length": "19",
						"children": [
							{
								"type": "480000",
								"label": "<string.h>",
								"typeLabel": "GenericString",
								"pos": "1599",
								"length": "10",
								"children": []
							}
						]
					}
				]
			},
			{
				"type": "450300",
				"typeLabel": "CppTop",
				"pos": "1610",
				"length": "29",
				"children": [
					{
						"type": "400200",
						"typeLabel": "Include",
						"pos": "1610",
						"length": "29",
						"children": [
							{
								"type": "480000",
								"label": "<grpc/compression.h>",
								"typeLabel": "GenericString",
								"pos": "1619",
								"length": "20",
								"children": []
							}
						]
					}
				]
			},
			{
				"type": "450200",
				"typeLabel": "Definition",
				"pos": "1641",
				"length": "411",
				"children": [
					{
						"type": "380000",
						"typeLabel": "Definition",
						"pos": "1641",
						"length": "411",
						"children": [
							{
								"type": "200000",
								"typeLabel": "ParamList",
								"pos": "1677",
								"length": "94",
								"children": [
									{
										"type": "220100",
										"typeLabel": "ParameterType",
										"pos": "1678",
										"length": "16",
										"children": [
											{
												"type": "480000",
												"label": "name",
												"typeLabel": "GenericString",
												"pos": "1690",
												"length": "4",
												"children": []
											}
										]
									},
									{
										"type": "220100",
										"typeLabel": "ParameterType",
										"pos": "1733",
										"length": "37",
										"children": [
											{
												"type": "480000",
												"label": "algorithm",
												"typeLabel": "GenericString",
												"pos": "1761",
												"length": "9",
												"children": []
											}
										]
									}
								]
							},
							{
								"type": "480000",
								"label": "grpc_compression_algorithm_parse",
								"typeLabel": "GenericString",
								"pos": "1645",
								"length": "32",
								"children": []
							},
							{
								"type": "330000",
								"typeLabel": "Compound",
								"pos": "1772",
								"length": "280",
								"children": [
									{
										"type": "300100",
										"typeLabel": "If",
										"pos": "1776",
										"length": "262",
										"children": [
											{
												"type": "490100",
												"typeLabel": "IfToken",
												"pos": "1776",
												"length": "2",
												"children": []
											},
											{
												"type": "241100",
												"typeLabel": "Binary",
												"pos": "1780",
												"length": "25",
												"children": [
													{
														"type": "240400",
														"typeLabel": "FunCall",
														"pos": "1780",
														"length": "20",
														"children": [
															{
																"type": "240100",
																"typeLabel": "Ident",
																"pos": "1780",
																"length": "6",
																"children": [
																	{
																		"type": "480000",
																		"label": "strcmp",
																		"typeLabel": "GenericString",
																		"pos": "1780",
																		"length": "6",
																		"children": []
																	}
																]
															},
															{
																"type": "470000",
																"typeLabel": "GenericList",
																"pos": "1786",
																"length": "14",
																"children": [
																	{
																		"type": "20100",
																		"typeLabel": "Left",
																		"pos": "1787",
																		"length": "4",
																		"children": [
																			{
																				"type": "240100",
																				"typeLabel": "Ident",
																				"pos": "1787",
																				"length": "4",
																				"children": [
																					{
																						"type": "480000",
																						"label": "name",
																						"typeLabel": "GenericString",
																						"pos": "1787",
																						"length": "4",
																						"children": []
																					}
																				]
																			}
																		]
																	},
																	{
																		"type": "20100",
																		"typeLabel": "Left",
																		"pos": "1793",
																		"length": "6",
																		"children": [
																			{
																				"type": "240200",
																				"label": "\"none\"",
																				"typeLabel": "Constant",
																				"pos": "1793",
																				"length": "6",
																				"children": []
																			}
																		]
																	}
																]
															}
														]
													},
													{
														"type": "480000",
														"label": "==",
														"typeLabel": "GenericString",
														"pos": "1801",
														"length": "2",
														"children": []
													},
													{
														"type": "240200",
														"label": "0",
														"typeLabel": "Constant",
														"pos": "1804",
														"length": "1",
														"children": []
													}
												]
											},
											{
												"type": "330000",
												"typeLabel": "Compound",
												"pos": "1807",
												"length": "42",
												"children": [
													{
														"type": "260300",
														"typeLabel": "ExprStatement",
														"pos": "1813",
														"length": "32",
														"children": [
															{
																"type": "290100",
																"typeLabel": "Some",
																"pos": "1813",
																"length": "32",
																"children": [
																	{
																		"type": "240700",
																		"typeLabel": "Assignment",
																		"pos": "1813",
																		"length": "31",
																		"children": [
																			{
																				"type": "241000",
																				"typeLabel": "Unary",
																				"pos": "1813",
																				"length": "10",
																				"children": [
																					{
																						"type": "240100",
																						"typeLabel": "Ident",
																						"pos": "1814",
																						"length": "9",
																						"children": [
																							{
																								"type": "480000",
																								"label": "algorithm",
																								"typeLabel": "GenericString",
																								"pos": "1814",
																								"length": "9",
																								"children": []
																							}
																						]
																					},
																					{
																						"type": "480000",
																						"label": "*",
																						"typeLabel": "GenericString",
																						"pos": "1813",
																						"length": "1",
																						"children": []
																					}
																				]
																			},
																			{
																				"type": "480000",
																				"label": "=",
																				"typeLabel": "GenericString",
																				"pos": "1824",
																				"length": "1",
																				"children": []
																			},
																			{
																				"type": "240100",
																				"typeLabel": "Ident",
																				"pos": "1826",
																				"length": "18",
																				"children": [
																					{
																						"type": "480000",
																						"label": "GRPC_COMPRESS_NONE",
																						"typeLabel": "GenericString",
																						"pos": "1826",
																						"length": "18",
																						"children": []
																					}
																				]
																			}
																		]
																	},
																	{
																		"type": "480000",
																		"label": ";",
																		"typeLabel": "GenericString",
																		"pos": "1844",
																		"length": "1",
																		"children": []
																	}
																]
															}
														]
													}
												]
											},
											{
												"type": "300100",
												"typeLabel": "If",
												"pos": "1855",
												"length": "183",
												"children": [
													{
														"type": "490100",
														"typeLabel": "IfToken",
														"pos": "1855",
														"length": "2",
														"children": []
													},
													{
														"type": "241100",
														"typeLabel": "Binary",
														"pos": "1859",
														"length": "25",
														"children": [
															{
																"type": "240400",
																"typeLabel": "FunCall",
																"pos": "1859",
																"length": "20",
																"children": [
																	{
																		"type": "240100",
																		"typeLabel": "Ident",
																		"pos": "1859",
																		"length": "6",
																		"children": [
																			{
																				"type": "480000",
																				"label": "strcmp",
																				"typeLabel": "GenericString",
																				"pos": "1859",
																				"length": "6",
																				"children": []
																			}
																		]
																	},
																	{
																		"type": "470000",
																		"typeLabel": "GenericList",
																		"pos": "1865",
																		"length": "14",
																		"children": [
																			{
																				"type": "20100",
																				"typeLabel": "Left",
																				"pos": "1866",
																				"length": "4",
																				"children": [
																					{
																						"type": "240100",
																						"typeLabel": "Ident",
																						"pos": "1866",
																						"length": "4",
																						"children": [
																							{
																								"type": "480000",
																								"label": "name",
																								"typeLabel": "GenericString",
																								"pos": "1866",
																								"length": "4",
																								"children": []
																							}
																						]
																					}
																				]
																			},
																			{
																				"type": "20100",
																				"typeLabel": "Left",
																				"pos": "1872",
																				"length": "6",
																				"children": [
																					{
																						"type": "240200",
																						"label": "\"gzip\"",
																						"typeLabel": "Constant",
																						"pos": "1872",
																						"length": "6",
																						"children": []
																					}
																				]
																			}
																		]
																	}
																]
															},
															{
																"type": "480000",
																"label": "==",
																"typeLabel": "GenericString",
																"pos": "1880",
																"length": "2",
																"children": []
															},
															{
																"type": "240200",
																"label": "0",
																"typeLabel": "Constant",
																"pos": "1883",
																"length": "1",
																"children": []
															}
														]
													},
													{
														"type": "330000",
														"typeLabel": "Compound",
														"pos": "1886",
														"length": "42",
														"children": [
															{
																"type": "260300",
																"typeLabel": "ExprStatement",
																"pos": "1892",
																"length": "32",
																"children": [
																	{
																		"type": "290100",
																		"typeLabel": "Some",
																		"pos": "1892",
																		"length": "32",
																		"children": [
																			{
																				"type": "240700",
																				"typeLabel": "Assignment",
																				"pos": "1892",
																				"length": "31",
																				"children": [
																					{
																						"type": "241000",
																						"typeLabel": "Unary",
																						"pos": "1892",
																						"length": "10",
																						"children": [
																							{
																								"type": "240100",
																								"typeLabel": "Ident",
																								"pos": "1893",
																								"length": "9",
																								"children": [
																									{
																										"type": "480000",
																										"label": "algorithm",
																										"typeLabel": "GenericString",
																										"pos": "1893",
																										"length": "9",
																										"children": []
																									}
																								]
																							},
																							{
																								"type": "480000",
																								"label": "*",
																								"typeLabel": "GenericString",
																								"pos": "1892",
																								"length": "1",
																								"children": []
																							}
																						]
																					},
																					{
																						"type": "480000",
																						"label": "=",
																						"typeLabel": "GenericString",
																						"pos": "1903",
																						"length": "1",
																						"children": []
																					},
																					{
																						"type": "240100",
																						"typeLabel": "Ident",
																						"pos": "1905",
																						"length": "18",
																						"children": [
																							{
																								"type": "480000",
																								"label": "GRPC_COMPRESS_GZIP",
																								"typeLabel": "GenericString",
																								"pos": "1905",
																								"length": "18",
																								"children": []
																							}
																						]
																					}
																				]
																			},
																			{
																				"type": "480000",
																				"label": ";",
																				"typeLabel": "GenericString",
																				"pos": "1923",
																				"length": "1",
																				"children": []
																			}
																		]
																	}
																]
															}
														]
													},
													{
														"type": "300100",
														"typeLabel": "If",
														"pos": "1934",
														"length": "104",
														"children": [
															{
																"type": "490100",
																"typeLabel": "IfToken",
																"pos": "1934",
																"length": "2",
																"children": []
															},
															{
																"type": "241100",
																"typeLabel": "Binary",
																"pos": "1938",
																"length": "28",
																"children": [
																	{
																		"type": "240400",
																		"typeLabel": "FunCall",
																		"pos": "1938",
																		"length": "23",
																		"children": [
																			{
																				"type": "240100",
																				"typeLabel": "Ident",
																				"pos": "1938",
																				"length": "6",
																				"children": [
																					{
																						"type": "480000",
																						"label": "strcmp",
																						"typeLabel": "GenericString",
																						"pos": "1938",
																						"length": "6",
																						"children": []
																					}
																				]
																			},
																			{
																				"type": "470000",
																				"typeLabel": "GenericList",
																				"pos": "1944",
																				"length": "17",
																				"children": [
																					{
																						"type": "20100",
																						"typeLabel": "Left",
																						"pos": "1945",
																						"length": "4",
																						"children": [
																							{
																								"type": "240100",
																								"typeLabel": "Ident",
																								"pos": "1945",
																								"length": "4",
																								"children": [
																									{
																										"type": "480000",
																										"label": "name",
																										"typeLabel": "GenericString",
																										"pos": "1945",
																										"length": "4",
																										"children": []
																									}
																								]
																							}
																						]
																					},
																					{
																						"type": "20100",
																						"typeLabel": "Left",
																						"pos": "1951",
																						"length": "9",
																						"children": [
																							{
																								"type": "240200",
																								"label": "\"deflate\"",
																								"typeLabel": "Constant",
																								"pos": "1951",
																								"length": "9",
																								"children": []
																							}
																						]
																					}
																				]
																			}
																		]
																	},
																	{
																		"type": "480000",
																		"label": "==",
																		"typeLabel": "GenericString",
																		"pos": "1962",
																		"length": "2",
																		"children": []
																	},
																	{
																		"type": "240200",
																		"label": "0",
																		"typeLabel": "Constant",
																		"pos": "1965",
																		"length": "1",
																		"children": []
																	}
																]
															},
															{
																"type": "330000",
																"typeLabel": "Compound",
																"pos": "1968",
																"length": "45",
																"children": [
																	{
																		"type": "260300",
																		"typeLabel": "ExprStatement",
																		"pos": "1974",
																		"length": "35",
																		"children": [
																			{
																				"type": "290100",
																				"typeLabel": "Some",
																				"pos": "1974",
																				"length": "35",
																				"children": [
																					{
																						"type": "240700",
																						"typeLabel": "Assignment",
																						"pos": "1974",
																						"length": "34",
																						"children": [
																							{
																								"type": "241000",
																								"typeLabel": "Unary",
																								"pos": "1974",
																								"length": "10",
																								"children": [
																									{
																										"type": "240100",
																										"typeLabel": "Ident",
																										"pos": "1975",
																										"length": "9",
																										"children": [
																											{
																												"type": "480000",
																												"label": "algorithm",
																												"typeLabel": "GenericString",
																												"pos": "1975",
																												"length": "9",
																												"children": []
																											}
																										]
																									},
																									{
																										"type": "480000",
																										"label": "*",
																										"typeLabel": "GenericString",
																										"pos": "1974",
																										"length": "1",
																										"children": []
																									}
																								]
																							},
																							{
																								"type": "480000",
																								"label": "=",
																								"typeLabel": "GenericString",
																								"pos": "1985",
																								"length": "1",
																								"children": []
																							},
																							{
																								"type": "240100",
																								"typeLabel": "Ident",
																								"pos": "1987",
																								"length": "21",
																								"children": [
																									{
																										"type": "480000",
																										"label": "GRPC_COMPRESS_DEFLATE",
																										"typeLabel": "GenericString",
																										"pos": "1987",
																										"length": "21",
																										"children": []
																									}
																								]
																							}
																						]
																					},
																					{
																						"type": "480000",
																						"label": ";",
																						"typeLabel": "GenericString",
																						"pos": "2008",
																						"length": "1",
																						"children": []
																					}
																				]
																			}
																		]
																	}
																]
															},
															{
																"type": "330000",
																"typeLabel": "Compound",
																"pos": "2019",
																"length": "19",
																"children": [
																	{
																		"type": "280200",
																		"typeLabel": "ReturnExpr",
																		"pos": "2025",
																		"length": "9",
																		"children": [
																			{
																				"type": "240200",
																				"label": "0",
																				"typeLabel": "Constant",
																				"pos": "2032",
																				"length": "1",
																				"children": []
																			}
																		]
																	}
																]
															}
														]
													}
												]
											}
										]
									},
									{
										"type": "280200",
										"typeLabel": "ReturnExpr",
										"pos": "2041",
										"length": "9",
										"children": [
											{
												"type": "240200",
												"label": "1",
												"typeLabel": "Constant",
												"pos": "2048",
												"length": "1",
												"children": []
											}
										]
									}
								]
							}
						]
					}
				]
			},
			{
				"type": "450200",
				"typeLabel": "Definition",
				"pos": "2054",
				"length": "392",
				"children": [
					{
						"type": "380000",
						"typeLabel": "Definition",
						"pos": "2054",
						"length": "392",
						"children": [
							{
								"type": "200000",
								"typeLabel": "ParamList",
								"pos": "2089",
								"length": "87",
								"children": [
									{
										"type": "220100",
										"typeLabel": "ParameterType",
										"pos": "2090",
										"length": "36",
										"children": [
											{
												"type": "480000",
												"label": "algorithm",
												"typeLabel": "GenericString",
												"pos": "2117",
												"length": "9",
												"children": []
											}
										]
									},
									{
										"type": "220100",
										"typeLabel": "ParameterType",
										"pos": "2164",
										"length": "11",
										"children": [
											{
												"type": "480000",
												"label": "name",
												"typeLabel": "GenericString",
												"pos": "2171",
												"length": "4",
												"children": []
											}
										]
									}
								]
							},
							{
								"type": "480000",
								"label": "grpc_compression_algorithm_name",
								"typeLabel": "GenericString",
								"pos": "2058",
								"length": "31",
								"children": []
							},
							{
								"type": "330000",
								"typeLabel": "Compound",
								"pos": "2177",
								"length": "269",
								"children": [
									{
										"type": "300200",
										"typeLabel": "Switch",
										"pos": "2181",
										"length": "251",
										"children": [
											{
												"type": "240100",
												"typeLabel": "Ident",
												"pos": "2189",
												"length": "9",
												"children": [
													{
														"type": "480000",
														"label": "algorithm",
														"typeLabel": "GenericString",
														"pos": "2189",
														"length": "9",
														"children": []
													}
												]
											},
											{
												"type": "330000",
												"typeLabel": "Compound",
												"pos": "2200",
												"length": "232",
												"children": [
													{
														"type": "270200",
														"typeLabel": "Case",
														"pos": "2206",
														"length": "46",
														"children": [
															{
																"type": "240100",
																"typeLabel": "Ident",
																"pos": "2211",
																"length": "18",
																"children": [
																	{
																		"type": "480000",
																		"label": "GRPC_COMPRESS_NONE",
																		"typeLabel": "GenericString",
																		"pos": "2211",
																		"length": "18",
																		"children": []
																	}
																]
															},
															{
																"type": "260300",
																"typeLabel": "ExprStatement",
																"pos": "2237",
																"length": "15",
																"children": [
																	{
																		"type": "290100",
																		"typeLabel": "Some",
																		"pos": "2237",
																		"length": "15",
																		"children": [
																			{
																				"type": "240700",
																				"typeLabel": "Assignment",
																				"pos": "2237",
																				"length": "14",
																				"children": [
																					{
																						"type": "241000",
																						"typeLabel": "Unary",
																						"pos": "2237",
																						"length": "5",
																						"children": [
																							{
																								"type": "240100",
																								"typeLabel": "Ident",
																								"pos": "2238",
																								"length": "4",
																								"children": [
																									{
																										"type": "480000",
																										"label": "name",
																										"typeLabel": "GenericString",
																										"pos": "2238",
																										"length": "4",
																										"children": []
																									}
																								]
																							},
																							{
																								"type": "480000",
																								"label": "*",
																								"typeLabel": "GenericString",
																								"pos": "2237",
																								"length": "1",
																								"children": []
																							}
																						]
																					},
																					{
																						"type": "480000",
																						"label": "=",
																						"typeLabel": "GenericString",
																						"pos": "2243",
																						"length": "1",
																						"children": []
																					},
																					{
																						"type": "240200",
																						"label": "\"none\"",
																						"typeLabel": "Constant",
																						"pos": "2245",
																						"length": "6",
																						"children": []
																					}
																				]
																			},
																			{
																				"type": "480000",
																				"label": ";",
																				"typeLabel": "GenericString",
																				"pos": "2251",
																				"length": "1",
																				"children": []
																			}
																		]
																	}
																]
															}
														]
													},
													{
														"type": "280002",
														"typeLabel": "Break",
														"pos": "2259",
														"length": "6",
														"children": []
													},
													{
														"type": "270200",
														"typeLabel": "Case",
														"pos": "2270",
														"length": "52",
														"children": [
															{
																"type": "240100",
																"typeLabel": "Ident",
																"pos": "2275",
																"length": "21",
																"children": [
																	{
																		"type": "480000",
																		"label": "GRPC_COMPRESS_DEFLATE",
																		"typeLabel": "GenericString",
																		"pos": "2275",
																		"length": "21",
																		"children": []
																	}
																]
															},
															{
																"type": "260300",
																"typeLabel": "ExprStatement",
																"pos": "2304",
																"length": "18",
																"children": [
																	{
																		"type": "290100",
																		"typeLabel": "Some",
																		"pos": "2304",
																		"length": "18",
																		"children": [
																			{
																				"type": "240700",
																				"typeLabel": "Assignment",
																				"pos": "2304",
																				"length": "17",
																				"children": [
																					{
																						"type": "241000",
																						"typeLabel": "Unary",
																						"pos": "2304",
																						"length": "5",
																						"children": [
																							{
																								"type": "240100",
																								"typeLabel": "Ident",
																								"pos": "2305",
																								"length": "4",
																								"children": [
																									{
																										"type": "480000",
																										"label": "name",
																										"typeLabel": "GenericString",
																										"pos": "2305",
																										"length": "4",
																										"children": []
																									}
																								]
																							},
																							{
																								"type": "480000",
																								"label": "*",
																								"typeLabel": "GenericString",
																								"pos": "2304",
																								"length": "1",
																								"children": []
																							}
																						]
																					},
																					{
																						"type": "480000",
																						"label": "=",
																						"typeLabel": "GenericString",
																						"pos": "2310",
																						"length": "1",
																						"children": []
																					},
																					{
																						"type": "240200",
																						"label": "\"deflate\"",
																						"typeLabel": "Constant",
																						"pos": "2312",
																						"length": "9",
																						"children": []
																					}
																				]
																			},
																			{
																				"type": "480000",
																				"label": ";",
																				"typeLabel": "GenericString",
																				"pos": "2321",
																				"length": "1",
																				"children": []
																			}
																		]
																	}
																]
															}
														]
													},
													{
														"type": "280002",
														"typeLabel": "Break",
														"pos": "2329",
														"length": "6",
														"children": []
													},
													{
														"type": "270200",
														"typeLabel": "Case",
														"pos": "2340",
														"length": "46",
														"children": [
															{
																"type": "240100",
																"typeLabel": "Ident",
																"pos": "2345",
																"length": "18",
																"children": [
																	{
																		"type": "480000",
																		"label": "GRPC_COMPRESS_GZIP",
																		"typeLabel": "GenericString",
																		"pos": "2345",
																		"length": "18",
																		"children": []
																	}
																]
															},
															{
																"type": "260300",
																"typeLabel": "ExprStatement",
																"pos": "2371",
																"length": "15",
																"children": [
																	{
																		"type": "290100",
																		"typeLabel": "Some",
																		"pos": "2371",
																		"length": "15",
																		"children": [
																			{
																				"type": "240700",
																				"typeLabel": "Assignment",
																				"pos": "2371",
																				"length": "14",
																				"children": [
																					{
																						"type": "241000",
																						"typeLabel": "Unary",
																						"pos": "2371",
																						"length": "5",
																						"children": [
																							{
																								"type": "240100",
																								"typeLabel": "Ident",
																								"pos": "2372",
																								"length": "4",
																								"children": [
																									{
																										"type": "480000",
																										"label": "name",
																										"typeLabel": "GenericString",
																										"pos": "2372",
																										"length": "4",
																										"children": []
																									}
																								]
																							},
																							{
																								"type": "480000",
																								"label": "*",
																								"typeLabel": "GenericString",
																								"pos": "2371",
																								"length": "1",
																								"children": []
																							}
																						]
																					},
																					{
																						"type": "480000",
																						"label": "=",
																						"typeLabel": "GenericString",
																						"pos": "2377",
																						"length": "1",
																						"children": []
																					},
																					{
																						"type": "240200",
																						"label": "\"gzip\"",
																						"typeLabel": "Constant",
																						"pos": "2379",
																						"length": "6",
																						"children": []
																					}
																				]
																			},
																			{
																				"type": "480000",
																				"label": ";",
																				"typeLabel": "GenericString",
																				"pos": "2385",
																				"length": "1",
																				"children": []
																			}
																		]
																	}
																]
															}
														]
													},
													{
														"type": "280002",
														"typeLabel": "Break",
														"pos": "2393",
														"length": "6",
														"children": []
													},
													{
														"type": "270400",
														"typeLabel": "Default",
														"pos": "2404",
														"length": "24",
														"children": [
															{
																"type": "280200",
																"typeLabel": "ReturnExpr",
																"pos": "2419",
																"length": "9",
																"children": [
																	{
																		"type": "240200",
																		"label": "0",
																		"typeLabel": "Constant",
																		"pos": "2426",
																		"length": "1",
																		"children": []
																	}
																]
															}
														]
													}
												]
											}
										]
									},
									{
										"type": "280200",
										"typeLabel": "ReturnExpr",
										"pos": "2435",
										"length": "9",
										"children": [
											{
												"type": "240200",
												"label": "1",
												"typeLabel": "Constant",
												"pos": "2442",
												"length": "1",
												"children": []
											}
										]
									}
								]
							}
						]
					}
				]
			},
			{
				"type": "450200",
				"typeLabel": "Definition",
				"pos": "2547",
				"length": "403",
				"children": [
					{
						"type": "380000",
						"typeLabel": "Definition",
						"pos": "2547",
						"length": "403",
						"children": [
							{
								"type": "200000",
								"typeLabel": "ParamList",
								"pos": "2610",
								"length": "35",
								"children": [
									{
										"type": "220100",
										"typeLabel": "ParameterType",
										"pos": "2616",
										"length": "28",
										"children": [
											{
												"type": "480000",
												"label": "level",
												"typeLabel": "GenericString",
												"pos": "2639",
												"length": "5",
												"children": []
											}
										]
									}
								]
							},
							{
								"type": "480000",
								"label": "grpc_compression_algorithm_for_level",
								"typeLabel": "GenericString",
								"pos": "2574",
								"length": "36",
								"children": []
							},
							{
								"type": "330000",
								"typeLabel": "Compound",
								"pos": "2646",
								"length": "304",
								"children": [
									{
										"type": "300200",
										"typeLabel": "Switch",
										"pos": "2650",
										"length": "298",
										"children": [
											{
												"type": "240100",
												"typeLabel": "Ident",
												"pos": "2658",
												"length": "5",
												"children": [
													{
														"type": "480000",
														"label": "level",
														"typeLabel": "GenericString",
														"pos": "2658",
														"length": "5",
														"children": []
													}
												]
											},
											{
												"type": "330000",
												"typeLabel": "Compound",
												"pos": "2665",
												"length": "283",
												"children": [
													{
														"type": "270200",
														"typeLabel": "Case",
														"pos": "2671",
														"length": "63",
														"children": [
															{
																"type": "240100",
																"typeLabel": "Ident",
																"pos": "2676",
																"length": "24",
																"children": [
																	{
																		"type": "480000",
																		"label": "GRPC_COMPRESS_LEVEL_NONE",
																		"typeLabel": "GenericString",
																		"pos": "2676",
																		"length": "24",
																		"children": []
																	}
																]
															},
															{
																"type": "280200",
																"typeLabel": "ReturnExpr",
																"pos": "2708",
																"length": "26",
																"children": [
																	{
																		"type": "240100",
																		"typeLabel": "Ident",
																		"pos": "2715",
																		"length": "18",
																		"children": [
																			{
																				"type": "480000",
																				"label": "GRPC_COMPRESS_NONE",
																				"typeLabel": "GenericString",
																				"pos": "2715",
																				"length": "18",
																				"children": []
																			}
																		]
																	}
																]
															}
														]
													},
													{
														"type": "270200",
														"typeLabel": "Case",
														"pos": "2739",
														"length": "134",
														"children": [
															{
																"type": "240100",
																"typeLabel": "Ident",
																"pos": "2744",
																"length": "23",
																"children": [
																	{
																		"type": "480000",
																		"label": "GRPC_COMPRESS_LEVEL_LOW",
																		"typeLabel": "GenericString",
																		"pos": "2744",
																		"length": "23",
																		"children": []
																	}
																]
															},
															{
																"type": "270200",
																"typeLabel": "Case",
																"pos": "2773",
																"length": "100",
																"children": [
																	{
																		"type": "240100",
																		"typeLabel": "Ident",
																		"pos": "2778",
																		"length": "23",
																		"children": [
																			{
																				"type": "480000",
																				"label": "GRPC_COMPRESS_LEVEL_MED",
																				"typeLabel": "GenericString",
																				"pos": "2778",
																				"length": "23",
																				"children": []
																			}
																		]
																	},
																	{
																		"type": "270200",
																		"typeLabel": "Case",
																		"pos": "2807",
																		"length": "66",
																		"children": [
																			{
																				"type": "240100",
																				"typeLabel": "Ident",
																				"pos": "2812",
																				"length": "24",
																				"children": [
																					{
																						"type": "480000",
																						"label": "GRPC_COMPRESS_LEVEL_HIGH",
																						"typeLabel": "GenericString",
																						"pos": "2812",
																						"length": "24",
																						"children": []
																					}
																				]
																			},
																			{
																				"type": "280200",
																				"typeLabel": "ReturnExpr",
																				"pos": "2844",
																				"length": "29",
																				"children": [
																					{
																						"type": "240100",
																						"typeLabel": "Ident",
																						"pos": "2851",
																						"length": "21",
																						"children": [
																							{
																								"type": "480000",
																								"label": "GRPC_COMPRESS_DEFLATE",
																								"typeLabel": "GenericString",
																								"pos": "2851",
																								"length": "21",
																								"children": []
																							}
																						]
																					}
																				]
																			}
																		]
																	}
																]
															}
														]
													},
													{
														"type": "270400",
														"typeLabel": "Default",
														"pos": "2878",
														"length": "66",
														"children": [
															{
																"type": "260300",
																"typeLabel": "ExprStatement",
																"pos": "2936",
																"length": "8",
																"children": [
																	{
																		"type": "290100",
																		"typeLabel": "Some",
																		"pos": "2936",
																		"length": "8",
																		"children": [
																			{
																				"type": "240400",
																				"typeLabel": "FunCall",
																				"pos": "2936",
																				"length": "7",
																				"children": [
																					{
																						"type": "240100",
																						"typeLabel": "Ident",
																						"pos": "2936",
																						"length": "5",
																						"children": [
																							{
																								"type": "480000",
																								"label": "abort",
																								"typeLabel": "GenericString",
																								"pos": "2936",
																								"length": "5",
																								"children": []
																							}
																						]
																					},
																					{
																						"type": "470000",
																						"typeLabel": "GenericList",
																						"pos": "2941",
																						"length": "2",
																						"children": []
																					}
																				]
																			},
																			{
																				"type": "480000",
																				"label": ";",
																				"typeLabel": "GenericString",
																				"pos": "2943",
																				"length": "1",
																				"children": []
																			}
																		]
																	}
																]
															}
														]
													}
												]
											}
										]
									}
								]
							}
						]
					}
				]
			},
			{
				"type": "450200",
				"typeLabel": "Definition",
				"pos": "2952",
				"length": "347",
				"children": [
					{
						"type": "380000",
						"typeLabel": "Definition",
						"pos": "2952",
						"length": "347",
						"children": [
							{
								"type": "200000",
								"typeLabel": "ParamList",
								"pos": "3011",
								"length": "43",
								"children": [
									{
										"type": "220100",
										"typeLabel": "ParameterType",
										"pos": "3017",
										"length": "36",
										"children": [
											{
												"type": "480000",
												"label": "algorithm",
												"typeLabel": "GenericString",
												"pos": "3044",
												"length": "9",
												"children": []
											}
										]
									}
								]
							},
							{
								"type": "480000",
								"label": "grpc_compression_level_for_algorithm",
								"typeLabel": "GenericString",
								"pos": "2975",
								"length": "36",
								"children": []
							},
							{
								"type": "330000",
								"typeLabel": "Compound",
								"pos": "3055",
								"length": "244",
								"children": [
									{
										"type": "350100",
										"typeLabel": "DeclList",
										"pos": "3059",
										"length": "30",
										"children": [
											{
												"type": "480000",
												"label": "clevel",
												"typeLabel": "GenericString",
												"pos": "3082",
												"length": "6",
												"children": []
											}
										]
									},
									{
										"type": "310300",
										"typeLabel": "For",
										"pos": "3092",
										"length": "194",
										"children": [
											{
												"type": "260300",
												"typeLabel": "ExprStatement",
												"pos": "3097",
												"length": "34",
												"children": [
													{
														"type": "290100",
														"typeLabel": "Some",
														"pos": "3097",
														"length": "34",
														"children": [
															{
																"type": "240700",
																"typeLabel": "Assignment",
																"pos": "3097",
																"length": "33",
																"children": [
																	{
																		"type": "240100",
																		"typeLabel": "Ident",
																		"pos": "3097",
																		"length": "6",
																		"children": [
																			{
																				"type": "480000",
																				"label": "clevel",
																				"typeLabel": "GenericString",
																				"pos": "3097",
																				"length": "6",
																				"children": []
																			}
																		]
																	},
																	{
																		"type": "480000",
																		"label": "=",
																		"typeLabel": "GenericString",
																		"pos": "3104",
																		"length": "1",
																		"children": []
																	},
																	{
																		"type": "240100",
																		"typeLabel": "Ident",
																		"pos": "3106",
																		"length": "24",
																		"children": [
																			{
																				"type": "480000",
																				"label": "GRPC_COMPRESS_LEVEL_NONE",
																				"typeLabel": "GenericString",
																				"pos": "3106",
																				"length": "24",
																				"children": []
																			}
																		]
																	}
																]
															},
															{
																"type": "480000",
																"label": ";",
																"typeLabel": "GenericString",
																"pos": "3130",
																"length": "1",
																"children": []
															}
														]
													}
												]
											},
											{
												"type": "260300",
												"typeLabel": "ExprStatement",
												"pos": "3132",
												"length": "35",
												"children": [
													{
														"type": "290100",
														"typeLabel": "Some",
														"pos": "3132",
														"length": "35",
														"children": [
															{
																"type": "241100",
																"typeLabel": "Binary",
																"pos": "3132",
																"length": "34",
																"children": [
																	{
																		"type": "240100",
																		"typeLabel": "Ident",
																		"pos": "3132",
																		"length": "6",
																		"children": [
																			{
																				"type": "480000",
																				"label": "clevel",
																				"typeLabel": "GenericString",
																				"pos": "3132",
																				"length": "6",
																				"children": []
																			}
																		]
																	},
																	{
																		"type": "480000",
																		"label": "<",
																		"typeLabel": "GenericString",
																		"pos": "3139",
																		"length": "1",
																		"children": []
																	},
																	{
																		"type": "240100",
																		"typeLabel": "Ident",
																		"pos": "3141",
																		"length": "25",
																		"children": [
																			{
																				"type": "480000",
																				"label": "GRPC_COMPRESS_LEVEL_COUNT",
																				"typeLabel": "GenericString",
																				"pos": "3141",
																				"length": "25",
																				"children": []
																			}
																		]
																	}
																]
															},
															{
																"type": "480000",
																"label": ";",
																"typeLabel": "GenericString",
																"pos": "3166",
																"length": "1",
																"children": []
															}
														]
													}
												]
											},
											{
												"type": "260300",
												"typeLabel": "ExprStatement",
												"pos": "3175",
												"length": "8",
												"children": [
													{
														"type": "290100",
														"typeLabel": "Some",
														"pos": "3175",
														"length": "8",
														"children": [
															{
																"type": "240900",
																"typeLabel": "Infix",
																"pos": "3175",
																"length": "8",
																"children": [
																	{
																		"type": "240100",
																		"typeLabel": "Ident",
																		"pos": "3177",
																		"length": "6",
																		"children": [
																			{
																				"type": "480000",
																				"label": "clevel",
																				"typeLabel": "GenericString",
																				"pos": "3177",
																				"length": "6",
																				"children": []
																			}
																		]
																	},
																	{
																		"type": "480000",
																		"label": "++",
																		"typeLabel": "GenericString",
																		"pos": "3175",
																		"length": "2",
																		"children": []
																	}
																]
															}
														]
													}
												]
											},
											{
												"type": "330000",
												"typeLabel": "Compound",
												"pos": "3185",
												"length": "101",
												"children": [
													{
														"type": "300100",
														"typeLabel": "If",
														"pos": "3191",
														"length": "91",
														"children": [
															{
																"type": "490100",
																"typeLabel": "IfToken",
																"pos": "3191",
																"length": "2",
																"children": []
															},
															{
																"type": "241100",
																"typeLabel": "Binary",
																"pos": "3195",
																"length": "57",
																"children": [
																	{
																		"type": "240400",
																		"typeLabel": "FunCall",
																		"pos": "3195",
																		"length": "44",
																		"children": [
																			{
																				"type": "240100",
																				"typeLabel": "Ident",
																				"pos": "3195",
																				"length": "36",
																				"children": [
																					{
																						"type": "480000",
																						"label": "grpc_compression_algorithm_for_level",
																						"typeLabel": "GenericString",
																						"pos": "3195",
																						"length": "36",
																						"children": []
																					}
																				]
																			},
																			{
																				"type": "470000",
																				"typeLabel": "GenericList",
																				"pos": "3231",
																				"length": "8",
																				"children": [
																					{
																						"type": "20100",
																						"typeLabel": "Left",
																						"pos": "3232",
																						"length": "6",
																						"children": [
																							{
																								"type": "240100",
																								"typeLabel": "Ident",
																								"pos": "3232",
																								"length": "6",
																								"children": [
																									{
																										"type": "480000",
																										"label": "clevel",
																										"typeLabel": "GenericString",
																										"pos": "3232",
																										"length": "6",
																										"children": []
																									}
																								]
																							}
																						]
																					}
																				]
																			}
																		]
																	},
																	{
																		"type": "480000",
																		"label": "==",
																		"typeLabel": "GenericString",
																		"pos": "3240",
																		"length": "2",
																		"children": []
																	},
																	{
																		"type": "240100",
																		"typeLabel": "Ident",
																		"pos": "3243",
																		"length": "9",
																		"children": [
																			{
																				"type": "480000",
																				"label": "algorithm",
																				"typeLabel": "GenericString",
																				"pos": "3243",
																				"length": "9",
																				"children": []
																			}
																		]
																	}
																]
															},
															{
																"type": "330000",
																"typeLabel": "Compound",
																"pos": "3254",
																"length": "28",
																"children": [
																	{
																		"type": "280200",
																		"typeLabel": "ReturnExpr",
																		"pos": "3262",
																		"length": "14",
																		"children": [
																			{
																				"type": "240100",
																				"typeLabel": "Ident",
																				"pos": "3269",
																				"length": "6",
																				"children": [
																					{
																						"type": "480000",
																						"label": "clevel",
																						"typeLabel": "GenericString",
																						"pos": "3269",
																						"length": "6",
																						"children": []
																					}
																				]
																			}
																		]
																	}
																]
															}
														]
													}
												]
											}
										]
									},
									{
										"type": "260300",
										"typeLabel": "ExprStatement",
										"pos": "3289",
										"length": "8",
										"children": [
											{
												"type": "290100",
												"typeLabel": "Some",
												"pos": "3289",
												"length": "8",
												"children": [
													{
														"type": "240400",
														"typeLabel": "FunCall",
														"pos": "3289",
														"length": "7",
														"children": [
															{
																"type": "240100",
																"typeLabel": "Ident",
																"pos": "3289",
																"length": "5",
																"children": [
																	{
																		"type": "480000",
																		"label": "abort",
																		"typeLabel": "GenericString",
																		"pos": "3289",
																		"length": "5",
																		"children": []
																	}
																]
															},
															{
																"type": "470000",
																"typeLabel": "GenericList",
																"pos": "3294",
																"length": "2",
																"children": []
															}
														]
													},
													{
														"type": "480000",
														"label": ";",
														"typeLabel": "GenericString",
														"pos": "3296",
														"length": "1",
														"children": []
													}
												]
											}
										]
									}
								]
							}
						]
					}
				]
			},
			{
				"type": "450800",
				"typeLabel": "FinalDef",
				"pos": "3300",
				"length": "0",
				"children": []
			}
		]
	}
}