{
	"root": {
		"type": "460000",
		"typeLabel": "Program",
		"pos": "201",
		"length": "797",
		"children": [
			{
				"type": "450300",
				"typeLabel": "CppTop",
				"pos": "201",
				"length": "18",
				"children": [
					{
						"type": "400200",
						"typeLabel": "Include",
						"pos": "201",
						"length": "18",
						"children": [
							{
								"type": "480000",
								"label": "\"cache.h\"",
								"typeLabel": "GenericString",
								"pos": "210",
								"length": "9",
								"children": []
							}
						]
					}
				]
			},
			{
				"type": "450200",
				"typeLabel": "Definition",
				"pos": "221",
				"length": "652",
				"children": [
					{
						"type": "380000",
						"typeLabel": "Definition",
						"pos": "221",
						"length": "652",
						"children": [
							{
								"type": "340000",
								"typeLabel": "Storage",
								"pos": "221",
								"length": "6",
								"children": [
									{
										"type": "480000",
										"label": "static",
										"typeLabel": "GenericString",
										"pos": "221",
										"length": "6",
										"children": []
									}
								]
							},
							{
								"type": "200000",
								"typeLabel": "ParamList",
								"pos": "243",
								"length": "18",
								"children": [
									{
										"type": "220100",
										"typeLabel": "ParameterType",
										"pos": "244",
										"length": "16",
										"children": [
											{
												"type": "480000",
												"label": "path",
												"typeLabel": "GenericString",
												"pos": "256",
												"length": "4",
												"children": []
											}
										]
									}
								]
							},
							{
								"type": "480000",
								"label": "check_file",
								"typeLabel": "GenericString",
								"pos": "233",
								"length": "10",
								"children": []
							},
							{
								"type": "330000",
								"typeLabel": "Compound",
								"pos": "262",
								"length": "611",
								"children": [
									{
										"type": "350100",
										"typeLabel": "DeclList",
										"pos": "265",
										"length": "30",
										"children": [
											{
												"type": "480000",
												"label": "fd",
												"typeLabel": "GenericString",
												"pos": "269",
												"length": "2",
												"children": []
											},
											{
												"type": "360100",
												"typeLabel": "InitExpr",
												"pos": "274",
												"length": "20",
												"children": [
													{
														"type": "240400",
														"typeLabel": "FunCall",
														"pos": "274",
														"length": "20",
														"children": [
															{
																"type": "240100",
																"typeLabel": "Ident",
																"pos": "274",
																"length": "4",
																"children": [
																	{
																		"type": "480000",
																		"label": "open",
																		"typeLabel": "GenericString",
																		"pos": "274",
																		"length": "4",
																		"children": []
																	}
																]
															},
															{
																"type": "470000",
																"typeLabel": "GenericList",
																"pos": "278",
																"length": "16",
																"children": [
																	{
																		"type": "20100",
																		"typeLabel": "Left",
																		"pos": "279",
																		"length": "4",
																		"children": [
																			{
																				"type": "240100",
																				"typeLabel": "Ident",
																				"pos": "279",
																				"length": "4",
																				"children": [
																					{
																						"type": "480000",
																						"label": "path",
																						"typeLabel": "GenericString",
																						"pos": "279",
																						"length": "4",
																						"children": []
																					}
																				]
																			}
																		]
																	},
																	{
																		"type": "20100",
																		"typeLabel": "Left",
																		"pos": "285",
																		"length": "8",
																		"children": [
																			{
																				"type": "240100",
																				"typeLabel": "Ident",
																				"pos": "285",
																				"length": "8",
																				"children": [
																					{
																						"type": "480000",
																						"label": "O_RDONLY",
																						"typeLabel": "GenericString",
																						"pos": "285",
																						"length": "8",
																						"children": []
																					}
																				]
																			}
																		]
																	}
																]
															}
														]
													}
												]
											}
										]
									},
									{
										"type": "350100",
										"typeLabel": "DeclList",
										"pos": "297",
										"length": "23",
										"children": [
											{
												"type": "480000",
												"label": "ce",
												"typeLabel": "GenericString",
												"pos": "317",
												"length": "2",
												"children": []
											}
										]
									},
									{
										"type": "350100",
										"typeLabel": "DeclList",
										"pos": "322",
										"length": "15",
										"children": [
											{
												"type": "480000",
												"label": "st",
												"typeLabel": "GenericString",
												"pos": "334",
												"length": "2",
												"children": []
											}
										]
									},
									{
										"type": "350100",
										"typeLabel": "DeclList",
										"pos": "339",
										"length": "17",
										"children": [
											{
												"type": "480000",
												"label": "pos",
												"typeLabel": "GenericString",
												"pos": "343",
												"length": "3",
												"children": []
											},
											{
												"type": "480000",
												"label": "changed",
												"typeLabel": "GenericString",
												"pos": "348",
												"length": "7",
												"children": []
											}
										]
									},
									{
										"type": "300100",
										"typeLabel": "If",
										"pos": "386",
										"length": "90",
										"children": [
											{
												"type": "490100",
												"typeLabel": "IfToken",
												"pos": "386",
												"length": "2",
												"children": []
											},
											{
												"type": "241100",
												"typeLabel": "Binary",
												"pos": "390",
												"length": "6",
												"children": [
													{
														"type": "240100",
														"typeLabel": "Ident",
														"pos": "390",
														"length": "2",
														"children": [
															{
																"type": "480000",
																"label": "fd",
																"typeLabel": "GenericString",
																"pos": "390",
																"length": "2",
																"children": []
															}
														]
													},
													{
														"type": "480000",
														"label": "<",
														"typeLabel": "GenericString",
														"pos": "393",
														"length": "1",
														"children": []
													},
													{
														"type": "240200",
														"label": "0",
														"typeLabel": "Constant",
														"pos": "395",
														"length": "1",
														"children": []
													}
												]
											},
											{
												"type": "330000",
												"typeLabel": "Compound",
												"pos": "398",
												"length": "78",
												"children": [
													{
														"type": "300100",
														"typeLabel": "If",
														"pos": "402",
														"length": "61",
														"children": [
															{
																"type": "490100",
																"typeLabel": "IfToken",
																"pos": "402",
																"length": "2",
																"children": []
															},
															{
																"type": "241100",
																"typeLabel": "Binary",
																"pos": "406",
																"length": "15",
																"children": [
																	{
																		"type": "240100",
																		"typeLabel": "Ident",
																		"pos": "406",
																		"length": "5",
																		"children": [
																			{
																				"type": "480000",
																				"label": "errno",
																				"typeLabel": "GenericString",
																				"pos": "406",
																				"length": "5",
																				"children": []
																			}
																		]
																	},
																	{
																		"type": "480000",
																		"label": "!=",
																		"typeLabel": "GenericString",
																		"pos": "412",
																		"length": "2",
																		"children": []
																	},
																	{
																		"type": "240100",
																		"typeLabel": "Ident",
																		"pos": "415",
																		"length": "6",
																		"children": [
																			{
																				"type": "480000",
																				"label": "ENOENT",
																				"typeLabel": "GenericString",
																				"pos": "415",
																				"length": "6",
																				"children": []
																			}
																		]
																	}
																]
															},
															{
																"type": "260300",
																"typeLabel": "ExprStatement",
																"pos": "426",
																"length": "37",
																"children": [
																	{
																		"type": "290100",
																		"typeLabel": "Some",
																		"pos": "426",
																		"length": "37",
																		"children": [
																			{
																				"type": "240400",
																				"typeLabel": "FunCall",
																				"pos": "426",
																				"length": "36",
																				"children": [
																					{
																						"type": "240100",
																						"typeLabel": "Ident",
																						"pos": "426",
																						"length": "3",
																						"children": [
																							{
																								"type": "480000",
																								"label": "die",
																								"typeLabel": "GenericString",
																								"pos": "426",
																								"length": "3",
																								"children": []
																							}
																						]
																					},
																					{
																						"type": "470000",
																						"typeLabel": "GenericList",
																						"pos": "429",
																						"length": "33",
																						"children": [
																							{
																								"type": "20100",
																								"typeLabel": "Left",
																								"pos": "430",
																								"length": "8",
																								"children": [
																									{
																										"type": "240200",
																										"label": "\"%s: %s\"",
																										"typeLabel": "Constant",
																										"pos": "430",
																										"length": "8",
																										"children": []
																									}
																								]
																							},
																							{
																								"type": "20100",
																								"typeLabel": "Left",
																								"pos": "440",
																								"length": "4",
																								"children": [
																									{
																										"type": "240100",
																										"typeLabel": "Ident",
																										"pos": "440",
																										"length": "4",
																										"children": [
																											{
																												"type": "480000",
																												"label": "path",
																												"typeLabel": "GenericString",
																												"pos": "440",
																												"length": "4",
																												"children": []
																											}
																										]
																									}
																								]
																							},
																							{
																								"type": "20100",
																								"typeLabel": "Left",
																								"pos": "446",
																								"length": "15",
																								"children": [
																									{
																										"type": "240400",
																										"typeLabel": "FunCall",
																										"pos": "446",
																										"length": "15",
																										"children": [
																											{
																												"type": "240100",
																												"typeLabel": "Ident",
																												"pos": "446",
																												"length": "8",
																												"children": [
																													{
																														"type": "480000",
																														"label": "strerror",
																														"typeLabel": "GenericString",
																														"pos": "446",
																														"length": "8",
																														"children": []
																													}
																												]
																											},
																											{
																												"type": "470000",
																												"typeLabel": "GenericList",
																												"pos": "454",
																												"length": "7",
																												"children": [
																													{
																														"type": "20100",
																														"typeLabel": "Left",
																														"pos": "455",
																														"length": "5",
																														"children": [
																															{
																																"type": "240100",
																																"typeLabel": "Ident",
																																"pos": "455",
																																"length": "5",
																																"children": [
																																	{
																																		"type": "480000",
																																		"label": "errno",
																																		"typeLabel": "GenericString",
																																		"pos": "455",
																																		"length": "5",
																																		"children": []
																																	}
																																]
																															}
																														]
																													}
																												]
																											}
																										]
																									}
																								]
																							}
																						]
																					}
																				]
																			},
																			{
																				"type": "480000",
																				"label": ";",
																				"typeLabel": "GenericString",
																				"pos": "462",
																				"length": "1",
																				"children": []
																			}
																		]
																	}
																]
															}
														]
													},
													{
														"type": "280003",
														"typeLabel": "Return",
														"pos": "466",
														"length": "7",
														"children": []
													}
												]
											}
										]
									},
									{
										"type": "260300",
										"typeLabel": "ExprStatement",
										"pos": "529",
										"length": "41",
										"children": [
											{
												"type": "290100",
												"typeLabel": "Some",
												"pos": "529",
												"length": "41",
												"children": [
													{
														"type": "240700",
														"typeLabel": "Assignment",
														"pos": "529",
														"length": "40",
														"children": [
															{
																"type": "240100",
																"typeLabel": "Ident",
																"pos": "529",
																"length": "3",
																"children": [
																	{
																		"type": "480000",
																		"label": "pos",
																		"typeLabel": "GenericString",
																		"pos": "529",
																		"length": "3",
																		"children": []
																	}
																]
															},
															{
																"type": "480000",
																"label": "=",
																"typeLabel": "GenericString",
																"pos": "533",
																"length": "1",
																"children": []
															},
															{
																"type": "240400",
																"typeLabel": "FunCall",
																"pos": "535",
																"length": "34",
																"children": [
																	{
																		"type": "240100",
																		"typeLabel": "Ident",
																		"pos": "535",
																		"length": "14",
																		"children": [
																			{
																				"type": "480000",
																				"label": "cache_name_pos",
																				"typeLabel": "GenericString",
																				"pos": "535",
																				"length": "14",
																				"children": []
																			}
																		]
																	},
																	{
																		"type": "470000",
																		"typeLabel": "GenericList",
																		"pos": "549",
																		"length": "20",
																		"children": [
																			{
																				"type": "20100",
																				"typeLabel": "Left",
																				"pos": "550",
																				"length": "4",
																				"children": [
																					{
																						"type": "240100",
																						"typeLabel": "Ident",
																						"pos": "550",
																						"length": "4",
																						"children": [
																							{
																								"type": "480000",
																								"label": "path",
																								"typeLabel": "GenericString",
																								"pos": "550",
																								"length": "4",
																								"children": []
																							}
																						]
																					}
																				]
																			},
																			{
																				"type": "20100",
																				"typeLabel": "Left",
																				"pos": "556",
																				"length": "12",
																				"children": [
																					{
																						"type": "240400",
																						"typeLabel": "FunCall",
																						"pos": "556",
																						"length": "12",
																						"children": [
																							{
																								"type": "240100",
																								"typeLabel": "Ident",
																								"pos": "556",
																								"length": "6",
																								"children": [
																									{
																										"type": "480000",
																										"label": "strlen",
																										"typeLabel": "GenericString",
																										"pos": "556",
																										"length": "6",
																										"children": []
																									}
																								]
																							},
																							{
																								"type": "470000",
																								"typeLabel": "GenericList",
																								"pos": "562",
																								"length": "6",
																								"children": [
																									{
																										"type": "20100",
																										"typeLabel": "Left",
																										"pos": "563",
																										"length": "4",
																										"children": [
																											{
																												"type": "240100",
																												"typeLabel": "Ident",
																												"pos": "563",
																												"length": "4",
																												"children": [
																													{
																														"type": "480000",
																														"label": "path",
																														"typeLabel": "GenericString",
																														"pos": "563",
																														"length": "4",
																														"children": []
																													}
																												]
																											}
																										]
																									}
																								]
																							}
																						]
																					}
																				]
																			}
																		]
																	}
																]
															}
														]
													},
													{
														"type": "480000",
														"label": ";",
														"typeLabel": "GenericString",
														"pos": "569",
														"length": "1",
														"children": []
													}
												]
											}
										]
									},
									{
										"type": "300100",
										"typeLabel": "If",
										"pos": "572",
										"length": "80",
										"children": [
											{
												"type": "490100",
												"typeLabel": "IfToken",
												"pos": "572",
												"length": "2",
												"children": []
											},
											{
												"type": "241100",
												"typeLabel": "Binary",
												"pos": "576",
												"length": "7",
												"children": [
													{
														"type": "240100",
														"typeLabel": "Ident",
														"pos": "576",
														"length": "3",
														"children": [
															{
																"type": "480000",
																"label": "pos",
																"typeLabel": "GenericString",
																"pos": "576",
																"length": "3",
																"children": []
															}
														]
													},
													{
														"type": "480000",
														"label": "<",
														"typeLabel": "GenericString",
														"pos": "580",
														"length": "1",
														"children": []
													},
													{
														"type": "240200",
														"label": "0",
														"typeLabel": "Constant",
														"pos": "582",
														"length": "1",
														"children": []
													}
												]
											},
											{
												"type": "260300",
												"typeLabel": "ExprStatement",
												"pos": "587",
												"length": "65",
												"children": [
													{
														"type": "290100",
														"typeLabel": "Some",
														"pos": "587",
														"length": "65",
														"children": [
															{
																"type": "240400",
																"typeLabel": "FunCall",
																"pos": "587",
																"length": "64",
																"children": [
																	{
																		"type": "240100",
																		"typeLabel": "Ident",
																		"pos": "587",
																		"length": "3",
																		"children": [
																			{
																				"type": "480000",
																				"label": "die",
																				"typeLabel": "GenericString",
																				"pos": "587",
																				"length": "3",
																				"children": []
																			}
																		]
																	},
																	{
																		"type": "470000",
																		"typeLabel": "GenericList",
																		"pos": "590",
																		"length": "61",
																		"children": [
																			{
																				"type": "20100",
																				"typeLabel": "Left",
																				"pos": "591",
																				"length": "53",
																				"children": [
																					{
																						"type": "240200",
																						"label": "\"preparing to update existing file '%s' not in cache\"",
																						"typeLabel": "Constant",
																						"pos": "591",
																						"length": "53",
																						"children": []
																					}
																				]
																			},
																			{
																				"type": "20100",
																				"typeLabel": "Left",
																				"pos": "646",
																				"length": "4",
																				"children": [
																					{
																						"type": "240100",
																						"typeLabel": "Ident",
																						"pos": "646",
																						"length": "4",
																						"children": [
																							{
																								"type": "480000",
																								"label": "path",
																								"typeLabel": "GenericString",
																								"pos": "646",
																								"length": "4",
																								"children": []
																							}
																						]
																					}
																				]
																			}
																		]
																	}
																]
															},
															{
																"type": "480000",
																"label": ";",
																"typeLabel": "GenericString",
																"pos": "651",
																"length": "1",
																"children": []
															}
														]
													}
												]
											}
										]
									},
									{
										"type": "260300",
										"typeLabel": "ExprStatement",
										"pos": "654",
										"length": "23",
										"children": [
											{
												"type": "290100",
												"typeLabel": "Some",
												"pos": "654",
												"length": "23",
												"children": [
													{
														"type": "240700",
														"typeLabel": "Assignment",
														"pos": "654",
														"length": "22",
														"children": [
															{
																"type": "240100",
																"typeLabel": "Ident",
																"pos": "654",
																"length": "2",
																"children": [
																	{
																		"type": "480000",
																		"label": "ce",
																		"typeLabel": "GenericString",
																		"pos": "654",
																		"length": "2",
																		"children": []
																	}
																]
															},
															{
																"type": "480000",
																"label": "=",
																"typeLabel": "GenericString",
																"pos": "657",
																"length": "1",
																"children": []
															},
															{
																"type": "241200",
																"typeLabel": "ArrayAccess",
																"pos": "659",
																"length": "17",
																"children": [
																	{
																		"type": "240100",
																		"typeLabel": "Ident",
																		"pos": "659",
																		"length": "12",
																		"children": [
																			{
																				"type": "480000",
																				"label": "active_cache",
																				"typeLabel": "GenericString",
																				"pos": "659",
																				"length": "12",
																				"children": []
																			}
																		]
																	},
																	{
																		"type": "240100",
																		"typeLabel": "Ident",
																		"pos": "672",
																		"length": "3",
																		"children": [
																			{
																				"type": "480000",
																				"label": "pos",
																				"typeLabel": "GenericString",
																				"pos": "672",
																				"length": "3",
																				"children": []
																			}
																		]
																	}
																]
															}
														]
													},
													{
														"type": "480000",
														"label": ";",
														"typeLabel": "GenericString",
														"pos": "676",
														"length": "1",
														"children": []
													}
												]
											}
										]
									},
									{
										"type": "300100",
										"typeLabel": "If",
										"pos": "680",
										"length": "70",
										"children": [
											{
												"type": "490100",
												"typeLabel": "IfToken",
												"pos": "680",
												"length": "2",
												"children": []
											},
											{
												"type": "241100",
												"typeLabel": "Binary",
												"pos": "684",
												"length": "18",
												"children": [
													{
														"type": "240400",
														"typeLabel": "FunCall",
														"pos": "684",
														"length": "14",
														"children": [
															{
																"type": "240100",
																"typeLabel": "Ident",
																"pos": "684",
																"length": "5",
																"children": [
																	{
																		"type": "480000",
																		"label": "fstat",
																		"typeLabel": "GenericString",
																		"pos": "684",
																		"length": "5",
																		"children": []
																	}
																]
															},
															{
																"type": "470000",
																"typeLabel": "GenericList",
																"pos": "689",
																"length": "9",
																"children": [
																	{
																		"type": "20100",
																		"typeLabel": "Left",
																		"pos": "690",
																		"length": "2",
																		"children": [
																			{
																				"type": "240100",
																				"typeLabel": "Ident",
																				"pos": "690",
																				"length": "2",
																				"children": [
																					{
																						"type": "480000",
																						"label": "fd",
																						"typeLabel": "GenericString",
																						"pos": "690",
																						"length": "2",
																						"children": []
																					}
																				]
																			}
																		]
																	},
																	{
																		"type": "20100",
																		"typeLabel": "Left",
																		"pos": "694",
																		"length": "3",
																		"children": [
																			{
																				"type": "241000",
																				"typeLabel": "Unary",
																				"pos": "694",
																				"length": "3",
																				"children": [
																					{
																						"type": "240100",
																						"typeLabel": "Ident",
																						"pos": "695",
																						"length": "2",
																						"children": [
																							{
																								"type": "480000",
																								"label": "st",
																								"typeLabel": "GenericString",
																								"pos": "695",
																								"length": "2",
																								"children": []
																							}
																						]
																					},
																					{
																						"type": "480000",
																						"label": "&",
																						"typeLabel": "GenericString",
																						"pos": "694",
																						"length": "1",
																						"children": []
																					}
																				]
																			}
																		]
																	}
																]
															}
														]
													},
													{
														"type": "480000",
														"label": "<",
														"typeLabel": "GenericString",
														"pos": "699",
														"length": "1",
														"children": []
													},
													{
														"type": "240200",
														"label": "0",
														"typeLabel": "Constant",
														"pos": "701",
														"length": "1",
														"children": []
													}
												]
											},
											{
												"type": "260300",
												"typeLabel": "ExprStatement",
												"pos": "706",
												"length": "44",
												"children": [
													{
														"type": "290100",
														"typeLabel": "Some",
														"pos": "706",
														"length": "44",
														"children": [
															{
																"type": "240400",
																"typeLabel": "FunCall",
																"pos": "706",
																"length": "43",
																"children": [
																	{
																		"type": "240100",
																		"typeLabel": "Ident",
																		"pos": "706",
																		"length": "3",
																		"children": [
																			{
																				"type": "480000",
																				"label": "die",
																				"typeLabel": "GenericString",
																				"pos": "706",
																				"length": "3",
																				"children": []
																			}
																		]
																	},
																	{
																		"type": "470000",
																		"typeLabel": "GenericList",
																		"pos": "709",
																		"length": "40",
																		"children": [
																			{
																				"type": "20100",
																				"typeLabel": "Left",
																				"pos": "710",
																				"length": "15",
																				"children": [
																					{
																						"type": "240200",
																						"label": "\"fstat(%s): %s\"",
																						"typeLabel": "Constant",
																						"pos": "710",
																						"length": "15",
																						"children": []
																					}
																				]
																			},
																			{
																				"type": "20100",
																				"typeLabel": "Left",
																				"pos": "727",
																				"length": "4",
																				"children": [
																					{
																						"type": "240100",
																						"typeLabel": "Ident",
																						"pos": "727",
																						"length": "4",
																						"children": [
																							{
																								"type": "480000",
																								"label": "path",
																								"typeLabel": "GenericString",
																								"pos": "727",
																								"length": "4",
																								"children": []
																							}
																						]
																					}
																				]
																			},
																			{
																				"type": "20100",
																				"typeLabel": "Left",
																				"pos": "733",
																				"length": "15",
																				"children": [
																					{
																						"type": "240400",
																						"typeLabel": "FunCall",
																						"pos": "733",
																						"length": "15",
																						"children": [
																							{
																								"type": "240100",
																								"typeLabel": "Ident",
																								"pos": "733",
																								"length": "8",
																								"children": [
																									{
																										"type": "480000",
																										"label": "strerror",
																										"typeLabel": "GenericString",
																										"pos": "733",
																										"length": "8",
																										"children": []
																									}
																								]
																							},
																							{
																								"type": "470000",
																								"typeLabel": "GenericList",
																								"pos": "741",
																								"length": "7",
																								"children": [
																									{
																										"type": "20100",
																										"typeLabel": "Left",
																										"pos": "742",
																										"length": "5",
																										"children": [
																											{
																												"type": "240100",
																												"typeLabel": "Ident",
																												"pos": "742",
																												"length": "5",
																												"children": [
																													{
																														"type": "480000",
																														"label": "errno",
																														"typeLabel": "GenericString",
																														"pos": "742",
																														"length": "5",
																														"children": []
																													}
																												]
																											}
																										]
																									}
																								]
																							}
																						]
																					}
																				]
																			}
																		]
																	}
																]
															},
															{
																"type": "480000",
																"label": ";",
																"typeLabel": "GenericString",
																"pos": "749",
																"length": "1",
																"children": []
															}
														]
													}
												]
											}
										]
									},
									{
										"type": "260300",
										"typeLabel": "ExprStatement",
										"pos": "753",
										"length": "36",
										"children": [
											{
												"type": "290100",
												"typeLabel": "Some",
												"pos": "753",
												"length": "36",
												"children": [
													{
														"type": "240700",
														"typeLabel": "Assignment",
														"pos": "753",
														"length": "35",
														"children": [
															{
																"type": "240100",
																"typeLabel": "Ident",
																"pos": "753",
																"length": "7",
																"children": [
																	{
																		"type": "480000",
																		"label": "changed",
																		"typeLabel": "GenericString",
																		"pos": "753",
																		"length": "7",
																		"children": []
																	}
																]
															},
															{
																"type": "480000",
																"label": "=",
																"typeLabel": "GenericString",
																"pos": "761",
																"length": "1",
																"children": []
															},
															{
																"type": "240400",
																"typeLabel": "FunCall",
																"pos": "763",
																"length": "25",
																"children": [
																	{
																		"type": "240100",
																		"typeLabel": "Ident",
																		"pos": "763",
																		"length": "16",
																		"children": [
																			{
																				"type": "480000",
																				"label": "cache_match_stat",
																				"typeLabel": "GenericString",
																				"pos": "763",
																				"length": "16",
																				"children": []
																			}
																		]
																	},
																	{
																		"type": "470000",
																		"typeLabel": "GenericList",
																		"pos": "779",
																		"length": "9",
																		"children": [
																			{
																				"type": "20100",
																				"typeLabel": "Left",
																				"pos": "780",
																				"length": "2",
																				"children": [
																					{
																						"type": "240100",
																						"typeLabel": "Ident",
																						"pos": "780",
																						"length": "2",
																						"children": [
																							{
																								"type": "480000",
																								"label": "ce",
																								"typeLabel": "GenericString",
																								"pos": "780",
																								"length": "2",
																								"children": []
																							}
																						]
																					}
																				]
																			},
																			{
																				"type": "20100",
																				"typeLabel": "Left",
																				"pos": "784",
																				"length": "3",
																				"children": [
																					{
																						"type": "241000",
																						"typeLabel": "Unary",
																						"pos": "784",
																						"length": "3",
																						"children": [
																							{
																								"type": "240100",
																								"typeLabel": "Ident",
																								"pos": "785",
																								"length": "2",
																								"children": [
																									{
																										"type": "480000",
																										"label": "st",
																										"typeLabel": "GenericString",
																										"pos": "785",
																										"length": "2",
																										"children": []
																									}
																								]
																							},
																							{
																								"type": "480000",
																								"label": "&",
																								"typeLabel": "GenericString",
																								"pos": "784",
																								"length": "1",
																								"children": []
																							}
																						]
																					}
																				]
																			}
																		]
																	}
																]
															}
														]
													},
													{
														"type": "480000",
														"label": ";",
														"typeLabel": "GenericString",
														"pos": "788",
														"length": "1",
														"children": []
													}
												]
											}
										]
									},
									{
										"type": "300100",
										"typeLabel": "If",
										"pos": "791",
										"length": "80",
										"children": [
											{
												"type": "490100",
												"typeLabel": "IfToken",
												"pos": "791",
												"length": "2",
												"children": []
											},
											{
												"type": "240100",
												"typeLabel": "Ident",
												"pos": "795",
												"length": "7",
												"children": [
													{
														"type": "480000",
														"label": "changed",
														"typeLabel": "GenericString",
														"pos": "795",
														"length": "7",
														"children": []
													}
												]
											},
											{
												"type": "260300",
												"typeLabel": "ExprStatement",
												"pos": "806",
												"length": "65",
												"children": [
													{
														"type": "290100",
														"typeLabel": "Some",
														"pos": "806",
														"length": "65",
														"children": [
															{
																"type": "240400",
																"typeLabel": "FunCall",
																"pos": "806",
																"length": "64",
																"children": [
																	{
																		"type": "240100",
																		"typeLabel": "Ident",
																		"pos": "806",
																		"length": "3",
																		"children": [
																			{
																				"type": "480000",
																				"label": "die",
																				"typeLabel": "GenericString",
																				"pos": "806",
																				"length": "3",
																				"children": []
																			}
																		]
																	},
																	{
																		"type": "470000",
																		"typeLabel": "GenericList",
																		"pos": "809",
																		"length": "61",
																		"children": [
																			{
																				"type": "20100",
																				"typeLabel": "Left",
																				"pos": "810",
																				"length": "53",
																				"children": [
																					{
																						"type": "240200",
																						"label": "\"preparing to update file '%s' not uptodate in cache\"",
																						"typeLabel": "Constant",
																						"pos": "810",
																						"length": "53",
																						"children": []
																					}
																				]
																			},
																			{
																				"type": "20100",
																				"typeLabel": "Left",
																				"pos": "865",
																				"length": "4",
																				"children": [
																					{
																						"type": "240100",
																						"typeLabel": "Ident",
																						"pos": "865",
																						"length": "4",
																						"children": [
																							{
																								"type": "480000",
																								"label": "path",
																								"typeLabel": "GenericString",
																								"pos": "865",
																								"length": "4",
																								"children": []
																							}
																						]
																					}
																				]
																			}
																		]
																	}
																]
															},
															{
																"type": "480000",
																"label": ";",
																"typeLabel": "GenericString",
																"pos": "870",
																"length": "1",
																"children": []
															}
														]
													}
												]
											}
										]
									}
								]
							}
						]
					}
				]
			},
			{
				"type": "450200",
				"typeLabel": "Definition",
				"pos": "875",
				"length": "122",
				"children": [
					{
						"type": "380000",
						"typeLabel": "Definition",
						"pos": "875",
						"length": "122",
						"children": [
							{
								"type": "200000",
								"typeLabel": "ParamList",
								"pos": "883",
								"length": "23",
								"children": [
									{
										"type": "220100",
										"typeLabel": "ParameterType",
										"pos": "884",
										"length": "8",
										"children": [
											{
												"type": "480000",
												"label": "argc",
												"typeLabel": "GenericString",
												"pos": "888",
												"length": "4",
												"children": []
											}
										]
									},
									{
										"type": "220100",
										"typeLabel": "ParameterType",
										"pos": "894",
										"length": "11",
										"children": [
											{
												"type": "480000",
												"label": "argv",
												"typeLabel": "GenericString",
												"pos": "901",
												"length": "4",
												"children": []
											}
										]
									}
								]
							},
							{
								"type": "480000",
								"label": "main",
								"typeLabel": "GenericString",
								"pos": "879",
								"length": "4",
								"children": []
							},
							{
								"type": "330000",
								"typeLabel": "Compound",
								"pos": "907",
								"length": "90",
								"children": [
									{
										"type": "350100",
										"typeLabel": "DeclList",
										"pos": "910",
										"length": "6",
										"children": [
											{
												"type": "480000",
												"label": "i",
												"typeLabel": "GenericString",
												"pos": "914",
												"length": "1",
												"children": []
											}
										]
									},
									{
										"type": "260300",
										"typeLabel": "ExprStatement",
										"pos": "919",
										"length": "13",
										"children": [
											{
												"type": "290100",
												"typeLabel": "Some",
												"pos": "919",
												"length": "13",
												"children": [
													{
														"type": "240400",
														"typeLabel": "FunCall",
														"pos": "919",
														"length": "12",
														"children": [
															{
																"type": "240100",
																"typeLabel": "Ident",
																"pos": "919",
																"length": "10",
																"children": [
																	{
																		"type": "480000",
																		"label": "read_cache",
																		"typeLabel": "GenericString",
																		"pos": "919",
																		"length": "10",
																		"children": []
																	}
																]
															},
															{
																"type": "470000",
																"typeLabel": "GenericList",
																"pos": "929",
																"length": "2",
																"children": []
															}
														]
													},
													{
														"type": "480000",
														"label": ";",
														"typeLabel": "GenericString",
														"pos": "931",
														"length": "1",
														"children": []
													}
												]
											}
										]
									},
									{
										"type": "310300",
										"typeLabel": "For",
										"pos": "934",
										"length": "50",
										"children": [
											{
												"type": "260300",
												"typeLabel": "ExprStatement",
												"pos": "939",
												"length": "6",
												"children": [
													{
														"type": "290100",
														"typeLabel": "Some",
														"pos": "939",
														"length": "6",
														"children": [
															{
																"type": "240700",
																"typeLabel": "Assignment",
																"pos": "939",
																"length": "5",
																"children": [
																	{
																		"type": "240100",
																		"typeLabel": "Ident",
																		"pos": "939",
																		"length": "1",
																		"children": [
																			{
																				"type": "480000",
																				"label": "i",
																				"typeLabel": "GenericString",
																				"pos": "939",
																				"length": "1",
																				"children": []
																			}
																		]
																	},
																	{
																		"type": "480000",
																		"label": "=",
																		"typeLabel": "GenericString",
																		"pos": "941",
																		"length": "1",
																		"children": []
																	},
																	{
																		"type": "240200",
																		"label": "1",
																		"typeLabel": "Constant",
																		"pos": "943",
																		"length": "1",
																		"children": []
																	}
																]
															},
															{
																"type": "480000",
																"label": ";",
																"typeLabel": "GenericString",
																"pos": "944",
																"length": "1",
																"children": []
															}
														]
													}
												]
											},
											{
												"type": "260300",
												"typeLabel": "ExprStatement",
												"pos": "946",
												"length": "10",
												"children": [
													{
														"type": "290100",
														"typeLabel": "Some",
														"pos": "946",
														"length": "10",
														"children": [
															{
																"type": "241100",
																"typeLabel": "Binary",
																"pos": "946",
																"length": "8",
																"children": [
																	{
																		"type": "240100",
																		"typeLabel": "Ident",
																		"pos": "946",
																		"length": "1",
																		"children": [
																			{
																				"type": "480000",
																				"label": "i",
																				"typeLabel": "GenericString",
																				"pos": "946",
																				"length": "1",
																				"children": []
																			}
																		]
																	},
																	{
																		"type": "480000",
																		"label": "<",
																		"typeLabel": "GenericString",
																		"pos": "948",
																		"length": "1",
																		"children": []
																	},
																	{
																		"type": "240100",
																		"typeLabel": "Ident",
																		"pos": "950",
																		"length": "4",
																		"children": [
																			{
																				"type": "480000",
																				"label": "argc",
																				"typeLabel": "GenericString",
																				"pos": "950",
																				"length": "4",
																				"children": []
																			}
																		]
																	}
																]
															},
															{
																"type": "480000",
																"label": ";",
																"typeLabel": "GenericString",
																"pos": "955",
																"length": "1",
																"children": []
															}
														]
													}
												]
											},
											{
												"type": "260300",
												"typeLabel": "ExprStatement",
												"pos": "957",
												"length": "3",
												"children": [
													{
														"type": "290100",
														"typeLabel": "Some",
														"pos": "957",
														"length": "3",
														"children": [
															{
																"type": "240800",
																"typeLabel": "Postfix",
																"pos": "957",
																"length": "3",
																"children": [
																	{
																		"type": "240100",
																		"typeLabel": "Ident",
																		"pos": "957",
																		"length": "1",
																		"children": [
																			{
																				"type": "480000",
																				"label": "i",
																				"typeLabel": "GenericString",
																				"pos": "957",
																				"length": "1",
																				"children": []
																			}
																		]
																	},
																	{
																		"type": "480000",
																		"label": "++",
																		"typeLabel": "GenericString",
																		"pos": "958",
																		"length": "2",
																		"children": []
																	}
																]
															}
														]
													}
												]
											},
											{
												"type": "260300",
												"typeLabel": "ExprStatement",
												"pos": "964",
												"length": "20",
												"children": [
													{
														"type": "290100",
														"typeLabel": "Some",
														"pos": "964",
														"length": "20",
														"children": [
															{
																"type": "240400",
																"typeLabel": "FunCall",
																"pos": "964",
																"length": "19",
																"children": [
																	{
																		"type": "240100",
																		"typeLabel": "Ident",
																		"pos": "964",
																		"length": "10",
																		"children": [
																			{
																				"type": "480000",
																				"label": "check_file",
																				"typeLabel": "GenericString",
																				"pos": "964",
																				"length": "10",
																				"children": []
																			}
																		]
																	},
																	{
																		"type": "470000",
																		"typeLabel": "GenericList",
																		"pos": "974",
																		"length": "9",
																		"children": [
																			{
																				"type": "20100",
																				"typeLabel": "Left",
																				"pos": "975",
																				"length": "7",
																				"children": [
																					{
																						"type": "241200",
																						"typeLabel": "ArrayAccess",
																						"pos": "975",
																						"length": "7",
																						"children": [
																							{
																								"type": "240100",
																								"typeLabel": "Ident",
																								"pos": "975",
																								"length": "4",
																								"children": [
																									{
																										"type": "480000",
																										"label": "argv",
																										"typeLabel": "GenericString",
																										"pos": "975",
																										"length": "4",
																										"children": []
																									}
																								]
																							},
																							{
																								"type": "240100",
																								"typeLabel": "Ident",
																								"pos": "980",
																								"length": "1",
																								"children": [
																									{
																										"type": "480000",
																										"label": "i",
																										"typeLabel": "GenericString",
																										"pos": "980",
																										"length": "1",
																										"children": []
																									}
																								]
																							}
																						]
																					}
																				]
																			}
																		]
																	}
																]
															},
															{
																"type": "480000",
																"label": ";",
																"typeLabel": "GenericString",
																"pos": "983",
																"length": "1",
																"children": []
															}
														]
													}
												]
											}
										]
									},
									{
										"type": "280200",
										"typeLabel": "ReturnExpr",
										"pos": "986",
										"length": "9",
										"children": [
											{
												"type": "240200",
												"label": "0",
												"typeLabel": "Constant",
												"pos": "993",
												"length": "1",
												"children": []
											}
										]
									}
								]
							}
						]
					}
				]
			},
			{
				"type": "450800",
				"typeLabel": "FinalDef",
				"pos": "998",
				"length": "0",
				"children": []
			}
		]
	}
}