{
	"root": {
		"type": "460000",
		"typeLabel": "Program",
		"pos": "884",
		"length": "1875",
		"children": [
			{
				"type": "450300",
				"typeLabel": "CppTop",
				"pos": "884",
				"length": "22",
				"children": [
					{
						"type": "400200",
						"typeLabel": "Include",
						"pos": "884",
						"length": "22",
						"children": [
							{
								"type": "480000",
								"label": "<linux/pci.h>",
								"typeLabel": "GenericString",
								"pos": "893",
								"length": "13",
								"children": []
							}
						]
					}
				]
			},
			{
				"type": "450300",
				"typeLabel": "CppTop",
				"pos": "907",
				"length": "23",
				"children": [
					{
						"type": "400200",
						"typeLabel": "Include",
						"pos": "907",
						"length": "23",
						"children": [
							{
								"type": "480000",
								"label": "<linux/init.h>",
								"typeLabel": "GenericString",
								"pos": "916",
								"length": "14",
								"children": []
							}
						]
					}
				]
			},
			{
				"type": "450300",
				"typeLabel": "CppTop",
				"pos": "931",
				"length": "24",
				"children": [
					{
						"type": "400200",
						"typeLabel": "Include",
						"pos": "931",
						"length": "24",
						"children": [
							{
								"type": "480000",
								"label": "<linux/delay.h>",
								"typeLabel": "GenericString",
								"pos": "940",
								"length": "15",
								"children": []
							}
						]
					}
				]
			},
			{
				"type": "450300",
				"typeLabel": "CppTop",
				"pos": "956",
				"length": "27",
				"children": [
					{
						"type": "400200",
						"typeLabel": "Include",
						"pos": "956",
						"length": "27",
						"children": [
							{
								"type": "480000",
								"label": "<asm/mach-types.h>",
								"typeLabel": "GenericString",
								"pos": "965",
								"length": "18",
								"children": []
							}
						]
					}
				]
			},
			{
				"type": "450300",
				"typeLabel": "CppTop",
				"pos": "984",
				"length": "25",
				"children": [
					{
						"type": "400200",
						"typeLabel": "Include",
						"pos": "984",
						"length": "25",
						"children": [
							{
								"type": "480000",
								"label": "<asm/hardware.h>",
								"typeLabel": "GenericString",
								"pos": "993",
								"length": "16",
								"children": []
							}
						]
					}
				]
			},
			{
				"type": "450300",
				"typeLabel": "CppTop",
				"pos": "1010",
				"length": "20",
				"children": [
					{
						"type": "400200",
						"typeLabel": "Include",
						"pos": "1010",
						"length": "20",
						"children": [
							{
								"type": "480000",
								"label": "<asm/irq.h>",
								"typeLabel": "GenericString",
								"pos": "1019",
								"length": "11",
								"children": []
							}
						]
					}
				]
			},
			{
				"type": "450300",
				"typeLabel": "CppTop",
				"pos": "1031",
				"length": "30",
				"children": [
					{
						"type": "400200",
						"typeLabel": "Include",
						"pos": "1031",
						"length": "30",
						"children": [
							{
								"type": "480000",
								"label": "<asm/arch/gtwx5715.h>",
								"typeLabel": "GenericString",
								"pos": "1040",
								"length": "21",
								"children": []
							}
						]
					}
				]
			},
			{
				"type": "450300",
				"typeLabel": "CppTop",
				"pos": "1062",
				"length": "25",
				"children": [
					{
						"type": "400200",
						"typeLabel": "Include",
						"pos": "1062",
						"length": "25",
						"children": [
							{
								"type": "480000",
								"label": "<asm/mach/pci.h>",
								"typeLabel": "GenericString",
								"pos": "1071",
								"length": "16",
								"children": []
							}
						]
					}
				]
			},
			{
				"type": "450100",
				"typeLabel": "Declaration",
				"pos": "1089",
				"length": "37",
				"children": [
					{
						"type": "350100",
						"typeLabel": "DeclList",
						"pos": "1089",
						"length": "37",
						"children": [
							{
								"type": "340000",
								"typeLabel": "Storage",
								"pos": "1089",
								"length": "6",
								"children": [
									{
										"type": "480000",
										"label": "extern",
										"typeLabel": "GenericString",
										"pos": "1089",
										"length": "6",
										"children": []
									}
								]
							},
							{
								"type": "480000",
								"label": "ixp4xx_pci_preinit",
								"typeLabel": "GenericString",
								"pos": "1101",
								"length": "18",
								"children": []
							}
						]
					}
				]
			},
			{
				"type": "450100",
				"typeLabel": "Declaration",
				"pos": "1127",
				"length": "58",
				"children": [
					{
						"type": "350100",
						"typeLabel": "DeclList",
						"pos": "1127",
						"length": "58",
						"children": [
							{
								"type": "340000",
								"typeLabel": "Storage",
								"pos": "1127",
								"length": "6",
								"children": [
									{
										"type": "480000",
										"label": "extern",
										"typeLabel": "GenericString",
										"pos": "1127",
										"length": "6",
										"children": []
									}
								]
							},
							{
								"type": "480000",
								"label": "ixp4xx_setup",
								"typeLabel": "GenericString",
								"pos": "1138",
								"length": "12",
								"children": []
							}
						]
					}
				]
			},
			{
				"type": "450100",
				"typeLabel": "Declaration",
				"pos": "1186",
				"length": "73",
				"children": [
					{
						"type": "350100",
						"typeLabel": "DeclList",
						"pos": "1186",
						"length": "73",
						"children": [
							{
								"type": "340000",
								"typeLabel": "Storage",
								"pos": "1186",
								"length": "6",
								"children": [
									{
										"type": "480000",
										"label": "extern",
										"typeLabel": "GenericString",
										"pos": "1186",
										"length": "6",
										"children": []
									}
								]
							},
							{
								"type": "480000",
								"label": "ixp4xx_scan_bus",
								"typeLabel": "GenericString",
								"pos": "1209",
								"length": "15",
								"children": []
							}
						]
					}
				]
			},
			{
				"type": "450200",
				"typeLabel": "Definition",
				"pos": "1539",
				"length": "282",
				"children": [
					{
						"type": "380000",
						"typeLabel": "Definition",
						"pos": "1539",
						"length": "282",
						"children": [
							{
								"type": "200000",
								"typeLabel": "ParamList",
								"pos": "1571",
								"length": "6",
								"children": [
									{
										"type": "220100",
										"typeLabel": "ParameterType",
										"pos": "1572",
										"length": "4",
										"children": []
									}
								]
							},
							{
								"type": "480000",
								"label": "gtwx5715_pci_preinit",
								"typeLabel": "GenericString",
								"pos": "1551",
								"length": "20",
								"children": []
							},
							{
								"type": "330000",
								"typeLabel": "Compound",
								"pos": "1578",
								"length": "243",
								"children": [
									{
										"type": "260300",
										"typeLabel": "ExprStatement",
										"pos": "1581",
										"length": "52",
										"children": [
											{
												"type": "290100",
												"typeLabel": "Some",
												"pos": "1581",
												"length": "52",
												"children": [
													{
														"type": "240400",
														"typeLabel": "FunCall",
														"pos": "1581",
														"length": "51",
														"children": [
															{
																"type": "240100",
																"typeLabel": "Ident",
																"pos": "1581",
																"length": "12",
																"children": [
																	{
																		"type": "480000",
																		"label": "set_irq_type",
																		"typeLabel": "GenericString",
																		"pos": "1581",
																		"length": "12",
																		"children": []
																	}
																]
															},
															{
																"type": "470000",
																"typeLabel": "GenericList",
																"pos": "1593",
																"length": "39",
																"children": [
																	{
																		"type": "20100",
																		"typeLabel": "Left",
																		"pos": "1594",
																		"length": "27",
																		"children": [
																			{
																				"type": "240100",
																				"typeLabel": "Ident",
																				"pos": "1594",
																				"length": "27",
																				"children": [
																					{
																						"type": "480000",
																						"label": "GTWX5715_PCI_SLOT0_INTA_IRQ",
																						"typeLabel": "GenericString",
																						"pos": "1594",
																						"length": "27",
																						"children": []
																					}
																				]
																			}
																		]
																	},
																	{
																		"type": "20100",
																		"typeLabel": "Left",
																		"pos": "1623",
																		"length": "8",
																		"children": [
																			{
																				"type": "240100",
																				"typeLabel": "Ident",
																				"pos": "1623",
																				"length": "8",
																				"children": [
																					{
																						"type": "480000",
																						"label": "IRQT_LOW",
																						"typeLabel": "GenericString",
																						"pos": "1623",
																						"length": "8",
																						"children": []
																					}
																				]
																			}
																		]
																	}
																]
															}
														]
													},
													{
														"type": "480000",
														"label": ";",
														"typeLabel": "GenericString",
														"pos": "1632",
														"length": "1",
														"children": []
													}
												]
											}
										]
									},
									{
										"type": "260300",
										"typeLabel": "ExprStatement",
										"pos": "1635",
										"length": "52",
										"children": [
											{
												"type": "290100",
												"typeLabel": "Some",
												"pos": "1635",
												"length": "52",
												"children": [
													{
														"type": "240400",
														"typeLabel": "FunCall",
														"pos": "1635",
														"length": "51",
														"children": [
															{
																"type": "240100",
																"typeLabel": "Ident",
																"pos": "1635",
																"length": "12",
																"children": [
																	{
																		"type": "480000",
																		"label": "set_irq_type",
																		"typeLabel": "GenericString",
																		"pos": "1635",
																		"length": "12",
																		"children": []
																	}
																]
															},
															{
																"type": "470000",
																"typeLabel": "GenericList",
																"pos": "1647",
																"length": "39",
																"children": [
																	{
																		"type": "20100",
																		"typeLabel": "Left",
																		"pos": "1648",
																		"length": "27",
																		"children": [
																			{
																				"type": "240100",
																				"typeLabel": "Ident",
																				"pos": "1648",
																				"length": "27",
																				"children": [
																					{
																						"type": "480000",
																						"label": "GTWX5715_PCI_SLOT0_INTB_IRQ",
																						"typeLabel": "GenericString",
																						"pos": "1648",
																						"length": "27",
																						"children": []
																					}
																				]
																			}
																		]
																	},
																	{
																		"type": "20100",
																		"typeLabel": "Left",
																		"pos": "1677",
																		"length": "8",
																		"children": [
																			{
																				"type": "240100",
																				"typeLabel": "Ident",
																				"pos": "1677",
																				"length": "8",
																				"children": [
																					{
																						"type": "480000",
																						"label": "IRQT_LOW",
																						"typeLabel": "GenericString",
																						"pos": "1677",
																						"length": "8",
																						"children": []
																					}
																				]
																			}
																		]
																	}
																]
															}
														]
													},
													{
														"type": "480000",
														"label": ";",
														"typeLabel": "GenericString",
														"pos": "1686",
														"length": "1",
														"children": []
													}
												]
											}
										]
									},
									{
										"type": "260300",
										"typeLabel": "ExprStatement",
										"pos": "1689",
										"length": "52",
										"children": [
											{
												"type": "290100",
												"typeLabel": "Some",
												"pos": "1689",
												"length": "52",
												"children": [
													{
														"type": "240400",
														"typeLabel": "FunCall",
														"pos": "1689",
														"length": "51",
														"children": [
															{
																"type": "240100",
																"typeLabel": "Ident",
																"pos": "1689",
																"length": "12",
																"children": [
																	{
																		"type": "480000",
																		"label": "set_irq_type",
																		"typeLabel": "GenericString",
																		"pos": "1689",
																		"length": "12",
																		"children": []
																	}
																]
															},
															{
																"type": "470000",
																"typeLabel": "GenericList",
																"pos": "1701",
																"length": "39",
																"children": [
																	{
																		"type": "20100",
																		"typeLabel": "Left",
																		"pos": "1702",
																		"length": "27",
																		"children": [
																			{
																				"type": "240100",
																				"typeLabel": "Ident",
																				"pos": "1702",
																				"length": "27",
																				"children": [
																					{
																						"type": "480000",
																						"label": "GTWX5715_PCI_SLOT1_INTA_IRQ",
																						"typeLabel": "GenericString",
																						"pos": "1702",
																						"length": "27",
																						"children": []
																					}
																				]
																			}
																		]
																	},
																	{
																		"type": "20100",
																		"typeLabel": "Left",
																		"pos": "1731",
																		"length": "8",
																		"children": [
																			{
																				"type": "240100",
																				"typeLabel": "Ident",
																				"pos": "1731",
																				"length": "8",
																				"children": [
																					{
																						"type": "480000",
																						"label": "IRQT_LOW",
																						"typeLabel": "GenericString",
																						"pos": "1731",
																						"length": "8",
																						"children": []
																					}
																				]
																			}
																		]
																	}
																]
															}
														]
													},
													{
														"type": "480000",
														"label": ";",
														"typeLabel": "GenericString",
														"pos": "1740",
														"length": "1",
														"children": []
													}
												]
											}
										]
									},
									{
										"type": "260300",
										"typeLabel": "ExprStatement",
										"pos": "1743",
										"length": "52",
										"children": [
											{
												"type": "290100",
												"typeLabel": "Some",
												"pos": "1743",
												"length": "52",
												"children": [
													{
														"type": "240400",
														"typeLabel": "FunCall",
														"pos": "1743",
														"length": "51",
														"children": [
															{
																"type": "240100",
																"typeLabel": "Ident",
																"pos": "1743",
																"length": "12",
																"children": [
																	{
																		"type": "480000",
																		"label": "set_irq_type",
																		"typeLabel": "GenericString",
																		"pos": "1743",
																		"length": "12",
																		"children": []
																	}
																]
															},
															{
																"type": "470000",
																"typeLabel": "GenericList",
																"pos": "1755",
																"length": "39",
																"children": [
																	{
																		"type": "20100",
																		"typeLabel": "Left",
																		"pos": "1756",
																		"length": "27",
																		"children": [
																			{
																				"type": "240100",
																				"typeLabel": "Ident",
																				"pos": "1756",
																				"length": "27",
																				"children": [
																					{
																						"type": "480000",
																						"label": "GTWX5715_PCI_SLOT1_INTB_IRQ",
																						"typeLabel": "GenericString",
																						"pos": "1756",
																						"length": "27",
																						"children": []
																					}
																				]
																			}
																		]
																	},
																	{
																		"type": "20100",
																		"typeLabel": "Left",
																		"pos": "1785",
																		"length": "8",
																		"children": [
																			{
																				"type": "240100",
																				"typeLabel": "Ident",
																				"pos": "1785",
																				"length": "8",
																				"children": [
																					{
																						"type": "480000",
																						"label": "IRQT_LOW",
																						"typeLabel": "GenericString",
																						"pos": "1785",
																						"length": "8",
																						"children": []
																					}
																				]
																			}
																		]
																	}
																]
															}
														]
													},
													{
														"type": "480000",
														"label": ";",
														"typeLabel": "GenericString",
														"pos": "1794",
														"length": "1",
														"children": []
													}
												]
											}
										]
									},
									{
										"type": "260300",
										"typeLabel": "ExprStatement",
										"pos": "1798",
										"length": "21",
										"children": [
											{
												"type": "290100",
												"typeLabel": "Some",
												"pos": "1798",
												"length": "21",
												"children": [
													{
														"type": "240400",
														"typeLabel": "FunCall",
														"pos": "1798",
														"length": "20",
														"children": [
															{
																"type": "240100",
																"typeLabel": "Ident",
																"pos": "1798",
																"length": "18",
																"children": [
																	{
																		"type": "480000",
																		"label": "ixp4xx_pci_preinit",
																		"typeLabel": "GenericString",
																		"pos": "1798",
																		"length": "18",
																		"children": []
																	}
																]
															},
															{
																"type": "470000",
																"typeLabel": "GenericList",
																"pos": "1816",
																"length": "2",
																"children": []
															}
														]
													},
													{
														"type": "480000",
														"label": ";",
														"typeLabel": "GenericString",
														"pos": "1818",
														"length": "1",
														"children": []
													}
												]
											}
										]
									}
								]
							}
						]
					}
				]
			},
			{
				"type": "450200",
				"typeLabel": "Definition",
				"pos": "1824",
				"length": "526",
				"children": [
					{
						"type": "380000",
						"typeLabel": "Definition",
						"pos": "1824",
						"length": "526",
						"children": [
							{
								"type": "340000",
								"typeLabel": "Storage",
								"pos": "1824",
								"length": "6",
								"children": [
									{
										"type": "480000",
										"label": "static",
										"typeLabel": "GenericString",
										"pos": "1824",
										"length": "6",
										"children": []
									}
								]
							},
							{
								"type": "200000",
								"typeLabel": "ParamList",
								"pos": "1858",
								"length": "38",
								"children": [
									{
										"type": "220100",
										"typeLabel": "ParameterType",
										"pos": "1859",
										"length": "19",
										"children": [
											{
												"type": "480000",
												"label": "dev",
												"typeLabel": "GenericString",
												"pos": "1875",
												"length": "3",
												"children": []
											}
										]
									},
									{
										"type": "220100",
										"typeLabel": "ParameterType",
										"pos": "1880",
										"length": "7",
										"children": [
											{
												"type": "480000",
												"label": "slot",
												"typeLabel": "GenericString",
												"pos": "1883",
												"length": "4",
												"children": []
											}
										]
									},
									{
										"type": "220100",
										"typeLabel": "ParameterType",
										"pos": "1889",
										"length": "6",
										"children": [
											{
												"type": "480000",
												"label": "pin",
												"typeLabel": "GenericString",
												"pos": "1892",
												"length": "3",
												"children": []
											}
										]
									}
								]
							},
							{
								"type": "480000",
								"label": "gtwx5715_map_irq",
								"typeLabel": "GenericString",
								"pos": "1842",
								"length": "16",
								"children": []
							},
							{
								"type": "330000",
								"typeLabel": "Compound",
								"pos": "1897",
								"length": "453",
								"children": [
									{
										"type": "350100",
										"typeLabel": "DeclList",
										"pos": "1900",
										"length": "7",
										"children": [
											{
												"type": "480000",
												"label": "rc",
												"typeLabel": "GenericString",
												"pos": "1904",
												"length": "2",
												"children": []
											}
										]
									},
									{
										"type": "350100",
										"typeLabel": "DeclList",
										"pos": "1909",
										"length": "216",
										"children": [
											{
												"type": "340000",
												"typeLabel": "Storage",
												"pos": "1909",
												"length": "6",
												"children": [
													{
														"type": "480000",
														"label": "static",
														"typeLabel": "GenericString",
														"pos": "1909",
														"length": "6",
														"children": []
													}
												]
											},
											{
												"type": "480000",
												"label": "gtwx5715_irqmap",
												"typeLabel": "GenericString",
												"pos": "1920",
												"length": "15",
												"children": []
											},
											{
												"type": "360200",
												"typeLabel": "InitList",
												"pos": "1999",
												"length": "125",
												"children": [
													{
														"type": "360200",
														"typeLabel": "InitList",
														"pos": "2002",
														"length": "58",
														"children": [
															{
																"type": "360100",
																"typeLabel": "InitExpr",
																"pos": "2003",
																"length": "27",
																"children": [
																	{
																		"type": "240100",
																		"typeLabel": "Ident",
																		"pos": "2003",
																		"length": "27",
																		"children": [
																			{
																				"type": "480000",
																				"label": "GTWX5715_PCI_SLOT0_INTA_IRQ",
																				"typeLabel": "GenericString",
																				"pos": "2003",
																				"length": "27",
																				"children": []
																			}
																		]
																	}
																]
															},
															{
																"type": "360100",
																"typeLabel": "InitExpr",
																"pos": "2032",
																"length": "27",
																"children": [
																	{
																		"type": "240100",
																		"typeLabel": "Ident",
																		"pos": "2032",
																		"length": "27",
																		"children": [
																			{
																				"type": "480000",
																				"label": "GTWX5715_PCI_SLOT0_INTB_IRQ",
																				"typeLabel": "GenericString",
																				"pos": "2032",
																				"length": "27",
																				"children": []
																			}
																		]
																	}
																]
															}
														]
													},
													{
														"type": "360200",
														"typeLabel": "InitList",
														"pos": "2063",
														"length": "58",
														"children": [
															{
																"type": "360100",
																"typeLabel": "InitExpr",
																"pos": "2064",
																"length": "27",
																"children": [
																	{
																		"type": "240100",
																		"typeLabel": "Ident",
																		"pos": "2064",
																		"length": "27",
																		"children": [
																			{
																				"type": "480000",
																				"label": "GTWX5715_PCI_SLOT1_INTA_IRQ",
																				"typeLabel": "GenericString",
																				"pos": "2064",
																				"length": "27",
																				"children": []
																			}
																		]
																	}
																]
															},
															{
																"type": "360100",
																"typeLabel": "InitExpr",
																"pos": "2093",
																"length": "27",
																"children": [
																	{
																		"type": "240100",
																		"typeLabel": "Ident",
																		"pos": "2093",
																		"length": "27",
																		"children": [
																			{
																				"type": "480000",
																				"label": "GTWX5715_PCI_SLOT1_INTB_IRQ",
																				"typeLabel": "GenericString",
																				"pos": "2093",
																				"length": "27",
																				"children": []
																			}
																		]
																	}
																]
															}
														]
													}
												]
											}
										]
									},
									{
										"type": "300100",
										"typeLabel": "If",
										"pos": "2128",
										"length": "128",
										"children": [
											{
												"type": "490100",
												"typeLabel": "IfToken",
												"pos": "2128",
												"length": "2",
												"children": []
											},
											{
												"type": "241100",
												"typeLabel": "Binary",
												"pos": "2132",
												"length": "71",
												"children": [
													{
														"type": "241100",
														"typeLabel": "Binary",
														"pos": "2132",
														"length": "31",
														"children": [
															{
																"type": "240100",
																"typeLabel": "Ident",
																"pos": "2132",
																"length": "4",
																"children": [
																	{
																		"type": "480000",
																		"label": "slot",
																		"typeLabel": "GenericString",
																		"pos": "2132",
																		"length": "4",
																		"children": []
																	}
																]
															},
															{
																"type": "480000",
																"label": ">=",
																"typeLabel": "GenericString",
																"pos": "2137",
																"length": "2",
																"children": []
															},
															{
																"type": "240100",
																"typeLabel": "Ident",
																"pos": "2140",
																"length": "23",
																"children": [
																	{
																		"type": "480000",
																		"label": "GTWX5715_PCI_SLOT_COUNT",
																		"typeLabel": "GenericString",
																		"pos": "2140",
																		"length": "23",
																		"children": []
																	}
																]
															}
														]
													},
													{
														"type": "480000",
														"label": "||",
														"typeLabel": "GenericString",
														"pos": "2164",
														"length": "2",
														"children": []
													},
													{
														"type": "241100",
														"typeLabel": "Binary",
														"pos": "2170",
														"length": "33",
														"children": [
															{
																"type": "240100",
																"typeLabel": "Ident",
																"pos": "2170",
																"length": "3",
																"children": [
																	{
																		"type": "480000",
																		"label": "pin",
																		"typeLabel": "GenericString",
																		"pos": "2170",
																		"length": "3",
																		"children": []
																	}
																]
															},
															{
																"type": "480000",
																"label": ">=",
																"typeLabel": "GenericString",
																"pos": "2174",
																"length": "2",
																"children": []
															},
															{
																"type": "240100",
																"typeLabel": "Ident",
																"pos": "2177",
																"length": "26",
																"children": [
																	{
																		"type": "480000",
																		"label": "GTWX5715_PCI_INT_PIN_COUNT",
																		"typeLabel": "GenericString",
																		"pos": "2177",
																		"length": "26",
																		"children": []
																	}
																]
															}
														]
													}
												]
											},
											{
												"type": "260300",
												"typeLabel": "ExprStatement",
												"pos": "2205",
												"length": "8",
												"children": [
													{
														"type": "290100",
														"typeLabel": "Some",
														"pos": "2205",
														"length": "8",
														"children": [
															{
																"type": "240700",
																"typeLabel": "Assignment",
																"pos": "2205",
																"length": "7",
																"children": [
																	{
																		"type": "240100",
																		"typeLabel": "Ident",
																		"pos": "2205",
																		"length": "2",
																		"children": [
																			{
																				"type": "480000",
																				"label": "rc",
																				"typeLabel": "GenericString",
																				"pos": "2205",
																				"length": "2",
																				"children": []
																			}
																		]
																	},
																	{
																		"type": "480000",
																		"label": "=",
																		"typeLabel": "GenericString",
																		"pos": "2208",
																		"length": "1",
																		"children": []
																	},
																	{
																		"type": "241000",
																		"typeLabel": "Unary",
																		"pos": "2210",
																		"length": "2",
																		"children": [
																			{
																				"type": "240200",
																				"label": "1",
																				"typeLabel": "Constant",
																				"pos": "2211",
																				"length": "1",
																				"children": []
																			},
																			{
																				"type": "480000",
																				"label": "-",
																				"typeLabel": "GenericString",
																				"pos": "2210",
																				"length": "1",
																				"children": []
																			}
																		]
																	}
																]
															},
															{
																"type": "480000",
																"label": ";",
																"typeLabel": "GenericString",
																"pos": "2212",
																"length": "1",
																"children": []
															}
														]
													}
												]
											},
											{
												"type": "260300",
												"typeLabel": "ExprStatement",
												"pos": "2222",
												"length": "34",
												"children": [
													{
														"type": "290100",
														"typeLabel": "Some",
														"pos": "2222",
														"length": "34",
														"children": [
															{
																"type": "240700",
																"typeLabel": "Assignment",
																"pos": "2222",
																"length": "33",
																"children": [
																	{
																		"type": "240100",
																		"typeLabel": "Ident",
																		"pos": "2222",
																		"length": "2",
																		"children": [
																			{
																				"type": "480000",
																				"label": "rc",
																				"typeLabel": "GenericString",
																				"pos": "2222",
																				"length": "2",
																				"children": []
																			}
																		]
																	},
																	{
																		"type": "480000",
																		"label": "=",
																		"typeLabel": "GenericString",
																		"pos": "2225",
																		"length": "1",
																		"children": []
																	},
																	{
																		"type": "241200",
																		"typeLabel": "ArrayAccess",
																		"pos": "2227",
																		"length": "28",
																		"children": [
																			{
																				"type": "241200",
																				"typeLabel": "ArrayAccess",
																				"pos": "2227",
																				"length": "21",
																				"children": [
																					{
																						"type": "240100",
																						"typeLabel": "Ident",
																						"pos": "2227",
																						"length": "15",
																						"children": [
																							{
																								"type": "480000",
																								"label": "gtwx5715_irqmap",
																								"typeLabel": "GenericString",
																								"pos": "2227",
																								"length": "15",
																								"children": []
																							}
																						]
																					},
																					{
																						"type": "240100",
																						"typeLabel": "Ident",
																						"pos": "2243",
																						"length": "4",
																						"children": [
																							{
																								"type": "480000",
																								"label": "slot",
																								"typeLabel": "GenericString",
																								"pos": "2243",
																								"length": "4",
																								"children": []
																							}
																						]
																					}
																				]
																			},
																			{
																				"type": "241100",
																				"typeLabel": "Binary",
																				"pos": "2249",
																				"length": "5",
																				"children": [
																					{
																						"type": "240100",
																						"typeLabel": "Ident",
																						"pos": "2249",
																						"length": "3",
																						"children": [
																							{
																								"type": "480000",
																								"label": "pin",
																								"typeLabel": "GenericString",
																								"pos": "2249",
																								"length": "3",
																								"children": []
																							}
																						]
																					},
																					{
																						"type": "480000",
																						"label": "-",
																						"typeLabel": "GenericString",
																						"pos": "2252",
																						"length": "1",
																						"children": []
																					},
																					{
																						"type": "240200",
																						"label": "1",
																						"typeLabel": "Constant",
																						"pos": "2253",
																						"length": "1",
																						"children": []
																					}
																				]
																			}
																		]
																	}
																]
															},
															{
																"type": "480000",
																"label": ";",
																"typeLabel": "GenericString",
																"pos": "2255",
																"length": "1",
																"children": []
															}
														]
													}
												]
											}
										]
									},
									{
										"type": "260300",
										"typeLabel": "ExprStatement",
										"pos": "2259",
										"length": "76",
										"children": [
											{
												"type": "290100",
												"typeLabel": "Some",
												"pos": "2259",
												"length": "76",
												"children": [
													{
														"type": "240400",
														"typeLabel": "FunCall",
														"pos": "2259",
														"length": "75",
														"children": [
															{
																"type": "240100",
																"typeLabel": "Ident",
																"pos": "2259",
																"length": "6",
																"children": [
																	{
																		"type": "480000",
																		"label": "printk",
																		"typeLabel": "GenericString",
																		"pos": "2259",
																		"length": "6",
																		"children": []
																	}
																]
															},
															{
																"type": "470000",
																"typeLabel": "GenericList",
																"pos": "2265",
																"length": "69",
																"children": [
																	{
																		"type": "20100",
																		"typeLabel": "Left",
																		"pos": "2266",
																		"length": "39",
																		"children": [
																			{
																				"type": "240200",
																				"label": "\"%s: Mapped slot %d pin %d to IRQ %d\\n\"",
																				"typeLabel": "Constant",
																				"pos": "2266",
																				"length": "39",
																				"children": []
																			}
																		]
																	},
																	{
																		"type": "20100",
																		"typeLabel": "Left",
																		"pos": "2307",
																		"length": "12",
																		"children": [
																			{
																				"type": "240100",
																				"typeLabel": "Ident",
																				"pos": "2307",
																				"length": "12",
																				"children": [
																					{
																						"type": "480000",
																						"label": "__FUNCTION__",
																						"typeLabel": "GenericString",
																						"pos": "2307",
																						"length": "12",
																						"children": []
																					}
																				]
																			}
																		]
																	},
																	{
																		"type": "20100",
																		"typeLabel": "Left",
																		"pos": "2320",
																		"length": "4",
																		"children": [
																			{
																				"type": "240100",
																				"typeLabel": "Ident",
																				"pos": "2320",
																				"length": "4",
																				"children": [
																					{
																						"type": "480000",
																						"label": "slot",
																						"typeLabel": "GenericString",
																						"pos": "2320",
																						"length": "4",
																						"children": []
																					}
																				]
																			}
																		]
																	},
																	{
																		"type": "20100",
																		"typeLabel": "Left",
																		"pos": "2326",
																		"length": "3",
																		"children": [
																			{
																				"type": "240100",
																				"typeLabel": "Ident",
																				"pos": "2326",
																				"length": "3",
																				"children": [
																					{
																						"type": "480000",
																						"label": "pin",
																						"typeLabel": "GenericString",
																						"pos": "2326",
																						"length": "3",
																						"children": []
																					}
																				]
																			}
																		]
																	},
																	{
																		"type": "20100",
																		"typeLabel": "Left",
																		"pos": "2331",
																		"length": "2",
																		"children": [
																			{
																				"type": "240100",
																				"typeLabel": "Ident",
																				"pos": "2331",
																				"length": "2",
																				"children": [
																					{
																						"type": "480000",
																						"label": "rc",
																						"typeLabel": "GenericString",
																						"pos": "2331",
																						"length": "2",
																						"children": []
																					}
																				]
																			}
																		]
																	}
																]
															}
														]
													},
													{
														"type": "480000",
														"label": ";",
														"typeLabel": "GenericString",
														"pos": "2334",
														"length": "1",
														"children": []
													}
												]
											}
										]
									},
									{
										"type": "280200",
										"typeLabel": "ReturnExpr",
										"pos": "2337",
										"length": "11",
										"children": [
											{
												"type": "242000",
												"typeLabel": "ParenExpr",
												"pos": "2343",
												"length": "4",
												"children": [
													{
														"type": "240100",
														"typeLabel": "Ident",
														"pos": "2344",
														"length": "2",
														"children": [
															{
																"type": "480000",
																"label": "rc",
																"typeLabel": "GenericString",
																"pos": "2344",
																"length": "2",
																"children": []
															}
														]
													}
												]
											}
										]
									}
								]
							}
						]
					}
				]
			},
			{
				"type": "450700",
				"typeLabel": "NotParsedCorrectly",
				"pos": "2350",
				"length": "251",
				"children": [
					{
						"type": "480000",
						"label": " ",
						"typeLabel": "GenericString",
						"pos": "2350",
						"length": "1",
						"children": []
					},
					{
						"type": "480000",
						"label": " ",
						"typeLabel": "GenericString",
						"pos": "2351",
						"length": "1",
						"children": []
					},
					{
						"type": "480000",
						"label": "struct",
						"typeLabel": "GenericString",
						"pos": "2352",
						"length": "6",
						"children": []
					},
					{
						"type": "480000",
						"label": " ",
						"typeLabel": "GenericString",
						"pos": "2358",
						"length": "1",
						"children": []
					},
					{
						"type": "480000",
						"label": "hw_pci",
						"typeLabel": "GenericString",
						"pos": "2359",
						"length": "6",
						"children": []
					},
					{
						"type": "480000",
						"label": " ",
						"typeLabel": "GenericString",
						"pos": "2365",
						"length": "1",
						"children": []
					},
					{
						"type": "480000",
						"label": "gtwx5715_pci",
						"typeLabel": "GenericString",
						"pos": "2366",
						"length": "12",
						"children": []
					},
					{
						"type": "480000",
						"label": " ",
						"typeLabel": "GenericString",
						"pos": "2378",
						"length": "1",
						"children": []
					},
					{
						"type": "480000",
						"label": "__initdata",
						"typeLabel": "GenericString",
						"pos": "2379",
						"length": "10",
						"children": []
					},
					{
						"type": "480000",
						"label": " ",
						"typeLabel": "GenericString",
						"pos": "2389",
						"length": "1",
						"children": []
					},
					{
						"type": "480000",
						"label": "=",
						"typeLabel": "GenericString",
						"pos": "2390",
						"length": "1",
						"children": []
					},
					{
						"type": "480000",
						"label": " ",
						"typeLabel": "GenericString",
						"pos": "2391",
						"length": "1",
						"children": []
					},
					{
						"type": "480000",
						"label": "{",
						"typeLabel": "GenericString",
						"pos": "2392",
						"length": "1",
						"children": []
					},
					{
						"type": "480000",
						"label": "  ",
						"typeLabel": "GenericString",
						"pos": "2393",
						"length": "2",
						"children": []
					},
					{
						"type": "480000",
						"label": ".",
						"typeLabel": "GenericString",
						"pos": "2395",
						"length": "1",
						"children": []
					},
					{
						"type": "480000",
						"label": "nr_controllers",
						"typeLabel": "GenericString",
						"pos": "2396",
						"length": "14",
						"children": []
					},
					{
						"type": "480000",
						"label": " ",
						"typeLabel": "GenericString",
						"pos": "2410",
						"length": "1",
						"children": []
					},
					{
						"type": "480000",
						"label": "=",
						"typeLabel": "GenericString",
						"pos": "2411",
						"length": "1",
						"children": []
					},
					{
						"type": "480000",
						"label": " ",
						"typeLabel": "GenericString",
						"pos": "2412",
						"length": "1",
						"children": []
					},
					{
						"type": "480000",
						"label": "1",
						"typeLabel": "GenericString",
						"pos": "2413",
						"length": "1",
						"children": []
					},
					{
						"type": "480000",
						"label": ",",
						"typeLabel": "GenericString",
						"pos": "2414",
						"length": "1",
						"children": []
					},
					{
						"type": "480000",
						"label": "  ",
						"typeLabel": "GenericString",
						"pos": "2415",
						"length": "2",
						"children": []
					},
					{
						"type": "480000",
						"label": ".",
						"typeLabel": "GenericString",
						"pos": "2417",
						"length": "1",
						"children": []
					},
					{
						"type": "480000",
						"label": "preinit",
						"typeLabel": "GenericString",
						"pos": "2418",
						"length": "7",
						"children": []
					},
					{
						"type": "480000",
						"label": " ",
						"typeLabel": "GenericString",
						"pos": "2425",
						"length": "1",
						"children": []
					},
					{
						"type": "480000",
						"label": "=",
						"typeLabel": "GenericString",
						"pos": "2426",
						"length": "1",
						"children": []
					},
					{
						"type": "480000",
						"label": "        ",
						"typeLabel": "GenericString",
						"pos": "2427",
						"length": "8",
						"children": []
					},
					{
						"type": "480000",
						"label": "gtwx5715_pci_preinit",
						"typeLabel": "GenericString",
						"pos": "2435",
						"length": "20",
						"children": []
					},
					{
						"type": "480000",
						"label": ",",
						"typeLabel": "GenericString",
						"pos": "2455",
						"length": "1",
						"children": []
					},
					{
						"type": "480000",
						"label": "  ",
						"typeLabel": "GenericString",
						"pos": "2456",
						"length": "2",
						"children": []
					},
					{
						"type": "480000",
						"label": ".",
						"typeLabel": "GenericString",
						"pos": "2458",
						"length": "1",
						"children": []
					},
					{
						"type": "480000",
						"label": "swizzle",
						"typeLabel": "GenericString",
						"pos": "2459",
						"length": "7",
						"children": []
					},
					{
						"type": "480000",
						"label": " ",
						"typeLabel": "GenericString",
						"pos": "2466",
						"length": "1",
						"children": []
					},
					{
						"type": "480000",
						"label": "=",
						"typeLabel": "GenericString",
						"pos": "2467",
						"length": "1",
						"children": []
					},
					{
						"type": "480000",
						"label": "        ",
						"typeLabel": "GenericString",
						"pos": "2468",
						"length": "8",
						"children": []
					},
					{
						"type": "480000",
						"label": "pci_std_swizzle",
						"typeLabel": "GenericString",
						"pos": "2476",
						"length": "15",
						"children": []
					},
					{
						"type": "480000",
						"label": ",",
						"typeLabel": "GenericString",
						"pos": "2491",
						"length": "1",
						"children": []
					},
					{
						"type": "480000",
						"label": "  ",
						"typeLabel": "GenericString",
						"pos": "2492",
						"length": "2",
						"children": []
					},
					{
						"type": "480000",
						"label": ".",
						"typeLabel": "GenericString",
						"pos": "2494",
						"length": "1",
						"children": []
					},
					{
						"type": "480000",
						"label": "setup",
						"typeLabel": "GenericString",
						"pos": "2495",
						"length": "5",
						"children": []
					},
					{
						"type": "480000",
						"label": " ",
						"typeLabel": "GenericString",
						"pos": "2500",
						"length": "1",
						"children": []
					},
					{
						"type": "480000",
						"label": "=",
						"typeLabel": "GenericString",
						"pos": "2501",
						"length": "1",
						"children": []
					},
					{
						"type": "480000",
						"label": "          ",
						"typeLabel": "GenericString",
						"pos": "2502",
						"length": "10",
						"children": []
					},
					{
						"type": "480000",
						"label": "ixp4xx_setup",
						"typeLabel": "GenericString",
						"pos": "2512",
						"length": "12",
						"children": []
					},
					{
						"type": "480000",
						"label": ",",
						"typeLabel": "GenericString",
						"pos": "2524",
						"length": "1",
						"children": []
					},
					{
						"type": "480000",
						"label": "  ",
						"typeLabel": "GenericString",
						"pos": "2525",
						"length": "2",
						"children": []
					},
					{
						"type": "480000",
						"label": ".",
						"typeLabel": "GenericString",
						"pos": "2527",
						"length": "1",
						"children": []
					},
					{
						"type": "480000",
						"label": "scan",
						"typeLabel": "GenericString",
						"pos": "2528",
						"length": "4",
						"children": []
					},
					{
						"type": "480000",
						"label": " ",
						"typeLabel": "GenericString",
						"pos": "2532",
						"length": "1",
						"children": []
					},
					{
						"type": "480000",
						"label": "=",
						"typeLabel": "GenericString",
						"pos": "2533",
						"length": "1",
						"children": []
					},
					{
						"type": "480000",
						"label": "           ",
						"typeLabel": "GenericString",
						"pos": "2534",
						"length": "11",
						"children": []
					},
					{
						"type": "480000",
						"label": "ixp4xx_scan_bus",
						"typeLabel": "GenericString",
						"pos": "2545",
						"length": "15",
						"children": []
					},
					{
						"type": "480000",
						"label": ",",
						"typeLabel": "GenericString",
						"pos": "2560",
						"length": "1",
						"children": []
					},
					{
						"type": "480000",
						"label": "  ",
						"typeLabel": "GenericString",
						"pos": "2561",
						"length": "2",
						"children": []
					},
					{
						"type": "480000",
						"label": ".",
						"typeLabel": "GenericString",
						"pos": "2563",
						"length": "1",
						"children": []
					},
					{
						"type": "480000",
						"label": "map_irq",
						"typeLabel": "GenericString",
						"pos": "2564",
						"length": "7",
						"children": []
					},
					{
						"type": "480000",
						"label": " ",
						"typeLabel": "GenericString",
						"pos": "2571",
						"length": "1",
						"children": []
					},
					{
						"type": "480000",
						"label": "=",
						"typeLabel": "GenericString",
						"pos": "2572",
						"length": "1",
						"children": []
					},
					{
						"type": "480000",
						"label": "        ",
						"typeLabel": "GenericString",
						"pos": "2573",
						"length": "8",
						"children": []
					},
					{
						"type": "480000",
						"label": "gtwx5715_map_irq",
						"typeLabel": "GenericString",
						"pos": "2581",
						"length": "16",
						"children": []
					},
					{
						"type": "480000",
						"label": ",",
						"typeLabel": "GenericString",
						"pos": "2597",
						"length": "1",
						"children": []
					},
					{
						"type": "480000",
						"label": " ",
						"typeLabel": "GenericString",
						"pos": "2598",
						"length": "1",
						"children": []
					},
					{
						"type": "480000",
						"label": "}",
						"typeLabel": "GenericString",
						"pos": "2599",
						"length": "1",
						"children": []
					},
					{
						"type": "480000",
						"label": ";",
						"typeLabel": "GenericString",
						"pos": "2600",
						"length": "1",
						"children": []
					}
				]
			},
			{
				"type": "450200",
				"typeLabel": "Definition",
				"pos": "2603",
				"length": "118",
				"children": [
					{
						"type": "380000",
						"typeLabel": "Definition",
						"pos": "2603",
						"length": "118",
						"children": [
							{
								"type": "200000",
								"typeLabel": "ParamList",
								"pos": "2631",
								"length": "6",
								"children": [
									{
										"type": "220100",
										"typeLabel": "ParameterType",
										"pos": "2632",
										"length": "4",
										"children": []
									}
								]
							},
							{
								"type": "480000",
								"label": "gtwx5715_pci_init",
								"typeLabel": "GenericString",
								"pos": "2614",
								"length": "17",
								"children": []
							},
							{
								"type": "330000",
								"typeLabel": "Compound",
								"pos": "2638",
								"length": "83",
								"children": [
									{
										"type": "300100",
										"typeLabel": "If",
										"pos": "2641",
										"length": "66",
										"children": [
											{
												"type": "490100",
												"typeLabel": "IfToken",
												"pos": "2641",
												"length": "2",
												"children": []
											},
											{
												"type": "240400",
												"typeLabel": "FunCall",
												"pos": "2645",
												"length": "21",
												"children": [
													{
														"type": "240100",
														"typeLabel": "Ident",
														"pos": "2645",
														"length": "19",
														"children": [
															{
																"type": "480000",
																"label": "machine_is_gtwx5715",
																"typeLabel": "GenericString",
																"pos": "2645",
																"length": "19",
																"children": []
															}
														]
													},
													{
														"type": "470000",
														"typeLabel": "GenericList",
														"pos": "2664",
														"length": "2",
														"children": []
													}
												]
											},
											{
												"type": "330000",
												"typeLabel": "Compound",
												"pos": "2669",
												"length": "38",
												"children": [
													{
														"type": "260300",
														"typeLabel": "ExprStatement",
														"pos": "2673",
														"length": "31",
														"children": [
															{
																"type": "290100",
																"typeLabel": "Some",
																"pos": "2673",
																"length": "31",
																"children": [
																	{
																		"type": "240400",
																		"typeLabel": "FunCall",
																		"pos": "2673",
																		"length": "30",
																		"children": [
																			{
																				"type": "240100",
																				"typeLabel": "Ident",
																				"pos": "2673",
																				"length": "15",
																				"children": [
																					{
																						"type": "480000",
																						"label": "pci_common_init",
																						"typeLabel": "GenericString",
																						"pos": "2673",
																						"length": "15",
																						"children": []
																					}
																				]
																			},
																			{
																				"type": "470000",
																				"typeLabel": "GenericList",
																				"pos": "2688",
																				"length": "15",
																				"children": [
																					{
																						"type": "20100",
																						"typeLabel": "Left",
																						"pos": "2689",
																						"length": "13",
																						"children": [
																							{
																								"type": "241000",
																								"typeLabel": "Unary",
																								"pos": "2689",
																								"length": "13",
																								"children": [
																									{
																										"type": "240100",
																										"typeLabel": "Ident",
																										"pos": "2690",
																										"length": "12",
																										"children": [
																											{
																												"type": "480000",
																												"label": "gtwx5715_pci",
																												"typeLabel": "GenericString",
																												"pos": "2690",
																												"length": "12",
																												"children": []
																											}
																										]
																									},
																									{
																										"type": "480000",
																										"label": "&",
																										"typeLabel": "GenericString",
																										"pos": "2689",
																										"length": "1",
																										"children": []
																									}
																								]
																							}
																						]
																					}
																				]
																			}
																		]
																	},
																	{
																		"type": "480000",
																		"label": ";",
																		"typeLabel": "GenericString",
																		"pos": "2703",
																		"length": "1",
																		"children": []
																	}
																]
															}
														]
													}
												]
											}
										]
									},
									{
										"type": "280200",
										"typeLabel": "ReturnExpr",
										"pos": "2710",
										"length": "9",
										"children": [
											{
												"type": "240200",
												"label": "0",
												"typeLabel": "Constant",
												"pos": "2717",
												"length": "1",
												"children": []
											}
										]
									}
								]
							}
						]
					}
				]
			},
			{
				"type": "450100",
				"typeLabel": "Declaration",
				"pos": "2723",
				"length": "35",
				"children": [
					{
						"type": "350200",
						"typeLabel": "MacroDecl",
						"pos": "2723",
						"length": "35",
						"children": [
							{
								"type": "480000",
								"label": "subsys_initcall",
								"typeLabel": "GenericString",
								"pos": "2723",
								"length": "15",
								"children": []
							},
							{
								"type": "470000",
								"typeLabel": "GenericList",
								"pos": "2738",
								"length": "19",
								"children": [
									{
										"type": "20100",
										"typeLabel": "Left",
										"pos": "2739",
										"length": "17",
										"children": [
											{
												"type": "240100",
												"typeLabel": "Ident",
												"pos": "2739",
												"length": "17",
												"children": [
													{
														"type": "480000",
														"label": "gtwx5715_pci_init",
														"typeLabel": "GenericString",
														"pos": "2739",
														"length": "17",
														"children": []
													}
												]
											}
										]
									}
								]
							}
						]
					}
				]
			},
			{
				"type": "450800",
				"typeLabel": "FinalDef",
				"pos": "2759",
				"length": "0",
				"children": []
			}
		]
	}
}