{
	"root": {
		"type": "460000",
		"typeLabel": "Program",
		"pos": "1570",
		"length": "396",
		"children": [
			{
				"type": "450300",
				"typeLabel": "CppTop",
				"pos": "1570",
				"length": "36",
				"children": [
					{
						"type": "400200",
						"typeLabel": "Include",
						"pos": "1570",
						"length": "36",
						"children": [
							{
								"type": "480000",
								"label": "\"src/core/lib/iomgr/port.h\"",
								"typeLabel": "GenericString",
								"pos": "1579",
								"length": "27",
								"children": []
							}
						]
					}
				]
			},
			{
				"type": "450400",
				"typeLabel": "IfdefTop",
				"pos": "1608",
				"length": "31",
				"children": [
					{
						"type": "440100",
						"typeLabel": "IfdefDirective",
						"pos": "1608",
						"length": "31",
						"children": [
							{
								"type": "480000",
								"label": "#ifdef GRPC_WINDOWS_SOCKETUTILS",
								"typeLabel": "GenericString",
								"pos": "1608",
								"length": "31",
								"children": []
							}
						]
					}
				]
			},
			{
				"type": "450300",
				"typeLabel": "CppTop",
				"pos": "1641",
				"length": "44",
				"children": [
					{
						"type": "400200",
						"typeLabel": "Include",
						"pos": "1641",
						"length": "44",
						"children": [
							{
								"type": "480000",
								"label": "\"src/core/lib/iomgr/socket_utils.h\"",
								"typeLabel": "GenericString",
								"pos": "1650",
								"length": "35",
								"children": []
							}
						]
					}
				]
			},
			{
				"type": "450300",
				"typeLabel": "CppTop",
				"pos": "1687",
				"length": "29",
				"children": [
					{
						"type": "400200",
						"typeLabel": "Include",
						"pos": "1687",
						"length": "29",
						"children": [
							{
								"type": "480000",
								"label": "<grpc/support/log.h>",
								"typeLabel": "GenericString",
								"pos": "1696",
								"length": "20",
								"children": []
							}
						]
					}
				]
			},
			{
				"type": "450200",
				"typeLabel": "Definition",
				"pos": "1718",
				"length": "208",
				"children": [
					{
						"type": "380000",
						"typeLabel": "Definition",
						"pos": "1718",
						"length": "208",
						"children": [
							{
								"type": "200000",
								"typeLabel": "ParamList",
								"pos": "1744",
								"length": "79",
								"children": [
									{
										"type": "220100",
										"typeLabel": "ParameterType",
										"pos": "1745",
										"length": "6",
										"children": [
											{
												"type": "480000",
												"label": "af",
												"typeLabel": "GenericString",
												"pos": "1749",
												"length": "2",
												"children": []
											}
										]
									},
									{
										"type": "220100",
										"typeLabel": "ParameterType",
										"pos": "1753",
										"length": "15",
										"children": [
											{
												"type": "480000",
												"label": "src",
												"typeLabel": "GenericString",
												"pos": "1765",
												"length": "3",
												"children": []
											}
										]
									},
									{
										"type": "220100",
										"typeLabel": "ParameterType",
										"pos": "1797",
										"length": "9",
										"children": [
											{
												"type": "480000",
												"label": "dst",
												"typeLabel": "GenericString",
												"pos": "1803",
												"length": "3",
												"children": []
											}
										]
									},
									{
										"type": "220100",
										"typeLabel": "ParameterType",
										"pos": "1808",
										"length": "14",
										"children": [
											{
												"type": "480000",
												"label": "size",
												"typeLabel": "GenericString",
												"pos": "1818",
												"length": "4",
												"children": []
											}
										]
									}
								]
							},
							{
								"type": "480000",
								"label": "grpc_inet_ntop",
								"typeLabel": "GenericString",
								"pos": "1730",
								"length": "14",
								"children": []
							},
							{
								"type": "330000",
								"typeLabel": "Compound",
								"pos": "1824",
								"length": "102",
								"children": [
									{
										"type": "260300",
										"typeLabel": "ExprStatement",
										"pos": "1828",
										"length": "48",
										"children": [
											{
												"type": "290100",
												"typeLabel": "Some",
												"pos": "1828",
												"length": "48",
												"children": [
													{
														"type": "240400",
														"typeLabel": "FunCall",
														"pos": "1828",
														"length": "47",
														"children": [
															{
																"type": "240100",
																"typeLabel": "Ident",
																"pos": "1828",
																"length": "10",
																"children": [
																	{
																		"type": "480000",
																		"label": "GPR_ASSERT",
																		"typeLabel": "GenericString",
																		"pos": "1828",
																		"length": "10",
																		"children": []
																	}
																]
															},
															{
																"type": "470000",
																"typeLabel": "GenericList",
																"pos": "1838",
																"length": "37",
																"children": [
																	{
																		"type": "20100",
																		"typeLabel": "Left",
																		"pos": "1839",
																		"length": "35",
																		"children": [
																			{
																				"type": "241100",
																				"typeLabel": "Binary",
																				"pos": "1839",
																				"length": "35",
																				"children": [
																					{
																						"type": "241600",
																						"typeLabel": "SizeOfType",
																						"pos": "1839",
																						"length": "17",
																						"children": []
																					},
																					{
																						"type": "480000",
																						"label": "<=",
																						"typeLabel": "GenericString",
																						"pos": "1857",
																						"length": "2",
																						"children": []
																					},
																					{
																						"type": "241600",
																						"typeLabel": "SizeOfType",
																						"pos": "1860",
																						"length": "14",
																						"children": []
																					}
																				]
																			}
																		]
																	}
																]
															}
														]
													},
													{
														"type": "480000",
														"label": ";",
														"typeLabel": "GenericString",
														"pos": "1875",
														"length": "1",
														"children": []
													}
												]
											}
										]
									},
									{
										"type": "280200",
										"typeLabel": "ReturnExpr",
										"pos": "1879",
										"length": "45",
										"children": [
											{
												"type": "240400",
												"typeLabel": "FunCall",
												"pos": "1886",
												"length": "37",
												"children": [
													{
														"type": "240100",
														"typeLabel": "Ident",
														"pos": "1886",
														"length": "9",
														"children": [
															{
																"type": "480000",
																"label": "InetNtopA",
																"typeLabel": "GenericString",
																"pos": "1886",
																"length": "9",
																"children": []
															}
														]
													},
													{
														"type": "470000",
														"typeLabel": "GenericList",
														"pos": "1895",
														"length": "28",
														"children": [
															{
																"type": "20100",
																"typeLabel": "Left",
																"pos": "1896",
																"length": "2",
																"children": [
																	{
																		"type": "240100",
																		"typeLabel": "Ident",
																		"pos": "1896",
																		"length": "2",
																		"children": [
																			{
																				"type": "480000",
																				"label": "af",
																				"typeLabel": "GenericString",
																				"pos": "1896",
																				"length": "2",
																				"children": []
																			}
																		]
																	}
																]
															},
															{
																"type": "20100",
																"typeLabel": "Left",
																"pos": "1900",
																"length": "3",
																"children": [
																	{
																		"type": "240100",
																		"typeLabel": "Ident",
																		"pos": "1900",
																		"length": "3",
																		"children": [
																			{
																				"type": "480000",
																				"label": "src",
																				"typeLabel": "GenericString",
																				"pos": "1900",
																				"length": "3",
																				"children": []
																			}
																		]
																	}
																]
															},
															{
																"type": "20100",
																"typeLabel": "Left",
																"pos": "1905",
																"length": "3",
																"children": [
																	{
																		"type": "240100",
																		"typeLabel": "Ident",
																		"pos": "1905",
																		"length": "3",
																		"children": [
																			{
																				"type": "480000",
																				"label": "dst",
																				"typeLabel": "GenericString",
																				"pos": "1905",
																				"length": "3",
																				"children": []
																			}
																		]
																	}
																]
															},
															{
																"type": "20100",
																"typeLabel": "Left",
																"pos": "1910",
																"length": "12",
																"children": [
																	{
																		"type": "241700",
																		"typeLabel": "Cast",
																		"pos": "1910",
																		"length": "12",
																		"children": [
																			{
																				"type": "240100",
																				"typeLabel": "Ident",
																				"pos": "1918",
																				"length": "4",
																				"children": [
																					{
																						"type": "480000",
																						"label": "size",
																						"typeLabel": "GenericString",
																						"pos": "1918",
																						"length": "4",
																						"children": []
																					}
																				]
																			}
																		]
																	}
																]
															}
														]
													}
												]
											}
										]
									}
								]
							}
						]
					}
				]
			},
			{
				"type": "450400",
				"typeLabel": "IfdefTop",
				"pos": "1928",
				"length": "6",
				"children": [
					{
						"type": "440100",
						"typeLabel": "IfdefDirective",
						"pos": "1928",
						"length": "6",
						"children": [
							{
								"type": "480000",
								"label": "#endif",
								"typeLabel": "GenericString",
								"pos": "1928",
								"length": "6",
								"children": []
							}
						]
					}
				]
			},
			{
				"type": "450800",
				"typeLabel": "FinalDef",
				"pos": "1966",
				"length": "0",
				"children": []
			}
		]
	}
}