{
	"root": {
		"type": "460000",
		"typeLabel": "Program",
		"pos": "0",
		"length": "1256",
		"children": [
			{
				"type": "450300",
				"typeLabel": "CppTop",
				"pos": "0",
				"length": "17",
				"children": [
					{
						"type": "400200",
						"typeLabel": "Include",
						"pos": "0",
						"length": "17",
						"children": [
							{
								"type": "480000",
								"label": "\"blob.h\"",
								"typeLabel": "GenericString",
								"pos": "9",
								"length": "8",
								"children": []
							}
						]
					}
				]
			},
			{
				"type": "450300",
				"typeLabel": "CppTop",
				"pos": "18",
				"length": "18",
				"children": [
					{
						"type": "400200",
						"typeLabel": "Include",
						"pos": "18",
						"length": "18",
						"children": [
							{
								"type": "480000",
								"label": "\"cache.h\"",
								"typeLabel": "GenericString",
								"pos": "27",
								"length": "9",
								"children": []
							}
						]
					}
				]
			},
			{
				"type": "450300",
				"typeLabel": "CppTop",
				"pos": "37",
				"length": "19",
				"children": [
					{
						"type": "400200",
						"typeLabel": "Include",
						"pos": "37",
						"length": "19",
						"children": [
							{
								"type": "480000",
								"label": "<stdlib.h>",
								"typeLabel": "GenericString",
								"pos": "46",
								"length": "10",
								"children": []
							}
						]
					}
				]
			},
			{
				"type": "450100",
				"typeLabel": "Declaration",
				"pos": "58",
				"length": "31",
				"children": [
					{
						"type": "350100",
						"typeLabel": "DeclList",
						"pos": "58",
						"length": "31",
						"children": [
							{
								"type": "480000",
								"label": "blob_type",
								"typeLabel": "GenericString",
								"pos": "70",
								"length": "9",
								"children": []
							},
							{
								"type": "360100",
								"typeLabel": "InitExpr",
								"pos": "82",
								"length": "6",
								"children": [
									{
										"type": "240200",
										"label": "\"blob\"",
										"typeLabel": "Constant",
										"pos": "82",
										"length": "6",
										"children": []
									}
								]
							}
						]
					}
				]
			},
			{
				"type": "450200",
				"typeLabel": "Definition",
				"pos": "91",
				"length": "441",
				"children": [
					{
						"type": "380000",
						"typeLabel": "Definition",
						"pos": "91",
						"length": "441",
						"children": [
							{
								"type": "200000",
								"typeLabel": "ParamList",
								"pos": "115",
								"length": "21",
								"children": [
									{
										"type": "220100",
										"typeLabel": "ParameterType",
										"pos": "116",
										"length": "19",
										"children": [
											{
												"type": "480000",
												"label": "sha1",
												"typeLabel": "GenericString",
												"pos": "131",
												"length": "4",
												"children": []
											}
										]
									}
								]
							},
							{
								"type": "480000",
								"label": "lookup_blob",
								"typeLabel": "GenericString",
								"pos": "104",
								"length": "11",
								"children": []
							},
							{
								"type": "330000",
								"typeLabel": "Compound",
								"pos": "137",
								"length": "395",
								"children": [
									{
										"type": "350100",
										"typeLabel": "DeclList",
										"pos": "140",
										"length": "41",
										"children": [
											{
												"type": "480000",
												"label": "obj",
												"typeLabel": "GenericString",
												"pos": "155",
												"length": "3",
												"children": []
											},
											{
												"type": "360100",
												"typeLabel": "InitExpr",
												"pos": "161",
												"length": "19",
												"children": [
													{
														"type": "240400",
														"typeLabel": "FunCall",
														"pos": "161",
														"length": "19",
														"children": [
															{
																"type": "240100",
																"typeLabel": "Ident",
																"pos": "161",
																"length": "13",
																"children": [
																	{
																		"type": "480000",
																		"label": "lookup_object",
																		"typeLabel": "GenericString",
																		"pos": "161",
																		"length": "13",
																		"children": []
																	}
																]
															},
															{
																"type": "470000",
																"typeLabel": "GenericList",
																"pos": "174",
																"length": "6",
																"children": [
																	{
																		"type": "20100",
																		"typeLabel": "Left",
																		"pos": "175",
																		"length": "4",
																		"children": [
																			{
																				"type": "240100",
																				"typeLabel": "Ident",
																				"pos": "175",
																				"length": "4",
																				"children": [
																					{
																						"type": "480000",
																						"label": "sha1",
																						"typeLabel": "GenericString",
																						"pos": "175",
																						"length": "4",
																						"children": []
																					}
																				]
																			}
																		]
																	}
																]
															}
														]
													}
												]
											}
										]
									},
									{
										"type": "300100",
										"typeLabel": "If",
										"pos": "183",
										"length": "188",
										"children": [
											{
												"type": "490100",
												"typeLabel": "IfToken",
												"pos": "183",
												"length": "2",
												"children": []
											},
											{
												"type": "241000",
												"typeLabel": "Unary",
												"pos": "187",
												"length": "4",
												"children": [
													{
														"type": "240100",
														"typeLabel": "Ident",
														"pos": "188",
														"length": "3",
														"children": [
															{
																"type": "480000",
																"label": "obj",
																"typeLabel": "GenericString",
																"pos": "188",
																"length": "3",
																"children": []
															}
														]
													},
													{
														"type": "480000",
														"label": "!",
														"typeLabel": "GenericString",
														"pos": "187",
														"length": "1",
														"children": []
													}
												]
											},
											{
												"type": "330000",
												"typeLabel": "Compound",
												"pos": "193",
												"length": "178",
												"children": [
													{
														"type": "350100",
														"typeLabel": "DeclList",
														"pos": "197",
														"length": "48",
														"children": [
															{
																"type": "480000",
																"label": "ret",
																"typeLabel": "GenericString",
																"pos": "210",
																"length": "3",
																"children": []
															},
															{
																"type": "360100",
																"typeLabel": "InitExpr",
																"pos": "216",
																"length": "28",
																"children": [
																	{
																		"type": "240400",
																		"typeLabel": "FunCall",
																		"pos": "216",
																		"length": "28",
																		"children": [
																			{
																				"type": "240100",
																				"typeLabel": "Ident",
																				"pos": "216",
																				"length": "7",
																				"children": [
																					{
																						"type": "480000",
																						"label": "xmalloc",
																						"typeLabel": "GenericString",
																						"pos": "216",
																						"length": "7",
																						"children": []
																					}
																				]
																			},
																			{
																				"type": "470000",
																				"typeLabel": "GenericList",
																				"pos": "223",
																				"length": "21",
																				"children": [
																					{
																						"type": "20100",
																						"typeLabel": "Left",
																						"pos": "224",
																						"length": "19",
																						"children": [
																							{
																								"type": "241600",
																								"typeLabel": "SizeOfType",
																								"pos": "224",
																								"length": "19",
																								"children": []
																							}
																						]
																					}
																				]
																			}
																		]
																	}
																]
															}
														]
													},
													{
														"type": "260300",
														"typeLabel": "ExprStatement",
														"pos": "248",
														"length": "36",
														"children": [
															{
																"type": "290100",
																"typeLabel": "Some",
																"pos": "248",
																"length": "36",
																"children": [
																	{
																		"type": "240400",
																		"typeLabel": "FunCall",
																		"pos": "248",
																		"length": "35",
																		"children": [
																			{
																				"type": "240100",
																				"typeLabel": "Ident",
																				"pos": "248",
																				"length": "6",
																				"children": [
																					{
																						"type": "480000",
																						"label": "memset",
																						"typeLabel": "GenericString",
																						"pos": "248",
																						"length": "6",
																						"children": []
																					}
																				]
																			},
																			{
																				"type": "470000",
																				"typeLabel": "GenericList",
																				"pos": "254",
																				"length": "29",
																				"children": [
																					{
																						"type": "20100",
																						"typeLabel": "Left",
																						"pos": "255",
																						"length": "3",
																						"children": [
																							{
																								"type": "240100",
																								"typeLabel": "Ident",
																								"pos": "255",
																								"length": "3",
																								"children": [
																									{
																										"type": "480000",
																										"label": "ret",
																										"typeLabel": "GenericString",
																										"pos": "255",
																										"length": "3",
																										"children": []
																									}
																								]
																							}
																						]
																					},
																					{
																						"type": "20100",
																						"typeLabel": "Left",
																						"pos": "260",
																						"length": "1",
																						"children": [
																							{
																								"type": "240200",
																								"label": "0",
																								"typeLabel": "Constant",
																								"pos": "260",
																								"length": "1",
																								"children": []
																							}
																						]
																					},
																					{
																						"type": "20100",
																						"typeLabel": "Left",
																						"pos": "263",
																						"length": "19",
																						"children": [
																							{
																								"type": "241600",
																								"typeLabel": "SizeOfType",
																								"pos": "263",
																								"length": "19",
																								"children": []
																							}
																						]
																					}
																				]
																			}
																		]
																	},
																	{
																		"type": "480000",
																		"label": ";",
																		"typeLabel": "GenericString",
																		"pos": "283",
																		"length": "1",
																		"children": []
																	}
																]
															}
														]
													},
													{
														"type": "260300",
														"typeLabel": "ExprStatement",
														"pos": "287",
														"length": "35",
														"children": [
															{
																"type": "290100",
																"typeLabel": "Some",
																"pos": "287",
																"length": "35",
																"children": [
																	{
																		"type": "240400",
																		"typeLabel": "FunCall",
																		"pos": "287",
																		"length": "34",
																		"children": [
																			{
																				"type": "240100",
																				"typeLabel": "Ident",
																				"pos": "287",
																				"length": "14",
																				"children": [
																					{
																						"type": "480000",
																						"label": "created_object",
																						"typeLabel": "GenericString",
																						"pos": "287",
																						"length": "14",
																						"children": []
																					}
																				]
																			},
																			{
																				"type": "470000",
																				"typeLabel": "GenericList",
																				"pos": "301",
																				"length": "20",
																				"children": [
																					{
																						"type": "20100",
																						"typeLabel": "Left",
																						"pos": "302",
																						"length": "4",
																						"children": [
																							{
																								"type": "240100",
																								"typeLabel": "Ident",
																								"pos": "302",
																								"length": "4",
																								"children": [
																									{
																										"type": "480000",
																										"label": "sha1",
																										"typeLabel": "GenericString",
																										"pos": "302",
																										"length": "4",
																										"children": []
																									}
																								]
																							}
																						]
																					},
																					{
																						"type": "20100",
																						"typeLabel": "Left",
																						"pos": "308",
																						"length": "12",
																						"children": [
																							{
																								"type": "241000",
																								"typeLabel": "Unary",
																								"pos": "308",
																								"length": "12",
																								"children": [
																									{
																										"type": "241400",
																										"typeLabel": "RecordPtAccess",
																										"pos": "309",
																										"length": "11",
																										"children": [
																											{
																												"type": "240100",
																												"typeLabel": "Ident",
																												"pos": "309",
																												"length": "3",
																												"children": [
																													{
																														"type": "480000",
																														"label": "ret",
																														"typeLabel": "GenericString",
																														"pos": "309",
																														"length": "3",
																														"children": []
																													}
																												]
																											},
																											{
																												"type": "480000",
																												"label": "object",
																												"typeLabel": "GenericString",
																												"pos": "314",
																												"length": "6",
																												"children": []
																											}
																										]
																									},
																									{
																										"type": "480000",
																										"label": "&",
																										"typeLabel": "GenericString",
																										"pos": "308",
																										"length": "1",
																										"children": []
																									}
																								]
																							}
																						]
																					}
																				]
																			}
																		]
																	},
																	{
																		"type": "480000",
																		"label": ";",
																		"typeLabel": "GenericString",
																		"pos": "321",
																		"length": "1",
																		"children": []
																	}
																]
															}
														]
													},
													{
														"type": "260300",
														"typeLabel": "ExprStatement",
														"pos": "325",
														"length": "29",
														"children": [
															{
																"type": "290100",
																"typeLabel": "Some",
																"pos": "325",
																"length": "29",
																"children": [
																	{
																		"type": "240700",
																		"typeLabel": "Assignment",
																		"pos": "325",
																		"length": "28",
																		"children": [
																			{
																				"type": "241300",
																				"typeLabel": "RecordAccess",
																				"pos": "325",
																				"length": "16",
																				"children": [
																					{
																						"type": "241400",
																						"typeLabel": "RecordPtAccess",
																						"pos": "325",
																						"length": "11",
																						"children": [
																							{
																								"type": "240100",
																								"typeLabel": "Ident",
																								"pos": "325",
																								"length": "3",
																								"children": [
																									{
																										"type": "480000",
																										"label": "ret",
																										"typeLabel": "GenericString",
																										"pos": "325",
																										"length": "3",
																										"children": []
																									}
																								]
																							},
																							{
																								"type": "480000",
																								"label": "object",
																								"typeLabel": "GenericString",
																								"pos": "330",
																								"length": "6",
																								"children": []
																							}
																						]
																					},
																					{
																						"type": "480000",
																						"label": "type",
																						"typeLabel": "GenericString",
																						"pos": "337",
																						"length": "4",
																						"children": []
																					}
																				]
																			},
																			{
																				"type": "480000",
																				"label": "=",
																				"typeLabel": "GenericString",
																				"pos": "342",
																				"length": "1",
																				"children": []
																			},
																			{
																				"type": "240100",
																				"typeLabel": "Ident",
																				"pos": "344",
																				"length": "9",
																				"children": [
																					{
																						"type": "480000",
																						"label": "blob_type",
																						"typeLabel": "GenericString",
																						"pos": "344",
																						"length": "9",
																						"children": []
																					}
																				]
																			}
																		]
																	},
																	{
																		"type": "480000",
																		"label": ";",
																		"typeLabel": "GenericString",
																		"pos": "353",
																		"length": "1",
																		"children": []
																	}
																]
															}
														]
													},
													{
														"type": "280200",
														"typeLabel": "ReturnExpr",
														"pos": "357",
														"length": "11",
														"children": [
															{
																"type": "240100",
																"typeLabel": "Ident",
																"pos": "364",
																"length": "3",
																"children": [
																	{
																		"type": "480000",
																		"label": "ret",
																		"typeLabel": "GenericString",
																		"pos": "364",
																		"length": "3",
																		"children": []
																	}
																]
															}
														]
													}
												]
											}
										]
									},
									{
										"type": "300100",
										"typeLabel": "If",
										"pos": "373",
										"length": "128",
										"children": [
											{
												"type": "490100",
												"typeLabel": "IfToken",
												"pos": "373",
												"length": "2",
												"children": []
											},
											{
												"type": "241100",
												"typeLabel": "Binary",
												"pos": "377",
												"length": "22",
												"children": [
													{
														"type": "241400",
														"typeLabel": "RecordPtAccess",
														"pos": "377",
														"length": "9",
														"children": [
															{
																"type": "240100",
																"typeLabel": "Ident",
																"pos": "377",
																"length": "3",
																"children": [
																	{
																		"type": "480000",
																		"label": "obj",
																		"typeLabel": "GenericString",
																		"pos": "377",
																		"length": "3",
																		"children": []
																	}
																]
															},
															{
																"type": "480000",
																"label": "type",
																"typeLabel": "GenericString",
																"pos": "382",
																"length": "4",
																"children": []
															}
														]
													},
													{
														"type": "480000",
														"label": "!=",
														"typeLabel": "GenericString",
														"pos": "387",
														"length": "2",
														"children": []
													},
													{
														"type": "240100",
														"typeLabel": "Ident",
														"pos": "390",
														"length": "9",
														"children": [
															{
																"type": "480000",
																"label": "blob_type",
																"typeLabel": "GenericString",
																"pos": "390",
																"length": "9",
																"children": []
															}
														]
													}
												]
											},
											{
												"type": "330000",
												"typeLabel": "Compound",
												"pos": "401",
												"length": "100",
												"children": [
													{
														"type": "260300",
														"typeLabel": "ExprStatement",
														"pos": "405",
														"length": "78",
														"children": [
															{
																"type": "290100",
																"typeLabel": "Some",
																"pos": "405",
																"length": "78",
																"children": [
																	{
																		"type": "240400",
																		"typeLabel": "FunCall",
																		"pos": "405",
																		"length": "77",
																		"children": [
																			{
																				"type": "240100",
																				"typeLabel": "Ident",
																				"pos": "405",
																				"length": "5",
																				"children": [
																					{
																						"type": "480000",
																						"label": "error",
																						"typeLabel": "GenericString",
																						"pos": "405",
																						"length": "5",
																						"children": []
																					}
																				]
																			},
																			{
																				"type": "470000",
																				"typeLabel": "GenericList",
																				"pos": "410",
																				"length": "72",
																				"children": [
																					{
																						"type": "20100",
																						"typeLabel": "Left",
																						"pos": "411",
																						"length": "31",
																						"children": [
																							{
																								"type": "240200",
																								"label": "\"Object %s is a %s, not a blob\"",
																								"typeLabel": "Constant",
																								"pos": "411",
																								"length": "31",
																								"children": []
																							}
																						]
																					},
																					{
																						"type": "20100",
																						"typeLabel": "Left",
																						"pos": "453",
																						"length": "17",
																						"children": [
																							{
																								"type": "240400",
																								"typeLabel": "FunCall",
																								"pos": "453",
																								"length": "17",
																								"children": [
																									{
																										"type": "240100",
																										"typeLabel": "Ident",
																										"pos": "453",
																										"length": "11",
																										"children": [
																											{
																												"type": "480000",
																												"label": "sha1_to_hex",
																												"typeLabel": "GenericString",
																												"pos": "453",
																												"length": "11",
																												"children": []
																											}
																										]
																									},
																									{
																										"type": "470000",
																										"typeLabel": "GenericList",
																										"pos": "464",
																										"length": "6",
																										"children": [
																											{
																												"type": "20100",
																												"typeLabel": "Left",
																												"pos": "465",
																												"length": "4",
																												"children": [
																													{
																														"type": "240100",
																														"typeLabel": "Ident",
																														"pos": "465",
																														"length": "4",
																														"children": [
																															{
																																"type": "480000",
																																"label": "sha1",
																																"typeLabel": "GenericString",
																																"pos": "465",
																																"length": "4",
																																"children": []
																															}
																														]
																													}
																												]
																											}
																										]
																									}
																								]
																							}
																						]
																					},
																					{
																						"type": "20100",
																						"typeLabel": "Left",
																						"pos": "472",
																						"length": "9",
																						"children": [
																							{
																								"type": "241400",
																								"typeLabel": "RecordPtAccess",
																								"pos": "472",
																								"length": "9",
																								"children": [
																									{
																										"type": "240100",
																										"typeLabel": "Ident",
																										"pos": "472",
																										"length": "3",
																										"children": [
																											{
																												"type": "480000",
																												"label": "obj",
																												"typeLabel": "GenericString",
																												"pos": "472",
																												"length": "3",
																												"children": []
																											}
																										]
																									},
																									{
																										"type": "480000",
																										"label": "type",
																										"typeLabel": "GenericString",
																										"pos": "477",
																										"length": "4",
																										"children": []
																									}
																								]
																							}
																						]
																					}
																				]
																			}
																		]
																	},
																	{
																		"type": "480000",
																		"label": ";",
																		"typeLabel": "GenericString",
																		"pos": "482",
																		"length": "1",
																		"children": []
																	}
																]
															}
														]
													},
													{
														"type": "280200",
														"typeLabel": "ReturnExpr",
														"pos": "486",
														"length": "12",
														"children": [
															{
																"type": "240100",
																"typeLabel": "Ident",
																"pos": "493",
																"length": "4",
																"children": [
																	{
																		"type": "480000",
																		"label": "NULL",
																		"typeLabel": "GenericString",
																		"pos": "493",
																		"length": "4",
																		"children": []
																	}
																]
															}
														]
													}
												]
											}
										]
									},
									{
										"type": "280200",
										"typeLabel": "ReturnExpr",
										"pos": "503",
										"length": "27",
										"children": [
											{
												"type": "241700",
												"typeLabel": "Cast",
												"pos": "510",
												"length": "19",
												"children": [
													{
														"type": "240100",
														"typeLabel": "Ident",
														"pos": "526",
														"length": "3",
														"children": [
															{
																"type": "480000",
																"label": "obj",
																"typeLabel": "GenericString",
																"pos": "526",
																"length": "3",
																"children": []
															}
														]
													}
												]
											}
										]
									}
								]
							}
						]
					}
				]
			},
			{
				"type": "450200",
				"typeLabel": "Definition",
				"pos": "534",
				"length": "115",
				"children": [
					{
						"type": "380000",
						"typeLabel": "Definition",
						"pos": "534",
						"length": "115",
						"children": [
							{
								"type": "200000",
								"typeLabel": "ParamList",
								"pos": "555",
								"length": "53",
								"children": [
									{
										"type": "220100",
										"typeLabel": "ParameterType",
										"pos": "556",
										"length": "17",
										"children": [
											{
												"type": "480000",
												"label": "item",
												"typeLabel": "GenericString",
												"pos": "569",
												"length": "4",
												"children": []
											}
										]
									},
									{
										"type": "220100",
										"typeLabel": "ParameterType",
										"pos": "575",
										"length": "12",
										"children": [
											{
												"type": "480000",
												"label": "buffer",
												"typeLabel": "GenericString",
												"pos": "581",
												"length": "6",
												"children": []
											}
										]
									},
									{
										"type": "220100",
										"typeLabel": "ParameterType",
										"pos": "589",
										"length": "18",
										"children": [
											{
												"type": "480000",
												"label": "size",
												"typeLabel": "GenericString",
												"pos": "603",
												"length": "4",
												"children": []
											}
										]
									}
								]
							},
							{
								"type": "480000",
								"label": "parse_blob_buffer",
								"typeLabel": "GenericString",
								"pos": "538",
								"length": "17",
								"children": []
							},
							{
								"type": "330000",
								"typeLabel": "Compound",
								"pos": "609",
								"length": "40",
								"children": [
									{
										"type": "260300",
										"typeLabel": "ExprStatement",
										"pos": "612",
										"length": "24",
										"children": [
											{
												"type": "290100",
												"typeLabel": "Some",
												"pos": "612",
												"length": "24",
												"children": [
													{
														"type": "240700",
														"typeLabel": "Assignment",
														"pos": "612",
														"length": "23",
														"children": [
															{
																"type": "241300",
																"typeLabel": "RecordAccess",
																"pos": "612",
																"length": "19",
																"children": [
																	{
																		"type": "241400",
																		"typeLabel": "RecordPtAccess",
																		"pos": "612",
																		"length": "12",
																		"children": [
																			{
																				"type": "240100",
																				"typeLabel": "Ident",
																				"pos": "612",
																				"length": "4",
																				"children": [
																					{
																						"type": "480000",
																						"label": "item",
																						"typeLabel": "GenericString",
																						"pos": "612",
																						"length": "4",
																						"children": []
																					}
																				]
																			},
																			{
																				"type": "480000",
																				"label": "object",
																				"typeLabel": "GenericString",
																				"pos": "618",
																				"length": "6",
																				"children": []
																			}
																		]
																	},
																	{
																		"type": "480000",
																		"label": "parsed",
																		"typeLabel": "GenericString",
																		"pos": "625",
																		"length": "6",
																		"children": []
																	}
																]
															},
															{
																"type": "480000",
																"label": "=",
																"typeLabel": "GenericString",
																"pos": "632",
																"length": "1",
																"children": []
															},
															{
																"type": "240200",
																"label": "1",
																"typeLabel": "Constant",
																"pos": "634",
																"length": "1",
																"children": []
															}
														]
													},
													{
														"type": "480000",
														"label": ";",
														"typeLabel": "GenericString",
														"pos": "635",
														"length": "1",
														"children": []
													}
												]
											}
										]
									},
									{
										"type": "280200",
										"typeLabel": "ReturnExpr",
										"pos": "638",
										"length": "9",
										"children": [
											{
												"type": "240200",
												"label": "0",
												"typeLabel": "Constant",
												"pos": "645",
												"length": "1",
												"children": []
											}
										]
									}
								]
							}
						]
					}
				]
			},
			{
				"type": "450200",
				"typeLabel": "Definition",
				"pos": "651",
				"length": "604",
				"children": [
					{
						"type": "380000",
						"typeLabel": "Definition",
						"pos": "651",
						"length": "604",
						"children": [
							{
								"type": "200000",
								"typeLabel": "ParamList",
								"pos": "665",
								"length": "19",
								"children": [
									{
										"type": "220100",
										"typeLabel": "ParameterType",
										"pos": "666",
										"length": "17",
										"children": [
											{
												"type": "480000",
												"label": "item",
												"typeLabel": "GenericString",
												"pos": "679",
												"length": "4",
												"children": []
											}
										]
									}
								]
							},
							{
								"type": "480000",
								"label": "parse_blob",
								"typeLabel": "GenericString",
								"pos": "655",
								"length": "10",
								"children": []
							},
							{
								"type": "330000",
								"typeLabel": "Compound",
								"pos": "685",
								"length": "570",
								"children": [
									{
										"type": "350100",
										"typeLabel": "DeclList",
										"pos": "695",
										"length": "14",
										"children": [
											{
												"type": "480000",
												"label": "type",
												"typeLabel": "GenericString",
												"pos": "700",
												"length": "4",
												"children": []
											}
										]
									},
									{
										"type": "350100",
										"typeLabel": "DeclList",
										"pos": "718",
										"length": "13",
										"children": [
											{
												"type": "480000",
												"label": "buffer",
												"typeLabel": "GenericString",
												"pos": "724",
												"length": "6",
												"children": []
											}
										]
									},
									{
										"type": "350100",
										"typeLabel": "DeclList",
										"pos": "740",
										"length": "19",
										"children": [
											{
												"type": "480000",
												"label": "size",
												"typeLabel": "GenericString",
												"pos": "754",
												"length": "4",
												"children": []
											}
										]
									},
									{
										"type": "350100",
										"typeLabel": "DeclList",
										"pos": "761",
										"length": "8",
										"children": [
											{
												"type": "480000",
												"label": "ret",
												"typeLabel": "GenericString",
												"pos": "765",
												"length": "3",
												"children": []
											}
										]
									},
									{
										"type": "300100",
										"typeLabel": "If",
										"pos": "779",
										"length": "50",
										"children": [
											{
												"type": "490100",
												"typeLabel": "IfToken",
												"pos": "779",
												"length": "2",
												"children": []
											},
											{
												"type": "241300",
												"typeLabel": "RecordAccess",
												"pos": "783",
												"length": "19",
												"children": [
													{
														"type": "241400",
														"typeLabel": "RecordPtAccess",
														"pos": "783",
														"length": "12",
														"children": [
															{
																"type": "240100",
																"typeLabel": "Ident",
																"pos": "783",
																"length": "4",
																"children": [
																	{
																		"type": "480000",
																		"label": "item",
																		"typeLabel": "GenericString",
																		"pos": "783",
																		"length": "4",
																		"children": []
																	}
																]
															},
															{
																"type": "480000",
																"label": "object",
																"typeLabel": "GenericString",
																"pos": "789",
																"length": "6",
																"children": []
															}
														]
													},
													{
														"type": "480000",
														"label": "parsed",
														"typeLabel": "GenericString",
														"pos": "796",
														"length": "6",
														"children": []
													}
												]
											},
											{
												"type": "280200",
												"typeLabel": "ReturnExpr",
												"pos": "820",
												"length": "9",
												"children": [
													{
														"type": "240200",
														"label": "0",
														"typeLabel": "Constant",
														"pos": "827",
														"length": "1",
														"children": []
													}
												]
											}
										]
									},
									{
										"type": "260300",
										"typeLabel": "ExprStatement",
										"pos": "838",
										"length": "56",
										"children": [
											{
												"type": "290100",
												"typeLabel": "Some",
												"pos": "838",
												"length": "56",
												"children": [
													{
														"type": "240700",
														"typeLabel": "Assignment",
														"pos": "838",
														"length": "55",
														"children": [
															{
																"type": "240100",
																"typeLabel": "Ident",
																"pos": "838",
																"length": "6",
																"children": [
																	{
																		"type": "480000",
																		"label": "buffer",
																		"typeLabel": "GenericString",
																		"pos": "838",
																		"length": "6",
																		"children": []
																	}
																]
															},
															{
																"type": "480000",
																"label": "=",
																"typeLabel": "GenericString",
																"pos": "845",
																"length": "1",
																"children": []
															},
															{
																"type": "240400",
																"typeLabel": "FunCall",
																"pos": "847",
																"length": "46",
																"children": [
																	{
																		"type": "240100",
																		"typeLabel": "Ident",
																		"pos": "847",
																		"length": "14",
																		"children": [
																			{
																				"type": "480000",
																				"label": "read_sha1_file",
																				"typeLabel": "GenericString",
																				"pos": "847",
																				"length": "14",
																				"children": []
																			}
																		]
																	},
																	{
																		"type": "470000",
																		"typeLabel": "GenericList",
																		"pos": "861",
																		"length": "32",
																		"children": [
																			{
																				"type": "20100",
																				"typeLabel": "Left",
																				"pos": "862",
																				"length": "17",
																				"children": [
																					{
																						"type": "241300",
																						"typeLabel": "RecordAccess",
																						"pos": "862",
																						"length": "17",
																						"children": [
																							{
																								"type": "241400",
																								"typeLabel": "RecordPtAccess",
																								"pos": "862",
																								"length": "12",
																								"children": [
																									{
																										"type": "240100",
																										"typeLabel": "Ident",
																										"pos": "862",
																										"length": "4",
																										"children": [
																											{
																												"type": "480000",
																												"label": "item",
																												"typeLabel": "GenericString",
																												"pos": "862",
																												"length": "4",
																												"children": []
																											}
																										]
																									},
																									{
																										"type": "480000",
																										"label": "object",
																										"typeLabel": "GenericString",
																										"pos": "868",
																										"length": "6",
																										"children": []
																									}
																								]
																							},
																							{
																								"type": "480000",
																								"label": "sha1",
																								"typeLabel": "GenericString",
																								"pos": "875",
																								"length": "4",
																								"children": []
																							}
																						]
																					}
																				]
																			},
																			{
																				"type": "20100",
																				"typeLabel": "Left",
																				"pos": "881",
																				"length": "4",
																				"children": [
																					{
																						"type": "240100",
																						"typeLabel": "Ident",
																						"pos": "881",
																						"length": "4",
																						"children": [
																							{
																								"type": "480000",
																								"label": "type",
																								"typeLabel": "GenericString",
																								"pos": "881",
																								"length": "4",
																								"children": []
																							}
																						]
																					}
																				]
																			},
																			{
																				"type": "20100",
																				"typeLabel": "Left",
																				"pos": "887",
																				"length": "5",
																				"children": [
																					{
																						"type": "241000",
																						"typeLabel": "Unary",
																						"pos": "887",
																						"length": "5",
																						"children": [
																							{
																								"type": "240100",
																								"typeLabel": "Ident",
																								"pos": "888",
																								"length": "4",
																								"children": [
																									{
																										"type": "480000",
																										"label": "size",
																										"typeLabel": "GenericString",
																										"pos": "888",
																										"length": "4",
																										"children": []
																									}
																								]
																							},
																							{
																								"type": "480000",
																								"label": "&",
																								"typeLabel": "GenericString",
																								"pos": "887",
																								"length": "1",
																								"children": []
																							}
																						]
																					}
																				]
																			}
																		]
																	}
																]
															}
														]
													},
													{
														"type": "480000",
														"label": ";",
														"typeLabel": "GenericString",
														"pos": "893",
														"length": "1",
														"children": []
													}
												]
											}
										]
									},
									{
										"type": "300100",
										"typeLabel": "If",
										"pos": "903",
										"length": "124",
										"children": [
											{
												"type": "490100",
												"typeLabel": "IfToken",
												"pos": "903",
												"length": "2",
												"children": []
											},
											{
												"type": "241000",
												"typeLabel": "Unary",
												"pos": "907",
												"length": "7",
												"children": [
													{
														"type": "240100",
														"typeLabel": "Ident",
														"pos": "908",
														"length": "6",
														"children": [
															{
																"type": "480000",
																"label": "buffer",
																"typeLabel": "GenericString",
																"pos": "908",
																"length": "6",
																"children": []
															}
														]
													},
													{
														"type": "480000",
														"label": "!",
														"typeLabel": "GenericString",
														"pos": "907",
														"length": "1",
														"children": []
													}
												]
											},
											{
												"type": "280200",
												"typeLabel": "ReturnExpr",
												"pos": "932",
												"length": "95",
												"children": [
													{
														"type": "240400",
														"typeLabel": "FunCall",
														"pos": "939",
														"length": "87",
														"children": [
															{
																"type": "240100",
																"typeLabel": "Ident",
																"pos": "939",
																"length": "5",
																"children": [
																	{
																		"type": "480000",
																		"label": "error",
																		"typeLabel": "GenericString",
																		"pos": "939",
																		"length": "5",
																		"children": []
																	}
																]
															},
															{
																"type": "470000",
																"typeLabel": "GenericList",
																"pos": "944",
																"length": "82",
																"children": [
																	{
																		"type": "20100",
																		"typeLabel": "Left",
																		"pos": "945",
																		"length": "19",
																		"children": [
																			{
																				"type": "240200",
																				"label": "\"Could not read %s\"",
																				"typeLabel": "Constant",
																				"pos": "945",
																				"length": "19",
																				"children": []
																			}
																		]
																	},
																	{
																		"type": "20100",
																		"typeLabel": "Left",
																		"pos": "995",
																		"length": "30",
																		"children": [
																			{
																				"type": "240400",
																				"typeLabel": "FunCall",
																				"pos": "995",
																				"length": "30",
																				"children": [
																					{
																						"type": "240100",
																						"typeLabel": "Ident",
																						"pos": "995",
																						"length": "11",
																						"children": [
																							{
																								"type": "480000",
																								"label": "sha1_to_hex",
																								"typeLabel": "GenericString",
																								"pos": "995",
																								"length": "11",
																								"children": []
																							}
																						]
																					},
																					{
																						"type": "470000",
																						"typeLabel": "GenericList",
																						"pos": "1006",
																						"length": "19",
																						"children": [
																							{
																								"type": "20100",
																								"typeLabel": "Left",
																								"pos": "1007",
																								"length": "17",
																								"children": [
																									{
																										"type": "241300",
																										"typeLabel": "RecordAccess",
																										"pos": "1007",
																										"length": "17",
																										"children": [
																											{
																												"type": "241400",
																												"typeLabel": "RecordPtAccess",
																												"pos": "1007",
																												"length": "12",
																												"children": [
																													{
																														"type": "240100",
																														"typeLabel": "Ident",
																														"pos": "1007",
																														"length": "4",
																														"children": [
																															{
																																"type": "480000",
																																"label": "item",
																																"typeLabel": "GenericString",
																																"pos": "1007",
																																"length": "4",
																																"children": []
																															}
																														]
																													},
																													{
																														"type": "480000",
																														"label": "object",
																														"typeLabel": "GenericString",
																														"pos": "1013",
																														"length": "6",
																														"children": []
																													}
																												]
																											},
																											{
																												"type": "480000",
																												"label": "sha1",
																												"typeLabel": "GenericString",
																												"pos": "1020",
																												"length": "4",
																												"children": []
																											}
																										]
																									}
																								]
																							}
																						]
																					}
																				]
																			}
																		]
																	}
																]
															}
														]
													}
												]
											}
										]
									},
									{
										"type": "300100",
										"typeLabel": "If",
										"pos": "1036",
										"length": "143",
										"children": [
											{
												"type": "490100",
												"typeLabel": "IfToken",
												"pos": "1036",
												"length": "2",
												"children": []
											},
											{
												"type": "240400",
												"typeLabel": "FunCall",
												"pos": "1040",
												"length": "23",
												"children": [
													{
														"type": "240100",
														"typeLabel": "Ident",
														"pos": "1040",
														"length": "6",
														"children": [
															{
																"type": "480000",
																"label": "strcmp",
																"typeLabel": "GenericString",
																"pos": "1040",
																"length": "6",
																"children": []
															}
														]
													},
													{
														"type": "470000",
														"typeLabel": "GenericList",
														"pos": "1046",
														"length": "17",
														"children": [
															{
																"type": "20100",
																"typeLabel": "Left",
																"pos": "1047",
																"length": "4",
																"children": [
																	{
																		"type": "240100",
																		"typeLabel": "Ident",
																		"pos": "1047",
																		"length": "4",
																		"children": [
																			{
																				"type": "480000",
																				"label": "type",
																				"typeLabel": "GenericString",
																				"pos": "1047",
																				"length": "4",
																				"children": []
																			}
																		]
																	}
																]
															},
															{
																"type": "20100",
																"typeLabel": "Left",
																"pos": "1053",
																"length": "9",
																"children": [
																	{
																		"type": "240100",
																		"typeLabel": "Ident",
																		"pos": "1053",
																		"length": "9",
																		"children": [
																			{
																				"type": "480000",
																				"label": "blob_type",
																				"typeLabel": "GenericString",
																				"pos": "1053",
																				"length": "9",
																				"children": []
																			}
																		]
																	}
																]
															}
														]
													}
												]
											},
											{
												"type": "280200",
												"typeLabel": "ReturnExpr",
												"pos": "1081",
												"length": "98",
												"children": [
													{
														"type": "240400",
														"typeLabel": "FunCall",
														"pos": "1088",
														"length": "90",
														"children": [
															{
																"type": "240100",
																"typeLabel": "Ident",
																"pos": "1088",
																"length": "5",
																"children": [
																	{
																		"type": "480000",
																		"label": "error",
																		"typeLabel": "GenericString",
																		"pos": "1088",
																		"length": "5",
																		"children": []
																	}
																]
															},
															{
																"type": "470000",
																"typeLabel": "GenericList",
																"pos": "1093",
																"length": "85",
																"children": [
																	{
																		"type": "20100",
																		"typeLabel": "Left",
																		"pos": "1094",
																		"length": "22",
																		"children": [
																			{
																				"type": "240200",
																				"label": "\"Object %s not a blob\"",
																				"typeLabel": "Constant",
																				"pos": "1094",
																				"length": "22",
																				"children": []
																			}
																		]
																	},
																	{
																		"type": "20100",
																		"typeLabel": "Left",
																		"pos": "1147",
																		"length": "30",
																		"children": [
																			{
																				"type": "240400",
																				"typeLabel": "FunCall",
																				"pos": "1147",
																				"length": "30",
																				"children": [
																					{
																						"type": "240100",
																						"typeLabel": "Ident",
																						"pos": "1147",
																						"length": "11",
																						"children": [
																							{
																								"type": "480000",
																								"label": "sha1_to_hex",
																								"typeLabel": "GenericString",
																								"pos": "1147",
																								"length": "11",
																								"children": []
																							}
																						]
																					},
																					{
																						"type": "470000",
																						"typeLabel": "GenericList",
																						"pos": "1158",
																						"length": "19",
																						"children": [
																							{
																								"type": "20100",
																								"typeLabel": "Left",
																								"pos": "1159",
																								"length": "17",
																								"children": [
																									{
																										"type": "241300",
																										"typeLabel": "RecordAccess",
																										"pos": "1159",
																										"length": "17",
																										"children": [
																											{
																												"type": "241400",
																												"typeLabel": "RecordPtAccess",
																												"pos": "1159",
																												"length": "12",
																												"children": [
																													{
																														"type": "240100",
																														"typeLabel": "Ident",
																														"pos": "1159",
																														"length": "4",
																														"children": [
																															{
																																"type": "480000",
																																"label": "item",
																																"typeLabel": "GenericString",
																																"pos": "1159",
																																"length": "4",
																																"children": []
																															}
																														]
																													},
																													{
																														"type": "480000",
																														"label": "object",
																														"typeLabel": "GenericString",
																														"pos": "1165",
																														"length": "6",
																														"children": []
																													}
																												]
																											},
																											{
																												"type": "480000",
																												"label": "sha1",
																												"typeLabel": "GenericString",
																												"pos": "1172",
																												"length": "4",
																												"children": []
																											}
																										]
																									}
																								]
																							}
																						]
																					}
																				]
																			}
																		]
																	}
																]
															}
														]
													}
												]
											}
										]
									},
									{
										"type": "260300",
										"typeLabel": "ExprStatement",
										"pos": "1181",
										"length": "44",
										"children": [
											{
												"type": "290100",
												"typeLabel": "Some",
												"pos": "1181",
												"length": "44",
												"children": [
													{
														"type": "240700",
														"typeLabel": "Assignment",
														"pos": "1181",
														"length": "43",
														"children": [
															{
																"type": "240100",
																"typeLabel": "Ident",
																"pos": "1181",
																"length": "3",
																"children": [
																	{
																		"type": "480000",
																		"label": "ret",
																		"typeLabel": "GenericString",
																		"pos": "1181",
																		"length": "3",
																		"children": []
																	}
																]
															},
															{
																"type": "480000",
																"label": "=",
																"typeLabel": "GenericString",
																"pos": "1185",
																"length": "1",
																"children": []
															},
															{
																"type": "240400",
																"typeLabel": "FunCall",
																"pos": "1187",
																"length": "37",
																"children": [
																	{
																		"type": "240100",
																		"typeLabel": "Ident",
																		"pos": "1187",
																		"length": "17",
																		"children": [
																			{
																				"type": "480000",
																				"label": "parse_blob_buffer",
																				"typeLabel": "GenericString",
																				"pos": "1187",
																				"length": "17",
																				"children": []
																			}
																		]
																	},
																	{
																		"type": "470000",
																		"typeLabel": "GenericList",
																		"pos": "1204",
																		"length": "20",
																		"children": [
																			{
																				"type": "20100",
																				"typeLabel": "Left",
																				"pos": "1205",
																				"length": "4",
																				"children": [
																					{
																						"type": "240100",
																						"typeLabel": "Ident",
																						"pos": "1205",
																						"length": "4",
																						"children": [
																							{
																								"type": "480000",
																								"label": "item",
																								"typeLabel": "GenericString",
																								"pos": "1205",
																								"length": "4",
																								"children": []
																							}
																						]
																					}
																				]
																			},
																			{
																				"type": "20100",
																				"typeLabel": "Left",
																				"pos": "1211",
																				"length": "6",
																				"children": [
																					{
																						"type": "240100",
																						"typeLabel": "Ident",
																						"pos": "1211",
																						"length": "6",
																						"children": [
																							{
																								"type": "480000",
																								"label": "buffer",
																								"typeLabel": "GenericString",
																								"pos": "1211",
																								"length": "6",
																								"children": []
																							}
																						]
																					}
																				]
																			},
																			{
																				"type": "20100",
																				"typeLabel": "Left",
																				"pos": "1219",
																				"length": "4",
																				"children": [
																					{
																						"type": "240100",
																						"typeLabel": "Ident",
																						"pos": "1219",
																						"length": "4",
																						"children": [
																							{
																								"type": "480000",
																								"label": "size",
																								"typeLabel": "GenericString",
																								"pos": "1219",
																								"length": "4",
																								"children": []
																							}
																						]
																					}
																				]
																			}
																		]
																	}
																]
															}
														]
													},
													{
														"type": "480000",
														"label": ";",
														"typeLabel": "GenericString",
														"pos": "1224",
														"length": "1",
														"children": []
													}
												]
											}
										]
									},
									{
										"type": "260300",
										"typeLabel": "ExprStatement",
										"pos": "1227",
										"length": "13",
										"children": [
											{
												"type": "290100",
												"typeLabel": "Some",
												"pos": "1227",
												"length": "13",
												"children": [
													{
														"type": "240400",
														"typeLabel": "FunCall",
														"pos": "1227",
														"length": "12",
														"children": [
															{
																"type": "240100",
																"typeLabel": "Ident",
																"pos": "1227",
																"length": "4",
																"children": [
																	{
																		"type": "480000",
																		"label": "free",
																		"typeLabel": "GenericString",
																		"pos": "1227",
																		"length": "4",
																		"children": []
																	}
																]
															},
															{
																"type": "470000",
																"typeLabel": "GenericList",
																"pos": "1231",
																"length": "8",
																"children": [
																	{
																		"type": "20100",
																		"typeLabel": "Left",
																		"pos": "1232",
																		"length": "6",
																		"children": [
																			{
																				"type": "240100",
																				"typeLabel": "Ident",
																				"pos": "1232",
																				"length": "6",
																				"children": [
																					{
																						"type": "480000",
																						"label": "buffer",
																						"typeLabel": "GenericString",
																						"pos": "1232",
																						"length": "6",
																						"children": []
																					}
																				]
																			}
																		]
																	}
																]
															}
														]
													},
													{
														"type": "480000",
														"label": ";",
														"typeLabel": "GenericString",
														"pos": "1239",
														"length": "1",
														"children": []
													}
												]
											}
										]
									},
									{
										"type": "280200",
										"typeLabel": "ReturnExpr",
										"pos": "1242",
										"length": "11",
										"children": [
											{
												"type": "240100",
												"typeLabel": "Ident",
												"pos": "1249",
												"length": "3",
												"children": [
													{
														"type": "480000",
														"label": "ret",
														"typeLabel": "GenericString",
														"pos": "1249",
														"length": "3",
														"children": []
													}
												]
											}
										]
									}
								]
							}
						]
					}
				]
			},
			{
				"type": "450800",
				"typeLabel": "FinalDef",
				"pos": "1256",
				"length": "0",
				"children": []
			}
		]
	}
}