{
	"root": {
		"type": "460000",
		"typeLabel": "Program",
		"pos": "0",
		"length": "1253",
		"children": [
			{
				"type": "450300",
				"typeLabel": "CppTop",
				"pos": "0",
				"length": "18",
				"children": [
					{
						"type": "400200",
						"typeLabel": "Include",
						"pos": "0",
						"length": "18",
						"children": [
							{
								"type": "480000",
								"label": "\"cache.h\"",
								"typeLabel": "GenericString",
								"pos": "9",
								"length": "9",
								"children": []
							}
						]
					}
				]
			},
			{
				"type": "450300",
				"typeLabel": "CppTop",
				"pos": "19",
				"length": "23",
				"children": [
					{
						"type": "400200",
						"typeLabel": "Include",
						"pos": "19",
						"length": "23",
						"children": [
							{
								"type": "480000",
								"label": "\"argv-array.h\"",
								"typeLabel": "GenericString",
								"pos": "28",
								"length": "14",
								"children": []
							}
						]
					}
				]
			},
			{
				"type": "450300",
				"typeLabel": "CppTop",
				"pos": "43",
				"length": "19",
				"children": [
					{
						"type": "400200",
						"typeLabel": "Include",
						"pos": "43",
						"length": "19",
						"children": [
							{
								"type": "480000",
								"label": "\"strbuf.h\"",
								"typeLabel": "GenericString",
								"pos": "52",
								"length": "10",
								"children": []
							}
						]
					}
				]
			},
			{
				"type": "450100",
				"typeLabel": "Declaration",
				"pos": "64",
				"length": "36",
				"children": [
					{
						"type": "350100",
						"typeLabel": "DeclList",
						"pos": "64",
						"length": "36",
						"children": [
							{
								"type": "480000",
								"label": "empty_argv",
								"typeLabel": "GenericString",
								"pos": "76",
								"length": "10",
								"children": []
							},
							{
								"type": "360200",
								"typeLabel": "InitList",
								"pos": "91",
								"length": "8",
								"children": [
									{
										"type": "360100",
										"typeLabel": "InitExpr",
										"pos": "93",
										"length": "4",
										"children": [
											{
												"type": "240100",
												"typeLabel": "Ident",
												"pos": "93",
												"length": "4",
												"children": [
													{
														"type": "480000",
														"label": "NULL",
														"typeLabel": "GenericString",
														"pos": "93",
														"length": "4",
														"children": []
													}
												]
											}
										]
									}
								]
							}
						]
					}
				]
			},
			{
				"type": "450200",
				"typeLabel": "Definition",
				"pos": "102",
				"length": "114",
				"children": [
					{
						"type": "380000",
						"typeLabel": "Definition",
						"pos": "102",
						"length": "114",
						"children": [
							{
								"type": "200000",
								"typeLabel": "ParamList",
								"pos": "122",
								"length": "26",
								"children": [
									{
										"type": "220100",
										"typeLabel": "ParameterType",
										"pos": "123",
										"length": "24",
										"children": [
											{
												"type": "480000",
												"label": "array",
												"typeLabel": "GenericString",
												"pos": "142",
												"length": "5",
												"children": []
											}
										]
									}
								]
							},
							{
								"type": "480000",
								"label": "argv_array_init",
								"typeLabel": "GenericString",
								"pos": "107",
								"length": "15",
								"children": []
							},
							{
								"type": "330000",
								"typeLabel": "Compound",
								"pos": "149",
								"length": "67",
								"children": [
									{
										"type": "260300",
										"typeLabel": "ExprStatement",
										"pos": "152",
										"length": "25",
										"children": [
											{
												"type": "290100",
												"typeLabel": "Some",
												"pos": "152",
												"length": "25",
												"children": [
													{
														"type": "240700",
														"typeLabel": "Assignment",
														"pos": "152",
														"length": "24",
														"children": [
															{
																"type": "241400",
																"typeLabel": "RecordPtAccess",
																"pos": "152",
																"length": "11",
																"children": [
																	{
																		"type": "240100",
																		"typeLabel": "Ident",
																		"pos": "152",
																		"length": "5",
																		"children": [
																			{
																				"type": "480000",
																				"label": "array",
																				"typeLabel": "GenericString",
																				"pos": "152",
																				"length": "5",
																				"children": []
																			}
																		]
																	},
																	{
																		"type": "480000",
																		"label": "argv",
																		"typeLabel": "GenericString",
																		"pos": "159",
																		"length": "4",
																		"children": []
																	}
																]
															},
															{
																"type": "480000",
																"label": "=",
																"typeLabel": "GenericString",
																"pos": "164",
																"length": "1",
																"children": []
															},
															{
																"type": "240100",
																"typeLabel": "Ident",
																"pos": "166",
																"length": "10",
																"children": [
																	{
																		"type": "480000",
																		"label": "empty_argv",
																		"typeLabel": "GenericString",
																		"pos": "166",
																		"length": "10",
																		"children": []
																	}
																]
															}
														]
													},
													{
														"type": "480000",
														"label": ";",
														"typeLabel": "GenericString",
														"pos": "176",
														"length": "1",
														"children": []
													}
												]
											}
										]
									},
									{
										"type": "260300",
										"typeLabel": "ExprStatement",
										"pos": "179",
										"length": "16",
										"children": [
											{
												"type": "290100",
												"typeLabel": "Some",
												"pos": "179",
												"length": "16",
												"children": [
													{
														"type": "240700",
														"typeLabel": "Assignment",
														"pos": "179",
														"length": "15",
														"children": [
															{
																"type": "241400",
																"typeLabel": "RecordPtAccess",
																"pos": "179",
																"length": "11",
																"children": [
																	{
																		"type": "240100",
																		"typeLabel": "Ident",
																		"pos": "179",
																		"length": "5",
																		"children": [
																			{
																				"type": "480000",
																				"label": "array",
																				"typeLabel": "GenericString",
																				"pos": "179",
																				"length": "5",
																				"children": []
																			}
																		]
																	},
																	{
																		"type": "480000",
																		"label": "argc",
																		"typeLabel": "GenericString",
																		"pos": "186",
																		"length": "4",
																		"children": []
																	}
																]
															},
															{
																"type": "480000",
																"label": "=",
																"typeLabel": "GenericString",
																"pos": "191",
																"length": "1",
																"children": []
															},
															{
																"type": "240200",
																"label": "0",
																"typeLabel": "Constant",
																"pos": "193",
																"length": "1",
																"children": []
															}
														]
													},
													{
														"type": "480000",
														"label": ";",
														"typeLabel": "GenericString",
														"pos": "194",
														"length": "1",
														"children": []
													}
												]
											}
										]
									},
									{
										"type": "260300",
										"typeLabel": "ExprStatement",
										"pos": "197",
										"length": "17",
										"children": [
											{
												"type": "290100",
												"typeLabel": "Some",
												"pos": "197",
												"length": "17",
												"children": [
													{
														"type": "240700",
														"typeLabel": "Assignment",
														"pos": "197",
														"length": "16",
														"children": [
															{
																"type": "241400",
																"typeLabel": "RecordPtAccess",
																"pos": "197",
																"length": "12",
																"children": [
																	{
																		"type": "240100",
																		"typeLabel": "Ident",
																		"pos": "197",
																		"length": "5",
																		"children": [
																			{
																				"type": "480000",
																				"label": "array",
																				"typeLabel": "GenericString",
																				"pos": "197",
																				"length": "5",
																				"children": []
																			}
																		]
																	},
																	{
																		"type": "480000",
																		"label": "alloc",
																		"typeLabel": "GenericString",
																		"pos": "204",
																		"length": "5",
																		"children": []
																	}
																]
															},
															{
																"type": "480000",
																"label": "=",
																"typeLabel": "GenericString",
																"pos": "210",
																"length": "1",
																"children": []
															},
															{
																"type": "240200",
																"label": "0",
																"typeLabel": "Constant",
																"pos": "212",
																"length": "1",
																"children": []
															}
														]
													},
													{
														"type": "480000",
														"label": ";",
														"typeLabel": "GenericString",
														"pos": "213",
														"length": "1",
														"children": []
													}
												]
											}
										]
									}
								]
							}
						]
					}
				]
			},
			{
				"type": "450200",
				"typeLabel": "Definition",
				"pos": "218",
				"length": "265",
				"children": [
					{
						"type": "380000",
						"typeLabel": "Definition",
						"pos": "218",
						"length": "265",
						"children": [
							{
								"type": "340000",
								"typeLabel": "Storage",
								"pos": "218",
								"length": "6",
								"children": [
									{
										"type": "480000",
										"label": "static",
										"typeLabel": "GenericString",
										"pos": "218",
										"length": "6",
										"children": []
									}
								]
							},
							{
								"type": "200000",
								"typeLabel": "ParamList",
								"pos": "251",
								"length": "45",
								"children": [
									{
										"type": "220100",
										"typeLabel": "ParameterType",
										"pos": "252",
										"length": "24",
										"children": [
											{
												"type": "480000",
												"label": "array",
												"typeLabel": "GenericString",
												"pos": "271",
												"length": "5",
												"children": []
											}
										]
									},
									{
										"type": "220100",
										"typeLabel": "ParameterType",
										"pos": "278",
										"length": "17",
										"children": [
											{
												"type": "480000",
												"label": "value",
												"typeLabel": "GenericString",
												"pos": "290",
												"length": "5",
												"children": []
											}
										]
									}
								]
							},
							{
								"type": "480000",
								"label": "argv_array_push_nodup",
								"typeLabel": "GenericString",
								"pos": "230",
								"length": "21",
								"children": []
							},
							{
								"type": "330000",
								"typeLabel": "Compound",
								"pos": "297",
								"length": "186",
								"children": [
									{
										"type": "300100",
										"typeLabel": "If",
										"pos": "300",
										"length": "52",
										"children": [
											{
												"type": "490100",
												"typeLabel": "IfToken",
												"pos": "300",
												"length": "2",
												"children": []
											},
											{
												"type": "241100",
												"typeLabel": "Binary",
												"pos": "304",
												"length": "25",
												"children": [
													{
														"type": "241400",
														"typeLabel": "RecordPtAccess",
														"pos": "304",
														"length": "11",
														"children": [
															{
																"type": "240100",
																"typeLabel": "Ident",
																"pos": "304",
																"length": "5",
																"children": [
																	{
																		"type": "480000",
																		"label": "array",
																		"typeLabel": "GenericString",
																		"pos": "304",
																		"length": "5",
																		"children": []
																	}
																]
															},
															{
																"type": "480000",
																"label": "argv",
																"typeLabel": "GenericString",
																"pos": "311",
																"length": "4",
																"children": []
															}
														]
													},
													{
														"type": "480000",
														"label": "==",
														"typeLabel": "GenericString",
														"pos": "316",
														"length": "2",
														"children": []
													},
													{
														"type": "240100",
														"typeLabel": "Ident",
														"pos": "319",
														"length": "10",
														"children": [
															{
																"type": "480000",
																"label": "empty_argv",
																"typeLabel": "GenericString",
																"pos": "319",
																"length": "10",
																"children": []
															}
														]
													}
												]
											},
											{
												"type": "260300",
												"typeLabel": "ExprStatement",
												"pos": "333",
												"length": "19",
												"children": [
													{
														"type": "290100",
														"typeLabel": "Some",
														"pos": "333",
														"length": "19",
														"children": [
															{
																"type": "240700",
																"typeLabel": "Assignment",
																"pos": "333",
																"length": "18",
																"children": [
																	{
																		"type": "241400",
																		"typeLabel": "RecordPtAccess",
																		"pos": "333",
																		"length": "11",
																		"children": [
																			{
																				"type": "240100",
																				"typeLabel": "Ident",
																				"pos": "333",
																				"length": "5",
																				"children": [
																					{
																						"type": "480000",
																						"label": "array",
																						"typeLabel": "GenericString",
																						"pos": "333",
																						"length": "5",
																						"children": []
																					}
																				]
																			},
																			{
																				"type": "480000",
																				"label": "argv",
																				"typeLabel": "GenericString",
																				"pos": "340",
																				"length": "4",
																				"children": []
																			}
																		]
																	},
																	{
																		"type": "480000",
																		"label": "=",
																		"typeLabel": "GenericString",
																		"pos": "345",
																		"length": "1",
																		"children": []
																	},
																	{
																		"type": "240100",
																		"typeLabel": "Ident",
																		"pos": "347",
																		"length": "4",
																		"children": [
																			{
																				"type": "480000",
																				"label": "NULL",
																				"typeLabel": "GenericString",
																				"pos": "347",
																				"length": "4",
																				"children": []
																			}
																		]
																	}
																]
															},
															{
																"type": "480000",
																"label": ";",
																"typeLabel": "GenericString",
																"pos": "351",
																"length": "1",
																"children": []
															}
														]
													}
												]
											}
										]
									},
									{
										"type": "260300",
										"typeLabel": "ExprStatement",
										"pos": "355",
										"length": "55",
										"children": [
											{
												"type": "290100",
												"typeLabel": "Some",
												"pos": "355",
												"length": "55",
												"children": [
													{
														"type": "240400",
														"typeLabel": "FunCall",
														"pos": "355",
														"length": "54",
														"children": [
															{
																"type": "240100",
																"typeLabel": "Ident",
																"pos": "355",
																"length": "10",
																"children": [
																	{
																		"type": "480000",
																		"label": "ALLOC_GROW",
																		"typeLabel": "GenericString",
																		"pos": "355",
																		"length": "10",
																		"children": []
																	}
																]
															},
															{
																"type": "470000",
																"typeLabel": "GenericList",
																"pos": "365",
																"length": "44",
																"children": [
																	{
																		"type": "20100",
																		"typeLabel": "Left",
																		"pos": "366",
																		"length": "11",
																		"children": [
																			{
																				"type": "241400",
																				"typeLabel": "RecordPtAccess",
																				"pos": "366",
																				"length": "11",
																				"children": [
																					{
																						"type": "240100",
																						"typeLabel": "Ident",
																						"pos": "366",
																						"length": "5",
																						"children": [
																							{
																								"type": "480000",
																								"label": "array",
																								"typeLabel": "GenericString",
																								"pos": "366",
																								"length": "5",
																								"children": []
																							}
																						]
																					},
																					{
																						"type": "480000",
																						"label": "argv",
																						"typeLabel": "GenericString",
																						"pos": "373",
																						"length": "4",
																						"children": []
																					}
																				]
																			}
																		]
																	},
																	{
																		"type": "20100",
																		"typeLabel": "Left",
																		"pos": "379",
																		"length": "15",
																		"children": [
																			{
																				"type": "241100",
																				"typeLabel": "Binary",
																				"pos": "379",
																				"length": "15",
																				"children": [
																					{
																						"type": "241400",
																						"typeLabel": "RecordPtAccess",
																						"pos": "379",
																						"length": "11",
																						"children": [
																							{
																								"type": "240100",
																								"typeLabel": "Ident",
																								"pos": "379",
																								"length": "5",
																								"children": [
																									{
																										"type": "480000",
																										"label": "array",
																										"typeLabel": "GenericString",
																										"pos": "379",
																										"length": "5",
																										"children": []
																									}
																								]
																							},
																							{
																								"type": "480000",
																								"label": "argc",
																								"typeLabel": "GenericString",
																								"pos": "386",
																								"length": "4",
																								"children": []
																							}
																						]
																					},
																					{
																						"type": "480000",
																						"label": "+",
																						"typeLabel": "GenericString",
																						"pos": "391",
																						"length": "1",
																						"children": []
																					},
																					{
																						"type": "240200",
																						"label": "2",
																						"typeLabel": "Constant",
																						"pos": "393",
																						"length": "1",
																						"children": []
																					}
																				]
																			}
																		]
																	},
																	{
																		"type": "20100",
																		"typeLabel": "Left",
																		"pos": "396",
																		"length": "12",
																		"children": [
																			{
																				"type": "241400",
																				"typeLabel": "RecordPtAccess",
																				"pos": "396",
																				"length": "12",
																				"children": [
																					{
																						"type": "240100",
																						"typeLabel": "Ident",
																						"pos": "396",
																						"length": "5",
																						"children": [
																							{
																								"type": "480000",
																								"label": "array",
																								"typeLabel": "GenericString",
																								"pos": "396",
																								"length": "5",
																								"children": []
																							}
																						]
																					},
																					{
																						"type": "480000",
																						"label": "alloc",
																						"typeLabel": "GenericString",
																						"pos": "403",
																						"length": "5",
																						"children": []
																					}
																				]
																			}
																		]
																	}
																]
															}
														]
													},
													{
														"type": "480000",
														"label": ";",
														"typeLabel": "GenericString",
														"pos": "409",
														"length": "1",
														"children": []
													}
												]
											}
										]
									},
									{
										"type": "260300",
										"typeLabel": "ExprStatement",
										"pos": "412",
										"length": "35",
										"children": [
											{
												"type": "290100",
												"typeLabel": "Some",
												"pos": "412",
												"length": "35",
												"children": [
													{
														"type": "240700",
														"typeLabel": "Assignment",
														"pos": "412",
														"length": "34",
														"children": [
															{
																"type": "241200",
																"typeLabel": "ArrayAccess",
																"pos": "412",
																"length": "26",
																"children": [
																	{
																		"type": "241400",
																		"typeLabel": "RecordPtAccess",
																		"pos": "412",
																		"length": "11",
																		"children": [
																			{
																				"type": "240100",
																				"typeLabel": "Ident",
																				"pos": "412",
																				"length": "5",
																				"children": [
																					{
																						"type": "480000",
																						"label": "array",
																						"typeLabel": "GenericString",
																						"pos": "412",
																						"length": "5",
																						"children": []
																					}
																				]
																			},
																			{
																				"type": "480000",
																				"label": "argv",
																				"typeLabel": "GenericString",
																				"pos": "419",
																				"length": "4",
																				"children": []
																			}
																		]
																	},
																	{
																		"type": "240800",
																		"typeLabel": "Postfix",
																		"pos": "424",
																		"length": "13",
																		"children": [
																			{
																				"type": "241400",
																				"typeLabel": "RecordPtAccess",
																				"pos": "424",
																				"length": "11",
																				"children": [
																					{
																						"type": "240100",
																						"typeLabel": "Ident",
																						"pos": "424",
																						"length": "5",
																						"children": [
																							{
																								"type": "480000",
																								"label": "array",
																								"typeLabel": "GenericString",
																								"pos": "424",
																								"length": "5",
																								"children": []
																							}
																						]
																					},
																					{
																						"type": "480000",
																						"label": "argc",
																						"typeLabel": "GenericString",
																						"pos": "431",
																						"length": "4",
																						"children": []
																					}
																				]
																			},
																			{
																				"type": "480000",
																				"label": "++",
																				"typeLabel": "GenericString",
																				"pos": "435",
																				"length": "2",
																				"children": []
																			}
																		]
																	}
																]
															},
															{
																"type": "480000",
																"label": "=",
																"typeLabel": "GenericString",
																"pos": "439",
																"length": "1",
																"children": []
															},
															{
																"type": "240100",
																"typeLabel": "Ident",
																"pos": "441",
																"length": "5",
																"children": [
																	{
																		"type": "480000",
																		"label": "value",
																		"typeLabel": "GenericString",
																		"pos": "441",
																		"length": "5",
																		"children": []
																	}
																]
															}
														]
													},
													{
														"type": "480000",
														"label": ";",
														"typeLabel": "GenericString",
														"pos": "446",
														"length": "1",
														"children": []
													}
												]
											}
										]
									},
									{
										"type": "260300",
										"typeLabel": "ExprStatement",
										"pos": "449",
										"length": "32",
										"children": [
											{
												"type": "290100",
												"typeLabel": "Some",
												"pos": "449",
												"length": "32",
												"children": [
													{
														"type": "240700",
														"typeLabel": "Assignment",
														"pos": "449",
														"length": "31",
														"children": [
															{
																"type": "241200",
																"typeLabel": "ArrayAccess",
																"pos": "449",
																"length": "24",
																"children": [
																	{
																		"type": "241400",
																		"typeLabel": "RecordPtAccess",
																		"pos": "449",
																		"length": "11",
																		"children": [
																			{
																				"type": "240100",
																				"typeLabel": "Ident",
																				"pos": "449",
																				"length": "5",
																				"children": [
																					{
																						"type": "480000",
																						"label": "array",
																						"typeLabel": "GenericString",
																						"pos": "449",
																						"length": "5",
																						"children": []
																					}
																				]
																			},
																			{
																				"type": "480000",
																				"label": "argv",
																				"typeLabel": "GenericString",
																				"pos": "456",
																				"length": "4",
																				"children": []
																			}
																		]
																	},
																	{
																		"type": "241400",
																		"typeLabel": "RecordPtAccess",
																		"pos": "461",
																		"length": "11",
																		"children": [
																			{
																				"type": "240100",
																				"typeLabel": "Ident",
																				"pos": "461",
																				"length": "5",
																				"children": [
																					{
																						"type": "480000",
																						"label": "array",
																						"typeLabel": "GenericString",
																						"pos": "461",
																						"length": "5",
																						"children": []
																					}
																				]
																			},
																			{
																				"type": "480000",
																				"label": "argc",
																				"typeLabel": "GenericString",
																				"pos": "468",
																				"length": "4",
																				"children": []
																			}
																		]
																	}
																]
															},
															{
																"type": "480000",
																"label": "=",
																"typeLabel": "GenericString",
																"pos": "474",
																"length": "1",
																"children": []
															},
															{
																"type": "240100",
																"typeLabel": "Ident",
																"pos": "476",
																"length": "4",
																"children": [
																	{
																		"type": "480000",
																		"label": "NULL",
																		"typeLabel": "GenericString",
																		"pos": "476",
																		"length": "4",
																		"children": []
																	}
																]
															}
														]
													},
													{
														"type": "480000",
														"label": ";",
														"typeLabel": "GenericString",
														"pos": "480",
														"length": "1",
														"children": []
													}
												]
											}
										]
									}
								]
							}
						]
					}
				]
			},
			{
				"type": "450200",
				"typeLabel": "Definition",
				"pos": "485",
				"length": "116",
				"children": [
					{
						"type": "380000",
						"typeLabel": "Definition",
						"pos": "485",
						"length": "116",
						"children": [
							{
								"type": "200000",
								"typeLabel": "ParamList",
								"pos": "505",
								"length": "45",
								"children": [
									{
										"type": "220100",
										"typeLabel": "ParameterType",
										"pos": "506",
										"length": "24",
										"children": [
											{
												"type": "480000",
												"label": "array",
												"typeLabel": "GenericString",
												"pos": "525",
												"length": "5",
												"children": []
											}
										]
									},
									{
										"type": "220100",
										"typeLabel": "ParameterType",
										"pos": "532",
										"length": "17",
										"children": [
											{
												"type": "480000",
												"label": "value",
												"typeLabel": "GenericString",
												"pos": "544",
												"length": "5",
												"children": []
											}
										]
									}
								]
							},
							{
								"type": "480000",
								"label": "argv_array_push",
								"typeLabel": "GenericString",
								"pos": "490",
								"length": "15",
								"children": []
							},
							{
								"type": "330000",
								"typeLabel": "Compound",
								"pos": "551",
								"length": "50",
								"children": [
									{
										"type": "260300",
										"typeLabel": "ExprStatement",
										"pos": "554",
										"length": "45",
										"children": [
											{
												"type": "290100",
												"typeLabel": "Some",
												"pos": "554",
												"length": "45",
												"children": [
													{
														"type": "240400",
														"typeLabel": "FunCall",
														"pos": "554",
														"length": "44",
														"children": [
															{
																"type": "240100",
																"typeLabel": "Ident",
																"pos": "554",
																"length": "21",
																"children": [
																	{
																		"type": "480000",
																		"label": "argv_array_push_nodup",
																		"typeLabel": "GenericString",
																		"pos": "554",
																		"length": "21",
																		"children": []
																	}
																]
															},
															{
																"type": "470000",
																"typeLabel": "GenericList",
																"pos": "575",
																"length": "23",
																"children": [
																	{
																		"type": "20100",
																		"typeLabel": "Left",
																		"pos": "576",
																		"length": "5",
																		"children": [
																			{
																				"type": "240100",
																				"typeLabel": "Ident",
																				"pos": "576",
																				"length": "5",
																				"children": [
																					{
																						"type": "480000",
																						"label": "array",
																						"typeLabel": "GenericString",
																						"pos": "576",
																						"length": "5",
																						"children": []
																					}
																				]
																			}
																		]
																	},
																	{
																		"type": "20100",
																		"typeLabel": "Left",
																		"pos": "583",
																		"length": "14",
																		"children": [
																			{
																				"type": "240400",
																				"typeLabel": "FunCall",
																				"pos": "583",
																				"length": "14",
																				"children": [
																					{
																						"type": "240100",
																						"typeLabel": "Ident",
																						"pos": "583",
																						"length": "7",
																						"children": [
																							{
																								"type": "480000",
																								"label": "xstrdup",
																								"typeLabel": "GenericString",
																								"pos": "583",
																								"length": "7",
																								"children": []
																							}
																						]
																					},
																					{
																						"type": "470000",
																						"typeLabel": "GenericList",
																						"pos": "590",
																						"length": "7",
																						"children": [
																							{
																								"type": "20100",
																								"typeLabel": "Left",
																								"pos": "591",
																								"length": "5",
																								"children": [
																									{
																										"type": "240100",
																										"typeLabel": "Ident",
																										"pos": "591",
																										"length": "5",
																										"children": [
																											{
																												"type": "480000",
																												"label": "value",
																												"typeLabel": "GenericString",
																												"pos": "591",
																												"length": "5",
																												"children": []
																											}
																										]
																									}
																								]
																							}
																						]
																					}
																				]
																			}
																		]
																	}
																]
															}
														]
													},
													{
														"type": "480000",
														"label": ";",
														"typeLabel": "GenericString",
														"pos": "598",
														"length": "1",
														"children": []
													}
												]
											}
										]
									}
								]
							}
						]
					}
				]
			},
			{
				"type": "450200",
				"typeLabel": "Definition",
				"pos": "603",
				"length": "237",
				"children": [
					{
						"type": "380000",
						"typeLabel": "Definition",
						"pos": "603",
						"length": "237",
						"children": [
							{
								"type": "200000",
								"typeLabel": "ParamList",
								"pos": "624",
								"length": "48",
								"children": [
									{
										"type": "220100",
										"typeLabel": "ParameterType",
										"pos": "625",
										"length": "24",
										"children": [
											{
												"type": "480000",
												"label": "array",
												"typeLabel": "GenericString",
												"pos": "644",
												"length": "5",
												"children": []
											}
										]
									},
									{
										"type": "220100",
										"typeLabel": "ParameterType",
										"pos": "651",
										"length": "15",
										"children": [
											{
												"type": "480000",
												"label": "fmt",
												"typeLabel": "GenericString",
												"pos": "663",
												"length": "3",
												"children": []
											}
										]
									}
								]
							},
							{
								"type": "210000",
								"typeLabel": "DotsParameter",
								"pos": "666",
								"length": "5",
								"children": []
							},
							{
								"type": "480000",
								"label": "argv_array_pushf",
								"typeLabel": "GenericString",
								"pos": "608",
								"length": "16",
								"children": []
							},
							{
								"type": "330000",
								"typeLabel": "Compound",
								"pos": "673",
								"length": "167",
								"children": [
									{
										"type": "350100",
										"typeLabel": "DeclList",
										"pos": "676",
										"length": "11",
										"children": [
											{
												"type": "480000",
												"label": "ap",
												"typeLabel": "GenericString",
												"pos": "684",
												"length": "2",
												"children": []
											}
										]
									},
									{
										"type": "350100",
										"typeLabel": "DeclList",
										"pos": "689",
										"length": "30",
										"children": [
											{
												"type": "480000",
												"label": "v",
												"typeLabel": "GenericString",
												"pos": "703",
												"length": "1",
												"children": []
											},
											{
												"type": "360100",
												"typeLabel": "InitExpr",
												"pos": "707",
												"length": "11",
												"children": [
													{
														"type": "240100",
														"typeLabel": "Ident",
														"pos": "707",
														"length": "11",
														"children": [
															{
																"type": "480000",
																"label": "STRBUF_INIT",
																"typeLabel": "GenericString",
																"pos": "707",
																"length": "11",
																"children": []
															}
														]
													}
												]
											}
										]
									},
									{
										"type": "260300",
										"typeLabel": "ExprStatement",
										"pos": "722",
										"length": "18",
										"children": [
											{
												"type": "290100",
												"typeLabel": "Some",
												"pos": "722",
												"length": "18",
												"children": [
													{
														"type": "240400",
														"typeLabel": "FunCall",
														"pos": "722",
														"length": "17",
														"children": [
															{
																"type": "240100",
																"typeLabel": "Ident",
																"pos": "722",
																"length": "8",
																"children": [
																	{
																		"type": "480000",
																		"label": "va_start",
																		"typeLabel": "GenericString",
																		"pos": "722",
																		"length": "8",
																		"children": []
																	}
																]
															},
															{
																"type": "470000",
																"typeLabel": "GenericList",
																"pos": "730",
																"length": "9",
																"children": [
																	{
																		"type": "20100",
																		"typeLabel": "Left",
																		"pos": "731",
																		"length": "2",
																		"children": [
																			{
																				"type": "240100",
																				"typeLabel": "Ident",
																				"pos": "731",
																				"length": "2",
																				"children": [
																					{
																						"type": "480000",
																						"label": "ap",
																						"typeLabel": "GenericString",
																						"pos": "731",
																						"length": "2",
																						"children": []
																					}
																				]
																			}
																		]
																	},
																	{
																		"type": "20100",
																		"typeLabel": "Left",
																		"pos": "735",
																		"length": "3",
																		"children": [
																			{
																				"type": "240100",
																				"typeLabel": "Ident",
																				"pos": "735",
																				"length": "3",
																				"children": [
																					{
																						"type": "480000",
																						"label": "fmt",
																						"typeLabel": "GenericString",
																						"pos": "735",
																						"length": "3",
																						"children": []
																					}
																				]
																			}
																		]
																	}
																]
															}
														]
													},
													{
														"type": "480000",
														"label": ";",
														"typeLabel": "GenericString",
														"pos": "739",
														"length": "1",
														"children": []
													}
												]
											}
										]
									},
									{
										"type": "260300",
										"typeLabel": "ExprStatement",
										"pos": "742",
										"length": "26",
										"children": [
											{
												"type": "290100",
												"typeLabel": "Some",
												"pos": "742",
												"length": "26",
												"children": [
													{
														"type": "240400",
														"typeLabel": "FunCall",
														"pos": "742",
														"length": "25",
														"children": [
															{
																"type": "240100",
																"typeLabel": "Ident",
																"pos": "742",
																"length": "12",
																"children": [
																	{
																		"type": "480000",
																		"label": "strbuf_vaddf",
																		"typeLabel": "GenericString",
																		"pos": "742",
																		"length": "12",
																		"children": []
																	}
																]
															},
															{
																"type": "470000",
																"typeLabel": "GenericList",
																"pos": "754",
																"length": "13",
																"children": [
																	{
																		"type": "20100",
																		"typeLabel": "Left",
																		"pos": "755",
																		"length": "2",
																		"children": [
																			{
																				"type": "241000",
																				"typeLabel": "Unary",
																				"pos": "755",
																				"length": "2",
																				"children": [
																					{
																						"type": "240100",
																						"typeLabel": "Ident",
																						"pos": "756",
																						"length": "1",
																						"children": [
																							{
																								"type": "480000",
																								"label": "v",
																								"typeLabel": "GenericString",
																								"pos": "756",
																								"length": "1",
																								"children": []
																							}
																						]
																					},
																					{
																						"type": "480000",
																						"label": "&",
																						"typeLabel": "GenericString",
																						"pos": "755",
																						"length": "1",
																						"children": []
																					}
																				]
																			}
																		]
																	},
																	{
																		"type": "20100",
																		"typeLabel": "Left",
																		"pos": "759",
																		"length": "3",
																		"children": [
																			{
																				"type": "240100",
																				"typeLabel": "Ident",
																				"pos": "759",
																				"length": "3",
																				"children": [
																					{
																						"type": "480000",
																						"label": "fmt",
																						"typeLabel": "GenericString",
																						"pos": "759",
																						"length": "3",
																						"children": []
																					}
																				]
																			}
																		]
																	},
																	{
																		"type": "20100",
																		"typeLabel": "Left",
																		"pos": "764",
																		"length": "2",
																		"children": [
																			{
																				"type": "240100",
																				"typeLabel": "Ident",
																				"pos": "764",
																				"length": "2",
																				"children": [
																					{
																						"type": "480000",
																						"label": "ap",
																						"typeLabel": "GenericString",
																						"pos": "764",
																						"length": "2",
																						"children": []
																					}
																				]
																			}
																		]
																	}
																]
															}
														]
													},
													{
														"type": "480000",
														"label": ";",
														"typeLabel": "GenericString",
														"pos": "767",
														"length": "1",
														"children": []
													}
												]
											}
										]
									},
									{
										"type": "260300",
										"typeLabel": "ExprStatement",
										"pos": "770",
										"length": "11",
										"children": [
											{
												"type": "290100",
												"typeLabel": "Some",
												"pos": "770",
												"length": "11",
												"children": [
													{
														"type": "240400",
														"typeLabel": "FunCall",
														"pos": "770",
														"length": "10",
														"children": [
															{
																"type": "240100",
																"typeLabel": "Ident",
																"pos": "770",
																"length": "6",
																"children": [
																	{
																		"type": "480000",
																		"label": "va_end",
																		"typeLabel": "GenericString",
																		"pos": "770",
																		"length": "6",
																		"children": []
																	}
																]
															},
															{
																"type": "470000",
																"typeLabel": "GenericList",
																"pos": "776",
																"length": "4",
																"children": [
																	{
																		"type": "20100",
																		"typeLabel": "Left",
																		"pos": "777",
																		"length": "2",
																		"children": [
																			{
																				"type": "240100",
																				"typeLabel": "Ident",
																				"pos": "777",
																				"length": "2",
																				"children": [
																					{
																						"type": "480000",
																						"label": "ap",
																						"typeLabel": "GenericString",
																						"pos": "777",
																						"length": "2",
																						"children": []
																					}
																				]
																			}
																		]
																	}
																]
															}
														]
													},
													{
														"type": "480000",
														"label": ";",
														"typeLabel": "GenericString",
														"pos": "780",
														"length": "1",
														"children": []
													}
												]
											}
										]
									},
									{
										"type": "260300",
										"typeLabel": "ExprStatement",
										"pos": "784",
										"length": "54",
										"children": [
											{
												"type": "290100",
												"typeLabel": "Some",
												"pos": "784",
												"length": "54",
												"children": [
													{
														"type": "240400",
														"typeLabel": "FunCall",
														"pos": "784",
														"length": "53",
														"children": [
															{
																"type": "240100",
																"typeLabel": "Ident",
																"pos": "784",
																"length": "21",
																"children": [
																	{
																		"type": "480000",
																		"label": "argv_array_push_nodup",
																		"typeLabel": "GenericString",
																		"pos": "784",
																		"length": "21",
																		"children": []
																	}
																]
															},
															{
																"type": "470000",
																"typeLabel": "GenericList",
																"pos": "805",
																"length": "32",
																"children": [
																	{
																		"type": "20100",
																		"typeLabel": "Left",
																		"pos": "806",
																		"length": "5",
																		"children": [
																			{
																				"type": "240100",
																				"typeLabel": "Ident",
																				"pos": "806",
																				"length": "5",
																				"children": [
																					{
																						"type": "480000",
																						"label": "array",
																						"typeLabel": "GenericString",
																						"pos": "806",
																						"length": "5",
																						"children": []
																					}
																				]
																			}
																		]
																	},
																	{
																		"type": "20100",
																		"typeLabel": "Left",
																		"pos": "813",
																		"length": "23",
																		"children": [
																			{
																				"type": "240400",
																				"typeLabel": "FunCall",
																				"pos": "813",
																				"length": "23",
																				"children": [
																					{
																						"type": "240100",
																						"typeLabel": "Ident",
																						"pos": "813",
																						"length": "13",
																						"children": [
																							{
																								"type": "480000",
																								"label": "strbuf_detach",
																								"typeLabel": "GenericString",
																								"pos": "813",
																								"length": "13",
																								"children": []
																							}
																						]
																					},
																					{
																						"type": "470000",
																						"typeLabel": "GenericList",
																						"pos": "826",
																						"length": "10",
																						"children": [
																							{
																								"type": "20100",
																								"typeLabel": "Left",
																								"pos": "827",
																								"length": "2",
																								"children": [
																									{
																										"type": "241000",
																										"typeLabel": "Unary",
																										"pos": "827",
																										"length": "2",
																										"children": [
																											{
																												"type": "240100",
																												"typeLabel": "Ident",
																												"pos": "828",
																												"length": "1",
																												"children": [
																													{
																														"type": "480000",
																														"label": "v",
																														"typeLabel": "GenericString",
																														"pos": "828",
																														"length": "1",
																														"children": []
																													}
																												]
																											},
																											{
																												"type": "480000",
																												"label": "&",
																												"typeLabel": "GenericString",
																												"pos": "827",
																												"length": "1",
																												"children": []
																											}
																										]
																									}
																								]
																							},
																							{
																								"type": "20100",
																								"typeLabel": "Left",
																								"pos": "831",
																								"length": "4",
																								"children": [
																									{
																										"type": "240100",
																										"typeLabel": "Ident",
																										"pos": "831",
																										"length": "4",
																										"children": [
																											{
																												"type": "480000",
																												"label": "NULL",
																												"typeLabel": "GenericString",
																												"pos": "831",
																												"length": "4",
																												"children": []
																											}
																										]
																									}
																								]
																							}
																						]
																					}
																				]
																			}
																		]
																	}
																]
															}
														]
													},
													{
														"type": "480000",
														"label": ";",
														"typeLabel": "GenericString",
														"pos": "837",
														"length": "1",
														"children": []
													}
												]
											}
										]
									}
								]
							}
						]
					}
				]
			},
			{
				"type": "450200",
				"typeLabel": "Definition",
				"pos": "842",
				"length": "195",
				"children": [
					{
						"type": "380000",
						"typeLabel": "Definition",
						"pos": "842",
						"length": "195",
						"children": [
							{
								"type": "200000",
								"typeLabel": "ParamList",
								"pos": "863",
								"length": "31",
								"children": [
									{
										"type": "220100",
										"typeLabel": "ParameterType",
										"pos": "864",
										"length": "24",
										"children": [
											{
												"type": "480000",
												"label": "array",
												"typeLabel": "GenericString",
												"pos": "883",
												"length": "5",
												"children": []
											}
										]
									}
								]
							},
							{
								"type": "210000",
								"typeLabel": "DotsParameter",
								"pos": "888",
								"length": "5",
								"children": []
							},
							{
								"type": "480000",
								"label": "argv_array_pushl",
								"typeLabel": "GenericString",
								"pos": "847",
								"length": "16",
								"children": []
							},
							{
								"type": "330000",
								"typeLabel": "Compound",
								"pos": "895",
								"length": "142",
								"children": [
									{
										"type": "350100",
										"typeLabel": "DeclList",
										"pos": "898",
										"length": "11",
										"children": [
											{
												"type": "480000",
												"label": "ap",
												"typeLabel": "GenericString",
												"pos": "906",
												"length": "2",
												"children": []
											}
										]
									},
									{
										"type": "350100",
										"typeLabel": "DeclList",
										"pos": "911",
										"length": "16",
										"children": [
											{
												"type": "480000",
												"label": "arg",
												"typeLabel": "GenericString",
												"pos": "923",
												"length": "3",
												"children": []
											}
										]
									},
									{
										"type": "260300",
										"typeLabel": "ExprStatement",
										"pos": "930",
										"length": "20",
										"children": [
											{
												"type": "290100",
												"typeLabel": "Some",
												"pos": "930",
												"length": "20",
												"children": [
													{
														"type": "240400",
														"typeLabel": "FunCall",
														"pos": "930",
														"length": "19",
														"children": [
															{
																"type": "240100",
																"typeLabel": "Ident",
																"pos": "930",
																"length": "8",
																"children": [
																	{
																		"type": "480000",
																		"label": "va_start",
																		"typeLabel": "GenericString",
																		"pos": "930",
																		"length": "8",
																		"children": []
																	}
																]
															},
															{
																"type": "470000",
																"typeLabel": "GenericList",
																"pos": "938",
																"length": "11",
																"children": [
																	{
																		"type": "20100",
																		"typeLabel": "Left",
																		"pos": "939",
																		"length": "2",
																		"children": [
																			{
																				"type": "240100",
																				"typeLabel": "Ident",
																				"pos": "939",
																				"length": "2",
																				"children": [
																					{
																						"type": "480000",
																						"label": "ap",
																						"typeLabel": "GenericString",
																						"pos": "939",
																						"length": "2",
																						"children": []
																					}
																				]
																			}
																		]
																	},
																	{
																		"type": "20100",
																		"typeLabel": "Left",
																		"pos": "943",
																		"length": "5",
																		"children": [
																			{
																				"type": "240100",
																				"typeLabel": "Ident",
																				"pos": "943",
																				"length": "5",
																				"children": [
																					{
																						"type": "480000",
																						"label": "array",
																						"typeLabel": "GenericString",
																						"pos": "943",
																						"length": "5",
																						"children": []
																					}
																				]
																			}
																		]
																	}
																]
															}
														]
													},
													{
														"type": "480000",
														"label": ";",
														"typeLabel": "GenericString",
														"pos": "949",
														"length": "1",
														"children": []
													}
												]
											}
										]
									},
									{
										"type": "310100",
										"typeLabel": "While",
										"pos": "952",
										"length": "70",
										"children": [
											{
												"type": "242000",
												"typeLabel": "ParenExpr",
												"pos": "958",
												"length": "32",
												"children": [
													{
														"type": "240700",
														"typeLabel": "Assignment",
														"pos": "959",
														"length": "30",
														"children": [
															{
																"type": "240100",
																"typeLabel": "Ident",
																"pos": "959",
																"length": "3",
																"children": [
																	{
																		"type": "480000",
																		"label": "arg",
																		"typeLabel": "GenericString",
																		"pos": "959",
																		"length": "3",
																		"children": []
																	}
																]
															},
															{
																"type": "480000",
																"label": "=",
																"typeLabel": "GenericString",
																"pos": "963",
																"length": "1",
																"children": []
															},
															{
																"type": "240400",
																"typeLabel": "FunCall",
																"pos": "965",
																"length": "24",
																"children": [
																	{
																		"type": "240100",
																		"typeLabel": "Ident",
																		"pos": "965",
																		"length": "6",
																		"children": [
																			{
																				"type": "480000",
																				"label": "va_arg",
																				"typeLabel": "GenericString",
																				"pos": "965",
																				"length": "6",
																				"children": []
																			}
																		]
																	},
																	{
																		"type": "470000",
																		"typeLabel": "GenericList",
																		"pos": "971",
																		"length": "18",
																		"children": [
																			{
																				"type": "20100",
																				"typeLabel": "Left",
																				"pos": "972",
																				"length": "2",
																				"children": [
																					{
																						"type": "240100",
																						"typeLabel": "Ident",
																						"pos": "972",
																						"length": "2",
																						"children": [
																							{
																								"type": "480000",
																								"label": "ap",
																								"typeLabel": "GenericString",
																								"pos": "972",
																								"length": "2",
																								"children": []
																							}
																						]
																					}
																				]
																			},
																			{
																				"type": "220100",
																				"typeLabel": "ParameterType",
																				"pos": "976",
																				"length": "12",
																				"children": []
																			}
																		]
																	}
																]
															}
														]
													}
												]
											},
											{
												"type": "260300",
												"typeLabel": "ExprStatement",
												"pos": "994",
												"length": "28",
												"children": [
													{
														"type": "290100",
														"typeLabel": "Some",
														"pos": "994",
														"length": "28",
														"children": [
															{
																"type": "240400",
																"typeLabel": "FunCall",
																"pos": "994",
																"length": "27",
																"children": [
																	{
																		"type": "240100",
																		"typeLabel": "Ident",
																		"pos": "994",
																		"length": "15",
																		"children": [
																			{
																				"type": "480000",
																				"label": "argv_array_push",
																				"typeLabel": "GenericString",
																				"pos": "994",
																				"length": "15",
																				"children": []
																			}
																		]
																	},
																	{
																		"type": "470000",
																		"typeLabel": "GenericList",
																		"pos": "1009",
																		"length": "12",
																		"children": [
																			{
																				"type": "20100",
																				"typeLabel": "Left",
																				"pos": "1010",
																				"length": "5",
																				"children": [
																					{
																						"type": "240100",
																						"typeLabel": "Ident",
																						"pos": "1010",
																						"length": "5",
																						"children": [
																							{
																								"type": "480000",
																								"label": "array",
																								"typeLabel": "GenericString",
																								"pos": "1010",
																								"length": "5",
																								"children": []
																							}
																						]
																					}
																				]
																			},
																			{
																				"type": "20100",
																				"typeLabel": "Left",
																				"pos": "1017",
																				"length": "3",
																				"children": [
																					{
																						"type": "240100",
																						"typeLabel": "Ident",
																						"pos": "1017",
																						"length": "3",
																						"children": [
																							{
																								"type": "480000",
																								"label": "arg",
																								"typeLabel": "GenericString",
																								"pos": "1017",
																								"length": "3",
																								"children": []
																							}
																						]
																					}
																				]
																			}
																		]
																	}
																]
															},
															{
																"type": "480000",
																"label": ";",
																"typeLabel": "GenericString",
																"pos": "1021",
																"length": "1",
																"children": []
															}
														]
													}
												]
											}
										]
									},
									{
										"type": "260300",
										"typeLabel": "ExprStatement",
										"pos": "1024",
										"length": "11",
										"children": [
											{
												"type": "290100",
												"typeLabel": "Some",
												"pos": "1024",
												"length": "11",
												"children": [
													{
														"type": "240400",
														"typeLabel": "FunCall",
														"pos": "1024",
														"length": "10",
														"children": [
															{
																"type": "240100",
																"typeLabel": "Ident",
																"pos": "1024",
																"length": "6",
																"children": [
																	{
																		"type": "480000",
																		"label": "va_end",
																		"typeLabel": "GenericString",
																		"pos": "1024",
																		"length": "6",
																		"children": []
																	}
																]
															},
															{
																"type": "470000",
																"typeLabel": "GenericList",
																"pos": "1030",
																"length": "4",
																"children": [
																	{
																		"type": "20100",
																		"typeLabel": "Left",
																		"pos": "1031",
																		"length": "2",
																		"children": [
																			{
																				"type": "240100",
																				"typeLabel": "Ident",
																				"pos": "1031",
																				"length": "2",
																				"children": [
																					{
																						"type": "480000",
																						"label": "ap",
																						"typeLabel": "GenericString",
																						"pos": "1031",
																						"length": "2",
																						"children": []
																					}
																				]
																			}
																		]
																	}
																]
															}
														]
													},
													{
														"type": "480000",
														"label": ";",
														"typeLabel": "GenericString",
														"pos": "1034",
														"length": "1",
														"children": []
													}
												]
											}
										]
									}
								]
							}
						]
					}
				]
			},
			{
				"type": "450200",
				"typeLabel": "Definition",
				"pos": "1039",
				"length": "213",
				"children": [
					{
						"type": "380000",
						"typeLabel": "Definition",
						"pos": "1039",
						"length": "213",
						"children": [
							{
								"type": "200000",
								"typeLabel": "ParamList",
								"pos": "1060",
								"length": "26",
								"children": [
									{
										"type": "220100",
										"typeLabel": "ParameterType",
										"pos": "1061",
										"length": "24",
										"children": [
											{
												"type": "480000",
												"label": "array",
												"typeLabel": "GenericString",
												"pos": "1080",
												"length": "5",
												"children": []
											}
										]
									}
								]
							},
							{
								"type": "480000",
								"label": "argv_array_clear",
								"typeLabel": "GenericString",
								"pos": "1044",
								"length": "16",
								"children": []
							},
							{
								"type": "330000",
								"typeLabel": "Compound",
								"pos": "1087",
								"length": "165",
								"children": [
									{
										"type": "300100",
										"typeLabel": "If",
										"pos": "1090",
										"length": "135",
										"children": [
											{
												"type": "490100",
												"typeLabel": "IfToken",
												"pos": "1090",
												"length": "2",
												"children": []
											},
											{
												"type": "241100",
												"typeLabel": "Binary",
												"pos": "1094",
												"length": "25",
												"children": [
													{
														"type": "241400",
														"typeLabel": "RecordPtAccess",
														"pos": "1094",
														"length": "11",
														"children": [
															{
																"type": "240100",
																"typeLabel": "Ident",
																"pos": "1094",
																"length": "5",
																"children": [
																	{
																		"type": "480000",
																		"label": "array",
																		"typeLabel": "GenericString",
																		"pos": "1094",
																		"length": "5",
																		"children": []
																	}
																]
															},
															{
																"type": "480000",
																"label": "argv",
																"typeLabel": "GenericString",
																"pos": "1101",
																"length": "4",
																"children": []
															}
														]
													},
													{
														"type": "480000",
														"label": "!=",
														"typeLabel": "GenericString",
														"pos": "1106",
														"length": "2",
														"children": []
													},
													{
														"type": "240100",
														"typeLabel": "Ident",
														"pos": "1109",
														"length": "10",
														"children": [
															{
																"type": "480000",
																"label": "empty_argv",
																"typeLabel": "GenericString",
																"pos": "1109",
																"length": "10",
																"children": []
															}
														]
													}
												]
											},
											{
												"type": "330000",
												"typeLabel": "Compound",
												"pos": "1121",
												"length": "104",
												"children": [
													{
														"type": "350100",
														"typeLabel": "DeclList",
														"pos": "1125",
														"length": "6",
														"children": [
															{
																"type": "480000",
																"label": "i",
																"typeLabel": "GenericString",
																"pos": "1129",
																"length": "1",
																"children": []
															}
														]
													},
													{
														"type": "310300",
														"typeLabel": "For",
														"pos": "1134",
														"length": "67",
														"children": [
															{
																"type": "260300",
																"typeLabel": "ExprStatement",
																"pos": "1139",
																"length": "6",
																"children": [
																	{
																		"type": "290100",
																		"typeLabel": "Some",
																		"pos": "1139",
																		"length": "6",
																		"children": [
																			{
																				"type": "240700",
																				"typeLabel": "Assignment",
																				"pos": "1139",
																				"length": "5",
																				"children": [
																					{
																						"type": "240100",
																						"typeLabel": "Ident",
																						"pos": "1139",
																						"length": "1",
																						"children": [
																							{
																								"type": "480000",
																								"label": "i",
																								"typeLabel": "GenericString",
																								"pos": "1139",
																								"length": "1",
																								"children": []
																							}
																						]
																					},
																					{
																						"type": "480000",
																						"label": "=",
																						"typeLabel": "GenericString",
																						"pos": "1141",
																						"length": "1",
																						"children": []
																					},
																					{
																						"type": "240200",
																						"label": "0",
																						"typeLabel": "Constant",
																						"pos": "1143",
																						"length": "1",
																						"children": []
																					}
																				]
																			},
																			{
																				"type": "480000",
																				"label": ";",
																				"typeLabel": "GenericString",
																				"pos": "1144",
																				"length": "1",
																				"children": []
																			}
																		]
																	}
																]
															},
															{
																"type": "260300",
																"typeLabel": "ExprStatement",
																"pos": "1146",
																"length": "16",
																"children": [
																	{
																		"type": "290100",
																		"typeLabel": "Some",
																		"pos": "1146",
																		"length": "16",
																		"children": [
																			{
																				"type": "241100",
																				"typeLabel": "Binary",
																				"pos": "1146",
																				"length": "15",
																				"children": [
																					{
																						"type": "240100",
																						"typeLabel": "Ident",
																						"pos": "1146",
																						"length": "1",
																						"children": [
																							{
																								"type": "480000",
																								"label": "i",
																								"typeLabel": "GenericString",
																								"pos": "1146",
																								"length": "1",
																								"children": []
																							}
																						]
																					},
																					{
																						"type": "480000",
																						"label": "<",
																						"typeLabel": "GenericString",
																						"pos": "1148",
																						"length": "1",
																						"children": []
																					},
																					{
																						"type": "241400",
																						"typeLabel": "RecordPtAccess",
																						"pos": "1150",
																						"length": "11",
																						"children": [
																							{
																								"type": "240100",
																								"typeLabel": "Ident",
																								"pos": "1150",
																								"length": "5",
																								"children": [
																									{
																										"type": "480000",
																										"label": "array",
																										"typeLabel": "GenericString",
																										"pos": "1150",
																										"length": "5",
																										"children": []
																									}
																								]
																							},
																							{
																								"type": "480000",
																								"label": "argc",
																								"typeLabel": "GenericString",
																								"pos": "1157",
																								"length": "4",
																								"children": []
																							}
																						]
																					}
																				]
																			},
																			{
																				"type": "480000",
																				"label": ";",
																				"typeLabel": "GenericString",
																				"pos": "1161",
																				"length": "1",
																				"children": []
																			}
																		]
																	}
																]
															},
															{
																"type": "260300",
																"typeLabel": "ExprStatement",
																"pos": "1163",
																"length": "3",
																"children": [
																	{
																		"type": "290100",
																		"typeLabel": "Some",
																		"pos": "1163",
																		"length": "3",
																		"children": [
																			{
																				"type": "240800",
																				"typeLabel": "Postfix",
																				"pos": "1163",
																				"length": "3",
																				"children": [
																					{
																						"type": "240100",
																						"typeLabel": "Ident",
																						"pos": "1163",
																						"length": "1",
																						"children": [
																							{
																								"type": "480000",
																								"label": "i",
																								"typeLabel": "GenericString",
																								"pos": "1163",
																								"length": "1",
																								"children": []
																							}
																						]
																					},
																					{
																						"type": "480000",
																						"label": "++",
																						"typeLabel": "GenericString",
																						"pos": "1164",
																						"length": "2",
																						"children": []
																					}
																				]
																			}
																		]
																	}
																]
															},
															{
																"type": "260300",
																"typeLabel": "ExprStatement",
																"pos": "1171",
																"length": "30",
																"children": [
																	{
																		"type": "290100",
																		"typeLabel": "Some",
																		"pos": "1171",
																		"length": "30",
																		"children": [
																			{
																				"type": "240400",
																				"typeLabel": "FunCall",
																				"pos": "1171",
																				"length": "29",
																				"children": [
																					{
																						"type": "240100",
																						"typeLabel": "Ident",
																						"pos": "1171",
																						"length": "4",
																						"children": [
																							{
																								"type": "480000",
																								"label": "free",
																								"typeLabel": "GenericString",
																								"pos": "1171",
																								"length": "4",
																								"children": []
																							}
																						]
																					},
																					{
																						"type": "470000",
																						"typeLabel": "GenericList",
																						"pos": "1175",
																						"length": "25",
																						"children": [
																							{
																								"type": "20100",
																								"typeLabel": "Left",
																								"pos": "1176",
																								"length": "23",
																								"children": [
																									{
																										"type": "241700",
																										"typeLabel": "Cast",
																										"pos": "1176",
																										"length": "23",
																										"children": [
																											{
																												"type": "241200",
																												"typeLabel": "ArrayAccess",
																												"pos": "1185",
																												"length": "14",
																												"children": [
																													{
																														"type": "241400",
																														"typeLabel": "RecordPtAccess",
																														"pos": "1185",
																														"length": "11",
																														"children": [
																															{
																																"type": "240100",
																																"typeLabel": "Ident",
																																"pos": "1185",
																																"length": "5",
																																"children": [
																																	{
																																		"type": "480000",
																																		"label": "array",
																																		"typeLabel": "GenericString",
																																		"pos": "1185",
																																		"length": "5",
																																		"children": []
																																	}
																																]
																															},
																															{
																																"type": "480000",
																																"label": "argv",
																																"typeLabel": "GenericString",
																																"pos": "1192",
																																"length": "4",
																																"children": []
																															}
																														]
																													},
																													{
																														"type": "240100",
																														"typeLabel": "Ident",
																														"pos": "1197",
																														"length": "1",
																														"children": [
																															{
																																"type": "480000",
																																"label": "i",
																																"typeLabel": "GenericString",
																																"pos": "1197",
																																"length": "1",
																																"children": []
																															}
																														]
																													}
																												]
																											}
																										]
																									}
																								]
																							}
																						]
																					}
																				]
																			},
																			{
																				"type": "480000",
																				"label": ";",
																				"typeLabel": "GenericString",
																				"pos": "1200",
																				"length": "1",
																				"children": []
																			}
																		]
																	}
																]
															}
														]
													},
													{
														"type": "260300",
														"typeLabel": "ExprStatement",
														"pos": "1204",
														"length": "18",
														"children": [
															{
																"type": "290100",
																"typeLabel": "Some",
																"pos": "1204",
																"length": "18",
																"children": [
																	{
																		"type": "240400",
																		"typeLabel": "FunCall",
																		"pos": "1204",
																		"length": "17",
																		"children": [
																			{
																				"type": "240100",
																				"typeLabel": "Ident",
																				"pos": "1204",
																				"length": "4",
																				"children": [
																					{
																						"type": "480000",
																						"label": "free",
																						"typeLabel": "GenericString",
																						"pos": "1204",
																						"length": "4",
																						"children": []
																					}
																				]
																			},
																			{
																				"type": "470000",
																				"typeLabel": "GenericList",
																				"pos": "1208",
																				"length": "13",
																				"children": [
																					{
																						"type": "20100",
																						"typeLabel": "Left",
																						"pos": "1209",
																						"length": "11",
																						"children": [
																							{
																								"type": "241400",
																								"typeLabel": "RecordPtAccess",
																								"pos": "1209",
																								"length": "11",
																								"children": [
																									{
																										"type": "240100",
																										"typeLabel": "Ident",
																										"pos": "1209",
																										"length": "5",
																										"children": [
																											{
																												"type": "480000",
																												"label": "array",
																												"typeLabel": "GenericString",
																												"pos": "1209",
																												"length": "5",
																												"children": []
																											}
																										]
																									},
																									{
																										"type": "480000",
																										"label": "argv",
																										"typeLabel": "GenericString",
																										"pos": "1216",
																										"length": "4",
																										"children": []
																									}
																								]
																							}
																						]
																					}
																				]
																			}
																		]
																	},
																	{
																		"type": "480000",
																		"label": ";",
																		"typeLabel": "GenericString",
																		"pos": "1221",
																		"length": "1",
																		"children": []
																	}
																]
															}
														]
													}
												]
											}
										]
									},
									{
										"type": "260300",
										"typeLabel": "ExprStatement",
										"pos": "1227",
										"length": "23",
										"children": [
											{
												"type": "290100",
												"typeLabel": "Some",
												"pos": "1227",
												"length": "23",
												"children": [
													{
														"type": "240400",
														"typeLabel": "FunCall",
														"pos": "1227",
														"length": "22",
														"children": [
															{
																"type": "240100",
																"typeLabel": "Ident",
																"pos": "1227",
																"length": "15",
																"children": [
																	{
																		"type": "480000",
																		"label": "argv_array_init",
																		"typeLabel": "GenericString",
																		"pos": "1227",
																		"length": "15",
																		"children": []
																	}
																]
															},
															{
																"type": "470000",
																"typeLabel": "GenericList",
																"pos": "1242",
																"length": "7",
																"children": [
																	{
																		"type": "20100",
																		"typeLabel": "Left",
																		"pos": "1243",
																		"length": "5",
																		"children": [
																			{
																				"type": "240100",
																				"typeLabel": "Ident",
																				"pos": "1243",
																				"length": "5",
																				"children": [
																					{
																						"type": "480000",
																						"label": "array",
																						"typeLabel": "GenericString",
																						"pos": "1243",
																						"length": "5",
																						"children": []
																					}
																				]
																			}
																		]
																	}
																]
															}
														]
													},
													{
														"type": "480000",
														"label": ";",
														"typeLabel": "GenericString",
														"pos": "1249",
														"length": "1",
														"children": []
													}
												]
											}
										]
									}
								]
							}
						]
					}
				]
			},
			{
				"type": "450800",
				"typeLabel": "FinalDef",
				"pos": "1253",
				"length": "0",
				"children": []
			}
		]
	}
}