{
	"root": {
		"type": "460000",
		"typeLabel": "Program",
		"pos": "1570",
		"length": "1070",
		"children": [
			{
				"type": "450300",
				"typeLabel": "CppTop",
				"pos": "1570",
				"length": "39",
				"children": [
					{
						"type": "400200",
						"typeLabel": "Include",
						"pos": "1570",
						"length": "39",
						"children": [
							{
								"type": "480000",
								"label": "<grpc/support/port_platform.h>",
								"typeLabel": "GenericString",
								"pos": "1579",
								"length": "30",
								"children": []
							}
						]
					}
				]
			},
			{
				"type": "450400",
				"typeLabel": "IfdefTop",
				"pos": "1611",
				"length": "26",
				"children": [
					{
						"type": "440100",
						"typeLabel": "IfdefDirective",
						"pos": "1611",
						"length": "26",
						"children": [
							{
								"type": "480000",
								"label": "#ifdef GPR_POSIX_WAKEUP_FD",
								"typeLabel": "GenericString",
								"pos": "1611",
								"length": "26",
								"children": []
							}
						]
					}
				]
			},
			{
				"type": "450300",
				"typeLabel": "CppTop",
				"pos": "1639",
				"length": "43",
				"children": [
					{
						"type": "400200",
						"typeLabel": "Include",
						"pos": "1639",
						"length": "43",
						"children": [
							{
								"type": "480000",
								"label": "\"src/core/iomgr/wakeup_fd_posix.h\"",
								"typeLabel": "GenericString",
								"pos": "1648",
								"length": "34",
								"children": []
							}
						]
					}
				]
			},
			{
				"type": "450300",
				"typeLabel": "CppTop",
				"pos": "1683",
				"length": "42",
				"children": [
					{
						"type": "400200",
						"typeLabel": "Include",
						"pos": "1683",
						"length": "42",
						"children": [
							{
								"type": "480000",
								"label": "\"src/core/iomgr/wakeup_fd_pipe.h\"",
								"typeLabel": "GenericString",
								"pos": "1692",
								"length": "33",
								"children": []
							}
						]
					}
				]
			},
			{
				"type": "450300",
				"typeLabel": "CppTop",
				"pos": "1726",
				"length": "19",
				"children": [
					{
						"type": "400200",
						"typeLabel": "Include",
						"pos": "1726",
						"length": "19",
						"children": [
							{
								"type": "480000",
								"label": "<stddef.h>",
								"typeLabel": "GenericString",
								"pos": "1735",
								"length": "10",
								"children": []
							}
						]
					}
				]
			},
			{
				"type": "450100",
				"typeLabel": "Declaration",
				"pos": "1747",
				"length": "60",
				"children": [
					{
						"type": "350100",
						"typeLabel": "DeclList",
						"pos": "1747",
						"length": "60",
						"children": [
							{
								"type": "340000",
								"typeLabel": "Storage",
								"pos": "1747",
								"length": "6",
								"children": [
									{
										"type": "480000",
										"label": "static",
										"typeLabel": "GenericString",
										"pos": "1747",
										"length": "6",
										"children": []
									}
								]
							},
							{
								"type": "480000",
								"label": "wakeup_fd_vtable",
								"typeLabel": "GenericString",
								"pos": "1783",
								"length": "16",
								"children": []
							},
							{
								"type": "360100",
								"typeLabel": "InitExpr",
								"pos": "1802",
								"length": "4",
								"children": [
									{
										"type": "240100",
										"typeLabel": "Ident",
										"pos": "1802",
										"length": "4",
										"children": [
											{
												"type": "480000",
												"label": "NULL",
												"typeLabel": "GenericString",
												"pos": "1802",
												"length": "4",
												"children": []
											}
										]
									}
								]
							}
						]
					}
				]
			},
			{
				"type": "450200",
				"typeLabel": "Definition",
				"pos": "1809",
				"length": "231",
				"children": [
					{
						"type": "380000",
						"typeLabel": "Definition",
						"pos": "1809",
						"length": "231",
						"children": [
							{
								"type": "200000",
								"typeLabel": "ParamList",
								"pos": "1840",
								"length": "6",
								"children": [
									{
										"type": "220100",
										"typeLabel": "ParameterType",
										"pos": "1841",
										"length": "4",
										"children": []
									}
								]
							},
							{
								"type": "480000",
								"label": "grpc_wakeup_fd_global_init",
								"typeLabel": "GenericString",
								"pos": "1814",
								"length": "26",
								"children": []
							},
							{
								"type": "330000",
								"typeLabel": "Compound",
								"pos": "1847",
								"length": "193",
								"children": [
									{
										"type": "300100",
										"typeLabel": "If",
										"pos": "1851",
										"length": "187",
										"children": [
											{
												"type": "490100",
												"typeLabel": "IfToken",
												"pos": "1851",
												"length": "2",
												"children": []
											},
											{
												"type": "240400",
												"typeLabel": "FunCall",
												"pos": "1855",
												"length": "54",
												"children": [
													{
														"type": "241300",
														"typeLabel": "RecordAccess",
														"pos": "1855",
														"length": "52",
														"children": [
															{
																"type": "240100",
																"typeLabel": "Ident",
																"pos": "1855",
																"length": "33",
																"children": [
																	{
																		"type": "480000",
																		"label": "grpc_specialized_wakeup_fd_vtable",
																		"typeLabel": "GenericString",
																		"pos": "1855",
																		"length": "33",
																		"children": []
																	}
																]
															},
															{
																"type": "480000",
																"label": "check_availability",
																"typeLabel": "GenericString",
																"pos": "1889",
																"length": "18",
																"children": []
															}
														]
													},
													{
														"type": "470000",
														"typeLabel": "GenericList",
														"pos": "1907",
														"length": "2",
														"children": []
													}
												]
											},
											{
												"type": "330000",
												"typeLabel": "Compound",
												"pos": "1911",
												"length": "64",
												"children": [
													{
														"type": "260300",
														"typeLabel": "ExprStatement",
														"pos": "1917",
														"length": "54",
														"children": [
															{
																"type": "290100",
																"typeLabel": "Some",
																"pos": "1917",
																"length": "54",
																"children": [
																	{
																		"type": "240700",
																		"typeLabel": "Assignment",
																		"pos": "1917",
																		"length": "53",
																		"children": [
																			{
																				"type": "240100",
																				"typeLabel": "Ident",
																				"pos": "1917",
																				"length": "16",
																				"children": [
																					{
																						"type": "480000",
																						"label": "wakeup_fd_vtable",
																						"typeLabel": "GenericString",
																						"pos": "1917",
																						"length": "16",
																						"children": []
																					}
																				]
																			},
																			{
																				"type": "480000",
																				"label": "=",
																				"typeLabel": "GenericString",
																				"pos": "1934",
																				"length": "1",
																				"children": []
																			},
																			{
																				"type": "241000",
																				"typeLabel": "Unary",
																				"pos": "1936",
																				"length": "34",
																				"children": [
																					{
																						"type": "240100",
																						"typeLabel": "Ident",
																						"pos": "1937",
																						"length": "33",
																						"children": [
																							{
																								"type": "480000",
																								"label": "grpc_specialized_wakeup_fd_vtable",
																								"typeLabel": "GenericString",
																								"pos": "1937",
																								"length": "33",
																								"children": []
																							}
																						]
																					},
																					{
																						"type": "480000",
																						"label": "&",
																						"typeLabel": "GenericString",
																						"pos": "1936",
																						"length": "1",
																						"children": []
																					}
																				]
																			}
																		]
																	},
																	{
																		"type": "480000",
																		"label": ";",
																		"typeLabel": "GenericString",
																		"pos": "1970",
																		"length": "1",
																		"children": []
																	}
																]
															}
														]
													}
												]
											},
											{
												"type": "330000",
												"typeLabel": "Compound",
												"pos": "1981",
												"length": "57",
												"children": [
													{
														"type": "260300",
														"typeLabel": "ExprStatement",
														"pos": "1987",
														"length": "47",
														"children": [
															{
																"type": "290100",
																"typeLabel": "Some",
																"pos": "1987",
																"length": "47",
																"children": [
																	{
																		"type": "240700",
																		"typeLabel": "Assignment",
																		"pos": "1987",
																		"length": "46",
																		"children": [
																			{
																				"type": "240100",
																				"typeLabel": "Ident",
																				"pos": "1987",
																				"length": "16",
																				"children": [
																					{
																						"type": "480000",
																						"label": "wakeup_fd_vtable",
																						"typeLabel": "GenericString",
																						"pos": "1987",
																						"length": "16",
																						"children": []
																					}
																				]
																			},
																			{
																				"type": "480000",
																				"label": "=",
																				"typeLabel": "GenericString",
																				"pos": "2004",
																				"length": "1",
																				"children": []
																			},
																			{
																				"type": "241000",
																				"typeLabel": "Unary",
																				"pos": "2006",
																				"length": "27",
																				"children": [
																					{
																						"type": "240100",
																						"typeLabel": "Ident",
																						"pos": "2007",
																						"length": "26",
																						"children": [
																							{
																								"type": "480000",
																								"label": "grpc_pipe_wakeup_fd_vtable",
																								"typeLabel": "GenericString",
																								"pos": "2007",
																								"length": "26",
																								"children": []
																							}
																						]
																					},
																					{
																						"type": "480000",
																						"label": "&",
																						"typeLabel": "GenericString",
																						"pos": "2006",
																						"length": "1",
																						"children": []
																					}
																				]
																			}
																		]
																	},
																	{
																		"type": "480000",
																		"label": ";",
																		"typeLabel": "GenericString",
																		"pos": "2033",
																		"length": "1",
																		"children": []
																	}
																]
															}
														]
													}
												]
											}
										]
									}
								]
							}
						]
					}
				]
			},
			{
				"type": "450200",
				"typeLabel": "Definition",
				"pos": "2042",
				"length": "106",
				"children": [
					{
						"type": "380000",
						"typeLabel": "Definition",
						"pos": "2042",
						"length": "106",
						"children": [
							{
								"type": "200000",
								"typeLabel": "ParamList",
								"pos": "2088",
								"length": "6",
								"children": [
									{
										"type": "220100",
										"typeLabel": "ParameterType",
										"pos": "2089",
										"length": "4",
										"children": []
									}
								]
							},
							{
								"type": "480000",
								"label": "grpc_wakeup_fd_global_init_force_fallback",
								"typeLabel": "GenericString",
								"pos": "2047",
								"length": "41",
								"children": []
							},
							{
								"type": "330000",
								"typeLabel": "Compound",
								"pos": "2095",
								"length": "53",
								"children": [
									{
										"type": "260300",
										"typeLabel": "ExprStatement",
										"pos": "2099",
										"length": "47",
										"children": [
											{
												"type": "290100",
												"typeLabel": "Some",
												"pos": "2099",
												"length": "47",
												"children": [
													{
														"type": "240700",
														"typeLabel": "Assignment",
														"pos": "2099",
														"length": "46",
														"children": [
															{
																"type": "240100",
																"typeLabel": "Ident",
																"pos": "2099",
																"length": "16",
																"children": [
																	{
																		"type": "480000",
																		"label": "wakeup_fd_vtable",
																		"typeLabel": "GenericString",
																		"pos": "2099",
																		"length": "16",
																		"children": []
																	}
																]
															},
															{
																"type": "480000",
																"label": "=",
																"typeLabel": "GenericString",
																"pos": "2116",
																"length": "1",
																"children": []
															},
															{
																"type": "241000",
																"typeLabel": "Unary",
																"pos": "2118",
																"length": "27",
																"children": [
																	{
																		"type": "240100",
																		"typeLabel": "Ident",
																		"pos": "2119",
																		"length": "26",
																		"children": [
																			{
																				"type": "480000",
																				"label": "grpc_pipe_wakeup_fd_vtable",
																				"typeLabel": "GenericString",
																				"pos": "2119",
																				"length": "26",
																				"children": []
																			}
																		]
																	},
																	{
																		"type": "480000",
																		"label": "&",
																		"typeLabel": "GenericString",
																		"pos": "2118",
																		"length": "1",
																		"children": []
																	}
																]
															}
														]
													},
													{
														"type": "480000",
														"label": ";",
														"typeLabel": "GenericString",
														"pos": "2145",
														"length": "1",
														"children": []
													}
												]
											}
										]
									}
								]
							}
						]
					}
				]
			},
			{
				"type": "450200",
				"typeLabel": "Definition",
				"pos": "2150",
				"length": "71",
				"children": [
					{
						"type": "380000",
						"typeLabel": "Definition",
						"pos": "2150",
						"length": "71",
						"children": [
							{
								"type": "200000",
								"typeLabel": "ParamList",
								"pos": "2184",
								"length": "6",
								"children": [
									{
										"type": "220100",
										"typeLabel": "ParameterType",
										"pos": "2185",
										"length": "4",
										"children": []
									}
								]
							},
							{
								"type": "480000",
								"label": "grpc_wakeup_fd_global_destroy",
								"typeLabel": "GenericString",
								"pos": "2155",
								"length": "29",
								"children": []
							},
							{
								"type": "330000",
								"typeLabel": "Compound",
								"pos": "2191",
								"length": "30",
								"children": [
									{
										"type": "260300",
										"typeLabel": "ExprStatement",
										"pos": "2195",
										"length": "24",
										"children": [
											{
												"type": "290100",
												"typeLabel": "Some",
												"pos": "2195",
												"length": "24",
												"children": [
													{
														"type": "240700",
														"typeLabel": "Assignment",
														"pos": "2195",
														"length": "23",
														"children": [
															{
																"type": "240100",
																"typeLabel": "Ident",
																"pos": "2195",
																"length": "16",
																"children": [
																	{
																		"type": "480000",
																		"label": "wakeup_fd_vtable",
																		"typeLabel": "GenericString",
																		"pos": "2195",
																		"length": "16",
																		"children": []
																	}
																]
															},
															{
																"type": "480000",
																"label": "=",
																"typeLabel": "GenericString",
																"pos": "2212",
																"length": "1",
																"children": []
															},
															{
																"type": "240100",
																"typeLabel": "Ident",
																"pos": "2214",
																"length": "4",
																"children": [
																	{
																		"type": "480000",
																		"label": "NULL",
																		"typeLabel": "GenericString",
																		"pos": "2214",
																		"length": "4",
																		"children": []
																	}
																]
															}
														]
													},
													{
														"type": "480000",
														"label": ";",
														"typeLabel": "GenericString",
														"pos": "2218",
														"length": "1",
														"children": []
													}
												]
											}
										]
									}
								]
							}
						]
					}
				]
			},
			{
				"type": "450200",
				"typeLabel": "Definition",
				"pos": "2223",
				"length": "88",
				"children": [
					{
						"type": "380000",
						"typeLabel": "Definition",
						"pos": "2223",
						"length": "88",
						"children": [
							{
								"type": "200000",
								"typeLabel": "ParamList",
								"pos": "2247",
								"length": "25",
								"children": [
									{
										"type": "220100",
										"typeLabel": "ParameterType",
										"pos": "2248",
										"length": "23",
										"children": [
											{
												"type": "480000",
												"label": "fd_info",
												"typeLabel": "GenericString",
												"pos": "2264",
												"length": "7",
												"children": []
											}
										]
									}
								]
							},
							{
								"type": "480000",
								"label": "grpc_wakeup_fd_init",
								"typeLabel": "GenericString",
								"pos": "2228",
								"length": "19",
								"children": []
							},
							{
								"type": "330000",
								"typeLabel": "Compound",
								"pos": "2273",
								"length": "38",
								"children": [
									{
										"type": "260300",
										"typeLabel": "ExprStatement",
										"pos": "2277",
										"length": "32",
										"children": [
											{
												"type": "290100",
												"typeLabel": "Some",
												"pos": "2277",
												"length": "32",
												"children": [
													{
														"type": "240400",
														"typeLabel": "FunCall",
														"pos": "2277",
														"length": "31",
														"children": [
															{
																"type": "241400",
																"typeLabel": "RecordPtAccess",
																"pos": "2277",
																"length": "22",
																"children": [
																	{
																		"type": "240100",
																		"typeLabel": "Ident",
																		"pos": "2277",
																		"length": "16",
																		"children": [
																			{
																				"type": "480000",
																				"label": "wakeup_fd_vtable",
																				"typeLabel": "GenericString",
																				"pos": "2277",
																				"length": "16",
																				"children": []
																			}
																		]
																	},
																	{
																		"type": "480000",
																		"label": "init",
																		"typeLabel": "GenericString",
																		"pos": "2295",
																		"length": "4",
																		"children": []
																	}
																]
															},
															{
																"type": "470000",
																"typeLabel": "GenericList",
																"pos": "2299",
																"length": "9",
																"children": [
																	{
																		"type": "20100",
																		"typeLabel": "Left",
																		"pos": "2300",
																		"length": "7",
																		"children": [
																			{
																				"type": "240100",
																				"typeLabel": "Ident",
																				"pos": "2300",
																				"length": "7",
																				"children": [
																					{
																						"type": "480000",
																						"label": "fd_info",
																						"typeLabel": "GenericString",
																						"pos": "2300",
																						"length": "7",
																						"children": []
																					}
																				]
																			}
																		]
																	}
																]
															}
														]
													},
													{
														"type": "480000",
														"label": ";",
														"typeLabel": "GenericString",
														"pos": "2308",
														"length": "1",
														"children": []
													}
												]
											}
										]
									}
								]
							}
						]
					}
				]
			},
			{
				"type": "450200",
				"typeLabel": "Definition",
				"pos": "2313",
				"length": "101",
				"children": [
					{
						"type": "380000",
						"typeLabel": "Definition",
						"pos": "2313",
						"length": "101",
						"children": [
							{
								"type": "200000",
								"typeLabel": "ParamList",
								"pos": "2347",
								"length": "25",
								"children": [
									{
										"type": "220100",
										"typeLabel": "ParameterType",
										"pos": "2348",
										"length": "23",
										"children": [
											{
												"type": "480000",
												"label": "fd_info",
												"typeLabel": "GenericString",
												"pos": "2364",
												"length": "7",
												"children": []
											}
										]
									}
								]
							},
							{
								"type": "480000",
								"label": "grpc_wakeup_fd_consume_wakeup",
								"typeLabel": "GenericString",
								"pos": "2318",
								"length": "29",
								"children": []
							},
							{
								"type": "330000",
								"typeLabel": "Compound",
								"pos": "2373",
								"length": "41",
								"children": [
									{
										"type": "260300",
										"typeLabel": "ExprStatement",
										"pos": "2377",
										"length": "35",
										"children": [
											{
												"type": "290100",
												"typeLabel": "Some",
												"pos": "2377",
												"length": "35",
												"children": [
													{
														"type": "240400",
														"typeLabel": "FunCall",
														"pos": "2377",
														"length": "34",
														"children": [
															{
																"type": "241400",
																"typeLabel": "RecordPtAccess",
																"pos": "2377",
																"length": "25",
																"children": [
																	{
																		"type": "240100",
																		"typeLabel": "Ident",
																		"pos": "2377",
																		"length": "16",
																		"children": [
																			{
																				"type": "480000",
																				"label": "wakeup_fd_vtable",
																				"typeLabel": "GenericString",
																				"pos": "2377",
																				"length": "16",
																				"children": []
																			}
																		]
																	},
																	{
																		"type": "480000",
																		"label": "consume",
																		"typeLabel": "GenericString",
																		"pos": "2395",
																		"length": "7",
																		"children": []
																	}
																]
															},
															{
																"type": "470000",
																"typeLabel": "GenericList",
																"pos": "2402",
																"length": "9",
																"children": [
																	{
																		"type": "20100",
																		"typeLabel": "Left",
																		"pos": "2403",
																		"length": "7",
																		"children": [
																			{
																				"type": "240100",
																				"typeLabel": "Ident",
																				"pos": "2403",
																				"length": "7",
																				"children": [
																					{
																						"type": "480000",
																						"label": "fd_info",
																						"typeLabel": "GenericString",
																						"pos": "2403",
																						"length": "7",
																						"children": []
																					}
																				]
																			}
																		]
																	}
																]
															}
														]
													},
													{
														"type": "480000",
														"label": ";",
														"typeLabel": "GenericString",
														"pos": "2411",
														"length": "1",
														"children": []
													}
												]
											}
										]
									}
								]
							}
						]
					}
				]
			},
			{
				"type": "450200",
				"typeLabel": "Definition",
				"pos": "2416",
				"length": "92",
				"children": [
					{
						"type": "380000",
						"typeLabel": "Definition",
						"pos": "2416",
						"length": "92",
						"children": [
							{
								"type": "200000",
								"typeLabel": "ParamList",
								"pos": "2442",
								"length": "25",
								"children": [
									{
										"type": "220100",
										"typeLabel": "ParameterType",
										"pos": "2443",
										"length": "23",
										"children": [
											{
												"type": "480000",
												"label": "fd_info",
												"typeLabel": "GenericString",
												"pos": "2459",
												"length": "7",
												"children": []
											}
										]
									}
								]
							},
							{
								"type": "480000",
								"label": "grpc_wakeup_fd_wakeup",
								"typeLabel": "GenericString",
								"pos": "2421",
								"length": "21",
								"children": []
							},
							{
								"type": "330000",
								"typeLabel": "Compound",
								"pos": "2468",
								"length": "40",
								"children": [
									{
										"type": "260300",
										"typeLabel": "ExprStatement",
										"pos": "2472",
										"length": "34",
										"children": [
											{
												"type": "290100",
												"typeLabel": "Some",
												"pos": "2472",
												"length": "34",
												"children": [
													{
														"type": "240400",
														"typeLabel": "FunCall",
														"pos": "2472",
														"length": "33",
														"children": [
															{
																"type": "241400",
																"typeLabel": "RecordPtAccess",
																"pos": "2472",
																"length": "24",
																"children": [
																	{
																		"type": "240100",
																		"typeLabel": "Ident",
																		"pos": "2472",
																		"length": "16",
																		"children": [
																			{
																				"type": "480000",
																				"label": "wakeup_fd_vtable",
																				"typeLabel": "GenericString",
																				"pos": "2472",
																				"length": "16",
																				"children": []
																			}
																		]
																	},
																	{
																		"type": "480000",
																		"label": "wakeup",
																		"typeLabel": "GenericString",
																		"pos": "2490",
																		"length": "6",
																		"children": []
																	}
																]
															},
															{
																"type": "470000",
																"typeLabel": "GenericList",
																"pos": "2496",
																"length": "9",
																"children": [
																	{
																		"type": "20100",
																		"typeLabel": "Left",
																		"pos": "2497",
																		"length": "7",
																		"children": [
																			{
																				"type": "240100",
																				"typeLabel": "Ident",
																				"pos": "2497",
																				"length": "7",
																				"children": [
																					{
																						"type": "480000",
																						"label": "fd_info",
																						"typeLabel": "GenericString",
																						"pos": "2497",
																						"length": "7",
																						"children": []
																					}
																				]
																			}
																		]
																	}
																]
															}
														]
													},
													{
														"type": "480000",
														"label": ";",
														"typeLabel": "GenericString",
														"pos": "2505",
														"length": "1",
														"children": []
													}
												]
											}
										]
									}
								]
							}
						]
					}
				]
			},
			{
				"type": "450200",
				"typeLabel": "Definition",
				"pos": "2510",
				"length": "94",
				"children": [
					{
						"type": "380000",
						"typeLabel": "Definition",
						"pos": "2510",
						"length": "94",
						"children": [
							{
								"type": "200000",
								"typeLabel": "ParamList",
								"pos": "2537",
								"length": "25",
								"children": [
									{
										"type": "220100",
										"typeLabel": "ParameterType",
										"pos": "2538",
										"length": "23",
										"children": [
											{
												"type": "480000",
												"label": "fd_info",
												"typeLabel": "GenericString",
												"pos": "2554",
												"length": "7",
												"children": []
											}
										]
									}
								]
							},
							{
								"type": "480000",
								"label": "grpc_wakeup_fd_destroy",
								"typeLabel": "GenericString",
								"pos": "2515",
								"length": "22",
								"children": []
							},
							{
								"type": "330000",
								"typeLabel": "Compound",
								"pos": "2563",
								"length": "41",
								"children": [
									{
										"type": "260300",
										"typeLabel": "ExprStatement",
										"pos": "2567",
										"length": "35",
										"children": [
											{
												"type": "290100",
												"typeLabel": "Some",
												"pos": "2567",
												"length": "35",
												"children": [
													{
														"type": "240400",
														"typeLabel": "FunCall",
														"pos": "2567",
														"length": "34",
														"children": [
															{
																"type": "241400",
																"typeLabel": "RecordPtAccess",
																"pos": "2567",
																"length": "25",
																"children": [
																	{
																		"type": "240100",
																		"typeLabel": "Ident",
																		"pos": "2567",
																		"length": "16",
																		"children": [
																			{
																				"type": "480000",
																				"label": "wakeup_fd_vtable",
																				"typeLabel": "GenericString",
																				"pos": "2567",
																				"length": "16",
																				"children": []
																			}
																		]
																	},
																	{
																		"type": "480000",
																		"label": "destroy",
																		"typeLabel": "GenericString",
																		"pos": "2585",
																		"length": "7",
																		"children": []
																	}
																]
															},
															{
																"type": "470000",
																"typeLabel": "GenericList",
																"pos": "2592",
																"length": "9",
																"children": [
																	{
																		"type": "20100",
																		"typeLabel": "Left",
																		"pos": "2593",
																		"length": "7",
																		"children": [
																			{
																				"type": "240100",
																				"typeLabel": "Ident",
																				"pos": "2593",
																				"length": "7",
																				"children": [
																					{
																						"type": "480000",
																						"label": "fd_info",
																						"typeLabel": "GenericString",
																						"pos": "2593",
																						"length": "7",
																						"children": []
																					}
																				]
																			}
																		]
																	}
																]
															}
														]
													},
													{
														"type": "480000",
														"label": ";",
														"typeLabel": "GenericString",
														"pos": "2601",
														"length": "1",
														"children": []
													}
												]
											}
										]
									}
								]
							}
						]
					}
				]
			},
			{
				"type": "450400",
				"typeLabel": "IfdefTop",
				"pos": "2606",
				"length": "6",
				"children": [
					{
						"type": "440100",
						"typeLabel": "IfdefDirective",
						"pos": "2606",
						"length": "6",
						"children": [
							{
								"type": "480000",
								"label": "#endif",
								"typeLabel": "GenericString",
								"pos": "2606",
								"length": "6",
								"children": []
							}
						]
					}
				]
			},
			{
				"type": "450800",
				"typeLabel": "FinalDef",
				"pos": "2640",
				"length": "0",
				"children": []
			}
		]
	}
}