{
	"root": {
		"type": "460000",
		"typeLabel": "Program",
		"pos": "106",
		"length": "361",
		"children": [
			{
				"type": "450300",
				"typeLabel": "CppTop",
				"pos": "106",
				"length": "17",
				"children": [
					{
						"type": "400200",
						"typeLabel": "Include",
						"pos": "106",
						"length": "17",
						"children": [
							{
								"type": "480000",
								"label": "<time.h>",
								"typeLabel": "GenericString",
								"pos": "115",
								"length": "8",
								"children": []
							}
						]
					}
				]
			},
			{
				"type": "450300",
				"typeLabel": "CppTop",
				"pos": "124",
				"length": "19",
				"children": [
					{
						"type": "400200",
						"typeLabel": "Include",
						"pos": "124",
						"length": "19",
						"children": [
							{
								"type": "480000",
								"label": "<stdint.h>",
								"typeLabel": "GenericString",
								"pos": "133",
								"length": "10",
								"children": []
							}
						]
					}
				]
			},
			{
				"type": "450300",
				"typeLabel": "CppTop",
				"pos": "144",
				"length": "20",
				"children": [
					{
						"type": "400200",
						"typeLabel": "Include",
						"pos": "144",
						"length": "20",
						"children": [
							{
								"type": "480000",
								"label": "<stdbool.h>",
								"typeLabel": "GenericString",
								"pos": "153",
								"length": "11",
								"children": []
							}
						]
					}
				]
			},
			{
				"type": "450300",
				"typeLabel": "CppTop",
				"pos": "166",
				"length": "20",
				"children": [
					{
						"type": "400200",
						"typeLabel": "Include",
						"pos": "166",
						"length": "20",
						"children": [
							{
								"type": "480000",
								"label": "\"network.h\"",
								"typeLabel": "GenericString",
								"pos": "175",
								"length": "11",
								"children": []
							}
						]
					}
				]
			},
			{
				"type": "450200",
				"typeLabel": "Definition",
				"pos": "188",
				"length": "39",
				"children": [
					{
						"type": "380000",
						"typeLabel": "Definition",
						"pos": "188",
						"length": "39",
						"children": [
							{
								"type": "200000",
								"typeLabel": "ParamList",
								"pos": "200",
								"length": "2",
								"children": []
							},
							{
								"type": "480000",
								"label": "now",
								"typeLabel": "GenericString",
								"pos": "197",
								"length": "3",
								"children": []
							},
							{
								"type": "330000",
								"typeLabel": "Compound",
								"pos": "203",
								"length": "24",
								"children": [
									{
										"type": "280200",
										"typeLabel": "ReturnExpr",
										"pos": "207",
										"length": "18",
										"children": [
											{
												"type": "240400",
												"typeLabel": "FunCall",
												"pos": "214",
												"length": "10",
												"children": [
													{
														"type": "240100",
														"typeLabel": "Ident",
														"pos": "214",
														"length": "4",
														"children": [
															{
																"type": "480000",
																"label": "time",
																"typeLabel": "GenericString",
																"pos": "214",
																"length": "4",
																"children": []
															}
														]
													},
													{
														"type": "470000",
														"typeLabel": "GenericList",
														"pos": "218",
														"length": "6",
														"children": [
															{
																"type": "20100",
																"typeLabel": "Left",
																"pos": "219",
																"length": "4",
																"children": [
																	{
																		"type": "240100",
																		"typeLabel": "Ident",
																		"pos": "219",
																		"length": "4",
																		"children": [
																			{
																				"type": "480000",
																				"label": "NULL",
																				"typeLabel": "GenericString",
																				"pos": "219",
																				"length": "4",
																				"children": []
																			}
																		]
																	}
																]
															}
														]
													}
												]
											}
										]
									}
								]
							}
						]
					}
				]
			},
			{
				"type": "450200",
				"typeLabel": "Definition",
				"pos": "229",
				"length": "147",
				"children": [
					{
						"type": "380000",
						"typeLabel": "Definition",
						"pos": "229",
						"length": "147",
						"children": [
							{
								"type": "200000",
								"typeLabel": "ParamList",
								"pos": "248",
								"length": "2",
								"children": []
							},
							{
								"type": "480000",
								"label": "random_64b",
								"typeLabel": "GenericString",
								"pos": "238",
								"length": "10",
								"children": []
							},
							{
								"type": "330000",
								"typeLabel": "Compound",
								"pos": "251",
								"length": "125",
								"children": [
									{
										"type": "350100",
										"typeLabel": "DeclList",
										"pos": "255",
										"length": "11",
										"children": [
											{
												"type": "480000",
												"label": "r",
												"typeLabel": "GenericString",
												"pos": "264",
												"length": "1",
												"children": []
											}
										]
									},
									{
										"type": "260300",
										"typeLabel": "ExprStatement",
										"pos": "311",
										"length": "17",
										"children": [
											{
												"type": "290100",
												"typeLabel": "Some",
												"pos": "311",
												"length": "17",
												"children": [
													{
														"type": "240700",
														"typeLabel": "Assignment",
														"pos": "311",
														"length": "16",
														"children": [
															{
																"type": "240100",
																"typeLabel": "Ident",
																"pos": "311",
																"length": "1",
																"children": [
																	{
																		"type": "480000",
																		"label": "r",
																		"typeLabel": "GenericString",
																		"pos": "311",
																		"length": "1",
																		"children": []
																	}
																]
															},
															{
																"type": "480000",
																"label": "=",
																"typeLabel": "GenericString",
																"pos": "313",
																"length": "1",
																"children": []
															},
															{
																"type": "240400",
																"typeLabel": "FunCall",
																"pos": "315",
																"length": "12",
																"children": [
																	{
																		"type": "240100",
																		"typeLabel": "Ident",
																		"pos": "315",
																		"length": "10",
																		"children": [
																			{
																				"type": "480000",
																				"label": "random_int",
																				"typeLabel": "GenericString",
																				"pos": "315",
																				"length": "10",
																				"children": []
																			}
																		]
																	},
																	{
																		"type": "470000",
																		"typeLabel": "GenericList",
																		"pos": "325",
																		"length": "2",
																		"children": []
																	}
																]
															}
														]
													},
													{
														"type": "480000",
														"label": ";",
														"typeLabel": "GenericString",
														"pos": "327",
														"length": "1",
														"children": []
													}
												]
											}
										]
									},
									{
										"type": "260300",
										"typeLabel": "ExprStatement",
										"pos": "331",
										"length": "9",
										"children": [
											{
												"type": "290100",
												"typeLabel": "Some",
												"pos": "331",
												"length": "9",
												"children": [
													{
														"type": "240700",
														"typeLabel": "Assignment",
														"pos": "331",
														"length": "8",
														"children": [
															{
																"type": "240100",
																"typeLabel": "Ident",
																"pos": "331",
																"length": "1",
																"children": [
																	{
																		"type": "480000",
																		"label": "r",
																		"typeLabel": "GenericString",
																		"pos": "331",
																		"length": "1",
																		"children": []
																	}
																]
															},
															{
																"type": "480000",
																"label": "<<=",
																"typeLabel": "GenericString",
																"pos": "333",
																"length": "3",
																"children": []
															},
															{
																"type": "240200",
																"label": "32",
																"typeLabel": "Constant",
																"pos": "337",
																"length": "2",
																"children": []
															}
														]
													},
													{
														"type": "480000",
														"label": ";",
														"typeLabel": "GenericString",
														"pos": "339",
														"length": "1",
														"children": []
													}
												]
											}
										]
									},
									{
										"type": "260300",
										"typeLabel": "ExprStatement",
										"pos": "343",
										"length": "18",
										"children": [
											{
												"type": "290100",
												"typeLabel": "Some",
												"pos": "343",
												"length": "18",
												"children": [
													{
														"type": "240700",
														"typeLabel": "Assignment",
														"pos": "343",
														"length": "17",
														"children": [
															{
																"type": "240100",
																"typeLabel": "Ident",
																"pos": "343",
																"length": "1",
																"children": [
																	{
																		"type": "480000",
																		"label": "r",
																		"typeLabel": "GenericString",
																		"pos": "343",
																		"length": "1",
																		"children": []
																	}
																]
															},
															{
																"type": "480000",
																"label": "|=",
																"typeLabel": "GenericString",
																"pos": "345",
																"length": "2",
																"children": []
															},
															{
																"type": "240400",
																"typeLabel": "FunCall",
																"pos": "348",
																"length": "12",
																"children": [
																	{
																		"type": "240100",
																		"typeLabel": "Ident",
																		"pos": "348",
																		"length": "10",
																		"children": [
																			{
																				"type": "480000",
																				"label": "random_int",
																				"typeLabel": "GenericString",
																				"pos": "348",
																				"length": "10",
																				"children": []
																			}
																		]
																	},
																	{
																		"type": "470000",
																		"typeLabel": "GenericList",
																		"pos": "358",
																		"length": "2",
																		"children": []
																	}
																]
															}
														]
													},
													{
														"type": "480000",
														"label": ";",
														"typeLabel": "GenericString",
														"pos": "360",
														"length": "1",
														"children": []
													}
												]
											}
										]
									},
									{
										"type": "280200",
										"typeLabel": "ReturnExpr",
										"pos": "365",
										"length": "9",
										"children": [
											{
												"type": "240100",
												"typeLabel": "Ident",
												"pos": "372",
												"length": "1",
												"children": [
													{
														"type": "480000",
														"label": "r",
														"typeLabel": "GenericString",
														"pos": "372",
														"length": "1",
														"children": []
													}
												]
											}
										]
									}
								]
							}
						]
					}
				]
			},
			{
				"type": "450200",
				"typeLabel": "Definition",
				"pos": "378",
				"length": "88",
				"children": [
					{
						"type": "380000",
						"typeLabel": "Definition",
						"pos": "378",
						"length": "88",
						"children": [
							{
								"type": "200000",
								"typeLabel": "ParamList",
								"pos": "389",
								"length": "22",
								"children": [
									{
										"type": "220100",
										"typeLabel": "ParameterType",
										"pos": "390",
										"length": "9",
										"children": [
											{
												"type": "480000",
												"label": "a",
												"typeLabel": "GenericString",
												"pos": "398",
												"length": "1",
												"children": []
											}
										]
									},
									{
										"type": "220100",
										"typeLabel": "ParameterType",
										"pos": "401",
										"length": "9",
										"children": [
											{
												"type": "480000",
												"label": "b",
												"typeLabel": "GenericString",
												"pos": "409",
												"length": "1",
												"children": []
											}
										]
									}
								]
							},
							{
								"type": "480000",
								"label": "ipp_eq",
								"typeLabel": "GenericString",
								"pos": "383",
								"length": "6",
								"children": []
							},
							{
								"type": "330000",
								"typeLabel": "Compound",
								"pos": "412",
								"length": "54",
								"children": [
									{
										"type": "280200",
										"typeLabel": "ReturnExpr",
										"pos": "416",
										"length": "48",
										"children": [
											{
												"type": "241100",
												"typeLabel": "Binary",
												"pos": "423",
												"length": "40",
												"children": [
													{
														"type": "242000",
														"typeLabel": "ParenExpr",
														"pos": "423",
														"length": "18",
														"children": [
															{
																"type": "241100",
																"typeLabel": "Binary",
																"pos": "424",
																"length": "16",
																"children": [
																	{
																		"type": "241300",
																		"typeLabel": "RecordAccess",
																		"pos": "424",
																		"length": "6",
																		"children": [
																			{
																				"type": "241300",
																				"typeLabel": "RecordAccess",
																				"pos": "424",
																				"length": "4",
																				"children": [
																					{
																						"type": "240100",
																						"typeLabel": "Ident",
																						"pos": "424",
																						"length": "1",
																						"children": [
																							{
																								"type": "480000",
																								"label": "a",
																								"typeLabel": "GenericString",
																								"pos": "424",
																								"length": "1",
																								"children": []
																							}
																						]
																					},
																					{
																						"type": "480000",
																						"label": "ip",
																						"typeLabel": "GenericString",
																						"pos": "426",
																						"length": "2",
																						"children": []
																					}
																				]
																			},
																			{
																				"type": "480000",
																				"label": "i",
																				"typeLabel": "GenericString",
																				"pos": "429",
																				"length": "1",
																				"children": []
																			}
																		]
																	},
																	{
																		"type": "480000",
																		"label": "==",
																		"typeLabel": "GenericString",
																		"pos": "431",
																		"length": "2",
																		"children": []
																	},
																	{
																		"type": "241300",
																		"typeLabel": "RecordAccess",
																		"pos": "434",
																		"length": "6",
																		"children": [
																			{
																				"type": "241300",
																				"typeLabel": "RecordAccess",
																				"pos": "434",
																				"length": "4",
																				"children": [
																					{
																						"type": "240100",
																						"typeLabel": "Ident",
																						"pos": "434",
																						"length": "1",
																						"children": [
																							{
																								"type": "480000",
																								"label": "b",
																								"typeLabel": "GenericString",
																								"pos": "434",
																								"length": "1",
																								"children": []
																							}
																						]
																					},
																					{
																						"type": "480000",
																						"label": "ip",
																						"typeLabel": "GenericString",
																						"pos": "436",
																						"length": "2",
																						"children": []
																					}
																				]
																			},
																			{
																				"type": "480000",
																				"label": "i",
																				"typeLabel": "GenericString",
																				"pos": "439",
																				"length": "1",
																				"children": []
																			}
																		]
																	}
																]
															}
														]
													},
													{
														"type": "480000",
														"label": "&&",
														"typeLabel": "GenericString",
														"pos": "442",
														"length": "2",
														"children": []
													},
													{
														"type": "242000",
														"typeLabel": "ParenExpr",
														"pos": "445",
														"length": "18",
														"children": [
															{
																"type": "241100",
																"typeLabel": "Binary",
																"pos": "446",
																"length": "16",
																"children": [
																	{
																		"type": "241300",
																		"typeLabel": "RecordAccess",
																		"pos": "446",
																		"length": "6",
																		"children": [
																			{
																				"type": "240100",
																				"typeLabel": "Ident",
																				"pos": "446",
																				"length": "1",
																				"children": [
																					{
																						"type": "480000",
																						"label": "a",
																						"typeLabel": "GenericString",
																						"pos": "446",
																						"length": "1",
																						"children": []
																					}
																				]
																			},
																			{
																				"type": "480000",
																				"label": "port",
																				"typeLabel": "GenericString",
																				"pos": "448",
																				"length": "4",
																				"children": []
																			}
																		]
																	},
																	{
																		"type": "480000",
																		"label": "==",
																		"typeLabel": "GenericString",
																		"pos": "453",
																		"length": "2",
																		"children": []
																	},
																	{
																		"type": "241300",
																		"typeLabel": "RecordAccess",
																		"pos": "456",
																		"length": "6",
																		"children": [
																			{
																				"type": "240100",
																				"typeLabel": "Ident",
																				"pos": "456",
																				"length": "1",
																				"children": [
																					{
																						"type": "480000",
																						"label": "b",
																						"typeLabel": "GenericString",
																						"pos": "456",
																						"length": "1",
																						"children": []
																					}
																				]
																			},
																			{
																				"type": "480000",
																				"label": "port",
																				"typeLabel": "GenericString",
																				"pos": "458",
																				"length": "4",
																				"children": []
																			}
																		]
																	}
																]
															}
														]
													}
												]
											}
										]
									}
								]
							}
						]
					}
				]
			},
			{
				"type": "450800",
				"typeLabel": "FinalDef",
				"pos": "467",
				"length": "0",
				"children": []
			}
		]
	}
}