{
	"root": {
		"type": "460000",
		"typeLabel": "Program",
		"pos": "106",
		"length": "377",
		"children": [
			{
				"type": "450300",
				"typeLabel": "CppTop",
				"pos": "106",
				"length": "17",
				"children": [
					{
						"type": "400200",
						"typeLabel": "Include",
						"pos": "106",
						"length": "17",
						"children": [
							{
								"type": "480000",
								"label": "<time.h>",
								"typeLabel": "GenericString",
								"pos": "115",
								"length": "8",
								"children": []
							}
						]
					}
				]
			},
			{
				"type": "450300",
				"typeLabel": "CppTop",
				"pos": "124",
				"length": "19",
				"children": [
					{
						"type": "400200",
						"typeLabel": "Include",
						"pos": "124",
						"length": "19",
						"children": [
							{
								"type": "480000",
								"label": "<stdint.h>",
								"typeLabel": "GenericString",
								"pos": "133",
								"length": "10",
								"children": []
							}
						]
					}
				]
			},
			{
				"type": "450300",
				"typeLabel": "CppTop",
				"pos": "144",
				"length": "20",
				"children": [
					{
						"type": "400200",
						"typeLabel": "Include",
						"pos": "144",
						"length": "20",
						"children": [
							{
								"type": "480000",
								"label": "<stdbool.h>",
								"typeLabel": "GenericString",
								"pos": "153",
								"length": "11",
								"children": []
							}
						]
					}
				]
			},
			{
				"type": "450300",
				"typeLabel": "CppTop",
				"pos": "166",
				"length": "20",
				"children": [
					{
						"type": "400200",
						"typeLabel": "Include",
						"pos": "166",
						"length": "20",
						"children": [
							{
								"type": "480000",
								"label": "\"network.h\"",
								"typeLabel": "GenericString",
								"pos": "175",
								"length": "11",
								"children": []
							}
						]
					}
				]
			},
			{
				"type": "450200",
				"typeLabel": "Definition",
				"pos": "188",
				"length": "41",
				"children": [
					{
						"type": "380000",
						"typeLabel": "Definition",
						"pos": "188",
						"length": "41",
						"children": [
							{
								"type": "200000",
								"typeLabel": "ParamList",
								"pos": "200",
								"length": "2",
								"children": []
							},
							{
								"type": "480000",
								"label": "now",
								"typeLabel": "GenericString",
								"pos": "197",
								"length": "3",
								"children": []
							},
							{
								"type": "330000",
								"typeLabel": "Compound",
								"pos": "203",
								"length": "26",
								"children": [
									{
										"type": "280200",
										"typeLabel": "ReturnExpr",
										"pos": "209",
										"length": "18",
										"children": [
											{
												"type": "240400",
												"typeLabel": "FunCall",
												"pos": "216",
												"length": "10",
												"children": [
													{
														"type": "240100",
														"typeLabel": "Ident",
														"pos": "216",
														"length": "4",
														"children": [
															{
																"type": "480000",
																"label": "time",
																"typeLabel": "GenericString",
																"pos": "216",
																"length": "4",
																"children": []
															}
														]
													},
													{
														"type": "470000",
														"typeLabel": "GenericList",
														"pos": "220",
														"length": "6",
														"children": [
															{
																"type": "20100",
																"typeLabel": "Left",
																"pos": "221",
																"length": "4",
																"children": [
																	{
																		"type": "240100",
																		"typeLabel": "Ident",
																		"pos": "221",
																		"length": "4",
																		"children": [
																			{
																				"type": "480000",
																				"label": "NULL",
																				"typeLabel": "GenericString",
																				"pos": "221",
																				"length": "4",
																				"children": []
																			}
																		]
																	}
																]
															}
														]
													}
												]
											}
										]
									}
								]
							}
						]
					}
				]
			},
			{
				"type": "450200",
				"typeLabel": "Definition",
				"pos": "231",
				"length": "159",
				"children": [
					{
						"type": "380000",
						"typeLabel": "Definition",
						"pos": "231",
						"length": "159",
						"children": [
							{
								"type": "200000",
								"typeLabel": "ParamList",
								"pos": "250",
								"length": "2",
								"children": []
							},
							{
								"type": "480000",
								"label": "random_64b",
								"typeLabel": "GenericString",
								"pos": "240",
								"length": "10",
								"children": []
							},
							{
								"type": "330000",
								"typeLabel": "Compound",
								"pos": "253",
								"length": "137",
								"children": [
									{
										"type": "350100",
										"typeLabel": "DeclList",
										"pos": "259",
										"length": "11",
										"children": [
											{
												"type": "480000",
												"label": "r",
												"typeLabel": "GenericString",
												"pos": "268",
												"length": "1",
												"children": []
											}
										]
									},
									{
										"type": "260300",
										"typeLabel": "ExprStatement",
										"pos": "319",
										"length": "17",
										"children": [
											{
												"type": "290100",
												"typeLabel": "Some",
												"pos": "319",
												"length": "17",
												"children": [
													{
														"type": "240700",
														"typeLabel": "Assignment",
														"pos": "319",
														"length": "16",
														"children": [
															{
																"type": "240100",
																"typeLabel": "Ident",
																"pos": "319",
																"length": "1",
																"children": [
																	{
																		"type": "480000",
																		"label": "r",
																		"typeLabel": "GenericString",
																		"pos": "319",
																		"length": "1",
																		"children": []
																	}
																]
															},
															{
																"type": "480000",
																"label": "=",
																"typeLabel": "GenericString",
																"pos": "321",
																"length": "1",
																"children": []
															},
															{
																"type": "240400",
																"typeLabel": "FunCall",
																"pos": "323",
																"length": "12",
																"children": [
																	{
																		"type": "240100",
																		"typeLabel": "Ident",
																		"pos": "323",
																		"length": "10",
																		"children": [
																			{
																				"type": "480000",
																				"label": "random_int",
																				"typeLabel": "GenericString",
																				"pos": "323",
																				"length": "10",
																				"children": []
																			}
																		]
																	},
																	{
																		"type": "470000",
																		"typeLabel": "GenericList",
																		"pos": "333",
																		"length": "2",
																		"children": []
																	}
																]
															}
														]
													},
													{
														"type": "480000",
														"label": ";",
														"typeLabel": "GenericString",
														"pos": "335",
														"length": "1",
														"children": []
													}
												]
											}
										]
									},
									{
										"type": "260300",
										"typeLabel": "ExprStatement",
										"pos": "341",
										"length": "9",
										"children": [
											{
												"type": "290100",
												"typeLabel": "Some",
												"pos": "341",
												"length": "9",
												"children": [
													{
														"type": "240700",
														"typeLabel": "Assignment",
														"pos": "341",
														"length": "8",
														"children": [
															{
																"type": "240100",
																"typeLabel": "Ident",
																"pos": "341",
																"length": "1",
																"children": [
																	{
																		"type": "480000",
																		"label": "r",
																		"typeLabel": "GenericString",
																		"pos": "341",
																		"length": "1",
																		"children": []
																	}
																]
															},
															{
																"type": "480000",
																"label": "<<=",
																"typeLabel": "GenericString",
																"pos": "343",
																"length": "3",
																"children": []
															},
															{
																"type": "240200",
																"label": "32",
																"typeLabel": "Constant",
																"pos": "347",
																"length": "2",
																"children": []
															}
														]
													},
													{
														"type": "480000",
														"label": ";",
														"typeLabel": "GenericString",
														"pos": "349",
														"length": "1",
														"children": []
													}
												]
											}
										]
									},
									{
										"type": "260300",
										"typeLabel": "ExprStatement",
										"pos": "355",
										"length": "18",
										"children": [
											{
												"type": "290100",
												"typeLabel": "Some",
												"pos": "355",
												"length": "18",
												"children": [
													{
														"type": "240700",
														"typeLabel": "Assignment",
														"pos": "355",
														"length": "17",
														"children": [
															{
																"type": "240100",
																"typeLabel": "Ident",
																"pos": "355",
																"length": "1",
																"children": [
																	{
																		"type": "480000",
																		"label": "r",
																		"typeLabel": "GenericString",
																		"pos": "355",
																		"length": "1",
																		"children": []
																	}
																]
															},
															{
																"type": "480000",
																"label": "|=",
																"typeLabel": "GenericString",
																"pos": "357",
																"length": "2",
																"children": []
															},
															{
																"type": "240400",
																"typeLabel": "FunCall",
																"pos": "360",
																"length": "12",
																"children": [
																	{
																		"type": "240100",
																		"typeLabel": "Ident",
																		"pos": "360",
																		"length": "10",
																		"children": [
																			{
																				"type": "480000",
																				"label": "random_int",
																				"typeLabel": "GenericString",
																				"pos": "360",
																				"length": "10",
																				"children": []
																			}
																		]
																	},
																	{
																		"type": "470000",
																		"typeLabel": "GenericList",
																		"pos": "370",
																		"length": "2",
																		"children": []
																	}
																]
															}
														]
													},
													{
														"type": "480000",
														"label": ";",
														"typeLabel": "GenericString",
														"pos": "372",
														"length": "1",
														"children": []
													}
												]
											}
										]
									},
									{
										"type": "280200",
										"typeLabel": "ReturnExpr",
										"pos": "379",
										"length": "9",
										"children": [
											{
												"type": "240100",
												"typeLabel": "Ident",
												"pos": "386",
												"length": "1",
												"children": [
													{
														"type": "480000",
														"label": "r",
														"typeLabel": "GenericString",
														"pos": "386",
														"length": "1",
														"children": []
													}
												]
											}
										]
									}
								]
							}
						]
					}
				]
			},
			{
				"type": "450200",
				"typeLabel": "Definition",
				"pos": "392",
				"length": "90",
				"children": [
					{
						"type": "380000",
						"typeLabel": "Definition",
						"pos": "392",
						"length": "90",
						"children": [
							{
								"type": "200000",
								"typeLabel": "ParamList",
								"pos": "403",
								"length": "22",
								"children": [
									{
										"type": "220100",
										"typeLabel": "ParameterType",
										"pos": "404",
										"length": "9",
										"children": [
											{
												"type": "480000",
												"label": "a",
												"typeLabel": "GenericString",
												"pos": "412",
												"length": "1",
												"children": []
											}
										]
									},
									{
										"type": "220100",
										"typeLabel": "ParameterType",
										"pos": "415",
										"length": "9",
										"children": [
											{
												"type": "480000",
												"label": "b",
												"typeLabel": "GenericString",
												"pos": "423",
												"length": "1",
												"children": []
											}
										]
									}
								]
							},
							{
								"type": "480000",
								"label": "ipp_eq",
								"typeLabel": "GenericString",
								"pos": "397",
								"length": "6",
								"children": []
							},
							{
								"type": "330000",
								"typeLabel": "Compound",
								"pos": "426",
								"length": "56",
								"children": [
									{
										"type": "280200",
										"typeLabel": "ReturnExpr",
										"pos": "432",
										"length": "48",
										"children": [
											{
												"type": "241100",
												"typeLabel": "Binary",
												"pos": "439",
												"length": "40",
												"children": [
													{
														"type": "242000",
														"typeLabel": "ParenExpr",
														"pos": "439",
														"length": "18",
														"children": [
															{
																"type": "241100",
																"typeLabel": "Binary",
																"pos": "440",
																"length": "16",
																"children": [
																	{
																		"type": "241300",
																		"typeLabel": "RecordAccess",
																		"pos": "440",
																		"length": "6",
																		"children": [
																			{
																				"type": "241300",
																				"typeLabel": "RecordAccess",
																				"pos": "440",
																				"length": "4",
																				"children": [
																					{
																						"type": "240100",
																						"typeLabel": "Ident",
																						"pos": "440",
																						"length": "1",
																						"children": [
																							{
																								"type": "480000",
																								"label": "a",
																								"typeLabel": "GenericString",
																								"pos": "440",
																								"length": "1",
																								"children": []
																							}
																						]
																					},
																					{
																						"type": "480000",
																						"label": "ip",
																						"typeLabel": "GenericString",
																						"pos": "442",
																						"length": "2",
																						"children": []
																					}
																				]
																			},
																			{
																				"type": "480000",
																				"label": "i",
																				"typeLabel": "GenericString",
																				"pos": "445",
																				"length": "1",
																				"children": []
																			}
																		]
																	},
																	{
																		"type": "480000",
																		"label": "==",
																		"typeLabel": "GenericString",
																		"pos": "447",
																		"length": "2",
																		"children": []
																	},
																	{
																		"type": "241300",
																		"typeLabel": "RecordAccess",
																		"pos": "450",
																		"length": "6",
																		"children": [
																			{
																				"type": "241300",
																				"typeLabel": "RecordAccess",
																				"pos": "450",
																				"length": "4",
																				"children": [
																					{
																						"type": "240100",
																						"typeLabel": "Ident",
																						"pos": "450",
																						"length": "1",
																						"children": [
																							{
																								"type": "480000",
																								"label": "b",
																								"typeLabel": "GenericString",
																								"pos": "450",
																								"length": "1",
																								"children": []
																							}
																						]
																					},
																					{
																						"type": "480000",
																						"label": "ip",
																						"typeLabel": "GenericString",
																						"pos": "452",
																						"length": "2",
																						"children": []
																					}
																				]
																			},
																			{
																				"type": "480000",
																				"label": "i",
																				"typeLabel": "GenericString",
																				"pos": "455",
																				"length": "1",
																				"children": []
																			}
																		]
																	}
																]
															}
														]
													},
													{
														"type": "480000",
														"label": "&&",
														"typeLabel": "GenericString",
														"pos": "458",
														"length": "2",
														"children": []
													},
													{
														"type": "242000",
														"typeLabel": "ParenExpr",
														"pos": "461",
														"length": "18",
														"children": [
															{
																"type": "241100",
																"typeLabel": "Binary",
																"pos": "462",
																"length": "16",
																"children": [
																	{
																		"type": "241300",
																		"typeLabel": "RecordAccess",
																		"pos": "462",
																		"length": "6",
																		"children": [
																			{
																				"type": "240100",
																				"typeLabel": "Ident",
																				"pos": "462",
																				"length": "1",
																				"children": [
																					{
																						"type": "480000",
																						"label": "a",
																						"typeLabel": "GenericString",
																						"pos": "462",
																						"length": "1",
																						"children": []
																					}
																				]
																			},
																			{
																				"type": "480000",
																				"label": "port",
																				"typeLabel": "GenericString",
																				"pos": "464",
																				"length": "4",
																				"children": []
																			}
																		]
																	},
																	{
																		"type": "480000",
																		"label": "==",
																		"typeLabel": "GenericString",
																		"pos": "469",
																		"length": "2",
																		"children": []
																	},
																	{
																		"type": "241300",
																		"typeLabel": "RecordAccess",
																		"pos": "472",
																		"length": "6",
																		"children": [
																			{
																				"type": "240100",
																				"typeLabel": "Ident",
																				"pos": "472",
																				"length": "1",
																				"children": [
																					{
																						"type": "480000",
																						"label": "b",
																						"typeLabel": "GenericString",
																						"pos": "472",
																						"length": "1",
																						"children": []
																					}
																				]
																			},
																			{
																				"type": "480000",
																				"label": "port",
																				"typeLabel": "GenericString",
																				"pos": "474",
																				"length": "4",
																				"children": []
																			}
																		]
																	}
																]
															}
														]
													}
												]
											}
										]
									}
								]
							}
						]
					}
				]
			},
			{
				"type": "450800",
				"typeLabel": "FinalDef",
				"pos": "483",
				"length": "0",
				"children": []
			}
		]
	}
}