{
	"root": {
		"type": "460000",
		"typeLabel": "Program",
		"pos": "763",
		"length": "2070",
		"children": [
			{
				"type": "450300",
				"typeLabel": "CppTop",
				"pos": "763",
				"length": "22",
				"children": [
					{
						"type": "400200",
						"typeLabel": "Include",
						"pos": "763",
						"length": "22",
						"children": [
							{
								"type": "480000",
								"label": "<linux/pci.h>",
								"typeLabel": "GenericString",
								"pos": "772",
								"length": "13",
								"children": []
							}
						]
					}
				]
			},
			{
				"type": "450300",
				"typeLabel": "CppTop",
				"pos": "786",
				"length": "20",
				"children": [
					{
						"type": "400200",
						"typeLabel": "Include",
						"pos": "786",
						"length": "20",
						"children": [
							{
								"type": "480000",
								"label": "<xen/xen.h>",
								"typeLabel": "GenericString",
								"pos": "795",
								"length": "11",
								"children": []
							}
						]
					}
				]
			},
			{
				"type": "450300",
				"typeLabel": "CppTop",
				"pos": "807",
				"length": "34",
				"children": [
					{
						"type": "400200",
						"typeLabel": "Include",
						"pos": "807",
						"length": "34",
						"children": [
							{
								"type": "480000",
								"label": "<xen/interface/physdev.h>",
								"typeLabel": "GenericString",
								"pos": "816",
								"length": "25",
								"children": []
							}
						]
					}
				]
			},
			{
				"type": "450300",
				"typeLabel": "CppTop",
				"pos": "842",
				"length": "30",
				"children": [
					{
						"type": "400200",
						"typeLabel": "Include",
						"pos": "842",
						"length": "30",
						"children": [
							{
								"type": "480000",
								"label": "<xen/interface/xen.h>",
								"typeLabel": "GenericString",
								"pos": "851",
								"length": "21",
								"children": []
							}
						]
					}
				]
			},
			{
				"type": "450300",
				"typeLabel": "CppTop",
				"pos": "874",
				"length": "31",
				"children": [
					{
						"type": "400200",
						"typeLabel": "Include",
						"pos": "874",
						"length": "31",
						"children": [
							{
								"type": "480000",
								"label": "<asm/xen/hypervisor.h>",
								"typeLabel": "GenericString",
								"pos": "883",
								"length": "22",
								"children": []
							}
						]
					}
				]
			},
			{
				"type": "450300",
				"typeLabel": "CppTop",
				"pos": "906",
				"length": "30",
				"children": [
					{
						"type": "400200",
						"typeLabel": "Include",
						"pos": "906",
						"length": "30",
						"children": [
							{
								"type": "480000",
								"label": "<asm/xen/hypercall.h>",
								"typeLabel": "GenericString",
								"pos": "915",
								"length": "21",
								"children": []
							}
						]
					}
				]
			},
			{
				"type": "450300",
				"typeLabel": "CppTop",
				"pos": "937",
				"length": "23",
				"children": [
					{
						"type": "400200",
						"typeLabel": "Include",
						"pos": "937",
						"length": "23",
						"children": [
							{
								"type": "480000",
								"label": "\"../pci/pci.h\"",
								"typeLabel": "GenericString",
								"pos": "946",
								"length": "14",
								"children": []
							}
						]
					}
				]
			},
			{
				"type": "450200",
				"typeLabel": "Definition",
				"pos": "962",
				"length": "962",
				"children": [
					{
						"type": "380000",
						"typeLabel": "Definition",
						"pos": "962",
						"length": "962",
						"children": [
							{
								"type": "340000",
								"typeLabel": "Storage",
								"pos": "962",
								"length": "6",
								"children": [
									{
										"type": "480000",
										"label": "static",
										"typeLabel": "GenericString",
										"pos": "962",
										"length": "6",
										"children": []
									}
								]
							},
							{
								"type": "200000",
								"typeLabel": "ParamList",
								"pos": "987",
								"length": "20",
								"children": [
									{
										"type": "220100",
										"typeLabel": "ParameterType",
										"pos": "988",
										"length": "18",
										"children": [
											{
												"type": "480000",
												"label": "dev",
												"typeLabel": "GenericString",
												"pos": "1003",
												"length": "3",
												"children": []
											}
										]
									}
								]
							},
							{
								"type": "480000",
								"label": "xen_add_device",
								"typeLabel": "GenericString",
								"pos": "973",
								"length": "14",
								"children": []
							},
							{
								"type": "330000",
								"typeLabel": "Compound",
								"pos": "1008",
								"length": "916",
								"children": [
									{
										"type": "350100",
										"typeLabel": "DeclList",
										"pos": "1011",
										"length": "6",
										"children": [
											{
												"type": "480000",
												"label": "r",
												"typeLabel": "GenericString",
												"pos": "1015",
												"length": "1",
												"children": []
											}
										]
									},
									{
										"type": "350100",
										"typeLabel": "DeclList",
										"pos": "1019",
										"length": "42",
										"children": [
											{
												"type": "480000",
												"label": "pci_dev",
												"typeLabel": "GenericString",
												"pos": "1035",
												"length": "7",
												"children": []
											},
											{
												"type": "360100",
												"typeLabel": "InitExpr",
												"pos": "1045",
												"length": "15",
												"children": [
													{
														"type": "240400",
														"typeLabel": "FunCall",
														"pos": "1045",
														"length": "15",
														"children": [
															{
																"type": "240100",
																"typeLabel": "Ident",
																"pos": "1045",
																"length": "10",
																"children": [
																	{
																		"type": "480000",
																		"label": "to_pci_dev",
																		"typeLabel": "GenericString",
																		"pos": "1045",
																		"length": "10",
																		"children": []
																	}
																]
															},
															{
																"type": "470000",
																"typeLabel": "GenericList",
																"pos": "1055",
																"length": "5",
																"children": [
																	{
																		"type": "20100",
																		"typeLabel": "Left",
																		"pos": "1056",
																		"length": "3",
																		"children": [
																			{
																				"type": "240100",
																				"typeLabel": "Ident",
																				"pos": "1056",
																				"length": "3",
																				"children": [
																					{
																						"type": "480000",
																						"label": "dev",
																						"typeLabel": "GenericString",
																						"pos": "1056",
																						"length": "3",
																						"children": []
																					}
																				]
																			}
																		]
																	}
																]
															}
														]
													}
												]
											}
										]
									},
									{
										"type": "300100",
										"typeLabel": "If",
										"pos": "1086",
										"length": "824",
										"children": [
											{
												"type": "490100",
												"typeLabel": "IfToken",
												"pos": "1086",
												"length": "2",
												"children": []
											},
											{
												"type": "241400",
												"typeLabel": "RecordPtAccess",
												"pos": "1090",
												"length": "18",
												"children": [
													{
														"type": "240100",
														"typeLabel": "Ident",
														"pos": "1090",
														"length": "7",
														"children": [
															{
																"type": "480000",
																"label": "pci_dev",
																"typeLabel": "GenericString",
																"pos": "1090",
																"length": "7",
																"children": []
															}
														]
													},
													{
														"type": "480000",
														"label": "is_virtfn",
														"typeLabel": "GenericString",
														"pos": "1099",
														"length": "9",
														"children": []
													}
												]
											},
											{
												"type": "330000",
												"typeLabel": "Compound",
												"pos": "1110",
												"length": "312",
												"children": [
													{
														"type": "350100",
														"typeLabel": "DeclList",
														"pos": "1114",
														"length": "225",
														"children": [
															{
																"type": "480000",
																"label": "manage_pci_ext",
																"typeLabel": "GenericString",
																"pos": "1144",
																"length": "14",
																"children": []
															},
															{
																"type": "360200",
																"typeLabel": "InitList",
																"pos": "1161",
																"length": "177",
																"children": [
																	{
																		"type": "360300",
																		"typeLabel": "InitDesignators",
																		"pos": "1166",
																		"length": "28",
																		"children": [
																			{
																				"type": "370100",
																				"label": "bus",
																				"typeLabel": "DesignatorField",
																				"pos": "1166",
																				"length": "4",
																				"children": []
																			},
																			{
																				"type": "360100",
																				"typeLabel": "InitExpr",
																				"pos": "1174",
																				"length": "20",
																				"children": [
																					{
																						"type": "241400",
																						"typeLabel": "RecordPtAccess",
																						"pos": "1174",
																						"length": "20",
																						"children": [
																							{
																								"type": "241400",
																								"typeLabel": "RecordPtAccess",
																								"pos": "1174",
																								"length": "12",
																								"children": [
																									{
																										"type": "240100",
																										"typeLabel": "Ident",
																										"pos": "1174",
																										"length": "7",
																										"children": [
																											{
																												"type": "480000",
																												"label": "pci_dev",
																												"typeLabel": "GenericString",
																												"pos": "1174",
																												"length": "7",
																												"children": []
																											}
																										]
																									},
																									{
																										"type": "480000",
																										"label": "bus",
																										"typeLabel": "GenericString",
																										"pos": "1183",
																										"length": "3",
																										"children": []
																									}
																								]
																							},
																							{
																								"type": "480000",
																								"label": "number",
																								"typeLabel": "GenericString",
																								"pos": "1188",
																								"length": "6",
																								"children": []
																							}
																						]
																					}
																				]
																			}
																		]
																	},
																	{
																		"type": "360300",
																		"typeLabel": "InitDesignators",
																		"pos": "1199",
																		"length": "24",
																		"children": [
																			{
																				"type": "370100",
																				"label": "devfn",
																				"typeLabel": "DesignatorField",
																				"pos": "1199",
																				"length": "6",
																				"children": []
																			},
																			{
																				"type": "360100",
																				"typeLabel": "InitExpr",
																				"pos": "1209",
																				"length": "14",
																				"children": [
																					{
																						"type": "241400",
																						"typeLabel": "RecordPtAccess",
																						"pos": "1209",
																						"length": "14",
																						"children": [
																							{
																								"type": "240100",
																								"typeLabel": "Ident",
																								"pos": "1209",
																								"length": "7",
																								"children": [
																									{
																										"type": "480000",
																										"label": "pci_dev",
																										"typeLabel": "GenericString",
																										"pos": "1209",
																										"length": "7",
																										"children": []
																									}
																								]
																							},
																							{
																								"type": "480000",
																								"label": "devfn",
																								"typeLabel": "GenericString",
																								"pos": "1218",
																								"length": "5",
																								"children": []
																							}
																						]
																					}
																				]
																			}
																		]
																	},
																	{
																		"type": "360300",
																		"typeLabel": "InitDesignators",
																		"pos": "1228",
																		"length": "15",
																		"children": [
																			{
																				"type": "370100",
																				"label": "is_virtfn",
																				"typeLabel": "DesignatorField",
																				"pos": "1228",
																				"length": "10",
																				"children": []
																			},
																			{
																				"type": "360100",
																				"typeLabel": "InitExpr",
																				"pos": "1242",
																				"length": "1",
																				"children": [
																					{
																						"type": "240200",
																						"label": "1",
																						"typeLabel": "Constant",
																						"pos": "1242",
																						"length": "1",
																						"children": []
																					}
																				]
																			}
																		]
																	},
																	{
																		"type": "360300",
																		"typeLabel": "InitDesignators",
																		"pos": "1248",
																		"length": "42",
																		"children": [
																			{
																				"type": "370100",
																				"label": "physfn",
																				"typeLabel": "DesignatorField",
																				"pos": "1248",
																				"length": "7",
																				"children": []
																			},
																			{
																				"type": "370100",
																				"label": "bus",
																				"typeLabel": "DesignatorField",
																				"pos": "1255",
																				"length": "4",
																				"children": []
																			},
																			{
																				"type": "360100",
																				"typeLabel": "InitExpr",
																				"pos": "1262",
																				"length": "28",
																				"children": [
																					{
																						"type": "241400",
																						"typeLabel": "RecordPtAccess",
																						"pos": "1262",
																						"length": "28",
																						"children": [
																							{
																								"type": "241400",
																								"typeLabel": "RecordPtAccess",
																								"pos": "1262",
																								"length": "20",
																								"children": [
																									{
																										"type": "241400",
																										"typeLabel": "RecordPtAccess",
																										"pos": "1262",
																										"length": "15",
																										"children": [
																											{
																												"type": "240100",
																												"typeLabel": "Ident",
																												"pos": "1262",
																												"length": "7",
																												"children": [
																													{
																														"type": "480000",
																														"label": "pci_dev",
																														"typeLabel": "GenericString",
																														"pos": "1262",
																														"length": "7",
																														"children": []
																													}
																												]
																											},
																											{
																												"type": "480000",
																												"label": "physfn",
																												"typeLabel": "GenericString",
																												"pos": "1271",
																												"length": "6",
																												"children": []
																											}
																										]
																									},
																									{
																										"type": "480000",
																										"label": "bus",
																										"typeLabel": "GenericString",
																										"pos": "1279",
																										"length": "3",
																										"children": []
																									}
																								]
																							},
																							{
																								"type": "480000",
																								"label": "number",
																								"typeLabel": "GenericString",
																								"pos": "1284",
																								"length": "6",
																								"children": []
																							}
																						]
																					}
																				]
																			}
																		]
																	},
																	{
																		"type": "360300",
																		"typeLabel": "InitDesignators",
																		"pos": "1295",
																		"length": "38",
																		"children": [
																			{
																				"type": "370100",
																				"label": "physfn",
																				"typeLabel": "DesignatorField",
																				"pos": "1295",
																				"length": "7",
																				"children": []
																			},
																			{
																				"type": "370100",
																				"label": "devfn",
																				"typeLabel": "DesignatorField",
																				"pos": "1302",
																				"length": "6",
																				"children": []
																			},
																			{
																				"type": "360100",
																				"typeLabel": "InitExpr",
																				"pos": "1311",
																				"length": "22",
																				"children": [
																					{
																						"type": "241400",
																						"typeLabel": "RecordPtAccess",
																						"pos": "1311",
																						"length": "22",
																						"children": [
																							{
																								"type": "241400",
																								"typeLabel": "RecordPtAccess",
																								"pos": "1311",
																								"length": "15",
																								"children": [
																									{
																										"type": "240100",
																										"typeLabel": "Ident",
																										"pos": "1311",
																										"length": "7",
																										"children": [
																											{
																												"type": "480000",
																												"label": "pci_dev",
																												"typeLabel": "GenericString",
																												"pos": "1311",
																												"length": "7",
																												"children": []
																											}
																										]
																									},
																									{
																										"type": "480000",
																										"label": "physfn",
																										"typeLabel": "GenericString",
																										"pos": "1320",
																										"length": "6",
																										"children": []
																									}
																								]
																							},
																							{
																								"type": "480000",
																								"label": "devfn",
																								"typeLabel": "GenericString",
																								"pos": "1328",
																								"length": "5",
																								"children": []
																							}
																						]
																					}
																				]
																			}
																		]
																	}
																]
															}
														]
													},
													{
														"type": "260300",
														"typeLabel": "ExprStatement",
														"pos": "1343",
														"length": "76",
														"children": [
															{
																"type": "290100",
																"typeLabel": "Some",
																"pos": "1343",
																"length": "76",
																"children": [
																	{
																		"type": "240700",
																		"typeLabel": "Assignment",
																		"pos": "1343",
																		"length": "75",
																		"children": [
																			{
																				"type": "240100",
																				"typeLabel": "Ident",
																				"pos": "1343",
																				"length": "1",
																				"children": [
																					{
																						"type": "480000",
																						"label": "r",
																						"typeLabel": "GenericString",
																						"pos": "1343",
																						"length": "1",
																						"children": []
																					}
																				]
																			},
																			{
																				"type": "480000",
																				"label": "=",
																				"typeLabel": "GenericString",
																				"pos": "1345",
																				"length": "1",
																				"children": []
																			},
																			{
																				"type": "240400",
																				"typeLabel": "FunCall",
																				"pos": "1347",
																				"length": "71",
																				"children": [
																					{
																						"type": "240100",
																						"typeLabel": "Ident",
																						"pos": "1347",
																						"length": "21",
																						"children": [
																							{
																								"type": "480000",
																								"label": "HYPERVISOR_physdev_op",
																								"typeLabel": "GenericString",
																								"pos": "1347",
																								"length": "21",
																								"children": []
																							}
																						]
																					},
																					{
																						"type": "470000",
																						"typeLabel": "GenericList",
																						"pos": "1368",
																						"length": "50",
																						"children": [
																							{
																								"type": "20100",
																								"typeLabel": "Left",
																								"pos": "1369",
																								"length": "28",
																								"children": [
																									{
																										"type": "240100",
																										"typeLabel": "Ident",
																										"pos": "1369",
																										"length": "28",
																										"children": [
																											{
																												"type": "480000",
																												"label": "PHYSDEVOP_manage_pci_add_ext",
																												"typeLabel": "GenericString",
																												"pos": "1369",
																												"length": "28",
																												"children": []
																											}
																										]
																									}
																								]
																							},
																							{
																								"type": "20100",
																								"typeLabel": "Left",
																								"pos": "1402",
																								"length": "15",
																								"children": [
																									{
																										"type": "241000",
																										"typeLabel": "Unary",
																										"pos": "1402",
																										"length": "15",
																										"children": [
																											{
																												"type": "240100",
																												"typeLabel": "Ident",
																												"pos": "1403",
																												"length": "14",
																												"children": [
																													{
																														"type": "480000",
																														"label": "manage_pci_ext",
																														"typeLabel": "GenericString",
																														"pos": "1403",
																														"length": "14",
																														"children": []
																													}
																												]
																											},
																											{
																												"type": "480000",
																												"label": "&",
																												"typeLabel": "GenericString",
																												"pos": "1402",
																												"length": "1",
																												"children": []
																											}
																										]
																									}
																								]
																							}
																						]
																					}
																				]
																			}
																		]
																	},
																	{
																		"type": "480000",
																		"label": ";",
																		"typeLabel": "GenericString",
																		"pos": "1418",
																		"length": "1",
																		"children": []
																	}
																]
															}
														]
													}
												]
											},
											{
												"type": "300100",
												"typeLabel": "If",
												"pos": "1436",
												"length": "474",
												"children": [
													{
														"type": "490100",
														"typeLabel": "IfToken",
														"pos": "1436",
														"length": "2",
														"children": []
													},
													{
														"type": "241100",
														"typeLabel": "Binary",
														"pos": "1440",
														"length": "57",
														"children": [
															{
																"type": "240400",
																"typeLabel": "FunCall",
																"pos": "1440",
																"length": "29",
																"children": [
																	{
																		"type": "240100",
																		"typeLabel": "Ident",
																		"pos": "1440",
																		"length": "15",
																		"children": [
																			{
																				"type": "480000",
																				"label": "pci_ari_enabled",
																				"typeLabel": "GenericString",
																				"pos": "1440",
																				"length": "15",
																				"children": []
																			}
																		]
																	},
																	{
																		"type": "470000",
																		"typeLabel": "GenericList",
																		"pos": "1455",
																		"length": "14",
																		"children": [
																			{
																				"type": "20100",
																				"typeLabel": "Left",
																				"pos": "1456",
																				"length": "12",
																				"children": [
																					{
																						"type": "241400",
																						"typeLabel": "RecordPtAccess",
																						"pos": "1456",
																						"length": "12",
																						"children": [
																							{
																								"type": "240100",
																								"typeLabel": "Ident",
																								"pos": "1456",
																								"length": "7",
																								"children": [
																									{
																										"type": "480000",
																										"label": "pci_dev",
																										"typeLabel": "GenericString",
																										"pos": "1456",
																										"length": "7",
																										"children": []
																									}
																								]
																							},
																							{
																								"type": "480000",
																								"label": "bus",
																								"typeLabel": "GenericString",
																								"pos": "1465",
																								"length": "3",
																								"children": []
																							}
																						]
																					}
																				]
																			}
																		]
																	}
																]
															},
															{
																"type": "480000",
																"label": "&&",
																"typeLabel": "GenericString",
																"pos": "1470",
																"length": "2",
																"children": []
															},
															{
																"type": "240400",
																"typeLabel": "FunCall",
																"pos": "1473",
																"length": "24",
																"children": [
																	{
																		"type": "240100",
																		"typeLabel": "Ident",
																		"pos": "1473",
																		"length": "8",
																		"children": [
																			{
																				"type": "480000",
																				"label": "PCI_SLOT",
																				"typeLabel": "GenericString",
																				"pos": "1473",
																				"length": "8",
																				"children": []
																			}
																		]
																	},
																	{
																		"type": "470000",
																		"typeLabel": "GenericList",
																		"pos": "1481",
																		"length": "16",
																		"children": [
																			{
																				"type": "20100",
																				"typeLabel": "Left",
																				"pos": "1482",
																				"length": "14",
																				"children": [
																					{
																						"type": "241400",
																						"typeLabel": "RecordPtAccess",
																						"pos": "1482",
																						"length": "14",
																						"children": [
																							{
																								"type": "240100",
																								"typeLabel": "Ident",
																								"pos": "1482",
																								"length": "7",
																								"children": [
																									{
																										"type": "480000",
																										"label": "pci_dev",
																										"typeLabel": "GenericString",
																										"pos": "1482",
																										"length": "7",
																										"children": []
																									}
																								]
																							},
																							{
																								"type": "480000",
																								"label": "devfn",
																								"typeLabel": "GenericString",
																								"pos": "1491",
																								"length": "5",
																								"children": []
																							}
																						]
																					}
																				]
																			}
																		]
																	}
																]
															}
														]
													},
													{
														"type": "330000",
														"typeLabel": "Compound",
														"pos": "1499",
														"length": "220",
														"children": [
															{
																"type": "350100",
																"typeLabel": "DeclList",
																"pos": "1503",
																"length": "133",
																"children": [
																	{
																		"type": "480000",
																		"label": "manage_pci_ext",
																		"typeLabel": "GenericString",
																		"pos": "1533",
																		"length": "14",
																		"children": []
																	},
																	{
																		"type": "360200",
																		"typeLabel": "InitList",
																		"pos": "1550",
																		"length": "85",
																		"children": [
																			{
																				"type": "360300",
																				"typeLabel": "InitDesignators",
																				"pos": "1555",
																				"length": "28",
																				"children": [
																					{
																						"type": "370100",
																						"label": "bus",
																						"typeLabel": "DesignatorField",
																						"pos": "1555",
																						"length": "4",
																						"children": []
																					},
																					{
																						"type": "360100",
																						"typeLabel": "InitExpr",
																						"pos": "1563",
																						"length": "20",
																						"children": [
																							{
																								"type": "241400",
																								"typeLabel": "RecordPtAccess",
																								"pos": "1563",
																								"length": "20",
																								"children": [
																									{
																										"type": "241400",
																										"typeLabel": "RecordPtAccess",
																										"pos": "1563",
																										"length": "12",
																										"children": [
																											{
																												"type": "240100",
																												"typeLabel": "Ident",
																												"pos": "1563",
																												"length": "7",
																												"children": [
																													{
																														"type": "480000",
																														"label": "pci_dev",
																														"typeLabel": "GenericString",
																														"pos": "1563",
																														"length": "7",
																														"children": []
																													}
																												]
																											},
																											{
																												"type": "480000",
																												"label": "bus",
																												"typeLabel": "GenericString",
																												"pos": "1572",
																												"length": "3",
																												"children": []
																											}
																										]
																									},
																									{
																										"type": "480000",
																										"label": "number",
																										"typeLabel": "GenericString",
																										"pos": "1577",
																										"length": "6",
																										"children": []
																									}
																								]
																							}
																						]
																					}
																				]
																			},
																			{
																				"type": "360300",
																				"typeLabel": "InitDesignators",
																				"pos": "1588",
																				"length": "24",
																				"children": [
																					{
																						"type": "370100",
																						"label": "devfn",
																						"typeLabel": "DesignatorField",
																						"pos": "1588",
																						"length": "6",
																						"children": []
																					},
																					{
																						"type": "360100",
																						"typeLabel": "InitExpr",
																						"pos": "1598",
																						"length": "14",
																						"children": [
																							{
																								"type": "241400",
																								"typeLabel": "RecordPtAccess",
																								"pos": "1598",
																								"length": "14",
																								"children": [
																									{
																										"type": "240100",
																										"typeLabel": "Ident",
																										"pos": "1598",
																										"length": "7",
																										"children": [
																											{
																												"type": "480000",
																												"label": "pci_dev",
																												"typeLabel": "GenericString",
																												"pos": "1598",
																												"length": "7",
																												"children": []
																											}
																										]
																									},
																									{
																										"type": "480000",
																										"label": "devfn",
																										"typeLabel": "GenericString",
																										"pos": "1607",
																										"length": "5",
																										"children": []
																									}
																								]
																							}
																						]
																					}
																				]
																			},
																			{
																				"type": "360300",
																				"typeLabel": "InitDesignators",
																				"pos": "1617",
																				"length": "13",
																				"children": [
																					{
																						"type": "370100",
																						"label": "is_extfn",
																						"typeLabel": "DesignatorField",
																						"pos": "1617",
																						"length": "9",
																						"children": []
																					},
																					{
																						"type": "360100",
																						"typeLabel": "InitExpr",
																						"pos": "1629",
																						"length": "1",
																						"children": [
																							{
																								"type": "240200",
																								"label": "1",
																								"typeLabel": "Constant",
																								"pos": "1629",
																								"length": "1",
																								"children": []
																							}
																						]
																					}
																				]
																			}
																		]
																	}
																]
															},
															{
																"type": "260300",
																"typeLabel": "ExprStatement",
																"pos": "1640",
																"length": "76",
																"children": [
																	{
																		"type": "290100",
																		"typeLabel": "Some",
																		"pos": "1640",
																		"length": "76",
																		"children": [
																			{
																				"type": "240700",
																				"typeLabel": "Assignment",
																				"pos": "1640",
																				"length": "75",
																				"children": [
																					{
																						"type": "240100",
																						"typeLabel": "Ident",
																						"pos": "1640",
																						"length": "1",
																						"children": [
																							{
																								"type": "480000",
																								"label": "r",
																								"typeLabel": "GenericString",
																								"pos": "1640",
																								"length": "1",
																								"children": []
																							}
																						]
																					},
																					{
																						"type": "480000",
																						"label": "=",
																						"typeLabel": "GenericString",
																						"pos": "1642",
																						"length": "1",
																						"children": []
																					},
																					{
																						"type": "240400",
																						"typeLabel": "FunCall",
																						"pos": "1644",
																						"length": "71",
																						"children": [
																							{
																								"type": "240100",
																								"typeLabel": "Ident",
																								"pos": "1644",
																								"length": "21",
																								"children": [
																									{
																										"type": "480000",
																										"label": "HYPERVISOR_physdev_op",
																										"typeLabel": "GenericString",
																										"pos": "1644",
																										"length": "21",
																										"children": []
																									}
																								]
																							},
																							{
																								"type": "470000",
																								"typeLabel": "GenericList",
																								"pos": "1665",
																								"length": "50",
																								"children": [
																									{
																										"type": "20100",
																										"typeLabel": "Left",
																										"pos": "1666",
																										"length": "28",
																										"children": [
																											{
																												"type": "240100",
																												"typeLabel": "Ident",
																												"pos": "1666",
																												"length": "28",
																												"children": [
																													{
																														"type": "480000",
																														"label": "PHYSDEVOP_manage_pci_add_ext",
																														"typeLabel": "GenericString",
																														"pos": "1666",
																														"length": "28",
																														"children": []
																													}
																												]
																											}
																										]
																									},
																									{
																										"type": "20100",
																										"typeLabel": "Left",
																										"pos": "1699",
																										"length": "15",
																										"children": [
																											{
																												"type": "241000",
																												"typeLabel": "Unary",
																												"pos": "1699",
																												"length": "15",
																												"children": [
																													{
																														"type": "240100",
																														"typeLabel": "Ident",
																														"pos": "1700",
																														"length": "14",
																														"children": [
																															{
																																"type": "480000",
																																"label": "manage_pci_ext",
																																"typeLabel": "GenericString",
																																"pos": "1700",
																																"length": "14",
																																"children": []
																															}
																														]
																													},
																													{
																														"type": "480000",
																														"label": "&",
																														"typeLabel": "GenericString",
																														"pos": "1699",
																														"length": "1",
																														"children": []
																													}
																												]
																											}
																										]
																									}
																								]
																							}
																						]
																					}
																				]
																			},
																			{
																				"type": "480000",
																				"label": ";",
																				"typeLabel": "GenericString",
																				"pos": "1715",
																				"length": "1",
																				"children": []
																			}
																		]
																	}
																]
															}
														]
													},
													{
														"type": "330000",
														"typeLabel": "Compound",
														"pos": "1725",
														"length": "185",
														"children": [
															{
																"type": "350100",
																"typeLabel": "DeclList",
																"pos": "1729",
																"length": "106",
																"children": [
																	{
																		"type": "480000",
																		"label": "manage_pci",
																		"typeLabel": "GenericString",
																		"pos": "1755",
																		"length": "10",
																		"children": []
																	},
																	{
																		"type": "360200",
																		"typeLabel": "InitList",
																		"pos": "1768",
																		"length": "66",
																		"children": [
																			{
																				"type": "360300",
																				"typeLabel": "InitDesignators",
																				"pos": "1773",
																				"length": "28",
																				"children": [
																					{
																						"type": "370100",
																						"label": "bus",
																						"typeLabel": "DesignatorField",
																						"pos": "1773",
																						"length": "4",
																						"children": []
																					},
																					{
																						"type": "360100",
																						"typeLabel": "InitExpr",
																						"pos": "1781",
																						"length": "20",
																						"children": [
																							{
																								"type": "241400",
																								"typeLabel": "RecordPtAccess",
																								"pos": "1781",
																								"length": "20",
																								"children": [
																									{
																										"type": "241400",
																										"typeLabel": "RecordPtAccess",
																										"pos": "1781",
																										"length": "12",
																										"children": [
																											{
																												"type": "240100",
																												"typeLabel": "Ident",
																												"pos": "1781",
																												"length": "7",
																												"children": [
																													{
																														"type": "480000",
																														"label": "pci_dev",
																														"typeLabel": "GenericString",
																														"pos": "1781",
																														"length": "7",
																														"children": []
																													}
																												]
																											},
																											{
																												"type": "480000",
																												"label": "bus",
																												"typeLabel": "GenericString",
																												"pos": "1790",
																												"length": "3",
																												"children": []
																											}
																										]
																									},
																									{
																										"type": "480000",
																										"label": "number",
																										"typeLabel": "GenericString",
																										"pos": "1795",
																										"length": "6",
																										"children": []
																									}
																								]
																							}
																						]
																					}
																				]
																			},
																			{
																				"type": "360300",
																				"typeLabel": "InitDesignators",
																				"pos": "1806",
																				"length": "23",
																				"children": [
																					{
																						"type": "370100",
																						"label": "devfn",
																						"typeLabel": "DesignatorField",
																						"pos": "1806",
																						"length": "6",
																						"children": []
																					},
																					{
																						"type": "360100",
																						"typeLabel": "InitExpr",
																						"pos": "1815",
																						"length": "14",
																						"children": [
																							{
																								"type": "241400",
																								"typeLabel": "RecordPtAccess",
																								"pos": "1815",
																								"length": "14",
																								"children": [
																									{
																										"type": "240100",
																										"typeLabel": "Ident",
																										"pos": "1815",
																										"length": "7",
																										"children": [
																											{
																												"type": "480000",
																												"label": "pci_dev",
																												"typeLabel": "GenericString",
																												"pos": "1815",
																												"length": "7",
																												"children": []
																											}
																										]
																									},
																									{
																										"type": "480000",
																										"label": "devfn",
																										"typeLabel": "GenericString",
																										"pos": "1824",
																										"length": "5",
																										"children": []
																									}
																								]
																							}
																						]
																					}
																				]
																			}
																		]
																	}
																]
															},
															{
																"type": "260300",
																"typeLabel": "ExprStatement",
																"pos": "1839",
																"length": "68",
																"children": [
																	{
																		"type": "290100",
																		"typeLabel": "Some",
																		"pos": "1839",
																		"length": "68",
																		"children": [
																			{
																				"type": "240700",
																				"typeLabel": "Assignment",
																				"pos": "1839",
																				"length": "67",
																				"children": [
																					{
																						"type": "240100",
																						"typeLabel": "Ident",
																						"pos": "1839",
																						"length": "1",
																						"children": [
																							{
																								"type": "480000",
																								"label": "r",
																								"typeLabel": "GenericString",
																								"pos": "1839",
																								"length": "1",
																								"children": []
																							}
																						]
																					},
																					{
																						"type": "480000",
																						"label": "=",
																						"typeLabel": "GenericString",
																						"pos": "1841",
																						"length": "1",
																						"children": []
																					},
																					{
																						"type": "240400",
																						"typeLabel": "FunCall",
																						"pos": "1843",
																						"length": "63",
																						"children": [
																							{
																								"type": "240100",
																								"typeLabel": "Ident",
																								"pos": "1843",
																								"length": "21",
																								"children": [
																									{
																										"type": "480000",
																										"label": "HYPERVISOR_physdev_op",
																										"typeLabel": "GenericString",
																										"pos": "1843",
																										"length": "21",
																										"children": []
																									}
																								]
																							},
																							{
																								"type": "470000",
																								"typeLabel": "GenericList",
																								"pos": "1864",
																								"length": "42",
																								"children": [
																									{
																										"type": "20100",
																										"typeLabel": "Left",
																										"pos": "1865",
																										"length": "24",
																										"children": [
																											{
																												"type": "240100",
																												"typeLabel": "Ident",
																												"pos": "1865",
																												"length": "24",
																												"children": [
																													{
																														"type": "480000",
																														"label": "PHYSDEVOP_manage_pci_add",
																														"typeLabel": "GenericString",
																														"pos": "1865",
																														"length": "24",
																														"children": []
																													}
																												]
																											}
																										]
																									},
																									{
																										"type": "20100",
																										"typeLabel": "Left",
																										"pos": "1894",
																										"length": "11",
																										"children": [
																											{
																												"type": "241000",
																												"typeLabel": "Unary",
																												"pos": "1894",
																												"length": "11",
																												"children": [
																													{
																														"type": "240100",
																														"typeLabel": "Ident",
																														"pos": "1895",
																														"length": "10",
																														"children": [
																															{
																																"type": "480000",
																																"label": "manage_pci",
																																"typeLabel": "GenericString",
																																"pos": "1895",
																																"length": "10",
																																"children": []
																															}
																														]
																													},
																													{
																														"type": "480000",
																														"label": "&",
																														"typeLabel": "GenericString",
																														"pos": "1894",
																														"length": "1",
																														"children": []
																													}
																												]
																											}
																										]
																									}
																								]
																							}
																						]
																					}
																				]
																			},
																			{
																				"type": "480000",
																				"label": ";",
																				"typeLabel": "GenericString",
																				"pos": "1906",
																				"length": "1",
																				"children": []
																			}
																		]
																	}
																]
															}
														]
													}
												]
											}
										]
									},
									{
										"type": "280200",
										"typeLabel": "ReturnExpr",
										"pos": "1913",
										"length": "9",
										"children": [
											{
												"type": "240100",
												"typeLabel": "Ident",
												"pos": "1920",
												"length": "1",
												"children": [
													{
														"type": "480000",
														"label": "r",
														"typeLabel": "GenericString",
														"pos": "1920",
														"length": "1",
														"children": []
													}
												]
											}
										]
									}
								]
							}
						]
					}
				]
			},
			{
				"type": "450200",
				"typeLabel": "Definition",
				"pos": "1926",
				"length": "305",
				"children": [
					{
						"type": "380000",
						"typeLabel": "Definition",
						"pos": "1926",
						"length": "305",
						"children": [
							{
								"type": "340000",
								"typeLabel": "Storage",
								"pos": "1926",
								"length": "6",
								"children": [
									{
										"type": "480000",
										"label": "static",
										"typeLabel": "GenericString",
										"pos": "1926",
										"length": "6",
										"children": []
									}
								]
							},
							{
								"type": "200000",
								"typeLabel": "ParamList",
								"pos": "1954",
								"length": "20",
								"children": [
									{
										"type": "220100",
										"typeLabel": "ParameterType",
										"pos": "1955",
										"length": "18",
										"children": [
											{
												"type": "480000",
												"label": "dev",
												"typeLabel": "GenericString",
												"pos": "1970",
												"length": "3",
												"children": []
											}
										]
									}
								]
							},
							{
								"type": "480000",
								"label": "xen_remove_device",
								"typeLabel": "GenericString",
								"pos": "1937",
								"length": "17",
								"children": []
							},
							{
								"type": "330000",
								"typeLabel": "Compound",
								"pos": "1975",
								"length": "256",
								"children": [
									{
										"type": "350100",
										"typeLabel": "DeclList",
										"pos": "1978",
										"length": "6",
										"children": [
											{
												"type": "480000",
												"label": "r",
												"typeLabel": "GenericString",
												"pos": "1982",
												"length": "1",
												"children": []
											}
										]
									},
									{
										"type": "350100",
										"typeLabel": "DeclList",
										"pos": "1986",
										"length": "42",
										"children": [
											{
												"type": "480000",
												"label": "pci_dev",
												"typeLabel": "GenericString",
												"pos": "2002",
												"length": "7",
												"children": []
											},
											{
												"type": "360100",
												"typeLabel": "InitExpr",
												"pos": "2012",
												"length": "15",
												"children": [
													{
														"type": "240400",
														"typeLabel": "FunCall",
														"pos": "2012",
														"length": "15",
														"children": [
															{
																"type": "240100",
																"typeLabel": "Ident",
																"pos": "2012",
																"length": "10",
																"children": [
																	{
																		"type": "480000",
																		"label": "to_pci_dev",
																		"typeLabel": "GenericString",
																		"pos": "2012",
																		"length": "10",
																		"children": []
																	}
																]
															},
															{
																"type": "470000",
																"typeLabel": "GenericList",
																"pos": "2022",
																"length": "5",
																"children": [
																	{
																		"type": "20100",
																		"typeLabel": "Left",
																		"pos": "2023",
																		"length": "3",
																		"children": [
																			{
																				"type": "240100",
																				"typeLabel": "Ident",
																				"pos": "2023",
																				"length": "3",
																				"children": [
																					{
																						"type": "480000",
																						"label": "dev",
																						"typeLabel": "GenericString",
																						"pos": "2023",
																						"length": "3",
																						"children": []
																					}
																				]
																			}
																		]
																	}
																]
															}
														]
													}
												]
											}
										]
									},
									{
										"type": "350100",
										"typeLabel": "DeclList",
										"pos": "2030",
										"length": "37",
										"children": [
											{
												"type": "480000",
												"label": "manage_pci",
												"typeLabel": "GenericString",
												"pos": "2056",
												"length": "10",
												"children": []
											}
										]
									},
									{
										"type": "260300",
										"typeLabel": "ExprStatement",
										"pos": "2070",
										"length": "38",
										"children": [
											{
												"type": "290100",
												"typeLabel": "Some",
												"pos": "2070",
												"length": "38",
												"children": [
													{
														"type": "240700",
														"typeLabel": "Assignment",
														"pos": "2070",
														"length": "37",
														"children": [
															{
																"type": "241300",
																"typeLabel": "RecordAccess",
																"pos": "2070",
																"length": "14",
																"children": [
																	{
																		"type": "240100",
																		"typeLabel": "Ident",
																		"pos": "2070",
																		"length": "10",
																		"children": [
																			{
																				"type": "480000",
																				"label": "manage_pci",
																				"typeLabel": "GenericString",
																				"pos": "2070",
																				"length": "10",
																				"children": []
																			}
																		]
																	},
																	{
																		"type": "480000",
																		"label": "bus",
																		"typeLabel": "GenericString",
																		"pos": "2081",
																		"length": "3",
																		"children": []
																	}
																]
															},
															{
																"type": "480000",
																"label": "=",
																"typeLabel": "GenericString",
																"pos": "2085",
																"length": "1",
																"children": []
															},
															{
																"type": "241400",
																"typeLabel": "RecordPtAccess",
																"pos": "2087",
																"length": "20",
																"children": [
																	{
																		"type": "241400",
																		"typeLabel": "RecordPtAccess",
																		"pos": "2087",
																		"length": "12",
																		"children": [
																			{
																				"type": "240100",
																				"typeLabel": "Ident",
																				"pos": "2087",
																				"length": "7",
																				"children": [
																					{
																						"type": "480000",
																						"label": "pci_dev",
																						"typeLabel": "GenericString",
																						"pos": "2087",
																						"length": "7",
																						"children": []
																					}
																				]
																			},
																			{
																				"type": "480000",
																				"label": "bus",
																				"typeLabel": "GenericString",
																				"pos": "2096",
																				"length": "3",
																				"children": []
																			}
																		]
																	},
																	{
																		"type": "480000",
																		"label": "number",
																		"typeLabel": "GenericString",
																		"pos": "2101",
																		"length": "6",
																		"children": []
																	}
																]
															}
														]
													},
													{
														"type": "480000",
														"label": ";",
														"typeLabel": "GenericString",
														"pos": "2107",
														"length": "1",
														"children": []
													}
												]
											}
										]
									},
									{
										"type": "260300",
										"typeLabel": "ExprStatement",
										"pos": "2110",
										"length": "34",
										"children": [
											{
												"type": "290100",
												"typeLabel": "Some",
												"pos": "2110",
												"length": "34",
												"children": [
													{
														"type": "240700",
														"typeLabel": "Assignment",
														"pos": "2110",
														"length": "33",
														"children": [
															{
																"type": "241300",
																"typeLabel": "RecordAccess",
																"pos": "2110",
																"length": "16",
																"children": [
																	{
																		"type": "240100",
																		"typeLabel": "Ident",
																		"pos": "2110",
																		"length": "10",
																		"children": [
																			{
																				"type": "480000",
																				"label": "manage_pci",
																				"typeLabel": "GenericString",
																				"pos": "2110",
																				"length": "10",
																				"children": []
																			}
																		]
																	},
																	{
																		"type": "480000",
																		"label": "devfn",
																		"typeLabel": "GenericString",
																		"pos": "2121",
																		"length": "5",
																		"children": []
																	}
																]
															},
															{
																"type": "480000",
																"label": "=",
																"typeLabel": "GenericString",
																"pos": "2127",
																"length": "1",
																"children": []
															},
															{
																"type": "241400",
																"typeLabel": "RecordPtAccess",
																"pos": "2129",
																"length": "14",
																"children": [
																	{
																		"type": "240100",
																		"typeLabel": "Ident",
																		"pos": "2129",
																		"length": "7",
																		"children": [
																			{
																				"type": "480000",
																				"label": "pci_dev",
																				"typeLabel": "GenericString",
																				"pos": "2129",
																				"length": "7",
																				"children": []
																			}
																		]
																	},
																	{
																		"type": "480000",
																		"label": "devfn",
																		"typeLabel": "GenericString",
																		"pos": "2138",
																		"length": "5",
																		"children": []
																	}
																]
															}
														]
													},
													{
														"type": "480000",
														"label": ";",
														"typeLabel": "GenericString",
														"pos": "2143",
														"length": "1",
														"children": []
													}
												]
											}
										]
									},
									{
										"type": "260300",
										"typeLabel": "ExprStatement",
										"pos": "2147",
										"length": "70",
										"children": [
											{
												"type": "290100",
												"typeLabel": "Some",
												"pos": "2147",
												"length": "70",
												"children": [
													{
														"type": "240700",
														"typeLabel": "Assignment",
														"pos": "2147",
														"length": "69",
														"children": [
															{
																"type": "240100",
																"typeLabel": "Ident",
																"pos": "2147",
																"length": "1",
																"children": [
																	{
																		"type": "480000",
																		"label": "r",
																		"typeLabel": "GenericString",
																		"pos": "2147",
																		"length": "1",
																		"children": []
																	}
																]
															},
															{
																"type": "480000",
																"label": "=",
																"typeLabel": "GenericString",
																"pos": "2149",
																"length": "1",
																"children": []
															},
															{
																"type": "240400",
																"typeLabel": "FunCall",
																"pos": "2151",
																"length": "65",
																"children": [
																	{
																		"type": "240100",
																		"typeLabel": "Ident",
																		"pos": "2151",
																		"length": "21",
																		"children": [
																			{
																				"type": "480000",
																				"label": "HYPERVISOR_physdev_op",
																				"typeLabel": "GenericString",
																				"pos": "2151",
																				"length": "21",
																				"children": []
																			}
																		]
																	},
																	{
																		"type": "470000",
																		"typeLabel": "GenericList",
																		"pos": "2172",
																		"length": "44",
																		"children": [
																			{
																				"type": "20100",
																				"typeLabel": "Left",
																				"pos": "2173",
																				"length": "27",
																				"children": [
																					{
																						"type": "240100",
																						"typeLabel": "Ident",
																						"pos": "2173",
																						"length": "27",
																						"children": [
																							{
																								"type": "480000",
																								"label": "PHYSDEVOP_manage_pci_remove",
																								"typeLabel": "GenericString",
																								"pos": "2173",
																								"length": "27",
																								"children": []
																							}
																						]
																					}
																				]
																			},
																			{
																				"type": "20100",
																				"typeLabel": "Left",
																				"pos": "2204",
																				"length": "11",
																				"children": [
																					{
																						"type": "241000",
																						"typeLabel": "Unary",
																						"pos": "2204",
																						"length": "11",
																						"children": [
																							{
																								"type": "240100",
																								"typeLabel": "Ident",
																								"pos": "2205",
																								"length": "10",
																								"children": [
																									{
																										"type": "480000",
																										"label": "manage_pci",
																										"typeLabel": "GenericString",
																										"pos": "2205",
																										"length": "10",
																										"children": []
																									}
																								]
																							},
																							{
																								"type": "480000",
																								"label": "&",
																								"typeLabel": "GenericString",
																								"pos": "2204",
																								"length": "1",
																								"children": []
																							}
																						]
																					}
																				]
																			}
																		]
																	}
																]
															}
														]
													},
													{
														"type": "480000",
														"label": ";",
														"typeLabel": "GenericString",
														"pos": "2216",
														"length": "1",
														"children": []
													}
												]
											}
										]
									},
									{
										"type": "280200",
										"typeLabel": "ReturnExpr",
										"pos": "2220",
										"length": "9",
										"children": [
											{
												"type": "240100",
												"typeLabel": "Ident",
												"pos": "2227",
												"length": "1",
												"children": [
													{
														"type": "480000",
														"label": "r",
														"typeLabel": "GenericString",
														"pos": "2227",
														"length": "1",
														"children": []
													}
												]
											}
										]
									}
								]
							}
						]
					}
				]
			},
			{
				"type": "450200",
				"typeLabel": "Definition",
				"pos": "2233",
				"length": "326",
				"children": [
					{
						"type": "380000",
						"typeLabel": "Definition",
						"pos": "2233",
						"length": "326",
						"children": [
							{
								"type": "340000",
								"typeLabel": "Storage",
								"pos": "2233",
								"length": "6",
								"children": [
									{
										"type": "480000",
										"label": "static",
										"typeLabel": "GenericString",
										"pos": "2233",
										"length": "6",
										"children": []
									}
								]
							},
							{
								"type": "200000",
								"typeLabel": "ParamList",
								"pos": "2260",
								"length": "68",
								"children": [
									{
										"type": "220100",
										"typeLabel": "ParameterType",
										"pos": "2261",
										"length": "25",
										"children": [
											{
												"type": "480000",
												"label": "nb",
												"typeLabel": "GenericString",
												"pos": "2284",
												"length": "2",
												"children": []
											}
										]
									},
									{
										"type": "220100",
										"typeLabel": "ParameterType",
										"pos": "2295",
										"length": "20",
										"children": [
											{
												"type": "480000",
												"label": "action",
												"typeLabel": "GenericString",
												"pos": "2309",
												"length": "6",
												"children": []
											}
										]
									},
									{
										"type": "220100",
										"typeLabel": "ParameterType",
										"pos": "2317",
										"length": "10",
										"children": [
											{
												"type": "480000",
												"label": "data",
												"typeLabel": "GenericString",
												"pos": "2323",
												"length": "4",
												"children": []
											}
										]
									}
								]
							},
							{
								"type": "480000",
								"label": "xen_pci_notifier",
								"typeLabel": "GenericString",
								"pos": "2244",
								"length": "16",
								"children": []
							},
							{
								"type": "330000",
								"typeLabel": "Compound",
								"pos": "2329",
								"length": "230",
								"children": [
									{
										"type": "350100",
										"typeLabel": "DeclList",
										"pos": "2332",
										"length": "26",
										"children": [
											{
												"type": "480000",
												"label": "dev",
												"typeLabel": "GenericString",
												"pos": "2347",
												"length": "3",
												"children": []
											},
											{
												"type": "360100",
												"typeLabel": "InitExpr",
												"pos": "2353",
												"length": "4",
												"children": [
													{
														"type": "240100",
														"typeLabel": "Ident",
														"pos": "2353",
														"length": "4",
														"children": [
															{
																"type": "480000",
																"label": "data",
																"typeLabel": "GenericString",
																"pos": "2353",
																"length": "4",
																"children": []
															}
														]
													}
												]
											}
										]
									},
									{
										"type": "350100",
										"typeLabel": "DeclList",
										"pos": "2360",
										"length": "10",
										"children": [
											{
												"type": "480000",
												"label": "r",
												"typeLabel": "GenericString",
												"pos": "2364",
												"length": "1",
												"children": []
											},
											{
												"type": "360100",
												"typeLabel": "InitExpr",
												"pos": "2368",
												"length": "1",
												"children": [
													{
														"type": "240200",
														"label": "0",
														"typeLabel": "Constant",
														"pos": "2368",
														"length": "1",
														"children": []
													}
												]
											}
										]
									},
									{
										"type": "300200",
										"typeLabel": "Switch",
										"pos": "2373",
										"length": "172",
										"children": [
											{
												"type": "240100",
												"typeLabel": "Ident",
												"pos": "2381",
												"length": "6",
												"children": [
													{
														"type": "480000",
														"label": "action",
														"typeLabel": "GenericString",
														"pos": "2381",
														"length": "6",
														"children": []
													}
												]
											},
											{
												"type": "330000",
												"typeLabel": "Compound",
												"pos": "2389",
												"length": "156",
												"children": [
													{
														"type": "270200",
														"typeLabel": "Case",
														"pos": "2392",
														"length": "54",
														"children": [
															{
																"type": "240100",
																"typeLabel": "Ident",
																"pos": "2397",
																"length": "21",
																"children": [
																	{
																		"type": "480000",
																		"label": "BUS_NOTIFY_ADD_DEVICE",
																		"typeLabel": "GenericString",
																		"pos": "2397",
																		"length": "21",
																		"children": []
																	}
																]
															},
															{
																"type": "260300",
																"typeLabel": "ExprStatement",
																"pos": "2422",
																"length": "24",
																"children": [
																	{
																		"type": "290100",
																		"typeLabel": "Some",
																		"pos": "2422",
																		"length": "24",
																		"children": [
																			{
																				"type": "240700",
																				"typeLabel": "Assignment",
																				"pos": "2422",
																				"length": "23",
																				"children": [
																					{
																						"type": "240100",
																						"typeLabel": "Ident",
																						"pos": "2422",
																						"length": "1",
																						"children": [
																							{
																								"type": "480000",
																								"label": "r",
																								"typeLabel": "GenericString",
																								"pos": "2422",
																								"length": "1",
																								"children": []
																							}
																						]
																					},
																					{
																						"type": "480000",
																						"label": "=",
																						"typeLabel": "GenericString",
																						"pos": "2424",
																						"length": "1",
																						"children": []
																					},
																					{
																						"type": "240400",
																						"typeLabel": "FunCall",
																						"pos": "2426",
																						"length": "19",
																						"children": [
																							{
																								"type": "240100",
																								"typeLabel": "Ident",
																								"pos": "2426",
																								"length": "14",
																								"children": [
																									{
																										"type": "480000",
																										"label": "xen_add_device",
																										"typeLabel": "GenericString",
																										"pos": "2426",
																										"length": "14",
																										"children": []
																									}
																								]
																							},
																							{
																								"type": "470000",
																								"typeLabel": "GenericList",
																								"pos": "2440",
																								"length": "5",
																								"children": [
																									{
																										"type": "20100",
																										"typeLabel": "Left",
																										"pos": "2441",
																										"length": "3",
																										"children": [
																											{
																												"type": "240100",
																												"typeLabel": "Ident",
																												"pos": "2441",
																												"length": "3",
																												"children": [
																													{
																														"type": "480000",
																														"label": "dev",
																														"typeLabel": "GenericString",
																														"pos": "2441",
																														"length": "3",
																														"children": []
																													}
																												]
																											}
																										]
																									}
																								]
																							}
																						]
																					}
																				]
																			},
																			{
																				"type": "480000",
																				"label": ";",
																				"typeLabel": "GenericString",
																				"pos": "2445",
																				"length": "1",
																				"children": []
																			}
																		]
																	}
																]
															}
														]
													},
													{
														"type": "280002",
														"typeLabel": "Break",
														"pos": "2449",
														"length": "6",
														"children": []
													},
													{
														"type": "270200",
														"typeLabel": "Case",
														"pos": "2457",
														"length": "57",
														"children": [
															{
																"type": "240100",
																"typeLabel": "Ident",
																"pos": "2462",
																"length": "21",
																"children": [
																	{
																		"type": "480000",
																		"label": "BUS_NOTIFY_DEL_DEVICE",
																		"typeLabel": "GenericString",
																		"pos": "2462",
																		"length": "21",
																		"children": []
																	}
																]
															},
															{
																"type": "260300",
																"typeLabel": "ExprStatement",
																"pos": "2487",
																"length": "27",
																"children": [
																	{
																		"type": "290100",
																		"typeLabel": "Some",
																		"pos": "2487",
																		"length": "27",
																		"children": [
																			{
																				"type": "240700",
																				"typeLabel": "Assignment",
																				"pos": "2487",
																				"length": "26",
																				"children": [
																					{
																						"type": "240100",
																						"typeLabel": "Ident",
																						"pos": "2487",
																						"length": "1",
																						"children": [
																							{
																								"type": "480000",
																								"label": "r",
																								"typeLabel": "GenericString",
																								"pos": "2487",
																								"length": "1",
																								"children": []
																							}
																						]
																					},
																					{
																						"type": "480000",
																						"label": "=",
																						"typeLabel": "GenericString",
																						"pos": "2489",
																						"length": "1",
																						"children": []
																					},
																					{
																						"type": "240400",
																						"typeLabel": "FunCall",
																						"pos": "2491",
																						"length": "22",
																						"children": [
																							{
																								"type": "240100",
																								"typeLabel": "Ident",
																								"pos": "2491",
																								"length": "17",
																								"children": [
																									{
																										"type": "480000",
																										"label": "xen_remove_device",
																										"typeLabel": "GenericString",
																										"pos": "2491",
																										"length": "17",
																										"children": []
																									}
																								]
																							},
																							{
																								"type": "470000",
																								"typeLabel": "GenericList",
																								"pos": "2508",
																								"length": "5",
																								"children": [
																									{
																										"type": "20100",
																										"typeLabel": "Left",
																										"pos": "2509",
																										"length": "3",
																										"children": [
																											{
																												"type": "240100",
																												"typeLabel": "Ident",
																												"pos": "2509",
																												"length": "3",
																												"children": [
																													{
																														"type": "480000",
																														"label": "dev",
																														"typeLabel": "GenericString",
																														"pos": "2509",
																														"length": "3",
																														"children": []
																													}
																												]
																											}
																										]
																									}
																								]
																							}
																						]
																					}
																				]
																			},
																			{
																				"type": "480000",
																				"label": ";",
																				"typeLabel": "GenericString",
																				"pos": "2513",
																				"length": "1",
																				"children": []
																			}
																		]
																	}
																]
															}
														]
													},
													{
														"type": "280002",
														"typeLabel": "Break",
														"pos": "2517",
														"length": "6",
														"children": []
													},
													{
														"type": "270400",
														"typeLabel": "Default",
														"pos": "2525",
														"length": "17",
														"children": [
															{
																"type": "280002",
																"typeLabel": "Break",
																"pos": "2536",
																"length": "6",
																"children": []
															}
														]
													}
												]
											}
										]
									},
									{
										"type": "280200",
										"typeLabel": "ReturnExpr",
										"pos": "2548",
										"length": "9",
										"children": [
											{
												"type": "240100",
												"typeLabel": "Ident",
												"pos": "2555",
												"length": "1",
												"children": [
													{
														"type": "480000",
														"label": "r",
														"typeLabel": "GenericString",
														"pos": "2555",
														"length": "1",
														"children": []
													}
												]
											}
										]
									}
								]
							}
						]
					}
				]
			},
			{
				"type": "450100",
				"typeLabel": "Declaration",
				"pos": "2561",
				"length": "74",
				"children": [
					{
						"type": "350100",
						"typeLabel": "DeclList",
						"pos": "2561",
						"length": "74",
						"children": [
							{
								"type": "480000",
								"label": "device_nb",
								"typeLabel": "GenericString",
								"pos": "2583",
								"length": "9",
								"children": []
							},
							{
								"type": "360200",
								"typeLabel": "InitList",
								"pos": "2595",
								"length": "39",
								"children": [
									{
										"type": "360300",
										"typeLabel": "InitDesignators",
										"pos": "2598",
										"length": "33",
										"children": [
											{
												"type": "370100",
												"label": "notifier_call",
												"typeLabel": "DesignatorField",
												"pos": "2598",
												"length": "14",
												"children": []
											},
											{
												"type": "360100",
												"typeLabel": "InitExpr",
												"pos": "2615",
												"length": "16",
												"children": [
													{
														"type": "240100",
														"typeLabel": "Ident",
														"pos": "2615",
														"length": "16",
														"children": [
															{
																"type": "480000",
																"label": "xen_pci_notifier",
																"typeLabel": "GenericString",
																"pos": "2615",
																"length": "16",
																"children": []
															}
														]
													}
												]
											}
										]
									}
								]
							}
						]
					}
				]
			},
			{
				"type": "450200",
				"typeLabel": "Definition",
				"pos": "2637",
				"length": "152",
				"children": [
					{
						"type": "380000",
						"typeLabel": "Definition",
						"pos": "2637",
						"length": "152",
						"children": [
							{
								"type": "340000",
								"typeLabel": "Storage",
								"pos": "2637",
								"length": "6",
								"children": [
									{
										"type": "480000",
										"label": "static",
										"typeLabel": "GenericString",
										"pos": "2637",
										"length": "6",
										"children": []
									}
								]
							},
							{
								"type": "200000",
								"typeLabel": "ParamList",
								"pos": "2680",
								"length": "6",
								"children": [
									{
										"type": "220100",
										"typeLabel": "ParameterType",
										"pos": "2681",
										"length": "4",
										"children": []
									}
								]
							},
							{
								"type": "480000",
								"label": "register_xen_pci_notifier",
								"typeLabel": "GenericString",
								"pos": "2655",
								"length": "25",
								"children": []
							},
							{
								"type": "330000",
								"typeLabel": "Compound",
								"pos": "2687",
								"length": "102",
								"children": [
									{
										"type": "300100",
										"typeLabel": "If",
										"pos": "2690",
										"length": "38",
										"children": [
											{
												"type": "490100",
												"typeLabel": "IfToken",
												"pos": "2690",
												"length": "2",
												"children": []
											},
											{
												"type": "241000",
												"typeLabel": "Unary",
												"pos": "2694",
												"length": "21",
												"children": [
													{
														"type": "240400",
														"typeLabel": "FunCall",
														"pos": "2695",
														"length": "20",
														"children": [
															{
																"type": "240100",
																"typeLabel": "Ident",
																"pos": "2695",
																"length": "18",
																"children": [
																	{
																		"type": "480000",
																		"label": "xen_initial_domain",
																		"typeLabel": "GenericString",
																		"pos": "2695",
																		"length": "18",
																		"children": []
																	}
																]
															},
															{
																"type": "470000",
																"typeLabel": "GenericList",
																"pos": "2713",
																"length": "2",
																"children": []
															}
														]
													},
													{
														"type": "480000",
														"label": "!",
														"typeLabel": "GenericString",
														"pos": "2694",
														"length": "1",
														"children": []
													}
												]
											},
											{
												"type": "280200",
												"typeLabel": "ReturnExpr",
												"pos": "2719",
												"length": "9",
												"children": [
													{
														"type": "240200",
														"label": "0",
														"typeLabel": "Constant",
														"pos": "2726",
														"length": "1",
														"children": []
													}
												]
											}
										]
									},
									{
										"type": "280200",
										"typeLabel": "ReturnExpr",
										"pos": "2731",
										"length": "56",
										"children": [
											{
												"type": "240400",
												"typeLabel": "FunCall",
												"pos": "2738",
												"length": "48",
												"children": [
													{
														"type": "240100",
														"typeLabel": "Ident",
														"pos": "2738",
														"length": "21",
														"children": [
															{
																"type": "480000",
																"label": "bus_register_notifier",
																"typeLabel": "GenericString",
																"pos": "2738",
																"length": "21",
																"children": []
															}
														]
													},
													{
														"type": "470000",
														"typeLabel": "GenericList",
														"pos": "2759",
														"length": "27",
														"children": [
															{
																"type": "20100",
																"typeLabel": "Left",
																"pos": "2760",
																"length": "13",
																"children": [
																	{
																		"type": "241000",
																		"typeLabel": "Unary",
																		"pos": "2760",
																		"length": "13",
																		"children": [
																			{
																				"type": "240100",
																				"typeLabel": "Ident",
																				"pos": "2761",
																				"length": "12",
																				"children": [
																					{
																						"type": "480000",
																						"label": "pci_bus_type",
																						"typeLabel": "GenericString",
																						"pos": "2761",
																						"length": "12",
																						"children": []
																					}
																				]
																			},
																			{
																				"type": "480000",
																				"label": "&",
																				"typeLabel": "GenericString",
																				"pos": "2760",
																				"length": "1",
																				"children": []
																			}
																		]
																	}
																]
															},
															{
																"type": "20100",
																"typeLabel": "Left",
																"pos": "2775",
																"length": "10",
																"children": [
																	{
																		"type": "241000",
																		"typeLabel": "Unary",
																		"pos": "2775",
																		"length": "10",
																		"children": [
																			{
																				"type": "240100",
																				"typeLabel": "Ident",
																				"pos": "2776",
																				"length": "9",
																				"children": [
																					{
																						"type": "480000",
																						"label": "device_nb",
																						"typeLabel": "GenericString",
																						"pos": "2776",
																						"length": "9",
																						"children": []
																					}
																				]
																			},
																			{
																				"type": "480000",
																				"label": "&",
																				"typeLabel": "GenericString",
																				"pos": "2775",
																				"length": "1",
																				"children": []
																			}
																		]
																	}
																]
															}
														]
													}
												]
											}
										]
									}
								]
							}
						]
					}
				]
			},
			{
				"type": "450100",
				"typeLabel": "Declaration",
				"pos": "2791",
				"length": "41",
				"children": [
					{
						"type": "350200",
						"typeLabel": "MacroDecl",
						"pos": "2791",
						"length": "41",
						"children": [
							{
								"type": "480000",
								"label": "arch_initcall",
								"typeLabel": "GenericString",
								"pos": "2791",
								"length": "13",
								"children": []
							},
							{
								"type": "470000",
								"typeLabel": "GenericList",
								"pos": "2804",
								"length": "27",
								"children": [
									{
										"type": "20100",
										"typeLabel": "Left",
										"pos": "2805",
										"length": "25",
										"children": [
											{
												"type": "240100",
												"typeLabel": "Ident",
												"pos": "2805",
												"length": "25",
												"children": [
													{
														"type": "480000",
														"label": "register_xen_pci_notifier",
														"typeLabel": "GenericString",
														"pos": "2805",
														"length": "25",
														"children": []
													}
												]
											}
										]
									}
								]
							}
						]
					}
				]
			},
			{
				"type": "450800",
				"typeLabel": "FinalDef",
				"pos": "2833",
				"length": "0",
				"children": []
			}
		]
	}
}